0:00:                   3	32.62
0:00:                  34	32.61
0:01:                   4	32.61
0:01:                  34	32.60
0:02:                   4	32.59
0:02:                  34	32.59
0:03:                   4	32.59
0:03:                  34	32.58
0:04:                   4	32.57
0:04:                  34	32.59
0:05:                   4	32.60
0:05:                  34	32.63
0:06:                   4	32.64
0:06:                  34	32.65
0:07:                   4	32.66
0:07:                  34	32.66
0:08:                   4	32.66
0:08:                  34	32.66
0:09:                   4	32.66
0:09:                  34	32.64
0:10:                   4	32.64
0:10:                  34	32.63
0:11:                   4	32.62
0:11:                  34	32.61
0:12:                   4	32.62
0:12:                  34	32.61
0:13:                   4	32.60
0:13:                  34	32.59
0:14:                   4	32.59
0:14:                  34	32.57
0:15:                   4	32.58
0:15:                  34	32.57
0:16:                   4	32.60
0:16:                  34	32.62
0:17:                   4	32.61
0:17:                  35	32.62
0:18:                   5	32.61
0:18:                  35	32.62
0:19:                   5	32.62
0:19:                  35	32.64
0:20:                   5	32.61
0:20:                  35	32.59
0:21:                   5	32.59
0:21:                  35	32.59
0:22:                   5	32.60
0:22:                  35	32.58
0:23:                   5	32.58
0:23:                  35	32.57
0:24:                   5	32.57
0:24:                  35	32.57
0:25:                   5	32.57
0:25:                  35	32.57
0:26:                   5	32.59
0:26:                  35	32.60
0:27:                   5	32.61
0:27:                  35	32.60
0:28:                   5	32.60
0:28:                  35	32.61
0:29:                   5	32.61
0:29:                  35	32.61
0:30:                   5	32.60
0:30:                  35	32.59
0:31:                   5	32.58
0:31:                  35	32.58
0:32:                   5	32.58
0:32:                  35	32.58
0:33:                   5	32.57
0:33:                  36	32.56
0:34:                   6	32.56
0:34:                  36	32.55
0:35:                   6	32.56
0:35:                  36	32.54
0:36:                   6	32.55
0:36:                  36	32.57
0:37:                   6	32.58
0:37:                  36	32.58
0:38:                   6	32.57
0:38:                  36	32.59
0:39:                   6	32.58
0:39:                  36	32.58
0:40:                   6	32.58
0:40:                  36	32.57
0:41:                   6	32.56
0:41:                  36	32.57
0:42:                   6	32.57
0:42:                  36	32.56
0:43:                   6	32.56
0:43:                  36	32.56
0:44:                   6	32.55
0:44:                  36	32.55
0:45:                   6	32.54
0:45:                  36	32.54
0:46:                   6	32.52
0:46:                  36	32.56
0:47:                   6	32.58
0:47:                  36	32.58
0:48:                   6	32.59
0:48:                  36	32.59
0:49:                   6	32.59
0:49:                  36	32.59
0:50:                   6	32.58
0:50:                  37	32.57
0:51:                   7	32.58
0:51:                  37	32.57
0:52:                   7	32.57
0:52:                  37	32.56
0:53:                   7	32.56
0:53:                  37	32.55
0:54:                   7	32.55
0:54:                  37	32.54
0:55:                   7	32.54
0:55:                  37	32.54
0:56:                   7	32.53
0:56:                  37	32.53
0:57:                   7	32.56
0:57:                  37	32.56
0:58:                   7	32.56
0:58:                  37	32.56
0:59:                   7	32.57
0:59:                  37	32.57
1:00:                   7	32.56
1:00:                  37	32.55
1:01:                   7	32.55
1:01:                  37	32.55
1:02:                   7	32.54
1:02:                  37	32.53
1:03:                   7	32.54
1:03:                  37	32.54
1:04:                   7	32.52
1:04:                  37	32.52
1:05:                   7	32.51
1:05:                  37	32.52
1:06:                   7	32.50
1:06:                  37	32.50
1:07:                   8	32.52
1:07:                  38	32.55
1:08:                   8	32.56
1:08:                  38	32.56
1:09:                   8	32.56
1:09:                  38	32.55
1:10:                   8	32.55
1:10:                  38	32.56
1:11:                   8	32.55
1:11:                  38	32.54
1:12:                   8	32.55
1:12:                  38	32.54
1:13:                   8	32.54
1:13:                  38	32.52
1:14:                   8	32.53
1:14:                  38	32.51
1:15:                   8	32.50
1:15:                  38	32.51
1:16:                   8	32.52
1:16:                  38	32.50
1:17:                   8	32.52
1:17:                  38	32.52
1:18:                   8	32.53
1:18:                  38	32.55
1:19:                   8	32.54
1:19:                  38	32.54
1:20:                   8	32.53
1:20:                  38	32.53
1:21:                   8	32.53
1:21:                  38	32.54
1:22:                   8	32.52
1:22:                  38	32.53
1:23:                   9	32.52
1:23:                  39	32.51
1:24:                   9	32.50
1:24:                  39	32.50
1:25:                   9	32.50
1:25:                  39	32.50
1:26:                   9	32.49
1:26:                  39	32.48
1:27:                   9	32.48
1:27:                  39	32.48
1:28:                   9	32.53
1:28:                  39	32.53
1:29:                   9	32.55
1:29:                  39	32.55
1:30:                   9	32.53
1:30:                  39	32.53
1:31:                   9	32.53
1:31:                  39	32.53
1:32:                   9	32.54
1:32:                  39	32.52
1:33:                   9	32.52
1:33:                  39	32.52
1:34:                   9	32.51
1:34:                  39	32.49
1:35:                   9	32.49
1:35:                  39	32.50
1:36:                   9	32.48
1:36:                  39	32.48
1:37:                   9	32.47
1:37:                  39	32.47
1:38:                   9	32.50
1:38:                  39	32.51
1:39:                  10	32.51
1:39:                  40	32.51
1:40:                  10	32.51
1:40:                  40	32.52
1:41:                  10	32.52
1:41:                  40	32.52
1:42:                  10	32.50
1:42:                  40	32.49
1:43:                  10	32.49
1:43:                  40	32.49
1:44:                  10	32.49
1:44:                  40	32.49
1:45:                  10	32.48
1:45:                  40	32.47
1:46:                  10	32.47
1:46:                  40	32.47
1:47:                  10	32.47
1:47:                  40	32.46
1:48:                  10	32.45
1:48:                  40	32.48
1:49:                  10	32.50
1:49:                  40	32.50
1:50:                  10	32.51
1:50:                  40	32.50
1:51:                  10	32.49
1:51:                  40	32.50
1:52:                  10	32.50
1:52:                  40	32.48
1:53:                  10	32.47
1:53:                  40	32.47
1:54:                  10	32.47
1:54:                  40	32.46
1:55:                  10	32.45
1:55:                  41	32.42
1:56:                  11	32.44
1:56:                  41	32.43
1:57:                  11	32.42
1:57:                  41	32.41
1:58:                  11	32.41
1:58:                  41	32.43
1:59:                  11	32.48
1:59:                  41	32.48
2:00:                  11	32.47
2:00:                  41	32.48
2:01:                  11	32.48
2:01:                  41	32.47
2:02:                  11	32.46
2:02:                  41	32.46
2:03:                  11	32.46
2:03:                  41	32.45
2:04:                  11	32.45
2:04:                  41	32.43
2:05:                  11	32.42
2:05:                  41	32.42
2:06:                  11	32.40
2:06:                  41	32.41
2:07:                  11	32.40
2:07:                  41	32.38
2:08:                  11	32.38
2:08:                  41	32.40
2:09:                  11	32.41
2:09:                  41	32.44
2:10:                  11	32.45
2:10:                  41	32.46
2:11:                  11	32.45
2:11:                  42	32.46
2:12:                  12	32.46
2:12:                  42	32.44
2:13:                  12	32.43
2:13:                  42	32.44
2:14:                  12	32.42
2:14:                  42	32.42
2:15:                  12	32.42
2:15:                  42	32.42
2:16:                  12	32.41
2:16:                  42	32.40
2:17:                  12	32.40
2:17:                  42	32.39
2:18:                  12	32.39
2:18:                  42	32.38
2:19:                  12	32.40
2:19:                  42	32.41
2:20:                  12	32.41
2:20:                  42	32.42
2:21:                  12	32.41
2:21:                  42	32.42
2:22:                  12	32.41
2:22:                  42	32.42
2:23:                  12	32.41
2:23:                  42	32.41
2:24:                  12	32.39
2:24:                  42	32.40
2:25:                  12	32.40
2:25:                  42	32.39
2:26:                  12	32.38
2:26:                  42	32.38
2:27:                  12	32.37
2:27:                  42	32.37
2:28:                  12	32.37
2:28:                  43	32.36
2:29:                  13	32.36
2:29:                  43	32.38
2:30:                  13	32.40
2:30:                  43	32.42
2:31:                  13	32.41
2:31:                  43	32.41
2:32:                  13	32.41
2:32:                  43	32.42
2:33:                  13	32.42
2:33:                  43	32.40
2:34:                  13	32.41
2:34:                  43	32.41
2:35:                  13	32.41
2:35:                  43	32.41
2:36:                  13	32.39
2:36:                  43	32.39
2:37:                  13	32.39
2:37:                  43	32.38
2:38:                  13	32.38
2:38:                  43	32.36
2:39:                  13	32.37
2:39:                  43	32.38
2:40:                  13	32.40
2:40:                  43	32.41
2:41:                  13	32.42
2:41:                  43	32.41
2:42:                  13	32.40
2:42:                  43	32.43
2:43:                  13	32.42
2:43:                  43	32.42
2:44:                  13	32.40
2:44:                  43	32.41
2:45:                  13	32.42
2:45:                  43	32.40
2:46:                  13	32.40
2:46:                  44	32.40
2:47:                  14	32.38
2:47:                  44	32.38
2:48:                  14	32.39
2:48:                  44	32.39
2:49:                  14	32.38
2:49:                  44	32.37
2:50:                  14	32.38
2:50:                  44	32.41
2:51:                  14	32.42
2:51:                  44	32.45
2:52:                  14	32.45
2:52:                  44	32.44
2:53:                  14	32.43
2:53:                  44	32.42
2:54:                  14	32.42
2:54:                  44	32.42
2:55:                  14	32.42
2:55:                  44	32.41
2:56:                  14	32.41
2:56:                  44	32.41
2:57:                  14	32.38
2:57:                  44	32.38
2:58:                  14	32.36
2:58:                  44	32.37
2:59:                  14	32.36
2:59:                  44	32.35
3:00:                  14	32.36
3:00:                  44	32.37
3:01:                  14	32.39
3:01:                  44	32.39
3:02:                  14	32.41
3:02:                  44	32.40
3:03:                  15	32.38
3:03:                  45	32.41
3:04:                  15	32.40
3:04:                  45	32.40
3:05:                  15	32.39
3:05:                  45	32.38
3:06:                  15	32.39
3:06:                  45	32.37
3:07:                  15	32.36
3:07:                  45	32.36
3:08:                  15	32.37
3:08:                  45	32.36
3:09:                  15	32.35
3:09:                  45	32.36
3:10:                  15	32.35
3:10:                  45	32.35
3:11:                  15	32.37
3:11:                  45	32.38
3:12:                  15	32.39
3:12:                  45	32.39
3:13:                  15	32.40
3:13:                  45	32.38
3:14:                  15	32.37
3:14:                  45	32.37
3:15:                  15	32.37
3:15:                  45	32.37
3:16:                  15	32.35
3:16:                  45	32.36
3:17:                  15	32.36
3:17:                  45	32.35
3:18:                  15	32.34
3:18:                  45	32.34
3:19:                  15	32.33
3:19:                  45	32.33
3:20:                  15	32.33
3:20:                  45	32.32
3:21:                  15	32.33
3:21:                  45	32.37
3:22:                  15	32.36
3:22:                  45	32.36
3:23:                  15	32.36
3:23:                  45	32.36
3:24:                  16	32.36
3:24:                  46	32.36
3:25:                  16	32.35
3:25:                  46	32.34
3:26:                  16	32.35
3:26:                  46	32.34
3:27:                  16	32.34
3:27:                  46	32.33
3:28:                  16	32.32
3:28:                  46	32.33
3:29:                  16	32.31
3:29:                  46	32.31
3:30:                  16	32.31
3:30:                  46	32.31
3:31:                  16	32.31
3:31:                  46	32.32
3:32:                  16	32.34
3:32:                  46	32.34
3:33:                  16	32.33
3:33:                  46	32.36
3:34:                  16	32.34
3:34:                  46	32.33
3:35:                  16	32.33
3:35:                  46	32.31
3:36:                  16	32.32
3:36:                  46	32.31
3:37:                  16	32.31
3:37:                  46	32.31
3:38:                  16	32.30
3:38:                  46	32.30
3:39:                  16	32.30
3:39:                  46	32.29
3:40:                  16	32.28
3:40:                  46	32.27
3:41:                  16	32.27
3:41:                  46	32.28
3:42:                  16	32.30
3:42:                  46	32.31
3:43:                  16	32.32
3:43:                  46	32.31
3:44:                  16	32.31
3:44:                  46	32.31
3:45:                  16	32.31
3:45:                  47	32.31
3:46:                  17	32.30
3:46:                  47	32.29
3:47:                  17	32.29
3:47:                  47	32.30
3:48:                  17	32.29
3:48:                  47	32.27
3:49:                  17	32.26
3:49:                  47	32.26
3:50:                  17	32.26
3:50:                  47	32.26
3:51:                  17	32.24
3:51:                  47	32.25
3:52:                  17	32.27
3:52:                  47	32.30
3:53:                  17	32.31
3:53:                  47	32.32
3:54:                  17	32.30
3:54:                  47	32.30
3:55:                  17	32.29
3:55:                  47	32.30
3:56:                  17	32.28
3:56:                  47	32.28
3:57:                  17	32.28
3:57:                  47	32.28
3:58:                  17	32.26
3:58:                  47	32.26
3:59:                  17	32.27
3:59:                  47	32.25
4:00:                  17	32.24
4:00:                  47	32.24
4:01:                  17	32.26
4:01:                  47	32.25
4:02:                  17	32.27
4:02:                  47	32.29
4:03:                  17	32.30
4:03:                  47	32.29
4:04:                  17	32.29
4:04:                  47	32.30
4:05:                  17	32.28
4:05:                  47	32.29
4:06:                  18	32.29
4:06:                  48	32.28
4:07:                  18	32.30
4:07:                  48	32.28
4:08:                  18	32.28
4:08:                  48	32.27
4:09:                  18	32.26
4:09:                  48	32.26
4:10:                  18	32.27
4:10:                  48	32.26
4:11:                  18	32.24
4:11:                  48	32.24
4:12:                  18	32.25
4:12:                  48	32.26
4:13:                  18	32.27
4:13:                  48	32.28
4:14:                  18	32.30
4:14:                  48	32.29
4:15:                  18	32.28
4:15:                  48	32.26
4:16:                  18	32.26
4:16:                  48	32.27
4:17:                  18	32.27
4:17:                  48	32.25
4:18:                  18	32.25
4:18:                  48	32.23
4:19:                  18	32.22
4:19:                  48	32.24
4:20:                  18	32.24
4:20:                  48	32.22
4:21:                  18	32.22
4:21:                  48	32.21
4:22:                  18	32.22
4:22:                  48	32.23
4:23:                  19	32.24
4:23:                  49	32.25
4:24:                  19	32.25
4:24:                  49	32.27
4:25:                  19	32.26
4:25:                  49	32.25
4:26:                  19	32.25
4:26:                  49	32.25
4:27:                  19	32.25
4:27:                  49	32.24
4:28:                  19	32.24
4:28:                  49	32.24
4:29:                  19	32.23
4:29:                  49	32.24
4:30:                  19	32.23
4:30:                  49	32.20
4:31:                  19	32.21
4:31:                  49	32.20
4:32:                  19	32.21
4:32:                  49	32.19
4:33:                  19	32.20
4:33:                  49	32.23
4:34:                  19	32.23
4:34:                  49	32.24
4:35:                  19	32.24
4:35:                  49	32.26
4:36:                  19	32.23
4:36:                  49	32.23
4:37:                  19	32.24
4:37:                  49	32.23
4:38:                  19	32.20
4:38:                  49	32.22
4:39:                  19	32.21
4:39:                  49	32.20
4:40:                  19	32.20
4:40:                  49	32.20
4:41:                  19	32.19
4:41:                  50	32.18
4:42:                  20	32.18
4:42:                  50	32.18
4:43:                  20	32.16
4:43:                  50	32.19
4:44:                  20	32.20
4:44:                  50	32.21
4:45:                  20	32.21
4:45:                  50	32.21
4:46:                  20	32.22
4:46:                  50	32.21
4:47:                  20	32.19
4:47:                  50	32.20
4:48:                  20	32.19
4:48:                  50	32.19
4:49:                  20	32.19
4:49:                  50	32.18
4:50:                  20	32.17
4:50:                  50	32.17
4:51:                  20	32.16
4:51:                  50	32.16
4:52:                  20	32.16
4:52:                  50	32.16
4:53:                  20	32.16
4:53:                  50	32.16
4:54:                  20	32.17
4:54:                  50	32.22
4:55:                  20	32.21
4:55:                  50	32.21
4:56:                  20	32.20
4:56:                  50	32.21
4:57:                  20	32.21
4:57:                  50	32.20
4:58:                  21	32.20
4:58:                  51	32.18
4:59:                  21	32.18
4:59:                  51	32.17
5:00:                  21	32.17
5:00:                  51	32.16
5:01:                  21	32.16
5:01:                  51	32.16
5:02:                  21	32.17
5:02:                  51	32.14
5:03:                  21	32.15
5:03:                  51	32.12
5:04:                  21	32.16
5:04:                  51	32.17
5:05:                  21	32.18
5:05:                  51	32.17
5:06:                  21	32.17
5:06:                  51	32.17
5:07:                  21	32.17
5:07:                  51	32.18
5:08:                  21	32.15
5:08:                  51	32.14
5:09:                  21	32.17
5:09:                  51	32.17
5:10:                  21	32.15
5:10:                  51	32.15
5:11:                  21	32.15
5:11:                  51	32.15
5:12:                  21	32.14
5:12:                  51	32.12
5:13:                  21	32.13
5:13:                  51	32.11
5:14:                  21	32.12
5:14:                  51	32.13
5:15:                  21	32.15
5:15:                  51	32.18
5:16:                  21	32.18
5:16:                  51	32.16
5:17:                  21	32.17
5:17:                  51	32.17
5:18:                  21	32.16
5:18:                  51	32.17
5:19:                  21	32.14
5:19:                  52	32.14
5:20:                  22	32.14
5:20:                  52	32.14
5:21:                  22	32.14
5:21:                  52	32.14
5:22:                  22	32.10
5:22:                  52	32.11
5:23:                  22	32.10
5:23:                  52	32.09
5:24:                  22	32.11
5:24:                  52	32.14
5:25:                  22	32.15
5:25:                  52	32.14
5:26:                  22	32.14
5:26:                  52	32.17
5:27:                  22	32.15
5:27:                  52	32.16
5:28:                  22	32.16
5:28:                  52	32.16
5:29:                  22	32.16
5:29:                  52	32.14
5:30:                  22	32.12
5:30:                  52	32.14
5:31:                  22	32.12
5:31:                  52	32.10
5:32:                  22	32.11
5:32:                  52	32.11
5:33:                  22	32.09
5:33:                  52	32.07
5:34:                  22	32.08
5:34:                  52	32.08
5:35:                  22	32.10
5:35:                  52	32.12
5:36:                  22	32.12
5:36:                  52	32.14
5:37:                  22	32.11
5:37:                  52	32.13
5:38:                  23	32.10
5:38:                  53	32.14
5:39:                  23	32.14
5:39:                  53	32.11
5:40:                  23	32.14
5:40:                  53	32.11
5:41:                  23	32.11
5:41:                  53	32.09
5:42:                  23	32.09
5:42:                  53	32.08
5:43:                  23	32.07
5:43:                  53	32.07
5:44:                  23	32.07
5:44:                  53	32.06
5:45:                  23	32.08
5:45:                  53	32.11
5:46:                  23	32.12
5:46:                  53	32.15
5:47:                  23	32.12
5:47:                  53	32.12
5:48:                  23	32.12
5:48:                  53	32.12
5:49:                  23	32.11
5:49:                  53	32.11
5:50:                  23	32.10
5:50:                  53	32.09
5:51:                  23	32.09
5:51:                  53	32.11
5:52:                  23	32.09
5:52:                  53	32.11
5:53:                  23	32.11
5:53:                  53	32.11
5:54:                  23	32.08
5:54:                  53	32.09
5:55:                  23	32.07
5:55:                  53	32.09
5:56:                  23	32.10
5:56:                  53	32.10
5:57:                  23	32.11
5:57:                  53	32.12
5:58:                  23	32.12
5:58:                  53	32.14
5:59:                  23	32.10
5:59:                  53	32.09
6:00:                  23	32.08
6:00:                  53	32.12
6:01:                  23	32.08
6:01:                  53	32.09
6:02:                  23	32.05
6:02:                  53	32.04
6:03:                  23	32.04
6:03:                  53	32.03
6:04:                  23	32.05
6:04:                  53	32.04
6:05:                  23	32.03
6:05:                  53	32.05
6:06:                  23	32.10
6:06:                  53	32.10
6:07:                  23	32.10
6:07:                  53	32.10
6:08:                  23	32.10
6:08:                  53	32.11
6:09:                  23	32.11
6:09:                  53	32.10
6:10:                  24	32.11
6:10:                  54	32.11
6:11:                  24	32.10
6:11:                  54	32.11
6:12:                  24	32.11
6:12:                  54	32.10
6:13:                  24	32.11
6:13:                  54	32.12
6:14:                  24	32.10
6:14:                  54	32.11
6:15:                  24	32.12
6:15:                  54	32.12
6:16:                  24	32.14
6:16:                  54	32.16
6:17:                  24	32.17
6:17:                  54	32.20
6:18:                  24	32.20
6:18:                  54	32.21
6:19:                  24	32.20
6:19:                  54	32.20
6:20:                  24	32.20
6:20:                  54	32.21
6:21:                  24	32.22
6:21:                  54	32.22
6:22:                  24	32.21
6:22:                  54	32.20
6:23:                  24	32.18
6:23:                  54	32.21
6:24:                  24	32.19
6:24:                  54	32.18
6:25:                  24	32.20
6:25:                  54	32.17
6:26:                  24	32.16
6:26:                  54	32.18
6:27:                  24	32.22
6:27:                  54	32.19
6:28:                  24	32.20
6:28:                  54	32.21
6:29:                  24	32.20
6:29:                  54	32.18
6:30:                  24	32.21
6:30:                  54	32.18
6:31:                  24	32.17
6:31:                  54	32.16
6:32:                  24	32.17
6:32:                  54	32.15
6:33:                  24	32.12
6:33:                  54	32.15
6:34:                  24	32.12
6:34:                  54	32.12
6:35:                  24	32.10
6:35:                  54	32.09
6:36:                  24	32.08
6:36:                  54	32.09
6:37:                  24	32.10
6:37:                  54	32.12
6:38:                  24	32.12
6:38:                  54	32.11
6:39:                  24	32.10
6:39:                  54	32.12
6:40:                  24	32.11
6:40:                  54	32.10
6:41:                  24	32.08
6:41:                  54	32.10
6:42:                  24	32.09
6:42:                  55	32.10
6:43:                  25	32.08
6:43:                  55	32.06
6:44:                  25	32.07
6:44:                  55	32.07
6:45:                  25	32.07
6:45:                  55	32.07
6:46:                  25	32.07
6:46:                  55	32.08
6:47:                  25	32.08
6:47:                  55	32.10
6:48:                  25	32.11
6:48:                  55	32.15
6:49:                  25	32.15
6:49:                  55	32.15
6:50:                  25	32.13
6:50:                  55	32.10
6:51:                  25	32.09
6:51:                  55	32.09
6:52:                  25	32.10
6:52:                  55	32.08
6:53:                  25	32.08
6:53:                  55	32.06
6:54:                  25	32.07
6:54:                  55	32.07
6:55:                  25	32.07
6:55:                  55	32.05
6:56:                  25	32.04
6:56:                  55	32.04
6:57:                  25	32.02
6:57:                  55	32.06
6:58:                  25	32.06
6:58:                  55	32.07
6:59:                  25	32.06
6:59:                  55	32.07
7:00:                  25	32.07
7:00:                  55	32.05
7:01:                  25	32.05
7:01:                  55	32.05
7:02:                  25	32.01
7:02:                  55	32.01
7:03:                  25	32.03
7:03:                  56	32.01
7:04:                  26	32.00
7:04:                  56	32.00
7:05:                  26	32.02
7:05:                  56	31.99
7:06:                  26	31.97
7:06:                  56	31.96
7:07:                  26	31.95
7:07:                  56	31.96
7:08:                  26	31.98
7:08:                  56	31.99
7:09:                  26	32.00
7:09:                  56	31.99
7:10:                  26	31.99
7:10:                  56	31.99
7:11:                  26	31.99
7:11:                  56	31.98
7:12:                  26	31.98
7:12:                  56	31.96
7:13:                  26	31.95
7:13:                  56	31.94
7:14:                  26	31.94
7:14:                  56	31.94
7:15:                  26	31.93
7:15:                  56	31.93
7:16:                  26	31.92
7:16:                  56	31.91
7:17:                  26	31.91
7:17:                  56	31.91
7:18:                  26	31.91
7:18:                  56	31.94
7:19:                  26	31.94
7:19:                  56	31.94
7:20:                  26	31.94
7:20:                  56	31.95
7:21:                  26	31.96
7:21:                  56	31.97
7:22:                  26	31.97
7:22:                  56	31.94
7:23:                  26	31.93
7:23:                  56	31.92
7:24:                  26	31.93
7:24:                  56	31.91
7:25:                  26	31.89
7:25:                  56	31.89
7:26:                  26	31.88
7:26:                  56	31.89
7:27:                  26	31.88
7:27:                  56	31.88
7:28:                  26	31.87
7:28:                  56	31.90
7:29:                  26	31.93
7:29:                  56	31.93
7:30:                  26	31.91
7:30:                  56	31.92
7:31:                  26	31.92
7:31:                  56	31.91
7:32:                  26	31.91
7:32:                  56	31.89
7:33:                  27	31.90
7:33:                  57	31.90
7:34:                  27	31.89
7:34:                  57	31.87
7:35:                  27	31.87
7:35:                  57	31.86
7:36:                  27	31.84
7:36:                  57	31.87
7:37:                  27	31.85
7:37:                  57	31.85
7:38:                  27	31.84
7:38:                  57	31.86
7:39:                  27	31.87
7:39:                  57	31.89
7:40:                  27	31.90
7:40:                  57	31.93
7:41:                  27	31.91
7:41:                  57	31.91
7:42:                  27	31.90
7:42:                  57	31.90
7:43:                  27	31.90
7:43:                  57	31.90
7:44:                  27	31.88
7:44:                  57	31.88
7:45:                  27	31.86
7:45:                  57	31.88
7:46:                  27	31.86
7:46:                  57	31.84
7:47:                  27	31.84
7:47:                  57	31.83
7:48:                  27	31.83
7:48:                  57	31.82
7:49:                  27	31.86
7:49:                  57	31.87
7:50:                  27	31.91
7:50:                  57	31.90
7:51:                  27	31.88
7:51:                  58	31.89
7:52:                  28	31.88
7:52:                  58	31.88
7:53:                  28	31.88
7:53:                  58	31.86
7:54:                  28	31.86
7:54:                  58	31.86
7:55:                  28	31.86
7:55:                  58	31.86
7:56:                  28	31.83
7:56:                  58	31.83
7:57:                  28	31.84
7:57:                  58	31.83
7:58:                  28	31.82
7:58:                  58	31.81
7:59:                  28	31.79
7:59:                  58	31.82
8:00:                  28	31.84
8:00:                  58	31.86
8:01:                  28	31.87
8:01:                  58	31.87
8:02:                  28	31.88
8:02:                  58	31.87
8:03:                  28	31.86
8:03:                  58	31.86
8:04:                  28	31.85
8:04:                  58	31.85
8:05:                  28	31.84
8:05:                  58	31.83
8:06:                  28	31.83
8:06:                  58	31.82
8:07:                  28	31.83
8:07:                  58	31.82
8:08:                  28	31.81
8:08:                  58	31.80
8:09:                  28	31.79
8:09:                  58	31.83
8:10:                  28	31.83
8:10:                  58	31.83
8:11:                  28	31.86
8:11:                  58	31.87
8:12:                  28	31.86
8:12:                  58	31.87
8:13:                  28	31.85
8:13:                  58	31.87
8:14:                  28	31.85
8:14:                  58	31.83
8:15:                  29	31.83
8:15:                  59	31.83
8:16:                  29	31.82
8:16:                  59	31.83
8:17:                  29	31.82
8:17:                  59	31.82
8:18:                  29	31.82
8:18:                  59	31.78
8:19:                  29	31.79
8:19:                  59	31.81
8:20:                  29	31.83
8:20:                  59	31.85
8:21:                  29	31.84
8:21:                  59	31.85
8:22:                  29	31.88
8:22:                  59	31.85
8:23:                  29	31.87
8:23:                  59	31.85
8:24:                  29	31.85
8:24:                  59	31.86
8:25:                  29	31.84
8:25:                  59	31.83
8:26:                  29	31.83
8:26:                  59	31.84
8:27:                  29	31.85
8:27:                  59	31.83
8:28:                  29	31.82
8:28:                  59	31.84
8:29:                  29	31.82
8:29:                  59	31.81
8:30:                  29	31.81
8:30:                  59	31.83
8:31:                  29	31.86
8:31:                  59	31.88
8:32:                  29	31.86
8:32:                  59	31.86
8:33:                  29	31.87
8:33:                  59	31.85
8:34:                  29	31.86
8:34:                  59	31.86
8:35:                  29	31.85
8:35:                  59	31.86
8:36:                  29	31.87
8:36:                  59	31.85
8:37:                  29	31.84
8:37:                  59	31.86
8:38:                  29	31.85
8:38:                  59	31.85
8:39:                  29	31.87
8:39:                  59	31.86
8:40:                  29	31.87
8:40:                  59	31.87
8:41:                  29	31.90
8:41:                  59	31.92
8:42:                  29	31.91
8:42:                  59	31.91
8:43:                  29	31.93
8:43:                  59	31.95
8:44:                  29	31.92
8:44:                  59	31.92
8:45:                  29	31.93
8:45:                  59	31.94
8:46:                  30	31.95
8:47:                   0	31.92
8:47:                  30	31.93
8:48:                   0	31.91
8:48:                  30	31.92
8:49:                   0	31.92
8:49:                  30	31.93
8:50:                   0	31.93
8:50:                  30	31.95
8:51:                   0	31.97
8:51:                  30	32.00
8:52:                   0	32.02
8:52:                  30	32.06
8:53:                   0	32.05
8:53:                  30	32.05
8:54:                   0	32.06
8:54:                  30	32.06
8:55:                   0	32.08
8:55:                  30	32.11
8:56:                   0	32.11
8:56:                  30	32.10
8:57:                   0	32.11
8:57:                  30	32.09
8:58:                   0	32.10
8:58:                  30	32.10
8:59:                   0	32.12
8:59:                  30	32.10
9:00:                   0	32.11
9:00:                  30	32.14
9:01:                   0	32.15
9:01:                  30	32.16
9:02:                   0	32.20
9:02:                  30	32.21
9:03:                   0	32.25
9:03:                  30	32.26
9:04:                   0	32.26
9:04:                  30	32.27
9:05:                   0	32.30
9:05:                  30	32.31
9:06:                   0	32.30
9:06:                  30	32.31
9:07:                   1	32.33
9:07:                  31	32.34
9:08:                   1	32.35
9:08:                  31	32.36
9:09:                   1	32.36
9:09:                  31	32.39
9:10:                   1	32.40
9:10:                  31	32.44
9:11:                   1	32.46
9:11:                  31	32.49
9:12:                   1	32.54
9:12:                  31	32.56
9:13:                   1	32.58
9:13:                  31	32.64
9:14:                   1	32.65
9:14:                  31	32.69
9:15:                   1	32.70
9:15:                  31	32.72
9:16:                   1	32.76
9:16:                  31	32.78
9:17:                   1	32.83
9:17:                  31	32.85
9:18:                   1	32.86
9:18:                  31	32.89
9:19:                   1	32.93
9:19:                  31	32.97
9:20:                   1	32.97
9:20:                  31	32.99
9:21:                   1	33.04
9:21:                  31	33.07
9:22:                   1	33.09
9:22:                  31	33.15
9:23:                   1	33.19
9:23:                  31	33.23
9:24:                   1	33.29
9:24:                  31	33.33
9:25:                   1	33.34
9:25:                  31	33.35
9:26:                   1	33.37
9:26:                  31	33.41
9:27:                   1	33.44
9:27:                  31	33.48
9:28:                   1	33.50
9:28:                  31	33.52
9:29:                   1	33.54
9:29:                  32	33.58
9:30:                   2	33.57
9:30:                  32	33.62
9:31:                   2	33.67
9:31:                  32	33.70
9:32:                   2	33.72
9:32:                  32	33.80
9:33:                   2	33.83
9:33:                  32	33.90
9:34:                   2	33.93
9:34:                  32	33.98
9:35:                   2	34.04
9:35:                  32	34.11
9:36:                   2	34.11
9:36:                  32	34.16
9:37:                   2	34.19
9:37:                  32	34.19
9:38:                   2	34.26
9:38:                  32	34.29
9:39:                   2	34.31
9:39:                  32	34.36
9:40:                   2	34.35
9:40:                  32	34.40
9:41:                   2	34.44
9:41:                  32	34.47
9:42:                   2	34.49
9:42:                  32	34.50
9:43:                   2	34.56
9:43:                  32	34.62
9:44:                   2	34.64
9:44:                  32	34.71
9:45:                   2	34.71
9:45:                  32	34.75
9:46:                   3	34.79
9:46:                  33	34.82
9:47:                   3	34.79
9:47:                  33	34.81
9:48:                   3	34.83
9:48:                  33	34.86
9:49:                   3	34.93
9:49:                  33	34.99
9:50:                   3	34.96
9:50:                  33	35.00
9:51:                   3	35.00
9:51:                  33	35.00
9:52:                   3	35.04
9:52:                  33	35.00
9:53:                   3	34.92
9:53:                  33	34.85
9:54:                   3	34.86
9:54:                  33	34.84
9:55:                   3	34.75
9:55:                  33	34.80
9:56:                   3	34.84
9:56:                  33	34.84
9:57:                   3	34.86
9:57:                  33	34.85
9:58:                   3	34.83
9:58:                  33	34.85
9:59:                   3	34.81
9:59:                  33	34.84
10:00:                   3	34.85
10:00:                  33	34.77
10:01:                   3	34.80
10:01:                  33	34.80
10:02:                   3	34.79
10:02:                  33	34.85
10:03:                   3	34.87
10:03:                  33	34.90
10:04:                   3	34.89
10:04:                  33	34.96
10:05:                   3	34.97
10:05:                  33	35.01
10:06:                   3	35.02
10:06:                  33	34.94
10:07:                   3	34.99
10:07:                  33	35.00
10:08:                   3	35.00
10:08:                  33	35.00
10:09:                   3	35.04
10:09:                  33	35.06
10:10:                   3	35.06
10:10:                  33	35.10
10:11:                   3	35.08
10:11:                  33	35.03
10:12:                   3	35.01
10:12:                  33	35.03
10:13:                   3	35.08
10:13:                  33	35.07
10:14:                   3	35.13
10:14:                  33	35.18
10:15:                   3	35.20
10:15:                  33	35.25
10:16:                   3	35.26
10:16:                  33	35.21
10:17:                   4	35.26
10:17:                  34	35.23
10:18:                   4	35.25
10:18:                  34	35.24
10:19:                   4	35.28
10:19:                  34	35.30
10:20:                   4	35.36
10:20:                  34	35.34
10:21:                   4	35.36
10:21:                  34	35.34
10:22:                   4	35.37
10:22:                  34	35.35
10:23:                   4	35.36
10:23:                  34	35.37
10:24:                   4	35.41
10:24:                  34	35.42
10:25:                   4	35.45
10:25:                  34	35.46
10:26:                   4	35.46
10:26:                  34	35.51
10:27:                   4	35.51
10:27:                  34	35.50
10:28:                   4	35.57
10:28:                  34	35.52
10:29:                   4	35.49
10:29:                  34	35.58
10:30:                   4	35.61
10:30:                  34	35.58
10:31:                   4	35.56
10:31:                  34	35.51
10:32:                   4	35.60
10:32:                  34	35.59
10:33:                   4	35.59
10:33:                  34	35.56
10:34:                   4	35.55
10:34:                  34	35.63
10:35:                   4	35.71
10:35:                  34	35.75
10:36:                   4	35.78
10:36:                  34	35.79
10:37:                   5	35.76
10:37:                  35	35.83
10:38:                   5	35.86
10:38:                  35	35.92
10:39:                   5	36.01
10:39:                  35	36.01
10:40:                   5	36.08
10:40:                  35	36.14
10:41:                   5	36.16
10:41:                  35	36.17
10:42:                   5	36.19
10:42:                  35	36.25
10:43:                   5	36.28
10:43:                  35	36.37
10:44:                   5	36.44
10:44:                  35	36.47
10:45:                   5	36.54
10:45:                  35	36.58
10:46:                   5	36.66
10:46:                  35	36.66
10:47:                   5	36.70
10:47:                  35	36.74
10:48:                   5	36.76
10:48:                  35	36.80
10:49:                   5	36.79
10:49:                  35	36.80
10:50:                   5	36.86
10:50:                  35	36.89
10:51:                   5	36.92
10:51:                  35	36.94
10:52:                   5	36.98
10:52:                  35	37.00
10:53:                   5	37.04
10:53:                  35	37.05
10:54:                   5	37.03
10:54:                  35	37.03
10:55:                   5	37.09
10:55:                  35	37.15
10:56:                   5	37.17
10:56:                  35	37.25
10:57:                   5	37.25
10:57:                  35	37.29
10:58:                   5	37.30
10:58:                  35	37.34
10:59:                   5	37.33
10:59:                  36	37.36
11:00:                   6	37.37
11:00:                  36	37.39
11:01:                   6	37.39
11:01:                  36	37.41
11:02:                   6	37.44
11:02:                  36	37.45
11:03:                   6	37.45
11:03:                  36	37.49
11:04:                   6	37.49
11:04:                  36	37.51
11:05:                   6	37.55
11:05:                  36	37.57
11:06:                   6	37.61
11:06:                  36	37.63
11:07:                   6	37.65
11:07:                  36	37.69
11:08:                   6	37.69
11:08:                  36	37.73
11:09:                   6	37.74
11:09:                  36	37.75
11:10:                   6	37.76
11:10:                  36	37.80
11:11:                   6	37.82
11:11:                  36	37.79
11:12:                   6	37.83
11:12:                  36	37.85
11:13:                   6	37.86
11:13:                  36	37.90
11:14:                   6	37.88
11:14:                  36	37.92
11:15:                   6	37.90
11:15:                  36	37.95
11:16:                   6	37.98
11:16:                  36	38.02
11:17:                   6	38.06
11:17:                  36	38.06
11:18:                   6	38.11
11:18:                  37	38.12
11:19:                   7	38.13
11:19:                  37	38.14
11:20:                   7	38.16
11:20:                  37	38.18
11:21:                   7	38.20
11:21:                  37	38.19
11:22:                   7	38.22
11:22:                  37	38.24
11:23:                   7	38.26
11:23:                  37	38.26
11:24:                   7	38.28
11:24:                  37	38.29
11:25:                   7	38.32
11:25:                  37	38.36
11:26:                   7	38.39
11:26:                  37	38.44
11:27:                   7	38.46
11:27:                  37	38.45
11:28:                   7	38.46
11:28:                  37	38.49
11:29:                   7	38.51
11:29:                  37	38.54
11:30:                   7	38.54
11:30:                  37	38.56
11:31:                   7	38.60
11:31:                  37	38.62
11:32:                   7	38.61
11:32:                  37	38.64
11:33:                   7	38.65
11:33:                  37	38.66
11:34:                   7	38.68
11:34:                  37	38.70
11:35:                   7	38.72
11:35:                  37	38.75
11:36:                   7	38.74
11:36:                  37	38.79
11:37:                   7	38.82
11:37:                  37	38.88
11:38:                   7	38.88
11:38:                  37	38.90
11:39:                   7	38.94
11:39:                  37	38.94
11:40:                   7	38.97
11:40:                  37	38.99
11:41:                   7	39.03
11:41:                  37	39.03
11:42:                   7	39.04
11:42:                  37	39.04
11:43:                   7	39.06
11:43:                  37	39.06
11:44:                   7	39.07
11:44:                  37	39.09
11:45:                   7	39.09
11:45:                  37	39.09
11:46:                   7	39.14
11:46:                  37	39.15
11:47:                   7	39.17
11:47:                  37	39.18
11:48:                   7	39.22
11:48:                  37	39.24
11:49:                   7	39.27
11:49:                  37	39.28
11:50:                   7	39.30
11:50:                  37	39.31
11:51:                   7	39.31
11:51:                  37	39.32
11:52:                   7	39.35
11:52:                  37	39.35
11:53:                   7	39.36
11:53:                  37	39.33
11:54:                   7	39.35
11:54:                  37	39.37
11:55:                   7	39.38
11:55:                  37	39.38
11:56:                   7	39.38
11:56:                  37	39.39
11:57:                   8	39.40
11:57:                  38	39.44
11:58:                   8	39.46
11:58:                  38	39.47
11:59:                   8	39.47
11:59:                  38	39.50
12:00:                   8	39.50
12:00:                  38	39.50
12:01:                   8	39.50
12:01:                  38	39.52
12:02:                   8	39.52
12:02:                  38	39.51
12:03:                   8	39.50
12:03:                  38	39.49
12:04:                   8	39.52
12:04:                  38	39.52
12:05:                   8	39.55
12:05:                  38	39.52
12:06:                   8	39.53
12:06:                  38	39.54
12:07:                   8	39.57
12:07:                  38	39.59
12:08:                   8	39.62
12:08:                  38	39.63
12:09:                   8	39.62
12:09:                  38	39.64
12:10:                   8	39.65
12:10:                  38	39.65
12:11:                   8	39.65
12:11:                  38	39.64
12:12:                   8	39.64
12:12:                  39	39.63
12:13:                   9	39.65
12:13:                  39	39.67
12:14:                   9	39.65
12:14:                  39	39.66
12:15:                   9	39.65
12:15:                  39	39.64
12:16:                   9	39.66
12:16:                  39	39.68
12:17:                   9	39.64
12:17:                  39	39.69
12:18:                   9	39.73
12:18:                  39	39.74
12:19:                   9	39.75
12:19:                  39	39.75
12:20:                   9	39.76
12:20:                  39	39.75
12:21:                   9	39.76
12:21:                  39	39.74
12:22:                   9	39.76
12:22:                  39	39.76
12:23:                   9	39.77
12:23:                  39	39.77
12:24:                   9	39.76
12:24:                  39	39.75
12:25:                   9	39.76
12:25:                  39	39.75
12:26:                   9	39.75
12:26:                  39	39.74
12:27:                   9	39.74
12:27:                  39	39.74
12:28:                   9	39.79
12:28:                  39	39.79
12:29:                  10	39.78
12:29:                  40	39.80
12:30:                  10	39.82
12:30:                  40	39.83
12:31:                  10	39.82
12:31:                  40	39.82
12:32:                  10	39.83
12:32:                  40	39.82
12:33:                  10	39.82
12:33:                  40	39.81
12:34:                  10	39.79
12:34:                  40	39.81
12:35:                  10	39.82
12:35:                  40	39.80
12:36:                  10	39.80
12:36:                  40	39.79
12:37:                  10	39.76
12:37:                  40	39.79
12:38:                  10	39.82
12:38:                  40	39.82
12:39:                  10	39.81
12:39:                  40	39.84
12:40:                  10	39.84
12:40:                  40	39.81
12:41:                  10	39.81
12:41:                  40	39.78
12:42:                  10	39.79
12:42:                  40	39.77
12:43:                  10	39.78
12:43:                  40	39.80
12:44:                  10	39.82
12:44:                  41	39.79
12:45:                  11	39.80
12:45:                  41	39.82
12:46:                  11	39.77
12:46:                  41	39.79
12:47:                  11	39.78
12:47:                  41	39.77
12:48:                  11	39.79
12:48:                  41	39.80
12:49:                  11	39.81
12:49:                  41	39.84
12:50:                  11	39.83
12:50:                  41	39.84
12:51:                  11	39.84
12:51:                  41	39.86
12:52:                  11	39.86
12:52:                  41	39.85
12:53:                  11	39.84
12:53:                  41	39.86
12:54:                  11	39.85
12:54:                  41	39.83
12:55:                  11	39.84
12:55:                  41	39.82
12:56:                  11	39.84
12:56:                  41	39.84
12:57:                  11	39.81
12:57:                  41	39.79
12:58:                  11	39.78
12:58:                  41	39.82
12:59:                  11	39.82
12:59:                  41	39.84
13:00:                  12	39.82
13:00:                  42	39.81
13:01:                  12	39.82
13:01:                  42	39.82
13:02:                  12	39.81
13:02:                  42	39.79
13:03:                  12	39.78
13:03:                  42	39.80
13:04:                  12	39.78
13:04:                  42	39.80
13:05:                  12	39.81
13:05:                  42	39.77
13:06:                  12	39.78
13:06:                  42	39.82
13:07:                  12	39.81
13:07:                  42	39.79
13:08:                  12	39.76
13:08:                  42	39.76
13:09:                  12	39.78
13:09:                  42	39.83
13:10:                  12	39.83
13:10:                  42	39.84
13:11:                  12	39.84
13:11:                  42	39.85
13:12:                  12	39.86
13:12:                  42	39.85
13:13:                  12	39.85
13:13:                  42	39.87
13:14:                  12	39.87
13:14:                  42	39.87
13:15:                  12	39.85
13:15:                  42	39.88
13:16:                  13	39.84
13:16:                  43	39.84
13:17:                  13	39.84
13:17:                  43	39.85
13:18:                  13	39.84
13:18:                  43	39.83
13:19:                  13	39.87
13:19:                  43	39.85
13:20:                  13	39.86
13:20:                  43	39.90
13:21:                  13	39.91
13:21:                  43	39.94
13:22:                  13	39.92
13:22:                  43	39.89
13:23:                  13	39.91
13:23:                  43	39.90
13:24:                  13	39.89
13:24:                  43	39.88
13:25:                  13	39.90
13:25:                  43	39.89
13:26:                  13	39.90
13:26:                  43	39.89
13:27:                  13	39.89
13:27:                  43	39.86
13:28:                  13	39.84
13:28:                  43	39.82
13:29:                  13	39.83
13:29:                  43	39.85
13:30:                  13	39.85
13:30:                  43	39.88
13:31:                  13	39.84
13:31:                  44	39.87
13:32:                  14	39.86
13:32:                  44	39.85
13:33:                  14	39.81
13:33:                  44	39.83
13:34:                  14	39.81
13:34:                  44	39.81
13:35:                  14	39.80
13:35:                  44	39.80
13:36:                  14	39.80
13:36:                  44	39.78
13:37:                  14	39.75
13:37:                  44	39.75
13:38:                  14	39.75
13:38:                  44	39.74
13:39:                  14	39.74
13:39:                  44	39.75
13:40:                  14	39.74
13:40:                  44	39.77
13:41:                  14	39.76
13:41:                  44	39.77
13:42:                  14	39.76
13:42:                  44	39.76
13:43:                  14	39.73
13:43:                  44	39.69
13:44:                  14	39.65
13:44:                  44	39.64
13:45:                  14	39.62
13:45:                  44	39.60
13:46:                  14	39.61
13:46:                  44	39.57
13:47:                  14	39.52
13:47:                  44	39.52
13:48:                  14	39.53
13:48:                  44	39.51
13:49:                  14	39.48
13:49:                  44	39.48
13:50:                  14	39.47
13:50:                  44	39.45
13:51:                  14	39.47
13:51:                  44	39.48
13:52:                  14	39.46
13:52:                  45	39.43
13:53:                  15	39.39
13:53:                  45	39.37
13:54:                  15	39.39
13:54:                  45	39.32
13:55:                  15	39.30
13:55:                  45	39.32
13:56:                  15	39.32
13:56:                  45	39.27
13:57:                  15	39.26
13:57:                  45	39.24
13:58:                  15	39.20
13:58:                  45	39.18
13:59:                  15	39.15
13:59:                  45	39.13
14:00:                  15	39.12
14:00:                  45	39.14
14:01:                  15	39.14
14:01:                  45	39.13
14:02:                  15	39.12
14:02:                  45	39.09
14:03:                  15	39.10
14:03:                  45	39.06
14:04:                  15	39.03
14:04:                  45	38.98
14:05:                  15	38.99
14:05:                  45	38.95
14:06:                  15	38.93
14:06:                  45	38.88
14:07:                  15	38.85
14:07:                  45	38.84
14:08:                  15	38.81
14:08:                  45	38.77
14:09:                  15	38.77
14:09:                  45	38.75
14:10:                  15	38.73
14:10:                  45	38.72
14:11:                  15	38.73
14:11:                  45	38.70
14:12:                  15	38.66
14:12:                  45	38.64
14:13:                  15	38.61
14:13:                  45	38.58
14:14:                  15	38.58
14:14:                  45	38.54
14:15:                  15	38.52
14:15:                  45	38.50
14:16:                  15	38.43
14:16:                  45	38.38
14:17:                  15	38.32
14:17:                  46	38.30
14:18:                  16	38.27
14:18:                  46	38.24
14:19:                  16	38.21
14:19:                  46	38.17
14:20:                  16	38.14
14:20:                  46	38.09
14:21:                  16	38.10
14:21:                  46	38.07
14:22:                  16	38.06
14:22:                  46	38.04
14:23:                  16	38.04
14:23:                  46	38.02
14:24:                  16	37.98
14:24:                  46	37.97
14:25:                  16	37.95
14:25:                  46	37.91
14:26:                  16	37.87
14:26:                  46	37.83
14:27:                  16	37.78
14:27:                  46	37.76
14:28:                  16	37.71
14:28:                  46	37.67
14:29:                  16	37.63
14:29:                  46	37.62
14:30:                  16	37.57
14:30:                  46	37.56
14:31:                  16	37.52
14:31:                  46	37.52
14:32:                  16	37.52
14:32:                  46	37.50
14:33:                  16	37.47
14:33:                  46	37.42
14:34:                  16	37.41
14:34:                  46	37.39
14:35:                  16	37.36
14:35:                  46	37.33
14:36:                  16	37.30
14:36:                  46	37.25
14:37:                  17	37.20
14:37:                  47	37.16
14:38:                  17	37.15
14:38:                  47	37.11
14:39:                  17	37.09
14:39:                  47	37.05
14:40:                  17	37.02
14:40:                  47	37.01
14:41:                  17	36.99
14:41:                  47	36.99
14:42:                  17	36.98
14:42:                  47	36.98
14:43:                  17	36.98
14:43:                  47	36.95
14:44:                  17	36.92
14:44:                  47	36.89
14:45:                  17	36.89
14:45:                  47	36.84
14:46:                  17	36.82
14:46:                  47	36.79
14:47:                  17	36.77
14:47:                  47	36.78
14:48:                  17	36.76
14:48:                  47	36.72
14:49:                  17	36.70
14:49:                  47	36.68
14:50:                  17	36.65
14:50:                  47	36.62
14:51:                  17	36.61
14:51:                  47	36.57
14:52:                  17	36.59
14:52:                  47	36.60
14:53:                  17	36.58
14:53:                  47	36.55
14:54:                  17	36.54
14:54:                  47	36.53
14:55:                  17	36.51
14:55:                  47	36.52
14:56:                  17	36.52
14:56:                  47	36.51
14:57:                  17	36.50
14:57:                  47	36.49
14:58:                  17	36.45
14:58:                  47	36.42
14:59:                  17	36.39
14:59:                  47	36.36
15:00:                  17	36.36
15:00:                  47	36.33
15:01:                  17	36.30
15:01:                  47	36.29
15:02:                  17	36.31
15:02:                  48	36.31
15:03:                  18	36.33
15:03:                  48	36.32
15:04:                  18	36.30
15:04:                  48	36.28
15:05:                  18	36.28
15:05:                  48	36.24
15:06:                  18	36.24
15:06:                  48	36.24
15:07:                  18	36.21
15:07:                  48	36.19
15:08:                  18	36.22
15:08:                  48	36.17
15:09:                  18	36.16
15:09:                  48	36.13
15:10:                  18	36.13
15:10:                  48	36.10
15:11:                  18	36.08
15:11:                  48	36.07
15:12:                  18	36.02
15:12:                  48	36.03
15:13:                  18	36.06
15:13:                  48	36.07
15:14:                  18	36.05
15:14:                  48	36.06
15:15:                  18	36.04
15:15:                  48	36.02
15:16:                  18	36.02
15:16:                  48	36.00
15:17:                  18	35.99
15:17:                  48	35.99
15:18:                  18	35.96
15:18:                  48	35.96
15:19:                  18	35.94
15:19:                  48	35.90
15:20:                  18	35.90
15:20:                  48	35.92
15:21:                  18	35.88
15:21:                  48	35.87
15:22:                  18	35.85
15:22:                  48	35.84
15:23:                  18	35.85
15:23:                  48	35.87
15:24:                  18	35.86
15:24:                  48	35.88
15:25:                  18	35.87
15:25:                  48	35.86
15:26:                  18	35.83
15:26:                  48	35.80
15:27:                  19	35.80
15:27:                  49	35.78
15:28:                  19	35.80
15:28:                  49	35.80
15:29:                  19	35.78
15:29:                  49	35.77
15:30:                  19	35.74
15:30:                  49	35.76
15:31:                  19	35.74
15:31:                  49	35.73
15:32:                  19	35.72
15:32:                  49	35.70
15:33:                  19	35.67
15:33:                  49	35.71
15:34:                  19	35.73
15:34:                  49	35.72
15:35:                  19	35.71
15:35:                  49	35.69
15:36:                  19	35.68
15:36:                  49	35.68
15:37:                  19	35.66
15:37:                  49	35.64
15:38:                  19	35.64
15:38:                  49	35.63
15:39:                  19	35.61
15:39:                  49	35.62
15:40:                  19	35.60
15:40:                  49	35.61
15:41:                  19	35.58
15:41:                  49	35.57
15:42:                  19	35.56
15:42:                  49	35.54
15:43:                  19	35.51
15:43:                  49	35.55
15:44:                  19	35.55
15:44:                  49	35.55
15:45:                  19	35.55
15:45:                  49	35.52
15:46:                  19	35.51
15:46:                  49	35.49
15:47:                  19	35.52
15:47:                  49	35.51
15:48:                  19	35.49
15:48:                  49	35.47
15:49:                  19	35.47
15:49:                  49	35.48
15:50:                  19	35.43
15:50:                  49	35.43
15:51:                  19	35.42
15:51:                  49	35.41
15:52:                  19	35.42
15:52:                  49	35.41
15:53:                  19	35.38
15:53:                  49	35.38
15:54:                  19	35.41
15:54:                  49	35.41
15:55:                  19	35.41
15:55:                  49	35.41
15:56:                  19	35.39
15:56:                  49	35.35
15:57:                  19	35.34
15:57:                  49	35.34
15:58:                  19	35.33
15:58:                  49	35.31
15:59:                  19	35.30
15:59:                  49	35.29
16:00:                  19	35.29
16:00:                  50	35.26
16:01:                  20	35.25
16:01:                  50	35.25
16:02:                  20	35.24
16:02:                  50	35.22
16:03:                  20	35.19
16:03:                  50	35.19
16:04:                  20	35.19
16:04:                  50	35.20
16:05:                  20	35.21
16:05:                  50	35.19
16:06:                  20	35.19
16:06:                  50	35.19
16:07:                  20	35.17
16:07:                  50	35.16
16:08:                  20	35.13
16:08:                  50	35.11
16:09:                  20	35.10
16:09:                  50	35.09
16:10:                  20	35.09
16:10:                  50	35.07
16:11:                  20	35.07
16:11:                  50	35.05
16:12:                  20	35.05
16:12:                  50	35.05
16:13:                  20	35.05
16:13:                  50	35.05
16:14:                  20	35.04
16:14:                  50	35.06
16:15:                  20	35.05
16:15:                  50	35.05
16:16:                  20	35.04
16:16:                  50	35.04
16:17:                  20	35.05
16:17:                  50	35.03
16:18:                  20	35.01
16:18:                  50	35.00
16:19:                  20	34.99
16:19:                  50	34.99
16:20:                  20	34.95
16:20:                  50	34.97
16:21:                  20	34.97
16:21:                  50	34.94
16:22:                  20	34.91
16:22:                  50	34.90
16:23:                  20	34.89
16:23:                  50	34.88
16:24:                  20	34.86
16:24:                  50	34.87
16:25:                  20	34.89
16:25:                  50	34.90
16:26:                  20	34.90
16:26:                  50	34.90
16:27:                  20	34.90
16:27:                  50	34.88
16:28:                  20	34.86
16:28:                  50	34.85
16:29:                  20	34.84
16:29:                  50	34.84
16:30:                  20	34.83
16:30:                  50	34.81
16:31:                  20	34.80
16:31:                  50	34.80
16:32:                  20	34.79
16:32:                  50	34.79
16:33:                  20	34.78
16:33:                  51	34.76
16:34:                  21	34.74
16:34:                  51	34.73
16:35:                  21	34.74
16:35:                  51	34.76
16:36:                  21	34.75
16:36:                  51	34.75
16:37:                  21	34.74
16:37:                  51	34.74
16:38:                  21	34.75
16:38:                  51	34.74
16:39:                  21	34.72
16:39:                  51	34.71
16:40:                  21	34.69
16:40:                  51	34.70
16:41:                  21	34.68
16:41:                  51	34.67
16:42:                  21	34.65
16:42:                  51	34.64
16:43:                  21	34.62
16:43:                  51	34.61
16:44:                  21	34.60
16:44:                  51	34.57
16:45:                  21	34.59
16:45:                  51	34.60
16:46:                  21	34.62
16:46:                  51	34.62
16:47:                  21	34.63
16:47:                  51	34.60
16:48:                  21	34.59
16:48:                  51	34.59
16:49:                  21	34.59
16:49:                  51	34.59
16:50:                  21	34.59
16:50:                  51	34.60
16:51:                  21	34.57
16:51:                  51	34.57
16:52:                  21	34.56
16:52:                  51	34.52
16:53:                  21	34.51
16:53:                  51	34.49
16:54:                  21	34.47
16:54:                  51	34.47
16:55:                  21	34.45
16:55:                  51	34.47
16:56:                  21	34.49
16:56:                  51	34.48
16:57:                  21	34.49
16:57:                  51	34.50
16:58:                  21	34.48
16:58:                  51	34.48
16:59:                  21	34.48
16:59:                  51	34.48
17:00:                  21	34.47
17:00:                  51	34.45
17:01:                  21	34.45
17:01:                  51	34.45
17:02:                  21	34.44
17:02:                  51	34.43
17:03:                  21	34.42
17:03:                  51	34.39
17:04:                  21	34.38
17:04:                  51	34.38
17:05:                  21	34.36
17:05:                  51	34.34
17:06:                  21	34.37
17:06:                  51	34.38
17:07:                  21	34.40
17:07:                  52	34.41
17:08:                  22	34.40
17:08:                  52	34.38
17:09:                  22	34.38
17:09:                  52	34.38
17:10:                  22	34.38
17:10:                  52	34.38
17:11:                  22	34.32
17:11:                  52	34.33
17:12:                  22	34.33
17:12:                  52	34.29
17:13:                  22	34.27
17:13:                  52	34.24
17:14:                  22	34.23
17:14:                  52	34.23
17:15:                  22	34.23
17:15:                  52	34.21
17:16:                  22	34.21
17:16:                  52	34.24
17:17:                  22	34.25
17:17:                  52	34.25
17:18:                  22	34.26
17:18:                  52	34.27
17:19:                  22	34.26
17:19:                  52	34.24
17:20:                  22	34.23
17:20:                  52	34.21
17:21:                  22	34.22
17:21:                  52	34.21
17:22:                  22	34.20
17:22:                  52	34.19
17:23:                  22	34.19
17:23:                  52	34.18
17:24:                  22	34.16
17:24:                  52	34.16
17:25:                  22	34.14
17:25:                  52	34.12
17:26:                  22	34.12
17:26:                  52	34.13
17:27:                  22	34.14
17:27:                  52	34.16
17:28:                  22	34.14
17:28:                  52	34.16
17:29:                  22	34.15
17:29:                  52	34.13
17:30:                  22	34.14
17:30:                  52	34.12
17:31:                  22	34.13
17:31:                  52	34.10
17:32:                  22	34.08
17:32:                  52	34.08
17:33:                  22	34.07
17:33:                  52	34.05
17:34:                  22	34.03
17:34:                  52	34.03
17:35:                  22	33.99
17:35:                  52	33.97
17:36:                  22	33.95
17:36:                  52	33.95
17:37:                  22	33.97
17:37:                  52	33.99
17:38:                  22	33.99
17:38:                  52	33.98
17:39:                  22	33.97
17:39:                  52	33.96
17:40:                  22	33.96
17:40:                  52	33.96
17:41:                  22	33.96
17:41:                  52	33.94
17:42:                  22	33.91
17:42:                  52	33.90
17:43:                  22	33.89
17:43:                  52	33.88
17:44:                  22	33.85
17:44:                  52	33.85
17:45:                  22	33.84
17:45:                  52	33.81
17:46:                  22	33.82
17:46:                  52	33.81
17:47:                  22	33.80
17:47:                  52	33.82
17:48:                  22	33.85
17:48:                  52	33.85
17:49:                  22	33.85
17:49:                  52	33.84
17:50:                  23	33.84
17:50:                  53	33.82
17:51:                  23	33.81
17:51:                  53	33.78
17:52:                  23	33.79
17:52:                  53	33.77
17:53:                  23	33.76
17:53:                  53	33.75
17:54:                  23	33.75
17:54:                  53	33.74
17:55:                  23	33.73
17:55:                  53	33.72
17:56:                  23	33.72
17:56:                  53	33.73
17:57:                  23	33.73
17:57:                  53	33.75
17:58:                  23	33.77
17:58:                  53	33.79
17:59:                  23	33.80
17:59:                  53	33.80
18:00:                  23	33.79
18:00:                  53	33.80
18:01:                  23	33.78
18:01:                  53	33.78
18:02:                  23	33.79
18:02:                  53	33.79
18:03:                  23	33.79
18:03:                  53	33.79
18:04:                  23	33.79
18:04:                  53	33.78
18:05:                  23	33.76
18:05:                  53	33.76
18:06:                  23	33.76
18:06:                  53	33.76
18:07:                  23	33.75
18:07:                  53	33.73
18:08:                  23	33.75
18:08:                  53	33.76
18:09:                  23	33.76
18:09:                  53	33.77
18:10:                  23	33.76
18:10:                  53	33.76
18:11:                  23	33.75
18:11:                  53	33.75
18:12:                  23	33.74
18:12:                  53	33.72
18:13:                  23	33.71
18:13:                  53	33.70
18:14:                  23	33.67
18:14:                  53	33.65
18:15:                  23	33.64
18:15:                  53	33.64
18:16:                  23	33.64
18:16:                  53	33.62
18:17:                  23	33.62
18:17:                  53	33.60
18:18:                  23	33.61
18:18:                  53	33.63
18:19:                  23	33.64
18:19:                  53	33.64
18:20:                  23	33.64
18:20:                  53	33.63
18:21:                  23	33.63
18:21:                  54	33.62
18:22:                  24	33.59
18:22:                  54	33.61
18:23:                  24	33.61
18:23:                  54	33.60
18:24:                  24	33.55
18:24:                  54	33.56
18:25:                  24	33.54
18:25:                  54	33.53
18:26:                  24	33.54
18:26:                  54	33.52
18:27:                  24	33.51
18:27:                  54	33.47
18:28:                  24	33.46
18:28:                  54	33.48
18:29:                  24	33.48
18:29:                  54	33.50
18:30:                  24	33.50
18:30:                  54	33.48
18:31:                  24	33.49
18:31:                  54	33.46
18:32:                  24	33.45
18:32:                  54	33.45
18:33:                  24	33.42
18:33:                  54	33.44
18:34:                  24	33.42
18:34:                  54	33.40
18:35:                  24	33.41
18:35:                  54	33.40
18:36:                  24	33.36
18:36:                  54	33.35
18:37:                  24	33.34
18:37:                  54	33.36
18:38:                  24	33.34
18:38:                  54	33.30
18:39:                  24	33.33
18:39:                  54	33.34
18:40:                  24	33.36
18:40:                  54	33.34
18:41:                  24	33.35
18:41:                  54	33.34
18:42:                  24	33.32
18:42:                  54	33.34
18:43:                  24	33.29
18:43:                  54	33.30
18:44:                  24	33.26
18:44:                  54	33.25
18:45:                  24	33.24
18:45:                  54	33.24
18:46:                  24	33.21
18:46:                  54	33.19
18:47:                  25	33.17
18:47:                  55	33.17
18:48:                  25	33.17
18:48:                  55	33.20
18:49:                  25	33.20
18:49:                  55	33.22
18:50:                  25	33.21
18:50:                  55	33.20
18:51:                  25	33.22
18:51:                  55	33.21
18:52:                  25	33.21
18:52:                  55	33.20
18:53:                  25	33.19
18:53:                  55	33.19
18:54:                  25	33.19
18:54:                  55	33.17
18:55:                  25	33.16
18:55:                  55	33.17
18:56:                  25	33.17
18:56:                  55	33.16
18:57:                  25	33.15
18:57:                  55	33.13
18:58:                  25	33.14
18:58:                  55	33.14
18:59:                  25	33.11
18:59:                  55	33.16
19:00:                  25	33.18
19:00:                  55	33.15
19:01:                  25	33.16
19:01:                  55	33.15
19:02:                  25	33.14
19:02:                  55	33.14
19:03:                  25	33.14
19:03:                  55	33.11
19:04:                  25	33.12
19:04:                  55	33.12
19:05:                  25	33.10
19:05:                  56	33.09
19:06:                  26	33.07
19:06:                  56	33.05
19:07:                  26	33.06
19:07:                  56	33.05
19:08:                  26	33.05
19:08:                  56	33.04
19:09:                  26	33.03
19:09:                  56	33.02
19:10:                  26	33.04
19:10:                  56	33.08
19:11:                  26	33.08
19:11:                  56	33.08
19:12:                  26	33.06
19:12:                  56	33.05
19:13:                  26	33.04
19:13:                  56	33.04
19:14:                  26	33.03
19:14:                  56	33.03
19:15:                  26	33.02
19:15:                  56	33.01
19:16:                  26	32.99
19:16:                  56	33.00
19:17:                  26	32.97
19:17:                  56	32.96
19:18:                  26	32.96
19:18:                  56	32.93
19:19:                  26	32.94
19:19:                  56	32.94
19:20:                  26	32.95
19:20:                  56	32.97
19:21:                  26	32.98
19:21:                  56	32.98
19:22:                  26	32.98
19:22:                  56	32.98
19:23:                  26	32.99
19:23:                  57	32.96
19:24:                  27	32.95
19:24:                  57	32.95
19:25:                  27	32.95
19:25:                  57	32.95
19:26:                  27	32.95
19:26:                  57	32.93
19:27:                  27	32.92
19:27:                  57	32.93
19:28:                  27	32.89
19:28:                  57	32.91
19:29:                  27	32.89
19:29:                  57	32.88
19:30:                  27	32.90
19:30:                  57	32.93
19:31:                  27	32.94
19:31:                  57	32.93
19:32:                  27	32.95
19:32:                  57	32.93
19:33:                  27	32.93
19:33:                  57	32.93
19:34:                  27	32.92
19:34:                  57	32.93
19:35:                  27	32.93
19:35:                  57	32.92
19:36:                  27	32.90
19:36:                  57	32.90
19:37:                  27	32.88
19:37:                  57	32.87
19:38:                  27	32.87
19:38:                  57	32.86
19:39:                  27	32.86
19:39:                  57	32.86
19:40:                  27	32.84
19:40:                  57	32.87
19:41:                  27	32.88
19:41:                  57	32.89
19:42:                  27	32.90
19:42:                  57	32.90
19:43:                  27	32.89
19:43:                  58	32.87
19:44:                  28	32.88
19:44:                  58	32.85
19:45:                  28	32.86
19:45:                  58	32.86
19:46:                  28	32.85
19:46:                  58	32.83
19:47:                  28	32.82
19:47:                  58	32.83
19:48:                  28	32.83
19:48:                  58	32.81
19:49:                  28	32.80
19:49:                  58	32.79
19:50:                  28	32.81
19:50:                  58	32.79
19:51:                  28	32.81
19:51:                  58	32.83
19:52:                  28	32.84
19:52:                  58	32.84
19:53:                  28	32.83
19:53:                  58	32.83
19:54:                  28	32.83
19:54:                  58	32.82
19:55:                  28	32.83
19:55:                  58	32.81
19:56:                  28	32.79
19:56:                  58	32.78
19:57:                  28	32.79
19:57:                  58	32.78
19:58:                  28	32.78
19:58:                  58	32.78
19:59:                  28	32.77
19:59:                  58	32.77
20:00:                  28	32.75
20:00:                  58	32.78
20:01:                  28	32.75
20:01:                  58	32.79
20:02:                  28	32.82
20:02:                  58	32.79
20:03:                  28	32.78
20:03:                  58	32.79
20:04:                  28	32.81
20:04:                  58	32.80
20:05:                  28	32.80
20:05:                  58	32.78
20:06:                  28	32.78
20:06:                  58	32.82
20:07:                  28	32.80
20:07:                  58	32.79
20:08:                  29	32.77
20:08:                  59	32.77
20:09:                  29	32.78
20:09:                  59	32.74
20:10:                  29	32.77
20:10:                  59	32.75
20:11:                  29	32.74
20:11:                  59	32.75
20:12:                  29	32.78
20:12:                  59	32.79
20:13:                  29	32.79
20:13:                  59	32.77
20:14:                  29	32.75
20:14:                  59	32.75
20:15:                  29	32.75
20:15:                  59	32.74
20:16:                  29	32.73
20:16:                  59	32.72
20:17:                  29	32.71
20:17:                  59	32.69
20:18:                  29	32.68
20:18:                  59	32.67
20:19:                  29	32.68
20:19:                  59	32.67
20:20:                  29	32.66
20:20:                  59	32.66
20:21:                  29	32.65
20:21:                  59	32.62
20:22:                  29	32.67
20:22:                  59	32.69
20:23:                  29	32.70
20:23:                  59	32.70
20:24:                  29	32.70
20:24:                  59	32.65
20:25:                  29	32.62
20:25:                  59	32.65
20:26:                  29	32.66
20:26:                  59	32.67
20:27:                  29	32.65
20:27:                  59	32.64
20:28:                  29	32.65
20:28:                  59	32.65
20:29:                  29	32.65
20:29:                  59	32.62
20:30:                  29	32.62
20:31:                   0	32.63
20:31:                  30	32.59
20:32:                   0	32.59
20:32:                  30	32.58
20:33:                   0	32.60
20:33:                  30	32.63
20:34:                   0	32.61
20:34:                  30	32.59
20:35:                   0	32.61
20:35:                  30	32.62
20:36:                   0	32.61
20:36:                  30	32.59
20:37:                   0	32.56
20:37:                  30	32.59
20:38:                   0	32.58
20:38:                  30	32.60
20:39:                   0	32.57
20:39:                  30	32.58
20:40:                   0	32.55
20:40:                  30	32.58
20:41:                   0	32.57
20:41:                  30	32.57
20:42:                   0	32.53
20:42:                  30	32.52
20:43:                   0	32.55
20:43:                  30	32.57
20:44:                   0	32.58
20:44:                  30	32.57
20:45:                   0	32.58
20:45:                  30	32.59
20:46:                   0	32.56
20:46:                  30	32.57
20:47:                   0	32.57
20:47:                  30	32.57
20:48:                   0	32.54
20:48:                  31	32.55
20:49:                   1	32.54
20:49:                  31	32.53
20:50:                   1	32.50
20:50:                  31	32.53
20:51:                   1	32.49
20:51:                  31	32.51
20:52:                   1	32.50
20:52:                  31	32.51
20:53:                   1	32.49
20:53:                  31	32.52
20:54:                   1	32.53
20:54:                  31	32.55
20:55:                   1	32.52
20:55:                  31	32.51
20:56:                   1	32.54
20:56:                  31	32.52
20:57:                   1	32.51
20:57:                  31	32.53
20:58:                   1	32.52
20:58:                  31	32.53
20:59:                   1	32.52
20:59:                  31	32.51
21:00:                   1	32.52
21:00:                  31	32.49
21:01:                   1	32.48
21:01:                  31	32.49
21:02:                   1	32.46
21:02:                  31	32.46
21:03:                   1	32.45
21:03:                  31	32.47
21:04:                   1	32.53
21:04:                  31	32.53
21:05:                   1	32.57
21:05:                  31	32.57
21:06:                   1	32.57
21:06:                  31	32.58
21:07:                   2	32.56
21:07:                  32	32.57
21:08:                   2	32.57
21:08:                  32	32.58
21:09:                   2	32.57
21:09:                  32	32.57
21:10:                   2	32.56
21:10:                  32	32.57
21:11:                   2	32.58
21:11:                  32	32.54
21:12:                   2	32.55
21:12:                  32	32.57
21:13:                   2	32.55
21:13:                  32	32.55
21:14:                   2	32.59
21:14:                  32	32.59
21:15:                   2	32.60
21:15:                  32	32.64
21:16:                   2	32.64
21:16:                  32	32.63
21:17:                   2	32.64
21:17:                  32	32.60
21:18:                   2	32.61
21:18:                  32	32.58
21:19:                   2	32.56
21:19:                  32	32.59
21:20:                   2	32.58
21:20:                  32	32.57
21:21:                   2	32.57
21:21:                  32	32.57
21:22:                   2	32.55
21:22:                  32	32.52
21:23:                   2	32.53
21:23:                  32	32.52
21:24:                   2	32.54
21:24:                  32	32.56
21:25:                   2	32.56
21:25:                  32	32.56
21:26:                   2	32.56
21:26:                  32	32.55
21:27:                   2	32.56
21:27:                  32	32.54
21:28:                   2	32.52
21:28:                  33	32.52
21:29:                   3	32.51
21:29:                  33	32.50
21:30:                   3	32.51
21:30:                  33	32.54
21:31:                   3	32.54
21:31:                  33	32.54
21:32:                   3	32.53
21:32:                  33	32.53
21:33:                   3	32.51
21:33:                  33	32.49
21:34:                   3	32.52
21:34:                  33	32.50
21:35:                   3	32.55
21:35:                  33	32.58
21:36:                   3	32.58
21:36:                  33	32.60
21:37:                   3	32.61
21:37:                  33	32.63
21:38:                   3	32.64
21:38:                  33	32.64
21:39:                   3	32.65
21:39:                  33	32.68
21:40:                   3	32.69
21:40:                  33	32.68
21:41:                   3	32.70
21:41:                  33	32.71
21:42:                   3	32.71
21:42:                  33	32.70
21:43:                   3	32.70
21:43:                  33	32.69
21:44:                   3	32.70
21:44:                  33	32.71
21:45:                   3	32.74
21:45:                  33	32.77
21:46:                   3	32.78
21:46:                  33	32.78
21:47:                   3	32.77
21:47:                  34	32.79
21:48:                   4	32.78
21:48:                  34	32.80
21:49:                   4	32.79
21:49:                  34	32.80
21:50:                   4	32.79
21:50:                  34	32.78
21:51:                   4	32.80
21:51:                  34	32.81
21:52:                   4	32.79
21:52:                  34	32.80
21:53:                   4	32.79
21:53:                  34	32.79
21:54:                   4	32.77
21:54:                  34	32.77
21:55:                   4	32.80
21:55:                  34	32.83
21:56:                   4	32.84
21:56:                  34	32.83
21:57:                   4	32.84
21:57:                  34	32.83
21:58:                   4	32.84
21:58:                  34	32.85
21:59:                   4	32.83
21:59:                  34	32.82
22:00:                   4	32.82
22:00:                  34	32.81
22:01:                   4	32.81
22:01:                  34	32.81
22:02:                   4	32.81
22:02:                  34	32.80
22:03:                   4	32.79
22:03:                  34	32.78
22:04:                   4	32.79
22:04:                  34	32.77
22:05:                   5	32.77
22:05:                  35	32.80
22:06:                   5	32.81
22:06:                  35	32.83
22:07:                   5	32.82
22:07:                  35	32.83
22:08:                   5	32.81
22:08:                  35	32.82
22:09:                   5	32.81
22:09:                  35	32.81
22:10:                   5	32.82
22:10:                  35	32.82
22:11:                   5	32.82
22:11:                  35	32.80
22:12:                   5	32.80
22:12:                  35	32.79
22:13:                   5	32.78
22:13:                  35	32.79
22:14:                   5	32.78
22:14:                  35	32.75
22:15:                   5	32.74
22:15:                  35	32.76
22:16:                   5	32.80
22:16:                  35	32.82
22:17:                   5	32.83
22:17:                  35	32.81
22:18:                   5	32.82
22:18:                  35	32.79
22:19:                   5	32.81
22:19:                  35	32.81
22:20:                   5	32.83
22:20:                  35	32.80
22:21:                   5	32.80
22:21:                  35	32.79
22:22:                   5	32.80
22:22:                  35	32.80
22:23:                   5	32.77
22:23:                  35	32.78
22:24:                   5	32.79
22:24:                  35	32.79
22:25:                   5	32.77
22:25:                  35	32.75
22:26:                   5	32.77
22:26:                  35	32.82
22:27:                   5	32.83
22:27:                  35	32.85
22:28:                   5	32.84
22:28:                  35	32.84
22:29:                   5	32.84
22:29:                  35	32.85
22:30:                   5	32.84
22:30:                  35	32.83
22:31:                   5	32.83
22:31:                  35	32.80
22:32:                   5	32.80
22:32:                  35	32.81
22:33:                   5	32.81
22:33:                  35	32.81
22:34:                   5	32.81
22:34:                  36	32.81
22:35:                   6	32.82
22:35:                  36	32.81
22:36:                   6	32.83
22:36:                  36	32.84
22:37:                   6	32.87
22:37:                  36	32.87
22:38:                   6	32.87
22:38:                  36	32.86
22:39:                   6	32.86
22:39:                  36	32.87
22:40:                   6	32.87
22:40:                  36	32.85
22:41:                   6	32.87
22:41:                  36	32.86
22:42:                   6	32.85
22:42:                  36	32.85
22:43:                   6	32.86
22:43:                  36	32.86
22:44:                   6	32.86
22:44:                  36	32.86
22:45:                   6	32.85
22:45:                  36	32.85
22:46:                   6	32.84
22:46:                  36	32.84
22:47:                   6	32.87
22:47:                  36	32.88
22:48:                   6	32.88
22:48:                  36	32.89
22:49:                   6	32.89
22:49:                  36	32.91
22:50:                   6	32.91
22:50:                  36	32.91
22:51:                   6	32.90
22:51:                  36	32.90
22:52:                   6	32.90
22:52:                  36	32.91
22:53:                   7	32.91
22:53:                  37	32.91
22:54:                   7	32.92
22:54:                  37	32.92
22:55:                   7	32.92
22:55:                  37	32.91
22:56:                   7	32.90
22:56:                  37	32.90
22:57:                   7	32.95
22:57:                  37	32.94
22:58:                   7	32.96
22:58:                  37	32.97
22:59:                   7	32.98
22:59:                  37	32.98
23:00:                   7	33.01
23:00:                  37	32.99
23:01:                   7	32.97
23:01:                  37	32.97
23:02:                   7	32.98
23:02:                  37	32.97
23:03:                   7	32.96
23:03:                  37	32.97
23:04:                   7	32.99
23:04:                  37	32.95
23:05:                   7	32.97
23:05:                  37	32.96
23:06:                   7	32.95
23:06:                  37	32.95
23:07:                   7	32.96
23:07:                  37	32.99
23:08:                   7	33.01
23:08:                  37	33.01
23:09:                   7	33.04
23:09:                  37	33.01
23:10:                   7	33.01
23:10:                  37	33.02
23:11:                   7	33.02
23:11:                  37	33.02
23:12:                   7	33.00
23:12:                  37	33.01
23:13:                   8	33.02
23:13:                  38	32.99
23:14:                   8	33.00
23:14:                  38	32.99
23:15:                   8	32.98
23:15:                  38	32.98
23:16:                   8	32.98
23:16:                  38	32.97
23:17:                   8	32.96
23:17:                  38	32.98
23:18:                   8	32.99
23:18:                  38	33.00
23:19:                   8	33.01
23:19:                  38	33.02
23:20:                   8	33.01
23:20:                  38	33.02
23:21:                   8	33.01
23:21:                  38	33.00
23:22:                   8	33.00
23:22:                  38	33.00
23:23:                   8	33.00
23:23:                  38	33.00
23:24:                   8	32.98
23:24:                  38	33.00
23:25:                   8	32.99
23:25:                  38	32.97
23:26:                   8	32.96
23:26:                  38	32.95
23:27:                   8	32.93
23:27:                  38	32.94
23:28:                   8	32.94
23:28:                  38	32.95
23:29:                   8	32.95
23:29:                  39	32.98
23:30:                   9	32.95
23:30:                  39	32.95
23:31:                   9	32.94
23:31:                  39	32.93
23:32:                   9	32.91
23:32:                  39	32.90
23:33:                   9	32.89
23:33:                  39	32.87
23:34:                   9	32.85
23:34:                  39	32.85
23:35:                   9	32.83
23:35:                  39	32.83
23:36:                   9	32.83
23:36:                  39	32.83
23:37:                   9	32.80
23:37:                  39	32.80
23:38:                   9	32.79
23:38:                  39	32.83
23:39:                   9	32.83
23:39:                  39	32.85
23:40:                   9	32.84
23:40:                  39	32.83
23:41:                   9	32.83
23:41:                  39	32.83
23:42:                   9	32.80
23:42:                  39	32.80
23:43:                   9	32.77
23:43:                  39	32.77
23:44:                   9	32.78
23:44:                  39	32.74
23:45:                   9	32.74
23:45:                  39	32.73
23:46:                   9	32.72
23:46:                  39	32.71
23:47:                   9	32.71
23:47:                  39	32.68
23:48:                   9	32.67
23:48:                  39	32.69
23:49:                   9	32.71
23:49:                  39	32.71
23:50:                   9	32.70
23:50:                  39	32.70
23:51:                   9	32.70
23:51:                  39	32.68
23:52:                   9	32.67
23:52:                  39	32.66
23:53:                  10	32.65
23:53:                  40	32.64
23:54:                  10	32.65
23:54:                  40	32.62
23:55:                  10	32.63
23:55:                  40	32.60
23:56:                  10	32.59
23:56:                  40	32.58
23:57:                  10	32.57
23:57:                  40	32.57
23:58:                  10	32.58
23:58:                  40	32.56
23:59:                  10	32.60
23:59:                  40	32.60
