0:00:                   4	31.09
0:00:                  34	31.10
0:01:                   4	31.10
0:01:                  34	31.11
0:02:                   4	31.11
0:02:                  34	31.08
0:03:                   4	31.05
0:03:                  34	31.08
0:04:                   4	31.05
0:04:                  34	31.08
0:05:                   4	31.06
0:05:                  34	31.03
0:06:                   4	31.05
0:06:                  34	31.06
0:07:                   4	31.08
0:07:                  34	31.07
0:08:                   4	31.05
0:08:                  34	31.07
0:09:                   4	31.07
0:09:                  34	31.05
0:10:                   4	31.07
0:10:                  34	31.07
0:11:                   4	31.05
0:11:                  34	31.02
0:12:                   4	31.03
0:12:                  34	31.04
0:13:                   4	31.03
0:13:                  34	31.05
0:14:                   4	31.05
0:14:                  34	31.07
0:15:                   4	31.09
0:15:                  34	31.09
0:16:                   5	31.08
0:16:                  35	31.07
0:17:                   5	31.07
0:17:                  35	31.09
0:18:                   5	31.07
0:18:                  35	31.09
0:19:                   5	31.10
0:19:                  35	31.08
0:20:                   5	31.05
0:20:                  35	31.05
0:21:                   5	31.03
0:21:                  35	31.03
0:22:                   5	31.04
0:22:                  35	31.06
0:23:                   5	31.09
0:23:                  35	31.06
0:24:                   5	31.05
0:24:                  35	31.05
0:25:                   5	31.03
0:25:                  35	31.02
0:26:                   5	30.99
0:26:                  35	31.01
0:27:                   5	31.01
0:27:                  35	31.01
0:28:                   5	31.01
0:28:                  35	31.01
0:29:                   5	31.02
0:29:                  35	31.02
0:30:                   5	31.03
0:30:                  35	31.02
0:31:                   5	31.01
0:31:                  35	31.00
0:32:                   6	30.99
0:32:                  36	30.98
0:33:                   6	31.01
0:33:                  36	31.03
0:34:                   6	31.02
0:34:                  36	31.03
0:35:                   6	31.01
0:35:                  36	30.99
0:36:                   6	30.98
0:36:                  36	30.98
0:37:                   6	31.00
0:37:                  36	31.00
0:38:                   6	30.99
0:38:                  36	30.98
0:39:                   6	30.98
0:39:                  36	30.98
0:40:                   6	30.96
0:40:                  36	30.96
0:41:                   6	30.97
0:41:                  36	30.96
0:42:                   6	30.96
0:42:                  36	30.96
0:43:                   6	30.95
0:43:                  36	30.98
0:44:                   6	31.00
0:44:                  36	31.00
0:45:                   6	30.97
0:45:                  36	30.96
0:46:                   6	30.95
0:46:                  36	30.96
0:47:                   6	30.98
0:47:                  36	30.97
0:48:                   7	30.97
0:48:                  37	30.96
0:49:                   7	30.94
0:49:                  37	30.95
0:50:                   7	30.94
0:50:                  37	30.93
0:51:                   7	30.93
0:51:                  37	30.93
0:52:                   7	30.92
0:52:                  37	30.91
0:53:                   7	30.90
0:53:                  37	30.94
0:54:                   7	30.96
0:54:                  37	30.96
0:55:                   7	30.95
0:55:                  37	30.95
0:56:                   7	30.92
0:56:                  37	30.93
0:57:                   7	30.93
0:57:                  37	30.92
0:58:                   7	30.95
0:58:                  37	30.98
0:59:                   7	31.00
0:59:                  37	31.01
1:00:                   7	31.01
1:00:                  37	31.01
1:01:                   7	31.00
1:01:                  37	31.00
1:02:                   7	30.99
1:02:                  37	30.99
1:03:                   7	30.98
1:03:                  37	30.96
1:04:                   7	30.96
1:04:                  38	30.96
1:05:                   8	30.97
1:05:                  38	31.00
1:06:                   8	30.96
1:06:                  38	30.95
1:07:                   8	30.97
1:07:                  38	30.97
1:08:                   8	30.94
1:08:                  38	30.93
1:09:                   8	30.93
1:09:                  38	30.94
1:10:                   8	30.94
1:10:                  38	30.93
1:11:                   8	30.96
1:11:                  38	30.95
1:12:                   8	30.94
1:12:                  38	30.93
1:13:                   8	30.93
1:13:                  38	30.95
1:14:                   8	30.98
1:14:                  38	30.95
1:15:                   8	30.94
1:15:                  38	30.97
1:16:                   8	30.95
1:16:                  38	30.94
1:17:                   8	30.95
1:17:                  38	30.93
1:18:                   8	30.98
1:18:                  38	30.99
1:19:                   8	30.96
1:19:                  38	30.95
1:20:                   8	30.94
1:20:                  39	30.93
1:21:                   9	30.92
1:21:                  39	30.94
1:22:                   9	30.93
1:22:                  39	30.91
1:23:                   9	30.93
1:23:                  39	30.92
1:24:                   9	30.93
1:24:                  39	30.96
1:25:                   9	30.95
1:25:                  39	30.96
1:26:                   9	30.92
1:26:                  39	30.92
1:27:                   9	30.92
1:27:                  39	30.92
1:28:                   9	30.92
1:28:                  39	30.92
1:29:                   9	30.91
1:29:                  39	30.92
1:30:                   9	30.92
1:30:                  39	30.91
1:31:                   9	30.91
1:31:                  39	30.91
1:32:                   9	30.92
1:32:                  39	30.96
1:33:                   9	30.94
1:33:                  39	30.96
1:34:                   9	30.98
1:34:                  39	30.96
1:35:                   9	30.93
1:35:                  39	30.94
1:36:                   9	30.95
1:36:                  39	30.93
1:37:                  10	30.93
1:37:                  40	30.91
1:38:                  10	30.90
1:38:                  40	30.90
1:39:                  10	30.91
1:39:                  40	30.95
1:40:                  10	30.97
1:40:                  40	30.96
1:41:                  10	30.98
1:41:                  40	30.96
1:42:                  10	30.96
1:42:                  40	30.95
1:43:                  10	30.94
1:43:                  40	30.91
1:44:                  10	30.92
1:44:                  40	30.91
1:45:                  10	30.93
1:45:                  40	30.93
1:46:                  10	30.93
1:46:                  40	30.94
1:47:                  10	30.96
1:47:                  40	30.98
1:48:                  10	30.99
1:48:                  40	31.00
1:49:                  10	30.99
1:49:                  40	30.96
1:50:                  10	30.96
1:50:                  40	30.95
1:51:                  10	30.95
1:51:                  40	30.95
1:52:                  10	30.95
1:52:                  40	30.96
1:53:                  10	30.98
1:53:                  40	30.97
1:54:                  10	30.98
1:54:                  40	30.97
1:55:                  11	30.95
1:55:                  41	30.97
1:56:                  11	30.96
1:56:                  41	30.97
1:57:                  11	30.97
1:57:                  41	30.94
1:58:                  11	30.93
1:58:                  41	30.93
1:59:                  11	30.97
1:59:                  41	30.97
2:00:                  11	30.98
2:00:                  41	30.98
2:01:                  11	30.97
2:01:                  41	30.97
2:02:                  11	30.98
2:02:                  41	30.99
2:03:                  11	31.01
2:03:                  41	30.99
2:04:                  11	30.97
2:04:                  41	30.95
2:05:                  11	30.95
2:05:                  41	30.94
2:06:                  11	30.95
2:06:                  41	30.95
2:07:                  11	30.93
2:07:                  41	30.96
2:08:                  11	30.95
2:08:                  41	30.95
2:09:                  11	30.94
2:09:                  41	30.94
2:10:                  11	30.93
2:10:                  41	30.93
2:11:                  11	30.93
2:11:                  41	30.93
2:12:                  11	30.94
2:12:                  42	30.95
2:13:                  12	30.95
2:13:                  42	30.94
2:14:                  12	30.91
2:14:                  42	30.90
2:15:                  12	30.90
2:15:                  42	30.90
2:16:                  12	30.90
2:16:                  42	30.90
2:17:                  12	30.91
2:17:                  42	30.91
2:18:                  12	30.89
2:18:                  42	30.88
2:19:                  12	30.86
2:19:                  42	30.86
2:20:                  12	30.88
2:20:                  42	30.89
2:21:                  12	30.89
2:21:                  42	30.86
2:22:                  12	30.86
2:22:                  42	30.85
2:23:                  12	30.84
2:23:                  42	30.84
2:24:                  12	30.83
2:24:                  42	30.85
2:25:                  12	30.85
2:25:                  42	30.83
2:26:                  12	30.85
2:26:                  42	30.85
2:27:                  12	30.85
2:27:                  42	30.88
2:28:                  12	30.85
2:28:                  42	30.83
2:29:                  12	30.85
2:29:                  42	30.84
2:30:                  12	30.83
2:30:                  42	30.83
2:31:                  12	30.82
2:31:                  42	30.82
2:32:                  12	30.82
2:32:                  43	30.83
2:33:                  13	30.84
2:33:                  43	30.85
2:34:                  13	30.86
2:34:                  43	30.88
2:35:                  13	30.88
2:35:                  43	30.89
2:36:                  13	30.89
2:36:                  43	30.89
2:37:                  13	30.88
2:37:                  43	30.88
2:38:                  13	30.86
2:38:                  43	30.85
2:39:                  13	30.85
2:39:                  43	30.85
2:40:                  13	30.82
2:40:                  43	30.83
2:41:                  13	30.86
2:41:                  43	30.87
2:42:                  13	30.86
2:42:                  43	30.87
2:43:                  13	30.88
2:43:                  43	30.86
2:44:                  13	30.87
2:44:                  43	30.87
2:45:                  13	30.87
2:45:                  43	30.89
2:46:                  13	30.90
2:46:                  43	30.92
2:47:                  13	30.92
2:47:                  43	30.92
2:48:                  13	30.97
2:48:                  43	30.95
2:49:                  13	30.94
2:49:                  43	30.94
2:50:                  13	30.91
2:50:                  43	30.91
2:51:                  13	30.91
2:51:                  43	30.92
2:52:                  14	30.91
2:52:                  44	30.90
2:53:                  14	30.89
2:53:                  44	30.86
2:54:                  14	30.87
2:54:                  44	30.88
2:55:                  14	30.89
2:55:                  44	30.86
2:56:                  14	30.84
2:56:                  44	30.84
2:57:                  14	30.85
2:57:                  44	30.87
2:58:                  14	30.86
2:58:                  44	30.88
2:59:                  14	30.90
2:59:                  44	30.91
3:00:                  14	30.90
3:00:                  44	30.91
3:01:                  14	30.91
3:01:                  44	30.90
3:02:                  14	30.92
3:02:                  44	30.93
3:03:                  14	30.94
3:03:                  44	30.94
3:04:                  14	30.95
3:04:                  44	30.95
3:05:                  14	30.94
3:05:                  44	30.93
3:06:                  14	30.91
3:06:                  44	30.92
3:07:                  14	30.90
3:07:                  44	30.90
3:08:                  14	30.91
3:08:                  44	30.93
3:09:                  15	30.92
3:09:                  45	30.93
3:10:                  15	30.91
3:10:                  45	30.91
3:11:                  15	30.91
3:11:                  45	30.90
3:12:                  15	30.89
3:12:                  45	30.90
3:13:                  15	30.91
3:13:                  45	30.92
3:14:                  15	30.93
3:14:                  45	30.91
3:15:                  15	30.90
3:15:                  45	30.88
3:16:                  15	30.90
3:16:                  45	30.91
3:17:                  15	30.91
3:17:                  45	30.92
3:18:                  15	30.92
3:18:                  45	30.93
3:19:                  15	30.92
3:19:                  45	30.90
3:20:                  15	30.90
3:20:                  45	30.92
3:21:                  15	30.91
3:21:                  45	30.91
3:22:                  15	30.92
3:22:                  45	30.93
3:23:                  15	30.93
3:23:                  45	30.92
3:24:                  15	30.91
3:24:                  45	30.91
3:25:                  15	30.92
3:25:                  46	30.92
3:26:                  16	30.92
3:26:                  46	30.90
3:27:                  16	30.90
3:27:                  46	30.91
3:28:                  16	30.90
3:28:                  46	30.91
3:29:                  16	30.91
3:29:                  46	30.90
3:30:                  16	30.91
3:30:                  46	30.93
3:31:                  16	30.94
3:31:                  46	30.93
3:32:                  16	30.92
3:32:                  46	30.91
3:33:                  16	30.92
3:33:                  46	30.92
3:34:                  16	30.92
3:34:                  46	30.96
3:35:                  16	30.95
3:35:                  46	30.95
3:36:                  16	30.95
3:36:                  46	30.95
3:37:                  16	30.96
3:37:                  46	30.97
3:38:                  16	30.97
3:38:                  46	30.95
3:39:                  16	30.93
3:39:                  46	30.95
3:40:                  16	30.93
3:40:                  46	30.95
3:41:                  16	30.93
3:41:                  46	30.93
3:42:                  16	30.92
3:42:                  47	30.92
3:43:                  17	30.91
3:43:                  47	30.91
3:44:                  17	30.94
3:44:                  47	30.96
3:45:                  17	30.97
3:45:                  47	30.97
3:46:                  17	30.94
3:46:                  47	30.95
3:47:                  17	30.96
3:47:                  47	30.99
3:48:                  17	30.99
3:48:                  47	30.97
3:49:                  17	30.93
3:49:                  47	30.93
3:50:                  17	30.92
3:50:                  47	30.93
3:51:                  17	30.93
3:51:                  47	30.93
3:52:                  17	30.92
3:52:                  47	30.93
3:53:                  17	30.93
3:53:                  47	30.92
3:54:                  17	30.94
3:54:                  47	30.97
3:55:                  17	31.00
3:55:                  47	30.98
3:56:                  17	30.97
3:56:                  47	30.98
3:57:                  17	30.99
3:57:                  47	30.97
3:58:                  17	30.95
3:58:                  47	30.99
3:59:                  18	30.98
3:59:                  48	30.97
4:00:                  18	30.94
4:00:                  48	30.93
4:01:                  18	30.96
4:01:                  48	30.95
4:02:                  18	30.95
4:02:                  48	30.98
4:03:                  18	30.98
4:03:                  48	31.01
4:04:                  18	30.99
4:04:                  48	31.02
4:05:                  18	31.02
4:05:                  48	31.01
4:06:                  18	30.98
4:06:                  48	30.99
4:07:                  18	30.99
4:07:                  48	30.99
4:08:                  18	31.00
4:08:                  48	30.96
4:09:                  18	30.95
4:09:                  48	30.94
4:10:                  18	30.93
4:10:                  48	30.92
4:11:                  18	30.92
4:11:                  48	30.95
4:12:                  18	30.96
4:12:                  48	30.95
4:13:                  18	30.93
4:13:                  48	30.92
4:14:                  18	30.95
4:14:                  48	30.94
4:15:                  18	30.96
4:15:                  48	30.96
4:16:                  18	30.96
4:16:                  48	30.96
4:17:                  18	30.95
4:17:                  49	30.95
4:18:                  19	30.93
4:18:                  49	30.94
4:19:                  19	30.94
4:19:                  49	30.94
4:20:                  19	30.94
4:20:                  49	30.95
4:21:                  19	30.94
4:21:                  49	30.95
4:22:                  19	30.95
4:22:                  49	30.95
4:23:                  19	30.94
4:23:                  49	30.93
4:24:                  19	30.95
4:24:                  49	30.94
4:25:                  19	30.93
4:25:                  49	30.93
4:26:                  19	30.92
4:26:                  49	30.93
4:27:                  19	30.94
4:27:                  49	30.96
4:28:                  19	30.95
4:28:                  49	30.97
4:29:                  19	30.95
4:29:                  49	30.94
4:30:                  19	30.95
4:30:                  49	30.95
4:31:                  19	30.96
4:31:                  49	30.95
4:32:                  19	30.94
4:32:                  49	30.93
4:33:                  19	30.91
4:33:                  49	30.92
4:34:                  19	30.91
4:34:                  49	30.93
4:35:                  19	30.92
4:35:                  49	30.92
4:36:                  19	30.92
4:36:                  50	30.92
4:37:                  20	30.90
4:37:                  50	30.89
4:38:                  20	30.89
4:38:                  50	30.91
4:39:                  20	30.88
4:39:                  50	30.89
4:40:                  20	30.88
4:40:                  50	30.89
4:41:                  20	30.91
4:41:                  50	30.89
4:42:                  20	30.93
4:42:                  50	30.95
4:43:                  20	30.94
4:43:                  50	30.95
4:44:                  20	30.97
4:44:                  50	30.96
4:45:                  20	30.96
4:45:                  50	30.97
4:46:                  20	30.99
4:46:                  50	30.96
4:47:                  20	30.93
4:47:                  50	30.96
4:48:                  20	31.01
4:48:                  50	31.01
4:49:                  20	30.99
4:49:                  50	31.00
4:50:                  20	30.95
4:50:                  50	30.92
4:51:                  20	30.93
4:51:                  50	30.93
4:52:                  20	30.93
4:52:                  50	30.97
4:53:                  20	30.98
4:53:                  50	30.95
4:54:                  20	30.94
4:54:                  50	30.97
4:55:                  20	30.96
4:55:                  50	30.96
4:56:                  20	30.97
4:56:                  51	30.98
4:57:                  21	30.96
4:57:                  51	30.96
4:58:                  21	30.93
4:58:                  51	30.91
4:59:                  21	30.90
4:59:                  51	30.89
5:00:                  21	30.88
5:00:                  51	30.86
5:01:                  21	30.86
5:01:                  51	30.88
5:02:                  21	30.89
5:02:                  51	30.91
5:03:                  21	30.91
5:03:                  51	30.89
5:04:                  21	30.90
5:04:                  51	30.89
5:05:                  21	30.88
5:05:                  51	30.86
5:06:                  21	30.84
5:06:                  51	30.87
5:07:                  21	30.85
5:07:                  51	30.86
5:08:                  21	30.86
5:08:                  51	30.86
5:09:                  21	30.85
5:09:                  51	30.85
5:10:                  21	30.86
5:10:                  51	30.87
5:11:                  21	30.85
5:11:                  51	30.85
5:12:                  21	30.87
5:12:                  51	30.86
5:13:                  21	30.86
5:13:                  51	30.89
5:14:                  21	30.89
5:14:                  51	30.88
5:15:                  21	30.89
5:15:                  51	30.90
5:16:                  21	30.91
5:16:                  51	30.91
5:17:                  21	30.90
5:17:                  51	30.93
5:18:                  21	30.93
5:18:                  52	30.91
5:19:                  22	30.90
5:19:                  52	30.88
5:20:                  22	30.88
5:20:                  52	30.89
5:21:                  22	30.89
5:21:                  52	30.88
5:22:                  22	30.85
5:22:                  52	30.84
5:23:                  22	30.83
5:23:                  52	30.83
5:24:                  22	30.83
5:24:                  52	30.83
5:25:                  22	30.83
5:25:                  52	30.83
5:26:                  22	30.82
5:26:                  52	30.82
5:27:                  22	30.82
5:27:                  52	30.82
5:28:                  22	30.82
5:28:                  52	30.82
5:29:                  22	30.84
5:29:                  52	30.84
5:30:                  22	30.87
5:30:                  52	30.91
5:31:                  22	30.96
5:31:                  52	30.97
5:32:                  22	30.97
5:32:                  52	30.97
5:33:                  22	30.96
5:33:                  52	30.95
5:34:                  22	30.96
5:34:                  52	30.96
5:35:                  22	30.93
5:35:                  52	30.91
5:36:                  22	30.92
5:36:                  53	30.91
5:37:                  23	30.89
5:37:                  53	30.89
5:38:                  23	30.86
5:38:                  53	30.85
5:39:                  23	30.85
5:39:                  53	30.86
5:40:                  23	30.86
5:40:                  53	30.88
5:41:                  23	30.89
5:41:                  53	30.88
5:42:                  23	30.86
5:42:                  53	30.88
5:43:                  23	30.89
5:43:                  53	30.90
5:44:                  23	30.89
5:44:                  53	30.89
5:45:                  23	30.88
5:45:                  53	30.86
5:46:                  23	30.87
5:46:                  53	30.88
5:47:                  23	30.85
5:47:                  53	30.87
5:48:                  23	30.88
5:48:                  53	30.89
5:49:                  23	30.91
5:49:                  53	30.91
5:50:                  23	30.90
5:50:                  53	30.88
5:51:                  23	30.86
5:51:                  53	30.85
5:52:                  23	30.87
5:52:                  53	30.86
5:53:                  23	30.88
5:53:                  53	30.88
5:54:                  23	30.86
5:54:                  53	30.87
5:55:                  23	30.86
5:55:                  53	30.86
5:56:                  23	30.85
5:56:                  53	30.83
5:57:                  23	30.83
5:57:                  53	30.85
5:58:                  23	30.85
5:58:                  53	30.84
5:59:                  23	30.83
5:59:                  54	30.83
6:00:                  24	30.83
6:00:                  54	30.82
6:01:                  24	30.82
6:01:                  54	30.80
6:02:                  24	30.83
6:02:                  54	30.84
6:03:                  24	30.86
6:03:                  54	30.86
6:04:                  24	30.89
6:04:                  54	30.89
6:05:                  24	30.87
6:05:                  54	30.85
6:06:                  24	30.84
6:06:                  54	30.87
6:07:                  24	30.88
6:07:                  54	30.86
6:08:                  24	30.85
6:08:                  54	30.86
6:09:                  24	30.90
6:09:                  54	30.92
6:10:                  24	30.94
6:10:                  54	30.97
6:11:                  24	30.96
6:11:                  54	30.98
6:12:                  24	30.96
6:12:                  54	30.97
6:13:                  24	30.94
6:13:                  54	30.93
6:14:                  24	30.94
6:14:                  54	30.92
6:15:                  24	30.92
6:15:                  54	30.95
6:16:                  24	30.97
6:16:                  55	30.97
6:17:                  25	30.97
6:17:                  55	30.99
6:18:                  25	30.98
6:18:                  55	31.00
6:19:                  25	31.00
6:19:                  55	31.00
6:20:                  25	30.97
6:20:                  55	30.98
6:21:                  25	30.98
6:21:                  55	31.00
6:22:                  25	31.01
6:22:                  55	30.99
6:23:                  25	30.98
6:23:                  55	30.96
6:24:                  25	30.96
6:24:                  55	30.93
6:25:                  25	30.94
6:25:                  55	30.95
6:26:                  25	30.95
6:26:                  55	30.94
6:27:                  25	30.94
6:27:                  55	30.94
6:28:                  25	30.95
6:28:                  55	30.94
6:29:                  25	30.93
6:29:                  55	30.92
6:30:                  25	30.94
6:30:                  55	30.93
6:31:                  25	30.92
6:31:                  55	30.92
6:32:                  25	30.95
6:32:                  56	30.94
6:33:                  26	30.95
6:33:                  56	30.95
6:34:                  26	30.95
6:34:                  56	30.95
6:35:                  26	30.95
6:35:                  56	30.95
6:36:                  26	30.94
6:36:                  56	30.96
6:37:                  26	30.95
6:37:                  56	30.94
6:38:                  26	30.95
6:38:                  56	30.95
6:39:                  26	30.96
6:39:                  56	30.95
6:40:                  26	30.94
6:40:                  56	30.96
6:41:                  26	30.93
6:41:                  56	30.93
6:42:                  26	30.92
6:42:                  56	30.93
6:43:                  26	30.94
6:43:                  56	30.99
6:44:                  26	30.99
6:44:                  56	30.97
6:45:                  26	30.98
6:45:                  56	30.96
6:46:                  26	30.95
6:46:                  56	30.96
6:47:                  26	30.95
6:47:                  56	30.95
6:48:                  26	30.96
6:48:                  56	30.93
6:49:                  27	30.94
6:49:                  57	30.99
6:50:                  27	30.99
6:50:                  57	30.99
6:51:                  27	30.97
6:51:                  57	30.94
6:52:                  27	30.95
6:52:                  57	30.97
6:53:                  27	30.97
6:53:                  57	30.95
6:54:                  27	30.96
6:54:                  57	30.97
6:55:                  27	30.96
6:55:                  57	30.93
6:56:                  27	30.97
6:56:                  57	30.96
6:57:                  27	30.97
6:57:                  57	30.97
6:58:                  27	30.97
6:58:                  57	30.98
6:59:                  27	30.97
6:59:                  57	30.99
7:00:                  27	30.98
7:00:                  57	30.99
7:01:                  27	30.98
7:01:                  57	30.97
7:02:                  27	30.98
7:02:                  57	30.99
7:03:                  27	30.98
7:03:                  57	30.96
7:04:                  27	30.93
7:04:                  57	30.94
7:05:                  27	30.95
7:05:                  58	30.95
7:06:                  28	30.95
7:06:                  58	30.93
7:07:                  28	30.97
7:07:                  58	30.95
7:08:                  28	30.99
7:08:                  58	30.99
7:09:                  28	30.98
7:09:                  58	30.98
7:10:                  28	30.96
7:10:                  58	30.95
7:11:                  28	30.96
7:11:                  58	30.95
7:12:                  28	30.99
7:12:                  58	30.97
7:13:                  28	30.96
7:13:                  58	30.97
7:14:                  28	30.96
7:14:                  58	30.96
7:15:                  28	30.95
7:15:                  58	30.95
7:16:                  28	30.97
7:16:                  58	30.95
7:17:                  28	30.95
7:17:                  58	30.95
7:18:                  28	30.95
7:18:                  58	30.96
7:19:                  28	30.97
7:19:                  58	30.97
7:20:                  28	30.96
7:20:                  58	30.95
7:21:                  28	30.96
7:21:                  58	30.98
7:22:                  28	30.97
7:22:                  58	30.98
7:23:                  28	30.95
7:23:                  58	30.95
7:24:                  28	30.94
7:24:                  59	30.94
7:25:                  29	30.93
7:25:                  59	30.97
7:26:                  29	30.95
7:26:                  59	30.92
7:27:                  29	30.94
7:27:                  59	30.96
7:28:                  29	30.94
7:28:                  59	30.93
7:29:                  29	30.95
7:29:                  59	30.95
7:30:                  29	30.94
7:30:                  59	30.93
7:31:                  29	30.94
7:31:                  59	30.94
7:32:                  29	30.94
7:32:                  59	30.93
7:33:                  29	30.93
7:33:                  59	30.95
7:34:                  29	30.95
7:34:                  59	30.94
7:35:                  29	30.95
7:35:                  59	30.96
7:36:                  29	30.92
7:36:                  59	30.93
7:37:                  29	30.94
7:37:                  59	30.93
7:38:                  29	30.91
7:38:                  59	30.91
7:39:                  29	30.92
7:39:                  59	30.92
7:40:                  29	30.91
7:40:                  59	30.91
7:41:                  29	30.92
7:41:                  59	30.93
7:42:                  29	30.93
7:42:                  59	30.94
7:43:                  29	30.93
7:43:                  59	30.89
7:44:                  29	30.90
7:44:                  59	30.89
7:45:                  29	30.88
7:45:                  59	30.87
7:46:                  30	30.87
7:47:                   0	30.87
7:47:                  30	30.86
7:48:                   0	30.86
7:48:                  30	30.86
7:49:                   0	30.86
7:49:                  30	30.89
7:50:                   0	30.89
7:50:                  30	30.86
7:51:                   0	30.85
7:51:                  30	30.86
7:52:                   0	30.86
7:52:                  30	30.87
7:53:                   0	30.88
7:53:                  30	30.88
7:54:                   0	30.86
7:54:                  30	30.85
7:55:                   0	30.86
7:55:                  30	30.89
7:56:                   0	30.88
7:56:                  30	30.86
7:57:                   0	30.84
7:57:                  30	30.85
7:58:                   0	30.88
7:58:                  30	30.86
7:59:                   0	30.88
7:59:                  30	30.86
8:00:                   0	30.85
8:00:                  30	30.84
8:01:                   0	30.84
8:01:                  30	30.85
8:02:                   0	30.83
8:02:                  30	30.86
8:03:                   0	30.89
8:03:                  31	30.88
8:04:                   1	30.89
8:04:                  31	30.89
8:05:                   1	30.86
8:05:                  31	30.88
8:06:                   1	30.89
8:06:                  31	30.90
8:07:                   1	30.87
8:07:                  31	30.86
8:08:                   1	30.88
8:08:                  31	30.86
8:09:                   1	30.84
8:09:                  31	30.84
8:10:                   1	30.85
8:10:                  31	30.86
8:11:                   1	30.87
8:11:                  31	30.88
8:12:                   1	30.89
8:12:                  31	30.88
8:13:                   1	30.88
8:13:                  31	30.86
8:14:                   1	30.88
8:14:                  31	30.86
8:15:                   1	30.89
8:15:                  31	30.89
8:16:                   1	30.89
8:16:                  31	30.87
8:17:                   1	30.90
8:17:                  31	30.87
8:18:                   1	30.87
8:18:                  31	30.84
8:19:                   1	30.87
8:19:                  31	30.83
8:20:                   2	30.85
8:20:                  32	30.84
8:21:                   2	30.85
8:21:                  32	30.86
8:22:                   2	30.86
8:22:                  32	30.86
8:23:                   2	30.90
8:23:                  32	30.90
8:24:                   2	30.91
8:24:                  32	30.91
8:25:                   2	30.93
8:25:                  32	30.94
8:26:                   2	30.93
8:26:                  32	30.92
8:27:                   2	30.92
8:27:                  32	30.88
8:28:                   2	30.85
8:28:                  32	30.84
8:29:                   2	30.84
8:29:                  32	30.83
8:30:                   2	30.83
8:30:                  32	30.83
8:31:                   2	30.86
8:31:                  32	30.90
8:32:                   2	30.90
8:32:                  32	30.90
8:33:                   2	30.91
8:33:                  32	30.89
8:34:                   2	30.90
8:34:                  32	30.90
8:35:                   2	30.90
8:35:                  33	30.86
8:36:                   3	30.91
8:36:                  33	30.93
8:37:                   3	30.93
8:37:                  33	30.93
8:38:                   3	30.92
8:38:                  33	30.95
8:39:                   3	30.94
8:39:                  33	30.91
8:40:                   3	30.89
8:40:                  33	30.84
8:41:                   3	30.86
8:41:                  33	30.86
8:42:                   3	30.89
8:42:                  33	30.88
8:43:                   3	30.89
8:43:                  33	30.88
8:44:                   3	30.85
8:44:                  33	30.89
8:45:                   3	30.90
8:45:                  33	30.89
8:46:                   3	30.88
8:46:                  33	30.89
8:47:                   3	30.90
8:47:                  33	30.92
8:48:                   3	30.92
8:48:                  33	30.90
8:49:                   3	30.89
8:49:                  33	30.89
8:50:                   3	30.87
8:50:                  33	30.84
8:51:                   3	30.83
8:51:                  34	30.84
8:52:                   4	30.84
8:52:                  34	30.84
8:53:                   4	30.80
8:53:                  34	30.82
8:54:                   4	30.82
8:54:                  34	30.81
8:55:                   4	30.80
8:55:                  34	30.82
8:56:                   4	30.81
8:56:                  34	30.80
8:57:                   4	30.84
8:57:                  34	30.84
8:58:                   4	30.83
8:58:                  34	30.85
8:59:                   4	30.83
8:59:                  34	30.82
9:00:                   4	30.84
9:00:                  34	30.85
9:01:                   4	30.84
9:01:                  34	30.83
9:02:                   4	30.83
9:02:                  34	30.85
9:03:                   4	30.85
9:03:                  34	30.85
9:04:                   4	30.85
9:04:                  34	30.84
9:05:                   4	30.86
9:05:                  34	30.87
9:06:                   4	30.85
9:06:                  34	30.89
9:07:                   4	30.88
9:07:                  34	30.89
9:08:                   4	30.89
9:08:                  35	30.89
9:09:                   5	30.88
9:09:                  35	30.86
9:10:                   5	30.88
9:10:                  35	30.86
9:11:                   5	30.89
9:11:                  35	30.90
9:12:                   5	30.91
9:12:                  35	30.89
9:13:                   5	30.88
9:13:                  35	30.86
9:14:                   5	30.85
9:14:                  35	30.88
9:15:                   5	30.89
9:15:                  35	30.88
9:16:                   5	30.86
9:16:                  35	30.90
9:17:                   5	30.89
9:17:                  35	30.90
9:18:                   5	30.91
9:18:                  35	30.92
9:19:                   5	30.91
9:19:                  35	30.90
9:20:                   5	30.89
9:20:                  35	30.90
9:21:                   5	30.90
9:21:                  35	30.89
9:22:                   5	30.89
9:22:                  35	30.89
9:23:                   5	30.90
9:23:                  35	30.93
9:24:                   5	30.96
9:24:                  35	30.96
9:25:                   5	30.92
9:25:                  35	30.94
9:26:                   5	30.92
9:26:                  35	30.90
9:27:                   5	30.92
9:27:                  35	30.92
9:28:                   5	30.90
9:28:                  35	30.88
9:29:                   5	30.86
9:29:                  36	30.89
9:30:                   6	30.92
9:30:                  36	30.92
9:31:                   6	30.92
9:31:                  36	30.92
9:32:                   6	30.95
9:32:                  36	30.93
9:33:                   6	30.93
9:33:                  36	30.91
9:34:                   6	30.89
9:34:                  36	30.90
9:35:                   6	30.89
9:35:                  36	30.87
9:36:                   6	30.86
9:36:                  36	30.89
9:37:                   6	30.86
9:37:                  36	30.86
9:38:                   6	30.86
9:38:                  36	30.86
9:39:                   6	30.86
9:39:                  36	30.85
9:40:                   6	30.85
9:40:                  36	30.86
9:41:                   6	30.89
9:41:                  36	30.86
9:42:                   6	30.86
9:42:                  36	30.87
9:43:                   6	30.89
9:43:                  36	30.90
9:44:                   6	30.91
9:44:                  36	30.90
9:45:                   6	30.90
9:45:                  36	30.91
9:46:                   6	30.91
9:46:                  36	30.90
9:47:                   6	30.92
9:47:                  36	30.91
9:48:                   6	30.92
9:48:                  36	30.94
9:49:                   6	30.92
9:49:                  36	30.92
9:50:                   6	30.89
9:50:                  37	30.88
9:51:                   7	30.88
9:51:                  37	30.88
9:52:                   7	30.89
9:52:                  37	30.89
9:53:                   7	30.86
9:53:                  37	30.86
9:54:                   7	30.88
9:54:                  37	30.89
9:55:                   7	30.86
9:55:                  37	30.86
9:56:                   7	30.89
9:56:                  37	30.90
9:57:                   7	30.89
9:57:                  37	30.88
9:58:                   7	30.87
9:58:                  37	30.88
9:59:                   7	30.86
9:59:                  37	30.91
10:00:                   7	30.89
10:00:                  37	30.91
10:01:                   7	30.89
10:01:                  37	30.88
10:02:                   7	30.89
10:02:                  37	30.90
10:03:                   7	30.89
10:03:                  37	30.87
10:04:                   7	30.87
10:04:                  37	30.88
10:05:                   7	30.90
10:05:                  37	30.90
10:06:                   7	30.89
10:06:                  37	30.89
10:07:                   8	30.88
10:07:                  38	30.85
10:08:                   8	30.88
10:08:                  38	30.90
10:09:                   8	30.90
10:09:                  38	30.89
10:10:                   8	30.89
10:10:                  38	30.87
10:11:                   8	30.85
10:11:                  38	30.89
10:12:                   8	30.88
10:12:                  38	30.86
10:13:                   8	30.86
10:13:                  38	30.85
10:14:                   8	30.84
10:14:                  38	30.83
10:15:                   8	30.82
10:15:                  38	30.82
10:16:                   8	30.82
10:16:                  38	30.81
10:17:                   8	30.81
10:17:                  38	30.81
10:18:                   8	30.80
10:18:                  38	30.82
10:19:                   8	30.82
10:19:                  38	30.83
10:20:                   8	30.82
10:20:                  38	30.84
10:21:                   8	30.84
10:21:                  38	30.82
10:22:                   8	30.82
10:22:                  38	30.83
10:23:                   8	30.83
10:23:                  38	30.82
10:24:                   8	30.81
10:24:                  38	30.81
10:25:                   8	30.80
10:25:                  38	30.81
10:26:                   9	30.83
10:26:                  39	30.82
10:27:                   9	30.81
10:27:                  39	30.80
10:28:                   9	30.79
10:28:                  39	30.80
10:29:                   9	30.82
10:29:                  39	30.86
10:30:                   9	30.90
10:30:                  39	30.90
10:31:                   9	30.88
10:31:                  39	30.88
10:32:                   9	30.88
10:32:                  39	30.88
10:33:                   9	30.85
10:33:                  39	30.85
10:34:                   9	30.84
10:34:                  39	30.83
10:35:                   9	30.83
10:35:                  39	30.84
10:36:                   9	30.81
10:36:                  39	30.82
10:37:                   9	30.84
10:37:                  39	30.82
10:38:                   9	30.81
10:38:                  39	30.82
10:39:                   9	30.81
10:39:                  39	30.80
10:40:                   9	30.81
10:40:                  39	30.82
10:41:                   9	30.83
10:41:                  39	30.83
10:42:                   9	30.82
10:42:                  39	30.81
10:43:                   9	30.82
10:43:                  39	30.83
10:44:                   9	30.83
10:44:                  40	30.84
10:45:                  10	30.84
10:45:                  40	30.82
10:46:                  10	30.80
10:46:                  40	30.81
10:47:                  10	30.83
10:47:                  40	30.84
10:48:                  10	30.84
10:48:                  40	30.82
10:49:                  10	30.81
10:49:                  40	30.81
10:50:                  10	30.81
10:50:                  40	30.80
10:51:                  10	30.81
10:51:                  40	30.81
10:52:                  10	30.81
10:52:                  40	30.81
10:53:                  10	30.80
10:53:                  40	30.80
10:54:                  10	30.79
10:54:                  40	30.80
10:55:                  10	30.80
10:55:                  40	30.84
10:56:                  10	30.85
10:56:                  40	30.84
10:57:                  10	30.82
10:57:                  40	30.82
10:58:                  10	30.83
10:58:                  40	30.84
10:59:                  10	30.84
10:59:                  40	30.83
11:00:                  10	30.86
11:00:                  40	30.87
11:01:                  11	30.89
11:01:                  41	30.89
11:02:                  11	30.87
11:02:                  41	30.85
11:03:                  11	30.84
11:03:                  41	30.83
11:04:                  11	30.83
11:04:                  41	30.83
11:05:                  11	30.84
11:05:                  41	30.85
11:06:                  11	30.84
11:06:                  41	30.84
11:07:                  11	30.88
11:07:                  41	30.88
11:08:                  11	30.85
11:08:                  41	30.88
11:09:                  11	30.87
11:09:                  41	30.86
11:10:                  11	30.86
11:10:                  41	30.86
11:11:                  11	30.83
11:11:                  41	30.83
11:12:                  11	30.85
11:12:                  41	30.85
11:13:                  11	30.82
11:13:                  41	30.80
11:14:                  11	30.82
11:14:                  41	30.83
11:15:                  11	30.85
11:15:                  41	30.84
11:16:                  11	30.85
11:16:                  41	30.84
11:17:                  11	30.84
11:17:                  41	30.84
11:18:                  11	30.83
11:18:                  41	30.81
11:19:                  11	30.83
11:19:                  41	30.83
11:20:                  11	30.85
11:20:                  41	30.84
11:21:                  11	30.82
11:21:                  41	30.83
11:22:                  11	30.84
11:22:                  41	30.86
11:23:                  11	30.85
11:23:                  42	30.85
11:24:                  12	30.84
11:24:                  42	30.84
11:25:                  12	30.86
11:25:                  42	30.86
11:26:                  12	30.85
11:26:                  42	30.89
11:27:                  12	30.92
11:27:                  42	30.93
11:28:                  12	30.90
11:28:                  42	30.86
11:29:                  12	30.89
11:29:                  42	30.88
11:30:                  12	30.86
11:30:                  42	30.86
11:31:                  12	30.86
11:31:                  42	30.84
11:32:                  12	30.81
11:32:                  42	30.84
11:33:                  12	30.84
11:33:                  42	30.82
11:34:                  12	30.81
11:34:                  42	30.79
11:35:                  12	30.79
11:35:                  42	30.81
11:36:                  12	30.83
11:36:                  42	30.83
11:37:                  12	30.83
11:37:                  42	30.83
11:38:                  12	30.81
11:38:                  42	30.81
11:39:                  12	30.81
11:39:                  42	30.80
11:40:                  12	30.81
11:40:                  43	30.80
11:41:                  13	30.83
11:41:                  43	30.80
11:42:                  13	30.79
11:42:                  43	30.79
11:43:                  13	30.81
11:43:                  43	30.83
11:44:                  13	30.82
11:44:                  43	30.82
11:45:                  13	30.81
11:45:                  43	30.80
11:46:                  13	30.83
11:46:                  43	30.84
11:47:                  13	30.85
11:47:                  43	30.86
11:48:                  13	30.86
11:48:                  43	30.86
11:49:                  13	30.88
11:49:                  43	30.86
11:50:                  13	30.84
11:50:                  43	30.84
11:51:                  13	30.84
11:51:                  43	30.85
11:52:                  13	30.85
11:52:                  43	30.86
11:53:                  13	30.85
11:53:                  43	30.87
11:54:                  13	30.90
11:54:                  43	30.90
11:55:                  13	30.88
11:55:                  43	30.88
11:56:                  13	30.88
11:56:                  43	30.86
11:57:                  13	30.87
11:57:                  43	30.87
11:58:                  13	30.88
11:58:                  43	30.86
11:59:                  13	30.86
11:59:                  43	30.85
12:00:                  13	30.85
12:00:                  43	30.90
12:01:                  14	30.92
12:01:                  44	30.91
12:02:                  14	30.91
12:02:                  44	30.90
12:03:                  14	30.91
12:03:                  44	30.90
12:04:                  14	30.91
12:04:                  44	30.91
12:05:                  14	30.90
12:05:                  44	30.91
12:06:                  14	30.92
12:06:                  44	30.95
12:07:                  14	30.95
12:07:                  44	30.92
12:08:                  14	30.90
12:08:                  44	30.89
12:09:                  14	30.91
12:09:                  44	30.90
12:10:                  14	30.90
12:10:                  44	30.89
12:11:                  14	30.89
12:11:                  44	30.90
12:12:                  14	30.90
12:12:                  44	30.89
12:13:                  14	30.88
12:13:                  44	30.88
12:14:                  14	30.87
12:14:                  44	30.88
12:15:                  14	30.86
12:15:                  44	30.86
12:16:                  14	30.89
12:16:                  44	30.88
12:17:                  14	30.89
12:17:                  44	30.89
12:18:                  14	30.89
12:18:                  44	30.90
12:19:                  14	30.90
12:19:                  44	30.89
12:20:                  14	30.90
12:20:                  44	30.88
12:21:                  14	30.90
12:21:                  44	30.94
12:22:                  15	30.93
12:22:                  45	30.94
12:23:                  15	30.94
12:23:                  45	30.94
12:24:                  15	30.92
12:24:                  45	30.93
12:25:                  15	30.93
12:25:                  45	30.93
12:26:                  15	30.93
12:26:                  45	30.93
12:27:                  15	30.92
12:27:                  45	30.92
12:28:                  15	30.92
12:28:                  45	30.91
12:29:                  15	30.90
12:29:                  45	30.89
12:30:                  15	30.89
12:30:                  45	30.89
12:31:                  15	30.90
12:31:                  45	30.89
12:32:                  15	30.90
12:32:                  45	30.93
12:33:                  15	30.93
12:33:                  45	30.93
12:34:                  15	30.91
12:34:                  45	30.92
12:35:                  15	30.94
12:35:                  45	30.93
12:36:                  15	30.92
12:36:                  45	30.90
12:37:                  15	30.89
12:37:                  45	30.90
12:38:                  15	30.93
12:38:                  45	30.93
12:39:                  16	30.91
12:39:                  46	30.89
12:40:                  16	30.89
12:40:                  46	30.89
12:41:                  16	30.90
12:41:                  46	30.89
12:42:                  16	30.88
12:42:                  46	30.88
12:43:                  16	30.90
12:43:                  46	30.92
12:44:                  16	30.92
12:44:                  46	30.91
12:45:                  16	30.92
12:45:                  46	30.92
12:46:                  16	30.93
12:46:                  46	30.94
12:47:                  16	30.94
12:47:                  46	30.93
12:48:                  16	30.92
12:48:                  46	30.91
12:49:                  16	30.91
12:49:                  46	30.91
12:50:                  16	30.90
12:50:                  46	30.90
12:51:                  16	30.93
12:51:                  46	30.95
12:52:                  16	30.96
12:52:                  46	30.93
12:53:                  16	30.93
12:53:                  46	30.93
12:54:                  16	30.94
12:54:                  46	30.92
12:55:                  16	30.93
12:55:                  46	30.93
12:56:                  16	30.94
12:56:                  46	30.94
12:57:                  17	30.95
12:57:                  47	30.94
12:58:                  17	30.95
12:58:                  47	30.97
12:59:                  17	30.99
12:59:                  47	30.99
13:00:                  17	30.97
13:00:                  47	31.00
13:01:                  17	31.01
13:01:                  47	31.03
13:02:                  17	31.04
13:02:                  47	31.03
13:03:                  17	31.01
13:03:                  47	30.98
13:04:                  17	30.95
13:04:                  47	30.93
13:05:                  17	30.92
13:05:                  47	30.92
13:06:                  17	30.92
13:06:                  47	30.92
13:07:                  17	30.93
13:07:                  47	30.95
13:08:                  17	30.93
13:08:                  47	30.94
13:09:                  17	30.94
13:09:                  47	30.95
13:10:                  17	30.93
13:10:                  47	30.93
13:11:                  17	30.91
13:11:                  47	30.92
13:12:                  17	30.92
13:12:                  47	30.93
13:13:                  17	30.96
13:13:                  47	30.96
13:14:                  17	30.95
13:14:                  48	30.95
13:15:                  18	30.94
13:15:                  48	30.95
13:16:                  18	30.95
13:16:                  48	31.00
13:17:                  18	31.01
13:17:                  48	31.00
13:18:                  18	30.97
13:18:                  48	30.97
13:19:                  18	30.97
13:19:                  48	30.96
13:20:                  18	30.96
13:20:                  48	30.95
13:21:                  18	30.95
13:21:                  48	30.94
13:22:                  18	30.94
13:22:                  48	30.96
13:23:                  18	30.96
13:23:                  48	30.96
13:24:                  18	30.93
13:24:                  48	30.93
13:25:                  18	30.94
13:25:                  48	30.96
13:26:                  18	30.94
13:26:                  48	30.94
13:27:                  18	30.94
13:27:                  48	30.93
13:28:                  18	30.93
13:28:                  48	30.95
13:29:                  18	30.95
13:29:                  48	30.93
13:30:                  18	30.95
13:30:                  48	30.94
13:31:                  18	30.95
13:31:                  48	30.94
13:32:                  18	30.97
13:32:                  48	30.97
13:33:                  18	30.98
13:33:                  48	30.99
13:34:                  18	31.00
13:34:                  48	31.00
13:35:                  18	31.00
13:35:                  48	31.01
13:36:                  18	31.00
13:36:                  48	30.98
13:37:                  18	30.96
13:37:                  49	30.97
13:38:                  19	31.00
13:38:                  49	31.00
13:39:                  19	30.98
13:39:                  49	30.98
13:40:                  19	30.99
13:40:                  49	30.99
13:41:                  19	31.00
13:41:                  49	31.02
13:42:                  19	31.03
13:42:                  49	31.01
13:43:                  19	31.01
13:43:                  49	31.00
13:44:                  19	31.01
13:44:                  49	31.00
13:45:                  19	30.99
13:45:                  49	30.98
13:46:                  19	30.99
13:46:                  49	31.01
13:47:                  19	31.04
13:47:                  49	31.05
13:48:                  19	31.03
13:48:                  49	31.02
13:49:                  19	31.01
13:49:                  49	31.00
13:50:                  19	30.99
13:50:                  49	31.00
13:51:                  19	31.01
13:51:                  49	31.00
13:52:                  19	31.00
13:52:                  49	31.00
13:53:                  19	31.02
13:53:                  49	31.04
13:54:                  19	31.03
13:54:                  49	31.03
13:55:                  19	31.02
13:55:                  49	31.00
13:56:                  19	31.00
13:56:                  49	30.99
13:57:                  19	30.97
13:57:                  50	31.00
13:58:                  20	31.02
13:58:                  50	31.01
13:59:                  20	31.00
13:59:                  50	31.02
14:00:                  20	31.00
14:00:                  50	30.99
14:01:                  20	30.98
14:01:                  50	31.00
14:02:                  20	31.01
14:02:                  50	30.99
14:03:                  20	30.98
14:03:                  50	31.00
14:04:                  20	31.01
14:04:                  50	31.01
14:05:                  20	30.99
14:05:                  50	31.02
14:06:                  20	31.03
14:06:                  50	31.04
14:07:                  20	31.03
14:07:                  50	31.02
14:08:                  20	31.02
14:08:                  50	31.01
14:09:                  20	31.00
14:09:                  50	31.03
14:10:                  20	31.02
14:10:                  50	31.01
14:11:                  20	31.00
14:11:                  50	30.99
14:12:                  20	31.00
14:12:                  50	31.00
14:13:                  20	30.98
14:13:                  50	31.01
14:14:                  21	31.02
14:14:                  51	31.03
14:15:                  21	31.02
14:15:                  51	31.01
14:16:                  21	31.03
14:16:                  51	31.03
14:17:                  21	31.02
14:17:                  51	31.02
14:18:                  21	31.01
14:18:                  51	31.01
14:19:                  21	31.00
14:19:                  51	31.01
14:20:                  21	31.00
14:20:                  51	31.02
14:21:                  21	31.03
14:21:                  51	31.01
14:22:                  21	31.01
14:22:                  51	31.01
14:23:                  21	31.02
14:23:                  51	31.03
14:24:                  21	31.03
14:24:                  51	31.03
14:25:                  21	31.02
14:25:                  51	31.01
14:26:                  21	31.00
14:26:                  51	31.01
14:27:                  21	31.00
14:27:                  51	31.00
14:28:                  21	31.00
14:28:                  51	31.01
14:29:                  21	31.03
14:29:                  51	31.04
14:30:                  21	31.05
14:30:                  51	31.02
14:31:                  21	31.01
14:31:                  51	31.03
14:32:                  21	31.02
14:32:                  51	31.01
14:33:                  22	31.02
14:33:                  52	31.04
14:34:                  22	31.03
14:34:                  52	31.03
14:35:                  22	31.03
14:35:                  52	31.04
14:36:                  22	31.02
14:36:                  52	31.02
14:37:                  22	31.01
14:37:                  52	31.03
14:38:                  22	31.03
14:38:                  52	31.01
14:39:                  22	31.01
14:39:                  52	31.02
14:40:                  22	31.00
14:40:                  52	31.00
14:41:                  22	31.00
14:41:                  52	31.01
14:42:                  22	31.00
14:42:                  52	31.01
14:43:                  22	31.01
14:43:                  52	31.01
14:44:                  22	31.01
14:44:                  52	31.01
14:45:                  22	31.02
14:45:                  52	31.03
14:46:                  22	31.02
14:46:                  52	31.01
14:47:                  22	31.04
14:47:                  52	31.04
14:48:                  22	31.03
14:48:                  52	31.01
14:49:                  22	31.02
14:49:                  52	31.01
14:50:                  22	31.02
14:50:                  52	31.02
14:51:                  22	30.99
14:51:                  52	31.01
14:52:                  22	31.01
14:52:                  52	31.01
14:53:                  23	31.02
14:53:                  53	31.05
14:54:                  23	31.05
14:54:                  53	31.02
14:55:                  23	31.01
14:55:                  53	31.01
14:56:                  23	31.03
14:56:                  53	31.02
14:57:                  23	31.01
14:57:                  53	31.01
14:58:                  23	30.99
14:58:                  53	31.02
14:59:                  23	31.04
14:59:                  53	31.07
15:00:                  23	31.06
15:00:                  53	31.03
15:01:                  23	31.04
15:01:                  53	31.03
15:02:                  23	31.02
15:02:                  53	31.02
15:03:                  23	31.01
15:03:                  53	31.03
15:04:                  23	31.03
15:04:                  53	31.03
15:05:                  23	31.02
15:05:                  53	31.01
15:06:                  23	31.01
15:06:                  53	31.02
15:07:                  23	31.02
15:07:                  53	31.03
15:08:                  23	31.02
15:08:                  53	31.00
15:09:                  23	31.01
15:09:                  54	31.01
15:10:                  24	31.01
15:10:                  54	30.99
15:11:                  24	31.02
15:11:                  54	31.01
15:12:                  24	31.01
15:12:                  54	31.01
15:13:                  24	31.02
15:13:                  54	31.01
15:14:                  24	31.02
15:14:                  54	31.01
15:15:                  24	31.00
15:15:                  54	31.03
15:16:                  24	31.04
15:16:                  54	31.01
15:17:                  24	31.02
15:17:                  54	31.04
15:18:                  24	31.03
15:18:                  54	31.01
15:19:                  24	31.01
15:19:                  54	31.01
15:20:                  24	31.02
15:20:                  54	31.04
15:21:                  24	31.04
15:21:                  54	31.05
15:22:                  24	31.08
15:22:                  54	31.08
15:23:                  24	31.07
15:23:                  54	31.05
15:24:                  24	31.04
15:24:                  54	31.03
15:25:                  24	31.04
15:25:                  54	31.07
15:26:                  25	31.06
15:26:                  55	31.07
15:27:                  25	31.08
15:27:                  55	31.07
15:28:                  25	31.05
15:28:                  55	31.03
15:29:                  25	31.06
15:29:                  55	31.11
15:30:                  25	31.08
15:30:                  55	31.07
15:31:                  25	31.06
15:31:                  55	31.05
15:32:                  25	31.04
15:32:                  55	31.04
15:33:                  25	31.03
15:33:                  55	31.03
15:34:                  25	31.02
15:34:                  55	31.02
15:35:                  25	31.01
15:35:                  55	31.00
15:36:                  25	31.00
15:36:                  55	31.00
15:37:                  25	31.04
15:37:                  55	31.04
15:38:                  25	31.04
15:38:                  55	31.05
15:39:                  25	31.05
15:39:                  55	31.06
15:40:                  25	31.06
15:40:                  55	31.05
15:41:                  25	31.03
15:41:                  55	31.07
15:42:                  25	31.07
15:42:                  56	31.05
15:43:                  26	31.04
15:43:                  56	31.03
15:44:                  26	31.04
15:44:                  56	31.05
15:45:                  26	31.04
15:45:                  56	31.04
15:46:                  26	31.03
15:46:                  56	31.03
15:47:                  26	31.05
15:47:                  56	31.07
15:48:                  26	31.11
15:48:                  56	31.09
15:49:                  26	31.08
15:49:                  56	31.05
15:50:                  26	31.05
15:50:                  56	31.05
15:51:                  26	31.05
15:51:                  56	31.06
15:52:                  26	31.06
15:52:                  56	31.06
15:53:                  26	31.05
15:53:                  56	31.04
15:54:                  26	31.03
15:54:                  56	31.04
15:55:                  26	31.05
15:55:                  56	31.05
15:56:                  26	31.04
15:56:                  56	31.05
15:57:                  26	31.05
15:57:                  56	31.04
15:58:                  26	31.04
15:58:                  56	31.05
15:59:                  27	31.05
15:59:                  57	31.03
16:00:                  27	31.02
16:00:                  57	31.04
16:01:                  27	31.06
16:01:                  57	31.06
16:02:                  27	31.06
16:02:                  57	31.08
16:03:                  27	31.11
16:03:                  57	31.09
16:04:                  27	31.07
16:04:                  57	31.08
16:05:                  27	31.09
16:05:                  57	31.08
16:06:                  27	31.07
16:06:                  57	31.06
16:07:                  27	31.08
16:07:                  57	31.07
16:08:                  27	31.07
16:08:                  57	31.09
16:09:                  27	31.11
16:09:                  57	31.10
16:10:                  27	31.13
16:10:                  57	31.11
16:11:                  27	31.12
16:11:                  57	31.11
16:12:                  27	31.09
16:12:                  57	31.08
16:13:                  27	31.06
16:13:                  57	31.05
16:14:                  27	31.05
16:14:                  57	31.04
16:15:                  27	31.04
16:15:                  57	31.06
16:16:                  27	31.06
16:16:                  57	31.05
16:17:                  27	31.05
16:17:                  57	31.04
16:18:                  27	31.05
16:18:                  57	31.08
16:19:                  27	31.08
16:19:                  57	31.08
16:20:                  27	31.08
16:20:                  58	31.07
16:21:                  28	31.07
16:21:                  58	31.09
16:22:                  28	31.09
16:22:                  58	31.10
16:23:                  28	31.07
16:23:                  58	31.05
16:24:                  28	31.03
16:24:                  58	31.04
16:25:                  28	31.05
16:25:                  58	31.06
16:26:                  28	31.07
16:26:                  58	31.05
16:27:                  28	31.06
16:27:                  58	31.08
16:28:                  28	31.06
16:28:                  58	31.05
16:29:                  28	31.04
16:29:                  58	31.06
16:30:                  28	31.07
16:30:                  58	31.06
16:31:                  28	31.07
16:31:                  58	31.07
16:32:                  28	31.06
16:32:                  58	31.06
16:33:                  28	31.06
16:33:                  58	31.05
16:34:                  28	31.03
16:34:                  58	31.04
16:35:                  28	31.05
16:35:                  58	31.04
16:36:                  28	31.03
16:36:                  58	31.03
16:37:                  28	31.03
16:37:                  58	31.04
16:38:                  28	31.04
16:38:                  59	31.04
16:39:                  29	31.04
16:39:                  59	31.04
16:40:                  29	31.04
16:40:                  59	31.03
16:41:                  29	31.05
16:41:                  59	31.04
16:42:                  29	31.04
16:42:                  59	31.03
16:43:                  29	31.06
16:43:                  59	31.06
16:44:                  29	31.06
16:44:                  59	31.08
16:45:                  29	31.10
16:45:                  59	31.08
16:46:                  29	31.08
16:46:                  59	31.08
16:47:                  29	31.07
16:47:                  59	31.05
16:48:                  29	31.06
16:48:                  59	31.05
16:49:                  29	31.08
16:49:                  59	31.07
16:50:                  29	31.09
16:50:                  59	31.11
16:51:                  29	31.10
16:51:                  59	31.10
16:52:                  29	31.10
16:52:                  59	31.11
16:53:                  29	31.12
16:53:                  59	31.11
16:54:                  29	31.10
16:54:                  59	31.10
16:55:                  29	31.10
16:55:                  59	31.11
16:56:                  29	31.13
16:56:                  59	31.11
16:57:                  29	31.09
16:57:                  59	31.09
16:58:                  30	31.10
16:59:                   0	31.11
16:59:                  30	31.10
17:00:                   0	31.09
17:00:                  30	31.08
17:01:                   0	31.09
17:01:                  30	31.09
17:02:                   0	31.11
17:02:                  30	31.13
17:03:                   0	31.13
17:03:                  30	31.12
17:04:                   0	31.13
17:04:                  30	31.16
17:05:                   0	31.14
17:05:                  30	31.14
17:06:                   0	31.16
17:06:                  30	31.14
17:07:                   0	31.16
17:07:                  30	31.16
17:08:                   0	31.15
17:08:                  30	31.13
17:09:                   0	31.09
17:09:                  30	31.11
17:10:                   0	31.13
17:10:                  30	31.14
17:11:                   0	31.12
17:11:                  30	31.14
17:12:                   0	31.14
17:12:                  30	31.12
17:13:                   0	31.10
17:13:                  30	31.08
17:14:                   0	31.08
17:14:                  30	31.08
17:15:                   0	31.09
17:15:                  30	31.09
17:16:                   0	31.11
17:16:                  30	31.10
17:17:                   0	31.11
17:17:                  31	31.10
17:18:                   1	31.09
17:18:                  31	31.08
17:19:                   1	31.09
17:19:                  31	31.11
17:20:                   1	31.09
17:20:                  31	31.09
17:21:                   1	31.07
17:21:                  31	31.09
17:22:                   1	31.08
17:22:                  31	31.08
17:23:                   1	31.09
17:23:                  31	31.08
17:24:                   1	31.10
17:24:                  31	31.11
17:25:                   1	31.11
17:25:                  31	31.09
17:26:                   1	31.10
17:26:                  31	31.09
17:27:                   1	31.10
17:27:                  31	31.11
17:28:                   1	31.10
17:28:                  31	31.09
17:29:                   1	31.09
17:29:                  31	31.10
17:30:                   1	31.09
17:30:                  31	31.08
17:31:                   1	31.10
17:31:                  31	31.12
17:32:                   1	31.13
17:32:                  31	31.13
17:33:                   1	31.13
17:33:                  31	31.13
17:34:                   1	31.13
17:34:                  31	31.14
17:35:                   1	31.12
17:35:                  31	31.12
17:36:                   2	31.12
17:36:                  32	31.12
17:37:                   2	31.10
17:37:                  32	31.08
17:38:                   2	31.10
17:38:                  32	31.10
17:39:                   2	31.11
17:39:                  32	31.10
17:40:                   2	31.11
17:40:                  32	31.11
17:41:                   2	31.12
17:41:                  32	31.10
17:42:                   2	31.11
17:42:                  32	31.12
17:43:                   2	31.12
17:43:                  32	31.14
17:44:                   2	31.11
17:44:                  32	31.13
17:45:                   2	31.13
17:45:                  32	31.12
17:46:                   2	31.11
17:46:                  32	31.13
17:47:                   2	31.13
17:47:                  32	31.10
17:48:                   2	31.10
17:48:                  32	31.10
17:49:                   2	31.11
17:49:                  32	31.12
17:50:                   2	31.10
17:50:                  32	31.10
17:51:                   2	31.08
17:51:                  32	31.09
17:52:                   2	31.09
17:52:                  32	31.09
17:53:                   2	31.12
17:53:                  32	31.10
17:54:                   2	31.09
17:54:                  32	31.08
17:55:                   2	31.08
17:55:                  32	31.08
17:56:                   3	31.12
17:56:                  33	31.11
17:57:                   3	31.10
17:57:                  33	31.10
17:58:                   3	31.10
17:58:                  33	31.10
17:59:                   3	31.08
17:59:                  33	31.09
18:00:                   3	31.10
18:00:                  33	31.08
18:01:                   3	31.08
18:01:                  33	31.09
18:02:                   3	31.09
18:02:                  33	31.10
18:03:                   3	31.09
18:03:                  33	31.09
18:04:                   3	31.10
18:04:                  33	31.10
18:05:                   3	31.09
18:05:                  33	31.10
18:06:                   3	31.12
18:06:                  33	31.13
18:07:                   3	31.12
18:07:                  33	31.13
18:08:                   3	31.13
18:08:                  33	31.14
18:09:                   3	31.14
18:09:                  33	31.13
18:10:                   3	31.11
18:10:                  33	31.11
18:11:                   3	31.09
18:11:                  33	31.08
18:12:                   3	31.10
18:12:                  34	31.13
18:13:                   4	31.14
18:13:                  34	31.12
18:14:                   4	31.11
18:14:                  34	31.10
18:15:                   4	31.10
18:15:                  34	31.10
18:16:                   4	31.11
18:16:                  34	31.10
18:17:                   4	31.08
18:17:                  34	31.11
18:18:                   4	31.12
18:18:                  34	31.13
18:19:                   4	31.15
18:19:                  34	31.13
18:20:                   4	31.13
18:20:                  34	31.13
18:21:                   4	31.13
18:21:                  34	31.11
18:22:                   4	31.11
18:22:                  34	31.13
18:23:                   4	31.13
18:23:                  34	31.13
18:24:                   4	31.12
18:24:                  34	31.12
18:25:                   4	31.11
18:25:                  34	31.11
18:26:                   4	31.10
18:26:                  34	31.10
18:27:                   4	31.10
18:27:                  34	31.10
18:28:                   4	31.09
18:28:                  34	31.07
18:29:                   4	31.10
18:29:                  34	31.08
18:30:                   4	31.07
18:30:                  34	31.06
18:31:                   4	31.06
18:31:                  34	31.08
18:32:                   5	31.12
18:32:                  35	31.11
18:33:                   5	31.11
18:33:                  35	31.12
18:34:                   5	31.12
18:34:                  35	31.10
18:35:                   5	31.11
18:35:                  35	31.11
18:36:                   5	31.10
18:36:                  35	31.12
18:37:                   5	31.13
18:37:                  35	31.11
18:38:                   5	31.08
18:38:                  35	31.09
18:39:                   5	31.07
18:39:                  35	31.06
18:40:                   5	31.07
18:40:                  35	31.07
18:41:                   5	31.06
18:41:                  35	31.06
18:42:                   5	31.08
18:42:                  35	31.07
18:43:                   5	31.06
18:43:                  35	31.06
18:44:                   5	31.06
18:44:                  35	31.05
18:45:                   5	31.05
18:45:                  35	31.04
18:46:                   5	31.04
18:46:                  35	31.06
18:47:                   5	31.04
18:47:                  36	31.05
18:48:                   6	31.06
18:48:                  36	31.06
18:49:                   6	31.05
18:49:                  36	31.05
18:50:                   6	31.05
18:50:                  36	31.05
18:51:                   6	31.09
18:51:                  36	31.10
18:52:                   6	31.08
18:52:                  36	31.06
18:53:                   6	31.07
18:53:                  36	31.08
18:54:                   6	31.12
18:54:                  36	31.11
18:55:                   6	31.12
18:55:                  36	31.09
18:56:                   6	31.07
18:56:                  36	31.07
18:57:                   6	31.07
18:57:                  36	31.06
18:58:                   6	31.09
18:58:                  36	31.12
18:59:                   6	31.12
18:59:                  36	31.10
19:00:                   6	31.11
19:00:                  36	31.09
19:01:                   6	31.09
19:01:                  36	31.10
19:02:                   6	31.09
19:02:                  36	31.09
19:03:                   6	31.10
19:03:                  36	31.10
19:04:                   6	31.09
19:04:                  36	31.08
19:05:                   6	31.08
19:05:                  36	31.08
19:06:                   6	31.09
19:06:                  36	31.09
19:07:                   6	31.09
19:07:                  37	31.07
19:08:                   7	31.08
19:08:                  37	31.09
19:09:                   7	31.10
19:09:                  37	31.11
19:10:                   7	31.09
19:10:                  37	31.09
19:11:                   7	31.07
19:11:                  37	31.08
19:12:                   7	31.08
19:12:                  37	31.08
19:13:                   7	31.10
19:13:                  37	31.10
19:14:                   7	31.09
19:14:                  37	31.08
19:15:                   7	31.08
19:15:                  37	31.08
19:16:                   7	31.10
19:16:                  37	31.10
19:17:                   7	31.09
19:17:                  37	31.09
19:18:                   7	31.07
19:18:                  37	31.09
19:19:                   7	31.07
19:19:                  37	31.09
19:20:                   7	31.07
19:20:                  37	31.07
19:21:                   7	31.08
19:21:                  37	31.10
19:22:                   7	31.09
19:22:                  37	31.09
19:23:                   7	31.07
19:23:                  37	31.06
19:24:                   7	31.08
19:24:                  38	31.09
19:25:                   8	31.08
19:25:                  38	31.07
19:26:                   8	31.06
19:26:                  38	31.08
19:27:                   8	31.15
19:27:                  38	31.17
19:28:                   8	31.19
19:28:                  38	31.16
19:29:                   8	31.14
19:29:                  38	31.12
19:30:                   8	31.10
19:30:                  38	31.11
19:31:                   8	31.08
19:31:                  38	31.08
19:32:                   8	31.12
19:32:                  38	31.14
19:33:                   8	31.13
19:33:                  38	31.11
19:34:                   8	31.10
19:34:                  38	31.08
19:35:                   8	31.07
19:35:                  38	31.05
19:36:                   8	31.01
19:36:                  38	31.01
19:37:                   8	31.04
19:37:                  38	31.02
19:38:                   8	31.02
19:38:                  38	31.03
19:39:                   8	31.03
19:39:                  38	31.04
19:40:                   9	31.07
19:40:                  39	31.12
19:41:                   9	31.15
19:41:                  39	31.13
19:42:                   9	31.13
19:42:                  39	31.15
19:43:                   9	31.15
19:43:                  39	31.17
19:44:                   9	31.18
19:44:                  39	31.17
19:45:                   9	31.19
19:45:                  39	31.19
19:46:                   9	31.16
19:46:                  39	31.11
19:47:                   9	31.08
19:47:                  39	31.05
19:48:                   9	31.04
19:48:                  39	31.04
19:49:                   9	31.03
19:49:                  39	31.01
19:50:                   9	31.01
19:50:                  39	31.01
19:51:                   9	31.10
19:51:                  39	31.19
19:52:                   9	31.22
19:52:                  39	31.19
19:53:                   9	31.15
19:53:                  39	31.10
19:54:                   9	31.10
19:54:                  39	31.04
19:55:                   9	31.03
19:55:                  39	31.03
19:56:                  10	31.03
19:56:                  40	31.03
19:57:                  10	31.03
19:57:                  40	31.01
19:58:                  10	31.02
19:58:                  40	31.02
19:59:                  10	31.01
19:59:                  40	31.00
20:00:                  10	31.00
20:00:                  40	30.98
20:01:                  10	30.96
20:01:                  40	30.97
20:02:                  10	30.98
20:02:                  40	31.00
20:03:                  10	31.01
20:03:                  40	30.99
20:04:                  10	30.98
20:04:                  40	31.01
20:05:                  10	31.03
20:05:                  40	31.04
20:06:                  10	31.09
20:06:                  40	31.11
20:07:                  10	31.12
20:07:                  40	31.12
20:08:                  10	31.15
20:08:                  40	31.13
20:09:                  10	31.11
20:09:                  40	31.12
20:10:                  10	31.12
20:10:                  40	31.13
20:11:                  10	31.11
20:11:                  40	31.13
20:12:                  10	31.13
20:12:                  40	31.10
20:13:                  11	31.09
20:13:                  41	31.03
20:14:                  11	31.02
20:14:                  41	31.00
20:15:                  11	31.00
20:15:                  41	31.00
20:16:                  11	30.99
20:16:                  41	30.98
20:17:                  11	30.98
20:17:                  41	30.99
20:18:                  11	30.98
20:18:                  41	30.96
20:19:                  11	30.96
20:19:                  41	30.94
20:20:                  11	30.93
20:20:                  41	30.92
20:21:                  11	30.91
20:21:                  41	30.89
20:22:                  11	30.86
20:22:                  41	30.87
20:23:                  11	30.89
20:23:                  41	30.89
20:24:                  11	30.89
20:24:                  41	30.90
20:25:                  11	30.89
20:25:                  41	30.89
20:26:                  11	30.91
20:26:                  41	30.98
20:27:                  11	30.98
20:27:                  41	30.97
20:28:                  11	31.07
20:28:                  41	31.16
20:29:                  12	31.20
20:29:                  42	31.18
20:30:                  12	31.14
20:30:                  42	31.17
20:31:                  12	31.20
20:31:                  42	31.20
20:32:                  12	31.22
20:32:                  42	31.16
20:33:                  12	31.14
20:33:                  42	31.09
20:34:                  12	31.04
20:34:                  42	31.03
20:35:                  12	31.01
20:35:                  42	31.00
20:36:                  12	31.01
20:36:                  42	31.05
20:37:                  12	31.08
20:37:                  42	31.14
20:38:                  12	31.17
20:38:                  42	31.16
20:39:                  12	31.13
20:39:                  42	31.11
20:40:                  12	31.13
20:40:                  42	31.10
20:41:                  12	31.08
20:41:                  42	31.03
20:42:                  12	31.06
20:42:                  42	31.03
20:43:                  12	31.01
20:43:                  42	31.00
20:44:                  12	30.99
20:44:                  43	31.01
20:45:                  13	31.06
20:45:                  43	31.13
20:46:                  13	31.16
20:46:                  43	31.10
20:47:                  13	31.09
20:47:                  43	31.05
20:48:                  13	31.01
20:48:                  43	31.00
20:49:                  13	30.97
20:49:                  43	30.94
20:50:                  13	30.91
20:50:                  43	30.90
20:51:                  13	30.91
20:51:                  43	30.89
20:52:                  13	30.89
20:52:                  43	30.86
20:53:                  13	30.85
20:53:                  43	30.85
20:54:                  13	30.84
20:54:                  43	30.85
20:55:                  13	30.86
20:55:                  43	30.88
20:56:                  13	30.88
20:56:                  43	30.84
20:57:                  13	30.84
20:57:                  43	30.83
20:58:                  13	30.82
20:58:                  43	30.81
20:59:                  13	30.83
20:59:                  43	30.82
21:00:                  13	30.80
21:00:                  44	30.80
21:01:                  14	30.84
21:01:                  44	30.85
21:02:                  14	30.82
21:02:                  44	30.83
21:03:                  14	30.85
21:03:                  44	30.86
21:04:                  14	30.82
21:04:                  44	30.82
21:05:                  14	30.82
21:05:                  44	30.81
21:06:                  14	30.84
21:06:                  44	30.84
21:07:                  14	30.82
21:07:                  44	30.81
21:08:                  14	30.81
21:08:                  44	30.83
21:09:                  14	30.80
21:09:                  44	30.83
21:10:                  14	30.89
21:10:                  44	30.89
21:11:                  14	30.90
21:11:                  44	30.94
21:12:                  14	31.00
21:12:                  44	31.05
21:13:                  14	31.07
21:13:                  44	31.04
21:14:                  14	31.01
21:14:                  44	31.03
21:15:                  14	31.03
21:15:                  44	31.04
21:16:                  14	31.01
21:16:                  44	30.98
21:17:                  15	30.98
21:17:                  45	30.94
21:18:                  15	30.92
21:18:                  45	30.89
21:19:                  15	30.86
21:19:                  45	30.85
21:20:                  15	30.85
21:20:                  45	30.88
21:21:                  15	30.86
21:21:                  45	30.93
21:22:                  15	30.99
21:22:                  45	30.98
21:23:                  15	31.01
21:23:                  45	31.05
21:24:                  15	31.11
21:24:                  45	31.08
21:25:                  15	31.08
21:25:                  45	31.10
21:26:                  15	31.05
21:26:                  45	31.08
21:27:                  15	31.06
21:27:                  45	31.05
21:28:                  15	31.08
21:28:                  45	31.11
21:29:                  15	31.10
21:29:                  45	31.15
21:30:                  15	31.16
21:30:                  45	31.14
21:31:                  15	31.15
21:31:                  45	31.15
21:32:                  15	31.14
21:32:                  45	31.17
21:33:                  16	31.17
21:33:                  46	31.24
21:34:                  16	31.26
21:34:                  46	31.27
21:35:                  16	31.29
21:35:                  46	31.30
21:36:                  16	31.24
21:36:                  46	31.22
21:37:                  16	31.19
21:37:                  46	31.21
21:38:                  16	31.24
21:38:                  46	31.24
21:39:                  16	31.24
21:39:                  46	31.26
21:40:                  16	31.22
21:40:                  46	31.17
21:41:                  16	31.14
21:41:                  46	31.08
21:42:                  16	31.07
21:42:                  46	31.10
21:43:                  16	31.14
21:43:                  46	31.17
21:44:                  16	31.17
21:44:                  46	31.18
21:45:                  16	31.16
21:45:                  46	31.21
21:46:                  16	31.20
21:46:                  46	31.19
21:47:                  16	31.20
21:47:                  46	31.21
21:48:                  16	31.27
21:48:                  47	31.25
21:49:                  17	31.28
21:49:                  47	31.27
21:50:                  17	31.27
21:50:                  47	31.27
21:51:                  17	31.23
21:51:                  47	31.17
21:52:                  17	31.19
21:52:                  47	31.14
21:53:                  17	31.09
21:53:                  47	31.07
21:54:                  17	31.04
21:54:                  47	31.02
21:55:                  17	31.00
21:55:                  47	31.00
21:56:                  17	30.99
21:56:                  47	31.01
21:57:                  17	31.03
21:57:                  47	31.04
21:58:                  17	31.05
21:58:                  47	31.05
21:59:                  17	31.05
21:59:                  47	31.04
22:00:                  17	31.04
22:00:                  47	31.00
22:01:                  17	30.96
22:01:                  47	30.93
22:02:                  17	30.96
22:02:                  47	30.96
22:03:                  17	30.93
22:03:                  47	30.90
22:04:                  17	30.86
22:04:                  47	30.85
22:05:                  17	30.84
22:05:                  48	30.82
22:06:                  18	30.86
22:06:                  48	30.85
22:07:                  18	30.86
22:07:                  48	30.86
22:08:                  18	30.83
22:08:                  48	30.84
22:09:                  18	30.80
22:09:                  48	30.76
22:10:                  18	30.75
22:10:                  48	30.80
22:11:                  18	30.85
22:11:                  48	30.88
22:12:                  18	30.93
22:12:                  48	30.97
22:13:                  18	30.96
22:13:                  48	30.92
22:14:                  18	30.85
22:14:                  48	30.84
22:15:                  18	30.93
22:15:                  48	30.95
22:16:                  18	30.97
22:16:                  48	30.97
22:17:                  18	31.01
22:17:                  48	30.99
22:18:                  18	30.97
22:18:                  48	31.01
22:19:                  18	31.05
22:19:                  48	31.08
22:20:                  18	31.07
22:20:                  48	31.05
22:21:                  18	31.11
22:21:                  48	31.15
22:22:                  18	31.15
22:22:                  49	31.13
22:23:                  19	31.15
22:23:                  49	31.12
22:24:                  19	31.04
22:24:                  49	31.03
22:25:                  19	30.97
22:25:                  49	30.93
22:26:                  19	30.96
22:26:                  49	30.96
22:27:                  19	30.91
22:27:                  49	30.87
22:28:                  19	30.88
22:28:                  49	30.83
22:29:                  19	30.82
22:29:                  49	30.80
22:30:                  19	30.79
22:30:                  49	30.75
22:31:                  19	30.75
22:31:                  49	30.76
22:32:                  19	30.84
22:32:                  49	30.90
22:33:                  19	30.91
22:33:                  49	30.97
22:34:                  19	31.04
22:34:                  49	31.07
22:35:                  19	31.04
22:35:                  49	31.03
22:36:                  19	31.04
22:36:                  49	31.02
22:37:                  19	31.04
22:37:                  49	31.03
22:38:                  19	31.08
22:38:                  50	31.07
22:39:                  20	31.05
22:39:                  50	31.04
22:40:                  20	31.04
22:40:                  50	31.00
22:41:                  20	30.98
22:41:                  50	30.99
22:42:                  20	30.99
22:42:                  50	30.97
22:43:                  20	31.02
22:43:                  50	31.02
22:44:                  20	31.01
22:44:                  50	31.05
22:45:                  20	31.04
22:45:                  50	31.00
22:46:                  20	31.06
22:46:                  50	31.06
22:47:                  20	31.00
22:47:                  50	31.00
22:48:                  20	31.07
22:48:                  50	31.11
22:49:                  20	31.09
22:49:                  50	31.11
22:50:                  20	31.13
22:50:                  50	31.18
22:51:                  20	31.20
22:51:                  50	31.20
22:52:                  20	31.22
22:52:                  50	31.22
22:53:                  20	31.25
22:53:                  50	31.22
22:54:                  21	31.22
22:54:                  51	31.17
22:55:                  21	31.17
22:55:                  51	31.16
22:56:                  21	31.09
22:56:                  51	31.09
22:57:                  21	31.04
22:57:                  51	30.98
22:58:                  21	30.92
22:58:                  51	30.92
22:59:                  21	30.86
22:59:                  51	30.86
23:00:                  21	30.95
23:00:                  51	30.98
23:01:                  21	31.01
23:01:                  51	30.98
23:02:                  21	30.91
23:02:                  51	30.92
23:03:                  21	30.92
23:03:                  51	30.91
23:04:                  21	30.89
23:04:                  51	30.89
23:05:                  21	30.85
23:05:                  51	30.80
23:06:                  21	30.81
23:06:                  51	30.76
23:07:                  21	30.75
23:07:                  51	30.74
23:08:                  21	30.74
23:08:                  51	30.71
23:09:                  21	30.69
23:09:                  51	30.69
23:10:                  21	30.67
23:10:                  51	30.66
23:11:                  21	30.65
23:11:                  51	30.66
23:12:                  21	30.65
23:12:                  51	30.64
23:13:                  22	30.62
23:13:                  52	30.63
23:14:                  22	30.63
23:14:                  52	30.64
23:15:                  22	30.62
23:15:                  52	30.62
23:16:                  22	30.61
23:16:                  52	30.60
23:17:                  22	30.59
23:17:                  52	30.59
23:18:                  22	30.58
23:18:                  52	30.59
23:19:                  22	30.64
23:19:                  52	30.62
23:20:                  22	30.61
23:20:                  52	30.64
23:21:                  22	30.67
23:21:                  52	30.68
23:22:                  22	30.67
23:22:                  52	30.65
23:23:                  22	30.64
23:23:                  52	30.65
23:24:                  22	30.65
23:24:                  52	30.63
23:25:                  22	30.64
23:25:                  52	30.66
23:26:                  22	30.67
23:26:                  52	30.67
23:27:                  22	30.67
23:27:                  52	30.70
23:28:                  22	30.69
23:28:                  52	30.68
23:29:                  22	30.68
23:29:                  52	30.69
23:30:                  22	30.69
23:30:                  52	30.68
23:31:                  22	30.70
23:31:                  52	30.69
23:32:                  23	30.68
23:32:                  53	30.68
23:33:                  23	30.67
23:33:                  53	30.66
23:34:                  23	30.63
23:34:                  53	30.65
23:35:                  23	30.64
23:35:                  53	30.64
23:36:                  23	30.61
23:36:                  53	30.60
23:37:                  23	30.61
23:37:                  53	30.63
23:38:                  23	30.66
23:38:                  53	30.65
23:39:                  23	30.66
23:39:                  53	30.65
23:40:                  23	30.66
23:40:                  53	30.65
23:41:                  23	30.66
23:41:                  53	30.69
23:42:                  23	30.70
23:42:                  53	30.69
23:43:                  23	30.72
23:43:                  53	30.70
23:44:                  23	30.72
23:44:                  53	30.73
23:45:                  23	30.73
23:45:                  53	30.75
23:46:                  23	30.75
23:46:                  53	30.74
23:47:                  23	30.72
23:47:                  53	30.70
23:48:                  23	30.69
23:48:                  53	30.71
23:49:                  23	30.73
23:49:                  53	30.72
23:50:                  23	30.71
23:50:                  53	30.71
23:51:                  23	30.69
23:51:                  53	30.69
23:52:                  24	30.69
23:52:                  54	30.68
23:53:                  24	30.68
23:53:                  54	30.67
23:54:                  24	30.68
23:54:                  54	30.71
23:55:                  24	30.71
23:55:                  54	30.71
23:56:                  24	30.70
23:56:                  54	30.69
23:57:                  24	30.69
23:57:                  54	30.68
23:58:                  24	30.66
23:58:                  54	30.65
23:59:                  24	30.64
23:59:                  54	30.64
