0:00:                  29	28.38
0:00:                  59	28.32
0:01:                  29	28.37
0:01:                  59	28.35
0:02:                  29	28.30
0:02:                  59	28.37
0:03:                  29	28.29
0:04:                   0	28.31
0:04:                  30	28.41
0:05:                   0	28.35
0:05:                  30	28.46
0:06:                   0	28.41
0:06:                  30	28.50
0:07:                   0	28.46
0:07:                  30	28.43
0:08:                   0	28.48
0:08:                  30	28.49
0:09:                   0	28.41
0:09:                  30	28.50
0:10:                   0	28.55
0:10:                  30	28.54
0:11:                   0	28.52
0:11:                  30	28.40
0:12:                   0	28.45
0:12:                  30	28.43
0:13:                   0	28.41
0:13:                  30	28.45
0:14:                   0	28.54
0:14:                  30	28.55
0:15:                   0	28.58
0:15:                  30	28.54
0:16:                   0	28.49
0:16:                  30	28.55
0:17:                   0	28.53
0:17:                  30	28.48
0:18:                   0	28.42
0:18:                  30	28.34
0:19:                   0	28.29
0:19:                  30	28.37
0:20:                   0	28.35
0:20:                  30	28.39
0:21:                   0	28.46
0:21:                  30	28.41
0:22:                   0	28.44
0:22:                  31	28.47
0:23:                   1	28.37
0:23:                  31	28.34
0:24:                   1	28.32
0:24:                  31	28.37
0:25:                   1	28.41
0:25:                  31	28.49
0:26:                   1	28.49
0:26:                  31	28.39
0:27:                   1	28.44
0:27:                  31	28.43
0:28:                   1	28.39
0:28:                  31	28.40
0:29:                   1	28.39
0:29:                  31	28.44
0:30:                   1	28.45
0:30:                  31	28.44
0:31:                   1	28.43
0:31:                  31	28.52
0:32:                   1	28.52
0:32:                  31	28.46
0:33:                   1	28.40
0:33:                  31	28.39
0:34:                   1	28.44
0:34:                  31	28.43
0:35:                   1	28.51
0:35:                  31	28.48
0:36:                   1	28.50
0:36:                  31	28.52
0:37:                   1	28.54
0:37:                  31	28.42
0:38:                   1	28.35
0:38:                  31	28.30
0:39:                   1	28.30
0:39:                  31	28.40
0:40:                   1	28.41
0:40:                  31	28.45
0:41:                   1	28.47
0:41:                  31	28.45
0:42:                   1	28.46
0:42:                  31	28.50
0:43:                   1	28.44
0:43:                  31	28.51
0:44:                   1	28.49
0:44:                  31	28.45
0:45:                   1	28.52
0:45:                  31	28.50
0:46:                   2	28.51
0:46:                  32	28.52
0:47:                   2	28.58
0:47:                  32	28.51
0:48:                   2	28.56
0:48:                  32	28.54
0:49:                   2	28.56
0:49:                  32	28.51
0:50:                   2	28.56
0:50:                  32	28.56
0:51:                   2	28.49
0:51:                  32	28.41
0:52:                   2	28.45
0:52:                  32	28.57
0:53:                   2	28.62
0:53:                  32	28.50
0:54:                   2	28.45
0:54:                  32	28.45
0:55:                   2	28.57
0:55:                  32	28.56
0:56:                   2	28.62
0:56:                  32	28.57
0:57:                   2	28.56
0:57:                  32	28.54
0:58:                   2	28.56
0:58:                  32	28.54
0:59:                   2	28.47
0:59:                  32	28.56
1:00:                   2	28.53
1:00:                  32	28.42
1:01:                   2	28.50
1:01:                  32	28.55
1:02:                   2	28.55
1:02:                  32	28.51
1:03:                   3	28.50
1:03:                  33	28.59
1:04:                   3	28.58
1:04:                  33	28.54
1:05:                   3	28.58
1:05:                  33	28.61
1:06:                   3	28.59
1:06:                  33	28.64
1:07:                   3	28.63
1:07:                  33	28.59
1:08:                   3	28.52
1:08:                  33	28.62
1:09:                   3	28.65
1:09:                  33	28.62
1:10:                   3	28.55
1:10:                  33	28.60
1:11:                   3	28.59
1:11:                  33	28.59
1:12:                   3	28.59
1:12:                  33	28.60
1:13:                   3	28.57
1:13:                  33	28.55
1:14:                   3	28.50
1:14:                  33	28.52
1:15:                   3	28.59
1:15:                  33	28.59
1:16:                   3	28.46
1:16:                  33	28.45
1:17:                   3	28.50
1:17:                  33	28.42
1:18:                   3	28.39
1:18:                  33	28.45
1:19:                   3	28.47
1:19:                  33	28.53
1:20:                   3	28.57
1:20:                  33	28.62
1:21:                   3	28.62
1:21:                  33	28.61
1:22:                   3	28.48
1:22:                  33	28.47
1:23:                   3	28.47
1:23:                  34	28.51
1:24:                   4	28.52
1:24:                  34	28.52
1:25:                   4	28.53
1:25:                  34	28.45
1:26:                   4	28.53
1:26:                  34	28.54
1:27:                   4	28.47
1:27:                  34	28.57
1:28:                   4	28.56
1:28:                  34	28.54
1:29:                   4	28.54
1:29:                  34	28.55
1:30:                   4	28.50
1:30:                  34	28.53
1:31:                   4	28.50
1:31:                  34	28.51
1:32:                   4	28.54
1:32:                  34	28.50
1:33:                   4	28.45
1:33:                  34	28.50
1:34:                   4	28.52
1:34:                  34	28.55
1:35:                   4	28.53
1:35:                  34	28.53
1:36:                   4	28.57
1:36:                  34	28.54
1:37:                   4	28.58
1:37:                  34	28.61
1:38:                   4	28.49
1:38:                  34	28.46
1:39:                   4	28.48
1:39:                  34	28.55
1:40:                   4	28.58
1:40:                  34	28.63
1:41:                   4	28.60
1:41:                  34	28.60
1:42:                   5	28.48
1:42:                  35	28.54
1:43:                   5	28.53
1:43:                  35	28.51
1:44:                   5	28.49
1:44:                  35	28.55
1:45:                   5	28.57
1:45:                  35	28.59
1:46:                   5	28.52
1:46:                  35	28.58
1:47:                   5	28.61
1:47:                  35	28.55
1:48:                   5	28.57
1:48:                  35	28.61
1:49:                   5	28.61
1:49:                  35	28.54
1:50:                   5	28.49
1:50:                  35	28.54
1:51:                   5	28.53
1:51:                  35	28.57
1:52:                   5	28.58
1:52:                  35	28.56
1:53:                   5	28.55
1:53:                  35	28.58
1:54:                   5	28.62
1:54:                  35	28.57
1:55:                   5	28.52
1:55:                  35	28.51
1:56:                   5	28.50
1:56:                  35	28.54
1:57:                   5	28.59
1:57:                  35	28.56
1:58:                   5	28.57
1:58:                  36	28.51
1:59:                   6	28.54
1:59:                  36	28.58
2:00:                   6	28.51
2:00:                  36	28.52
2:01:                   6	28.58
2:01:                  36	28.52
2:02:                   6	28.61
2:02:                  36	28.50
2:03:                   6	28.49
2:03:                  36	28.51
2:04:                   6	28.51
2:04:                  36	28.61
2:05:                   6	28.58
2:05:                  36	28.58
2:06:                   6	28.60
2:06:                  36	28.62
2:07:                   6	28.61
2:07:                  36	28.63
2:08:                   6	28.63
2:08:                  36	28.62
2:09:                   6	28.50
2:09:                  36	28.46
2:10:                   6	28.46
2:10:                  36	28.54
2:11:                   6	28.57
2:11:                  36	28.56
2:12:                   6	28.46
2:12:                  36	28.55
2:13:                   6	28.55
2:13:                  36	28.56
2:14:                   6	28.60
2:14:                  36	28.60
2:15:                   6	28.56
2:15:                  36	28.42
2:16:                   6	28.40
2:16:                  36	28.50
2:17:                   6	28.57
2:17:                  36	28.54
2:18:                   6	28.47
2:18:                  36	28.49
2:19:                   6	28.52
2:19:                  36	28.58
2:20:                   6	28.61
2:20:                  36	28.56
2:21:                   7	28.52
2:21:                  37	28.57
2:22:                   7	28.59
2:22:                  37	28.56
2:23:                   7	28.57
2:23:                  37	28.65
2:24:                   7	28.63
2:24:                  37	28.69
2:25:                   7	28.69
2:25:                  37	28.63
2:26:                   7	28.61
2:26:                  37	28.57
2:27:                   7	28.63
2:27:                  37	28.55
2:28:                   7	28.59
2:28:                  37	28.54
2:29:                   7	28.52
2:29:                  37	28.52
2:30:                   7	28.60
2:30:                  37	28.60
2:31:                   7	28.62
2:31:                  37	28.64
2:32:                   7	28.51
2:32:                  37	28.47
2:33:                   7	28.54
2:33:                  37	28.55
2:34:                   7	28.58
2:34:                  37	28.56
2:35:                   7	28.59
2:35:                  37	28.58
2:36:                   7	28.58
2:36:                  37	28.60
2:37:                   7	28.56
2:37:                  37	28.64
2:38:                   7	28.55
2:38:                  37	28.50
2:39:                   7	28.46
2:39:                  37	28.40
2:40:                   7	28.47
2:40:                  37	28.41
2:41:                   7	28.40
2:41:                  37	28.37
2:42:                   7	28.43
2:42:                  37	28.44
2:43:                   7	28.47
2:43:                  37	28.47
2:44:                   7	28.50
2:44:                  37	28.48
2:45:                   7	28.54
2:45:                  38	28.54
2:46:                   8	28.57
2:46:                  38	28.51
2:47:                   8	28.48
2:47:                  38	28.56
2:48:                   8	28.57
2:48:                  38	28.50
2:49:                   8	28.51
2:49:                  38	28.45
2:50:                   8	28.42
2:50:                  38	28.39
2:51:                   8	28.51
2:51:                  38	28.39
2:52:                   8	28.43
2:52:                  38	28.52
2:53:                   8	28.51
2:53:                  38	28.49
2:54:                   8	28.50
2:54:                  38	28.49
2:55:                   8	28.55
2:55:                  38	28.59
2:56:                   8	28.57
2:56:                  38	28.57
2:57:                   8	28.46
2:57:                  38	28.50
2:58:                   8	28.54
2:58:                  38	28.49
2:59:                   8	28.56
2:59:                  38	28.56
3:00:                   8	28.47
3:00:                  38	28.46
3:01:                   8	28.56
3:01:                  38	28.49
3:02:                   8	28.42
3:02:                  38	28.45
3:03:                   8	28.54
3:03:                  38	28.56
3:04:                   8	28.51
3:04:                  38	28.42
3:05:                   9	28.41
3:05:                  39	28.35
3:06:                   9	28.39
3:06:                  39	28.34
3:07:                   9	28.32
3:07:                  39	28.29
3:08:                   9	28.40
3:08:                  39	28.45
3:09:                   9	28.44
3:09:                  39	28.41
3:10:                   9	28.35
3:10:                  39	28.31
3:11:                   9	28.38
3:11:                  39	28.45
3:12:                   9	28.53
3:12:                  39	28.55
3:13:                   9	28.60
3:13:                  39	28.63
3:14:                   9	28.54
3:14:                  39	28.55
3:15:                   9	28.56
3:15:                  39	28.57
3:16:                   9	28.54
3:16:                  39	28.49
3:17:                   9	28.55
3:17:                  39	28.46
3:18:                   9	28.46
3:18:                  39	28.56
3:19:                   9	28.58
3:19:                  39	28.60
3:20:                   9	28.64
3:20:                  39	28.64
3:21:                   9	28.65
3:21:                  39	28.60
3:22:                   9	28.66
3:22:                  39	28.60
3:23:                   9	28.51
3:23:                  39	28.59
3:24:                   9	28.62
3:24:                  39	28.62
3:25:                   9	28.62
3:25:                  39	28.60
3:26:                   9	28.60
3:26:                  40	28.61
3:27:                  10	28.59
3:27:                  40	28.59
3:28:                  10	28.56
3:28:                  40	28.60
3:29:                  10	28.60
3:29:                  40	28.61
3:30:                  10	28.61
3:30:                  40	28.58
3:31:                  10	28.54
3:31:                  40	28.60
3:32:                  10	28.58
3:32:                  40	28.61
3:33:                  10	28.65
3:33:                  40	28.55
3:34:                  10	28.58
3:34:                  40	28.56
3:35:                  10	28.59
3:35:                  40	28.61
3:36:                  10	28.54
3:36:                  40	28.61
3:37:                  10	28.64
3:37:                  40	28.64
3:38:                  10	28.61
3:38:                  40	28.55
3:39:                  10	28.60
3:39:                  40	28.56
3:40:                  10	28.57
3:40:                  40	28.65
3:41:                  10	28.64
3:41:                  40	28.68
3:42:                  10	28.69
3:42:                  40	28.68
3:43:                  10	28.69
3:43:                  40	28.71
3:44:                  10	28.72
3:44:                  40	28.65
3:45:                  10	28.54
3:45:                  40	28.62
3:46:                  10	28.52
3:46:                  40	28.60
3:47:                  10	28.55
3:47:                  41	28.48
3:48:                  11	28.52
3:48:                  41	28.56
3:49:                  11	28.57
3:49:                  41	28.55
3:50:                  11	28.59
3:50:                  41	28.51
3:51:                  11	28.60
3:51:                  41	28.58
3:52:                  11	28.64
3:52:                  41	28.55
3:53:                  11	28.59
3:53:                  41	28.57
3:54:                  11	28.60
3:54:                  41	28.62
3:55:                  11	28.54
3:55:                  41	28.56
3:56:                  11	28.56
3:56:                  41	28.57
3:57:                  11	28.54
3:57:                  41	28.61
3:58:                  11	28.59
3:58:                  41	28.61
3:59:                  11	28.55
3:59:                  41	28.56
4:00:                  11	28.62
4:00:                  41	28.59
4:01:                  11	28.55
4:01:                  41	28.50
4:02:                  11	28.51
4:02:                  41	28.59
4:03:                  11	28.54
4:03:                  41	28.60
4:04:                  12	28.62
4:04:                  42	28.56
4:05:                  12	28.62
4:05:                  42	28.61
4:06:                  12	28.63
4:06:                  42	28.64
4:07:                  12	28.57
4:07:                  42	28.57
4:08:                  12	28.62
4:08:                  42	28.68
4:09:                  12	28.59
4:09:                  42	28.50
4:10:                  12	28.53
4:10:                  42	28.45
4:11:                  12	28.57
4:11:                  42	28.59
4:12:                  12	28.58
4:12:                  42	28.50
4:13:                  12	28.53
4:13:                  42	28.61
4:14:                  12	28.58
4:14:                  42	28.51
4:15:                  12	28.61
4:15:                  42	28.62
4:16:                  12	28.56
4:16:                  42	28.52
4:17:                  12	28.58
4:17:                  42	28.46
4:18:                  12	28.50
4:18:                  42	28.51
4:19:                  12	28.51
4:19:                  42	28.50
4:20:                  12	28.46
4:20:                  42	28.49
4:21:                  12	28.39
4:21:                  42	28.44
4:22:                  12	28.50
4:22:                  42	28.49
4:23:                  12	28.34
4:23:                  43	28.38
4:24:                  13	28.40
4:24:                  43	28.45
4:25:                  13	28.47
4:25:                  43	28.53
4:26:                  13	28.48
4:26:                  43	28.46
4:27:                  13	28.44
4:27:                  43	28.45
4:28:                  13	28.49
4:28:                  43	28.52
4:29:                  13	28.43
4:29:                  43	28.48
4:30:                  13	28.48
4:30:                  43	28.53
4:31:                  13	28.50
4:31:                  43	28.47
4:32:                  13	28.41
4:32:                  43	28.44
4:33:                  13	28.49
4:33:                  43	28.51
4:34:                  13	28.49
4:34:                  43	28.50
4:35:                  13	28.47
4:35:                  43	28.53
4:36:                  13	28.46
4:36:                  43	28.50
4:37:                  13	28.57
4:37:                  43	28.61
4:38:                  13	28.60
4:38:                  43	28.55
4:39:                  13	28.54
4:39:                  43	28.59
4:40:                  13	28.58
4:40:                  43	28.60
4:41:                  13	28.55
4:41:                  43	28.50
4:42:                  13	28.44
4:42:                  43	28.38
4:43:                  13	28.42
4:43:                  43	28.43
4:44:                  13	28.45
4:44:                  43	28.41
4:45:                  13	28.32
4:45:                  43	28.43
4:46:                  13	28.46
4:46:                  43	28.51
4:47:                  14	28.56
4:47:                  44	28.58
4:48:                  14	28.53
4:48:                  44	28.51
4:49:                  14	28.57
4:49:                  44	28.59
4:50:                  14	28.48
4:50:                  44	28.53
4:51:                  14	28.45
4:51:                  44	28.45
4:52:                  14	28.50
4:52:                  44	28.54
4:53:                  14	28.51
4:53:                  44	28.60
4:54:                  14	28.58
4:54:                  44	28.63
4:55:                  14	28.54
4:55:                  44	28.55
4:56:                  14	28.50
4:56:                  44	28.58
4:57:                  14	28.60
4:57:                  44	28.61
4:58:                  14	28.63
4:58:                  44	28.55
4:59:                  14	28.55
4:59:                  44	28.58
5:00:                  14	28.58
5:00:                  44	28.55
5:01:                  14	28.54
5:01:                  44	28.59
5:02:                  14	28.57
5:02:                  44	28.54
5:03:                  14	28.53
5:03:                  45	28.56
5:04:                  15	28.54
5:04:                  45	28.49
5:05:                  15	28.43
5:05:                  45	28.53
5:06:                  15	28.55
5:06:                  45	28.54
5:07:                  15	28.43
5:07:                  45	28.47
5:08:                  15	28.42
5:08:                  45	28.54
5:09:                  15	28.55
5:09:                  45	28.52
5:10:                  15	28.53
5:10:                  45	28.59
5:11:                  15	28.56
5:11:                  45	28.58
5:12:                  15	28.56
5:12:                  45	28.50
5:13:                  15	28.56
5:13:                  45	28.54
5:14:                  15	28.56
5:14:                  45	28.48
5:15:                  15	28.40
5:15:                  45	28.40
5:16:                  15	28.46
5:16:                  45	28.53
5:17:                  15	28.48
5:17:                  45	28.38
5:18:                  15	28.40
5:18:                  45	28.44
5:19:                  15	28.43
5:19:                  45	28.45
5:20:                  15	28.38
5:20:                  45	28.42
5:21:                  15	28.46
5:21:                  45	28.55
5:22:                  15	28.49
5:22:                  45	28.41
5:23:                  15	28.40
5:23:                  45	28.47
5:24:                  15	28.42
5:24:                  45	28.40
5:25:                  15	28.47
5:25:                  45	28.52
5:26:                  15	28.56
5:26:                  45	28.51
5:27:                  15	28.46
5:27:                  45	28.44
5:28:                  16	28.43
5:28:                  46	28.46
5:29:                  16	28.55
5:29:                  46	28.54
5:30:                  16	28.53
5:30:                  46	28.46
5:31:                  16	28.52
5:31:                  46	28.46
5:32:                  16	28.43
5:32:                  46	28.41
5:33:                  16	28.48
5:33:                  46	28.42
5:34:                  16	28.40
5:34:                  46	28.38
5:35:                  16	28.43
5:35:                  46	28.40
5:36:                  16	28.38
5:36:                  46	28.34
5:37:                  16	28.35
5:37:                  46	28.34
5:38:                  16	28.33
5:38:                  46	28.41
5:39:                  16	28.35
5:39:                  46	28.40
5:40:                  16	28.31
5:40:                  46	28.27
5:41:                  16	28.41
5:41:                  46	28.33
5:42:                  16	28.26
5:42:                  46	28.29
5:43:                  16	28.35
5:43:                  46	28.43
5:44:                  16	28.34
5:44:                  46	28.41
5:45:                  16	28.38
5:45:                  46	28.40
5:46:                  16	28.40
5:46:                  46	28.45
5:47:                  16	28.32
5:47:                  46	28.34
5:48:                  17	28.33
5:48:                  47	28.31
5:49:                  17	28.38
5:49:                  47	28.39
5:50:                  17	28.32
5:50:                  47	28.34
5:51:                  17	28.35
5:51:                  47	28.30
5:52:                  17	28.32
5:52:                  47	28.35
5:53:                  17	28.34
5:53:                  47	28.38
5:54:                  17	28.44
5:54:                  47	28.36
5:55:                  17	28.30
5:55:                  47	28.28
5:56:                  17	28.42
5:56:                  47	28.38
5:57:                  17	28.40
5:57:                  47	28.39
5:58:                  17	28.38
5:58:                  47	28.39
5:59:                  17	28.39
5:59:                  47	28.35
6:00:                  17	28.27
6:00:                  47	28.26
6:01:                  17	28.33
6:01:                  47	28.33
6:02:                  17	28.25
6:02:                  47	28.35
6:03:                  17	28.32
6:03:                  47	28.38
6:04:                  17	28.37
6:04:                  47	28.40
6:05:                  18	28.32
6:05:                  48	28.27
6:06:                  18	28.37
6:06:                  48	28.32
6:07:                  18	28.33
6:07:                  48	28.47
6:08:                  18	28.42
6:08:                  48	28.30
6:09:                  18	28.31
6:09:                  48	28.26
6:10:                  18	28.38
6:10:                  48	28.31
6:11:                  18	28.27
6:11:                  48	28.23
6:12:                  18	28.27
6:12:                  48	28.35
6:13:                  18	28.34
6:13:                  48	28.39
6:14:                  18	28.46
6:14:                  48	28.38
6:15:                  18	28.43
6:15:                  48	28.28
6:16:                  18	28.29
6:16:                  48	28.26
6:17:                  18	28.24
6:17:                  48	28.31
6:18:                  18	28.29
6:18:                  48	28.30
6:19:                  18	28.23
6:19:                  48	28.21
6:20:                  18	28.19
6:20:                  48	28.18
6:21:                  18	28.25
6:21:                  48	28.24
6:22:                  18	28.20
6:22:                  48	28.21
6:23:                  18	28.19
6:23:                  48	28.21
6:24:                  18	28.24
6:24:                  48	28.31
6:25:                  18	28.41
6:25:                  48	28.45
6:26:                  18	28.49
6:26:                  48	28.45
6:27:                  19	28.49
6:27:                  49	28.41
6:28:                  19	28.37
6:28:                  49	28.31
6:29:                  19	28.35
6:29:                  49	28.33
6:30:                  19	28.25
6:30:                  49	28.29
6:31:                  19	28.27
6:31:                  49	28.26
6:32:                  19	28.29
6:32:                  49	28.25
6:33:                  19	28.28
6:33:                  49	28.28
6:34:                  19	28.40
6:34:                  49	28.47
6:35:                  19	28.39
6:35:                  49	28.43
6:36:                  19	28.43
6:36:                  49	28.51
6:37:                  19	28.54
6:37:                  49	28.47
6:38:                  19	28.34
6:38:                  49	28.41
6:39:                  19	28.38
6:39:                  49	28.46
6:40:                  19	28.53
6:40:                  49	28.54
6:41:                  19	28.55
6:41:                  49	28.58
6:42:                  19	28.61
6:42:                  49	28.60
6:43:                  19	28.56
6:43:                  49	28.50
6:44:                  19	28.58
6:44:                  49	28.57
6:45:                  19	28.53
6:45:                  49	28.57
6:46:                  19	28.59
6:46:                  49	28.55
6:47:                  19	28.62
6:47:                  49	28.64
6:48:                  20	28.59
6:48:                  50	28.57
6:49:                  20	28.59
6:49:                  50	28.64
6:50:                  20	28.64
6:50:                  50	28.62
6:51:                  20	28.61
6:51:                  50	28.61
6:52:                  20	28.65
6:52:                  50	28.64
6:53:                  20	28.63
6:53:                  50	28.63
6:54:                  20	28.59
6:54:                  50	28.56
6:55:                  20	28.57
6:55:                  50	28.59
6:56:                  20	28.61
6:56:                  50	28.51
6:57:                  20	28.53
6:57:                  50	28.51
6:58:                  20	28.54
6:58:                  50	28.53
6:59:                  20	28.53
6:59:                  50	28.53
7:00:                  20	28.58
7:00:                  50	28.55
7:01:                  20	28.54
7:01:                  50	28.45
7:02:                  20	28.51
7:02:                  50	28.48
7:03:                  20	28.54
7:03:                  50	28.46
7:04:                  20	28.50
7:04:                  50	28.53
7:05:                  20	28.57
7:05:                  51	28.44
7:06:                  21	28.56
7:06:                  51	28.56
7:07:                  21	28.58
7:07:                  51	28.57
7:08:                  21	28.57
7:08:                  51	28.60
7:09:                  21	28.60
7:09:                  51	28.60
7:10:                  21	28.60
7:10:                  51	28.57
7:11:                  21	28.59
7:11:                  51	28.59
7:12:                  21	28.60
7:12:                  51	28.49
7:13:                  21	28.55
7:13:                  51	28.48
7:14:                  21	28.59
7:14:                  51	28.56
7:15:                  21	28.51
7:15:                  51	28.46
7:16:                  21	28.42
7:16:                  51	28.40
7:17:                  21	28.41
7:17:                  51	28.31
7:18:                  21	28.39
7:18:                  51	28.41
7:19:                  21	28.37
7:19:                  51	28.47
7:20:                  21	28.42
7:20:                  51	28.44
7:21:                  21	28.46
7:21:                  51	28.51
7:22:                  22	28.38
7:22:                  52	28.45
7:23:                  22	28.39
7:23:                  52	28.35
7:24:                  22	28.45
7:24:                  52	28.37
7:25:                  22	28.48
7:25:                  52	28.46
7:26:                  22	28.48
7:26:                  52	28.47
7:27:                  22	28.38
7:27:                  52	28.43
7:28:                  22	28.37
7:28:                  52	28.47
7:29:                  22	28.41
7:29:                  52	28.40
7:30:                  22	28.39
7:30:                  52	28.44
7:31:                  22	28.49
7:31:                  52	28.49
7:32:                  22	28.41
7:32:                  52	28.45
7:33:                  22	28.46
7:33:                  52	28.45
7:34:                  22	28.46
7:34:                  52	28.40
7:35:                  22	28.42
7:35:                  52	28.43
7:36:                  22	28.44
7:36:                  52	28.51
7:37:                  22	28.52
7:37:                  52	28.51
7:38:                  22	28.53
7:38:                  52	28.43
7:39:                  22	28.43
7:39:                  52	28.40
7:40:                  22	28.45
7:40:                  52	28.37
7:41:                  22	28.32
7:41:                  52	28.41
7:42:                  23	28.35
7:42:                  53	28.29
7:43:                  23	28.33
7:43:                  53	28.30
7:44:                  23	28.37
7:44:                  53	28.44
7:45:                  23	28.48
7:45:                  53	28.50
7:46:                  23	28.42
7:46:                  53	28.43
7:47:                  23	28.44
7:47:                  53	28.41
7:48:                  23	28.41
7:48:                  53	28.38
7:49:                  23	28.43
7:49:                  53	28.34
7:50:                  23	28.37
7:50:                  53	28.38
7:51:                  23	28.35
7:51:                  53	28.31
7:52:                  23	28.45
7:52:                  53	28.45
7:53:                  23	28.52
7:53:                  53	28.48
7:54:                  23	28.45
7:54:                  53	28.41
7:55:                  23	28.51
7:55:                  53	28.49
7:56:                  23	28.44
7:56:                  53	28.49
7:57:                  23	28.53
7:57:                  53	28.46
7:58:                  23	28.39
7:58:                  53	28.43
7:59:                  23	28.39
7:59:                  53	28.47
8:00:                  23	28.42
8:00:                  53	28.48
8:01:                  23	28.51
8:01:                  53	28.43
8:02:                  23	28.42
8:02:                  53	28.48
8:03:                  23	28.51
8:03:                  53	28.51
8:04:                  23	28.50
8:04:                  53	28.47
8:05:                  24	28.51
8:05:                  54	28.47
8:06:                  24	28.44
8:06:                  54	28.46
8:07:                  24	28.44
8:07:                  54	28.55
8:08:                  24	28.53
8:08:                  54	28.52
8:09:                  24	28.50
8:09:                  54	28.56
8:10:                  24	28.49
8:10:                  54	28.46
8:11:                  24	28.47
8:11:                  54	28.43
8:12:                  24	28.38
8:12:                  54	28.46
8:13:                  24	28.49
8:13:                  54	28.42
8:14:                  24	28.50
8:14:                  54	28.46
8:15:                  24	28.40
8:15:                  54	28.52
8:16:                  24	28.52
8:16:                  54	28.48
8:17:                  24	28.42
8:17:                  54	28.37
8:18:                  24	28.39
8:18:                  54	28.47
8:19:                  24	28.45
8:19:                  54	28.44
8:20:                  24	28.48
8:20:                  54	28.45
8:21:                  24	28.47
8:21:                  54	28.50
8:22:                  24	28.53
8:22:                  54	28.40
8:23:                  24	28.39
8:23:                  54	28.49
8:24:                  24	28.40
8:24:                  54	28.48
8:25:                  25	28.41
8:25:                  55	28.45
8:26:                  25	28.52
8:26:                  55	28.52
8:27:                  25	28.55
8:27:                  55	28.56
8:28:                  25	28.55
8:28:                  55	28.57
8:29:                  25	28.55
8:29:                  55	28.48
8:30:                  25	28.48
8:30:                  55	28.55
8:31:                  25	28.50
8:31:                  55	28.52
8:32:                  25	28.47
8:32:                  55	28.52
8:33:                  25	28.53
8:33:                  55	28.54
8:34:                  25	28.50
8:34:                  55	28.43
8:35:                  25	28.35
8:35:                  55	28.31
8:36:                  25	28.35
8:36:                  55	28.28
8:37:                  25	28.26
8:37:                  55	28.30
8:38:                  25	28.43
8:38:                  55	28.36
8:39:                  25	28.43
8:39:                  55	28.34
8:40:                  25	28.42
8:40:                  55	28.47
8:41:                  25	28.52
8:41:                  55	28.53
8:42:                  25	28.43
8:42:                  55	28.44
8:43:                  25	28.34
8:43:                  55	28.44
8:44:                  25	28.39
8:44:                  55	28.35
8:45:                  25	28.42
8:45:                  55	28.49
8:46:                  25	28.52
8:46:                  55	28.51
8:47:                  25	28.52
8:47:                  56	28.55
8:48:                  26	28.52
8:48:                  56	28.49
8:49:                  26	28.55
8:49:                  56	28.48
8:50:                  26	28.42
8:50:                  56	28.41
8:51:                  26	28.35
8:51:                  56	28.33
8:52:                  26	28.26
8:52:                  56	28.32
8:53:                  26	28.26
8:53:                  56	28.28
8:54:                  26	28.24
8:54:                  56	28.29
8:55:                  26	28.22
8:55:                  56	28.02
8:56:                  26	28.01
8:56:                  56	28.01
8:57:                  26	28.08
8:57:                  56	27.98
8:58:                  26	28.09
8:58:                  56	28.11
8:59:                  26	28.09
8:59:                  56	28.00
9:00:                  26	28.06
9:00:                  56	28.08
9:01:                  26	28.03
9:01:                  56	28.02
9:02:                  26	28.00
9:02:                  56	28.03
9:03:                  26	28.06
9:03:                  56	28.11
9:04:                  27	28.07
9:04:                  57	28.06
9:05:                  27	28.17
9:05:                  57	28.12
9:06:                  27	28.02
9:06:                  57	28.00
9:07:                  27	28.03
9:07:                  57	27.96
9:08:                  27	27.97
9:08:                  57	28.03
9:09:                  27	28.05
9:09:                  57	28.10
9:10:                  27	28.07
9:10:                  57	27.99
9:11:                  27	28.01
9:11:                  57	28.08
9:12:                  27	28.00
9:12:                  57	28.00
9:13:                  27	28.02
9:13:                  57	27.95
9:14:                  27	28.10
9:14:                  57	28.02
9:15:                  27	28.11
9:15:                  57	28.01
9:16:                  27	27.97
9:16:                  57	28.02
9:17:                  27	27.93
9:17:                  57	27.99
9:18:                  27	27.99
9:18:                  57	27.96
9:19:                  27	27.88
9:19:                  57	27.82
9:20:                  27	27.77
9:20:                  57	27.70
9:21:                  27	27.58
9:21:                  57	27.54
9:22:                  28	27.44
9:22:                  58	27.33
9:23:                  28	27.24
9:23:                  58	27.27
9:24:                  28	27.29
9:24:                  58	27.29
9:25:                  28	27.30
9:25:                  58	27.34
9:26:                  28	27.31
9:26:                  58	27.30
9:27:                  28	27.35
9:27:                  58	27.40
9:28:                  28	27.34
9:28:                  58	27.32
9:29:                  28	27.39
9:29:                  58	27.36
9:30:                  28	27.39
9:30:                  58	27.34
9:31:                  28	27.33
9:31:                  58	27.29
9:32:                  28	27.28
9:32:                  58	27.18
9:33:                  28	27.18
9:33:                  58	27.22
9:34:                  28	27.23
9:34:                  58	27.27
9:35:                  28	27.30
9:35:                  58	27.28
9:36:                  28	27.24
9:36:                  58	27.32
9:37:                  28	27.29
9:37:                  58	27.18
9:38:                  28	27.15
9:38:                  58	27.29
9:39:                  28	27.24
9:39:                  58	27.27
9:40:                  28	27.32
9:40:                  58	27.47
9:41:                  28	27.46
9:41:                  58	27.39
9:42:                  28	27.39
9:42:                  58	27.40
9:43:                  28	27.39
9:43:                  58	27.39
9:44:                  29	27.35
9:44:                  59	27.33
9:45:                  29	27.46
9:45:                  59	27.43
9:46:                  29	27.45
9:46:                  59	27.48
9:47:                  29	27.46
9:47:                  59	27.50
9:48:                  29	27.43
9:48:                  59	27.39
9:49:                  29	27.39
9:49:                  59	27.49
9:50:                  29	27.43
9:50:                  59	27.45
9:51:                  29	27.40
9:51:                  59	27.53
9:52:                  29	27.48
9:52:                  59	27.50
9:53:                  29	27.49
9:53:                  59	27.47
9:54:                  29	27.45
9:54:                  59	27.40
9:55:                  29	27.44
9:55:                  59	27.40
9:56:                  29	27.43
9:56:                  59	27.44
9:57:                  29	27.44
9:57:                  59	27.41
9:58:                  29	27.43
9:58:                  59	27.51
9:59:                  29	27.48
9:59:                  59	27.44
10:00:                  29	27.39
10:00:                  59	27.43
10:01:                  29	27.43
10:01:                  59	27.44
10:02:                  29	27.37
10:02:                  59	27.36
10:03:                  29	27.33
10:04:                   0	27.36
10:04:                  30	27.37
10:05:                   0	27.45
10:05:                  30	27.47
10:06:                   0	27.54
10:06:                  30	27.51
10:07:                   0	27.46
10:07:                  30	27.46
10:08:                   0	27.47
10:08:                  30	27.51
10:09:                   0	27.48
10:09:                  30	27.47
10:10:                   0	27.55
10:10:                  30	27.60
10:11:                   0	27.55
10:11:                  30	27.65
10:12:                   0	27.67
10:12:                  30	27.56
10:13:                   0	27.56
10:13:                  30	27.61
10:14:                   0	27.55
10:14:                  30	27.61
10:15:                   0	27.55
10:15:                  30	27.53
10:16:                   0	27.52
10:16:                  30	27.56
10:17:                   0	27.56
10:17:                  30	27.58
10:18:                   0	27.60
10:18:                  30	27.57
10:19:                   0	27.55
10:19:                  30	27.53
10:20:                   0	27.46
10:20:                  30	27.49
10:21:                   0	27.53
10:21:                  30	27.48
10:22:                   0	27.52
10:22:                  30	27.53
10:23:                   0	27.45
10:23:                  30	27.41
10:24:                   1	27.39
10:24:                  31	27.44
10:25:                   1	27.51
10:25:                  31	27.50
10:26:                   1	27.56
10:26:                  31	27.62
10:27:                   1	27.66
10:27:                  31	27.65
10:28:                   1	27.60
10:28:                  31	27.57
10:29:                   1	27.58
10:29:                  31	27.57
10:30:                   1	27.58
10:30:                  31	27.54
10:31:                   1	27.51
10:31:                  31	27.51
10:32:                   1	27.51
10:32:                  31	27.47
10:33:                   1	27.51
10:33:                  31	27.51
10:34:                   1	27.46
10:34:                  31	27.42
10:35:                   1	27.35
10:35:                  31	27.43
10:36:                   1	27.44
10:36:                  31	27.40
10:37:                   1	27.39
10:37:                  31	27.47
10:38:                   1	27.55
10:38:                  31	27.45
10:39:                   1	27.48
10:39:                  31	27.51
10:40:                   1	27.57
10:40:                  31	27.53
10:41:                   1	27.51
10:41:                  31	27.51
10:42:                   1	27.54
10:42:                  32	27.59
10:43:                   2	27.52
10:43:                  32	27.60
10:44:                   2	27.49
10:44:                  32	27.53
10:45:                   2	27.50
10:45:                  32	27.46
10:46:                   2	27.44
10:46:                  32	27.37
10:47:                   2	27.39
10:47:                  32	27.42
10:48:                   2	27.44
10:48:                  32	27.49
10:49:                   2	27.53
10:49:                  32	27.44
10:50:                   2	27.45
10:50:                  32	27.47
10:51:                   2	27.53
10:51:                  32	27.45
10:52:                   2	27.38
10:52:                  32	27.30
10:53:                   2	27.40
10:53:                  32	27.34
10:54:                   2	27.35
10:54:                  32	27.42
10:55:                   2	27.52
10:55:                  32	27.44
10:56:                   2	27.42
10:56:                  32	27.34
10:57:                   2	27.33
10:57:                  32	27.36
10:58:                   2	27.23
10:58:                  32	27.22
10:59:                   2	27.38
10:59:                  32	27.30
11:00:                   2	27.33
11:00:                  32	27.26
11:01:                   3	27.18
11:01:                  33	27.19
11:02:                   3	27.14
11:02:                  33	27.06
11:03:                   3	27.08
11:03:                  33	26.95
11:04:                   3	26.92
11:04:                  33	26.94
11:05:                   3	26.96
11:05:                  33	26.92
11:06:                   3	26.92
11:06:                  33	26.87
11:07:                   3	26.92
11:07:                  33	26.96
11:08:                   3	27.04
11:08:                  33	27.07
11:09:                   3	27.08
11:09:                  33	26.99
11:10:                   3	26.99
11:10:                  33	26.95
11:11:                   3	26.96
11:11:                  33	26.96
11:12:                   3	27.03
11:12:                  33	26.98
11:13:                   3	26.87
11:13:                  33	26.85
11:14:                   3	26.86
11:14:                  33	26.85
11:15:                   3	26.95
11:15:                  33	27.00
11:16:                   3	27.05
11:16:                  33	27.05
11:17:                   3	27.03
11:17:                  34	27.14
11:18:                   4	27.14
11:18:                  34	27.21
11:19:                   4	27.30
11:19:                  34	27.26
11:20:                   4	27.18
11:20:                  34	27.14
11:21:                   4	27.20
11:21:                  34	27.25
11:22:                   4	27.22
11:22:                  34	27.20
11:23:                   4	27.20
11:23:                  34	27.16
11:24:                   4	27.20
11:24:                  34	27.20
11:25:                   4	27.20
11:25:                  34	27.22
11:26:                   4	27.24
11:26:                  34	27.21
11:27:                   4	27.18
11:27:                  34	27.29
11:28:                   4	27.27
11:28:                  34	27.20
11:29:                   4	27.19
11:29:                  34	27.31
11:30:                   4	27.35
11:30:                  34	27.36
11:31:                   4	27.39
11:31:                  34	27.40
11:32:                   4	27.48
11:32:                  34	27.50
11:33:                   4	27.51
11:33:                  34	27.54
11:34:                   4	27.55
11:34:                  34	27.50
11:35:                   4	27.63
11:35:                  34	27.67
11:36:                   4	27.67
11:36:                  34	27.63
11:37:                   5	27.67
11:37:                  35	27.69
11:38:                   5	27.66
11:38:                  35	27.67
11:39:                   5	27.86
11:39:                  35	27.76
11:40:                   5	27.77
11:40:                  35	27.78
11:41:                   5	27.79
11:41:                  35	27.81
11:42:                   5	27.82
11:42:                  35	27.78
11:43:                   5	27.75
11:43:                  35	27.83
11:44:                   5	27.96
11:44:                  35	27.90
11:45:                   5	27.85
11:45:                  35	27.80
11:46:                   5	27.77
11:46:                  35	27.80
11:47:                   5	27.91
11:47:                  35	27.87
11:48:                   5	27.89
11:48:                  35	27.91
11:49:                   5	27.90
11:49:                  35	27.84
11:50:                   5	27.86
11:50:                  35	27.86
11:51:                   5	27.86
11:51:                  35	27.80
11:52:                   5	27.81
11:52:                  35	27.86
11:53:                   5	27.88
11:53:                  35	27.86
11:54:                   6	27.92
11:54:                  36	27.92
11:55:                   6	27.90
11:55:                  36	27.89
11:56:                   6	27.85
11:56:                  36	27.91
11:57:                   6	27.89
11:57:                  36	27.97
11:58:                   6	27.89
11:58:                  36	27.88
11:59:                   6	28.00
11:59:                  36	27.95
12:00:                   6	28.00
12:00:                  36	27.96
12:01:                   6	27.98
12:01:                  36	28.01
12:02:                   6	27.94
12:02:                  36	27.92
12:03:                   6	27.97
12:03:                  36	28.00
12:04:                   6	27.95
12:04:                  36	27.96
12:05:                   6	28.03
12:05:                  36	27.97
12:06:                   6	27.96
12:06:                  36	27.95
12:07:                   6	28.00
12:07:                  36	28.03
12:08:                   6	28.11
12:08:                  36	28.09
12:09:                   6	28.17
12:09:                  36	28.13
12:10:                   6	28.06
12:10:                  37	28.15
12:11:                   7	28.20
12:11:                  37	28.22
12:12:                   7	28.27
12:12:                  37	28.30
12:13:                   7	28.28
12:13:                  37	28.30
12:14:                   7	28.29
12:14:                  37	28.29
12:15:                   7	28.34
12:15:                  37	28.38
12:16:                   7	28.36
12:16:                  37	28.38
12:17:                   7	28.32
12:17:                  37	28.35
12:18:                   7	28.37
12:18:                  37	28.40
12:19:                   7	28.40
12:19:                  37	28.40
12:20:                   7	28.35
12:20:                  37	28.38
12:21:                   7	28.41
12:21:                  37	28.41
12:22:                   7	28.38
12:22:                  37	28.40
12:23:                   7	28.40
12:23:                  37	28.35
12:24:                   7	28.37
12:24:                  37	28.39
12:25:                   7	28.40
12:25:                  37	28.41
12:26:                   7	28.41
12:26:                  37	28.40
12:27:                   8	28.42
12:27:                  38	28.41
12:28:                   8	28.39
12:28:                  38	28.38
12:29:                   8	28.37
12:29:                  38	28.38
12:30:                   8	28.37
12:30:                  38	28.38
12:31:                   8	28.39
12:31:                  38	28.39
12:32:                   8	28.41
12:32:                  38	28.41
12:33:                   8	28.42
12:33:                  38	28.40
12:34:                   8	28.39
12:34:                  38	28.40
12:35:                   8	28.41
12:35:                  38	28.40
12:36:                   8	28.39
12:36:                  38	28.40
12:37:                   8	28.42
12:37:                  38	28.42
12:38:                   8	28.40
12:38:                  38	28.43
12:39:                   8	28.42
12:39:                  38	28.43
12:40:                   8	28.44
12:40:                  38	28.47
12:41:                   8	28.47
12:41:                  38	28.48
12:42:                   8	28.48
12:42:                  38	28.46
12:43:                   8	28.45
12:43:                  38	28.42
12:44:                   9	28.41
12:44:                  39	28.44
12:45:                   9	28.43
12:45:                  39	28.46
12:46:                   9	28.48
12:46:                  39	28.44
12:47:                   9	28.47
12:47:                  39	28.46
12:48:                   9	28.48
12:48:                  39	28.49
12:49:                   9	28.46
12:49:                  39	28.47
12:50:                   9	28.45
12:50:                  39	28.49
12:51:                   9	28.45
12:51:                  39	28.48
12:52:                   9	28.49
12:52:                  39	28.52
12:53:                   9	28.47
12:53:                  39	28.50
12:54:                   9	28.51
12:54:                  39	28.53
12:55:                   9	28.52
12:55:                  39	28.48
12:56:                   9	28.53
12:56:                  39	28.54
12:57:                   9	28.51
12:57:                  39	28.48
12:58:                   9	28.52
12:58:                  39	28.54
12:59:                   9	28.55
12:59:                  39	28.53
13:00:                   9	28.42
13:00:                  39	28.27
13:01:                   9	28.31
13:01:                  39	28.35
13:02:                  10	28.38
13:02:                  40	28.41
13:03:                  10	28.27
13:03:                  40	28.24
13:04:                  10	28.17
13:04:                  40	28.23
13:05:                  10	28.21
13:05:                  40	28.20
13:06:                  10	28.13
13:06:                  40	28.16
13:07:                  10	28.19
13:07:                  40	28.15
13:08:                  10	28.18
13:08:                  40	28.11
13:09:                  10	28.00
13:09:                  40	28.05
13:10:                  10	28.17
13:10:                  40	28.11
13:11:                  10	28.02
13:11:                  40	28.01
13:12:                  10	28.03
13:12:                  40	27.97
13:13:                  10	27.92
13:13:                  40	27.93
13:14:                  10	28.02
13:14:                  40	28.00
13:15:                  10	28.02
13:15:                  40	28.17
13:16:                  10	28.01
13:16:                  40	27.88
13:17:                  10	27.99
13:17:                  40	28.02
13:18:                  10	27.96
13:18:                  41	28.03
13:19:                  11	28.03
13:19:                  41	27.99
13:20:                  11	27.98
13:20:                  41	27.94
13:21:                  11	27.92
13:21:                  41	28.01
13:22:                  11	27.98
13:22:                  41	28.00
13:23:                  11	27.95
13:23:                  41	27.88
13:24:                  11	28.02
13:24:                  41	28.02
13:25:                  11	28.07
13:25:                  41	28.04
13:26:                  11	28.02
13:26:                  41	28.10
13:27:                  11	28.05
13:27:                  41	28.03
13:28:                  11	27.96
13:28:                  41	27.99
13:29:                  11	28.05
13:29:                  41	27.95
13:30:                  11	27.98
13:30:                  41	27.91
13:31:                  11	27.95
13:31:                  41	28.07
13:32:                  11	28.11
13:32:                  41	28.10
13:33:                  11	28.10
13:33:                  41	28.10
13:34:                  11	28.08
13:34:                  42	28.09
13:35:                  12	28.00
13:35:                  42	27.97
13:36:                  12	27.91
13:36:                  42	27.98
13:37:                  12	27.93
13:37:                  42	27.99
13:38:                  12	28.00
13:38:                  42	28.06
13:39:                  12	27.98
13:39:                  42	28.04
13:40:                  12	28.03
13:40:                  42	27.97
13:41:                  12	28.01
13:41:                  42	28.10
13:42:                  12	28.07
13:42:                  42	28.08
13:43:                  12	28.08
13:43:                  42	28.09
13:44:                  12	28.12
13:44:                  42	28.00
13:45:                  12	28.02
13:45:                  42	28.01
13:46:                  12	28.00
13:46:                  42	28.05
13:47:                  12	28.07
13:47:                  42	28.07
13:48:                  12	28.02
13:48:                  42	28.09
13:49:                  12	28.00
13:49:                  42	28.05
13:50:                  12	28.06
13:50:                  43	28.07
13:51:                  13	28.04
13:51:                  43	28.06
13:52:                  13	28.06
13:52:                  43	28.05
13:53:                  13	28.08
13:53:                  43	27.98
13:54:                  13	28.06
13:54:                  43	28.08
13:55:                  13	28.04
13:55:                  43	28.08
13:56:                  13	28.15
13:56:                  43	28.19
13:57:                  13	28.14
13:57:                  43	28.10
13:58:                  13	28.07
13:58:                  43	28.16
13:59:                  13	28.13
13:59:                  43	28.07
14:00:                  13	28.10
14:00:                  43	28.10
14:01:                  13	28.10
14:01:                  43	28.07
14:02:                  13	28.10
14:02:                  43	28.12
14:03:                  13	28.14
14:03:                  43	28.12
14:04:                  13	28.12
14:04:                  43	28.25
14:05:                  13	28.22
14:05:                  43	28.30
14:06:                  13	28.31
14:06:                  44	28.33
14:07:                  14	28.35
14:07:                  44	28.33
14:08:                  14	28.35
14:08:                  44	28.29
14:09:                  14	28.33
14:09:                  44	28.37
14:10:                  14	28.29
14:10:                  44	28.38
14:11:                  14	28.34
14:11:                  44	28.32
14:12:                  14	28.31
14:12:                  44	28.29
14:13:                  14	28.27
14:13:                  44	28.18
14:14:                  14	28.20
14:14:                  44	28.27
14:15:                  14	28.19
14:15:                  44	28.17
14:16:                  14	28.27
14:16:                  44	28.25
14:17:                  14	28.30
14:17:                  44	28.24
14:18:                  14	28.18
14:18:                  44	28.20
14:19:                  14	28.21
14:19:                  44	28.17
14:20:                  14	28.21
14:20:                  44	28.22
14:21:                  14	28.21
14:21:                  44	28.21
14:22:                  14	28.22
14:22:                  44	28.30
14:23:                  15	28.17
14:23:                  45	28.13
14:24:                  15	28.16
14:24:                  45	28.18
14:25:                  15	28.16
14:25:                  45	28.16
14:26:                  15	28.16
14:26:                  45	28.16
14:27:                  15	28.18
14:27:                  45	28.16
14:28:                  15	28.17
14:28:                  45	28.30
14:29:                  15	28.38
14:29:                  45	28.33
14:30:                  15	28.21
14:30:                  45	28.23
14:31:                  15	28.19
14:31:                  45	28.25
14:32:                  15	28.26
14:32:                  45	28.28
14:33:                  15	28.26
14:33:                  45	28.21
14:34:                  15	28.20
14:34:                  45	28.15
14:35:                  15	28.16
14:35:                  45	28.19
14:36:                  15	28.20
14:36:                  45	28.21
14:37:                  15	28.18
14:37:                  45	28.21
14:38:                  15	28.20
14:38:                  45	28.23
14:39:                  16	28.23
14:39:                  46	28.20
14:40:                  16	28.30
14:40:                  46	28.19
14:41:                  16	28.12
14:41:                  46	28.16
14:42:                  16	28.15
14:42:                  46	28.16
14:43:                  16	28.16
14:43:                  46	28.18
14:44:                  16	28.12
14:44:                  46	28.16
14:45:                  16	28.12
14:45:                  46	28.14
14:46:                  16	28.19
14:46:                  46	28.26
14:47:                  16	28.17
14:47:                  46	28.22
14:48:                  16	28.15
14:48:                  46	28.23
14:49:                  16	28.18
14:49:                  46	28.18
14:50:                  16	28.28
14:50:                  46	28.13
14:51:                  16	28.24
14:51:                  46	28.27
14:52:                  16	28.25
14:52:                  46	28.25
14:53:                  16	28.27
14:53:                  46	28.32
14:54:                  16	28.26
14:54:                  46	28.25
14:55:                  16	28.31
14:55:                  47	28.25
14:56:                  17	28.27
14:56:                  47	28.28
14:57:                  17	28.20
14:57:                  47	28.23
14:58:                  17	28.30
14:58:                  47	28.29
14:59:                  17	28.30
14:59:                  47	28.33
15:00:                  17	28.35
15:00:                  47	28.41
15:01:                  17	28.30
15:01:                  47	28.35
15:02:                  17	28.42
15:02:                  47	28.43
15:03:                  17	28.40
15:03:                  47	28.30
15:04:                  17	28.38
15:04:                  47	28.37
15:05:                  17	28.35
15:05:                  47	28.42
15:06:                  17	28.41
15:06:                  47	28.39
15:07:                  17	28.39
15:07:                  47	28.40
15:08:                  17	28.44
15:08:                  47	28.40
15:09:                  17	28.40
15:09:                  47	28.42
15:10:                  17	28.46
15:10:                  47	28.45
15:11:                  17	28.47
15:11:                  48	28.47
15:12:                  18	28.45
15:12:                  48	28.49
15:13:                  18	28.52
15:13:                  48	28.52
15:14:                  18	28.52
15:14:                  48	28.54
15:15:                  18	28.55
15:15:                  48	28.57
15:16:                  18	28.53
15:16:                  48	28.55
15:17:                  18	28.51
15:17:                  48	28.47
15:18:                  18	28.49
15:18:                  48	28.47
15:19:                  18	28.50
15:19:                  48	28.50
15:20:                  18	28.52
15:20:                  48	28.44
15:21:                  18	28.51
15:21:                  48	28.48
15:22:                  18	28.45
15:22:                  48	28.49
15:23:                  18	28.51
15:23:                  48	28.53
15:24:                  18	28.49
15:24:                  48	28.52
15:25:                  18	28.54
15:25:                  48	28.54
15:26:                  18	28.55
15:26:                  48	28.59
15:27:                  18	28.56
15:27:                  48	28.53
15:28:                  19	28.53
15:28:                  49	28.55
15:29:                  19	28.55
15:29:                  49	28.54
15:30:                  19	28.51
15:30:                  49	28.53
15:31:                  19	28.54
15:31:                  49	28.52
15:32:                  19	28.54
15:32:                  49	28.52
15:33:                  19	28.56
15:33:                  49	28.54
15:34:                  19	28.55
15:34:                  49	28.54
15:35:                  19	28.51
15:35:                  49	28.45
15:36:                  19	28.51
15:36:                  49	28.51
15:37:                  19	28.54
15:37:                  49	28.51
15:38:                  19	28.54
15:38:                  49	28.41
15:39:                  19	28.37
15:39:                  49	28.27
15:40:                  19	28.38
15:40:                  49	28.43
15:41:                  19	28.47
15:41:                  49	28.51
15:42:                  19	28.38
15:42:                  49	28.38
15:43:                  19	28.39
15:43:                  49	28.29
15:44:                  20	28.33
15:44:                  50	28.35
15:45:                  20	28.39
15:45:                  50	28.42
15:46:                  20	28.40
15:46:                  50	28.43
15:47:                  20	28.46
15:47:                  50	28.45
15:48:                  20	28.47
15:48:                  50	28.44
15:49:                  20	28.43
15:49:                  50	28.42
15:50:                  20	28.44
15:50:                  50	28.42
15:51:                  20	28.41
15:51:                  50	28.41
15:52:                  20	28.42
15:52:                  50	28.36
15:53:                  20	28.37
15:53:                  50	28.39
15:54:                  20	28.38
15:54:                  50	28.44
15:55:                  20	28.43
15:55:                  50	28.44
15:56:                  20	28.37
15:56:                  50	28.39
15:57:                  20	28.39
15:57:                  50	28.41
15:58:                  20	28.40
15:58:                  50	28.40
15:59:                  20	28.39
15:59:                  50	28.42
16:00:                  21	28.42
16:00:                  51	28.40
16:01:                  21	28.43
16:01:                  51	28.44
16:02:                  21	28.41
16:02:                  51	28.46
16:03:                  21	28.48
16:03:                  51	28.43
16:04:                  21	28.43
16:04:                  51	28.38
16:05:                  21	28.43
16:05:                  51	28.39
16:06:                  21	28.43
16:06:                  51	28.43
16:07:                  21	28.44
16:07:                  51	28.42
16:08:                  21	28.44
16:08:                  51	28.42
16:09:                  21	28.43
16:09:                  51	28.40
16:10:                  21	28.45
16:10:                  51	28.42
16:11:                  21	28.43
16:11:                  51	28.42
16:12:                  21	28.46
16:12:                  51	28.41
16:13:                  21	28.21
16:13:                  51	28.28
16:14:                  21	28.32
16:14:                  51	28.34
16:15:                  21	28.24
16:15:                  51	28.20
16:16:                  21	28.26
16:16:                  52	28.32
16:17:                  22	28.37
16:17:                  52	28.37
16:18:                  22	28.25
16:18:                  52	28.20
16:19:                  22	28.03
16:19:                  52	28.15
16:20:                  22	28.20
16:20:                  52	28.21
16:21:                  22	28.27
16:21:                  52	28.27
16:22:                  22	28.25
16:22:                  52	28.19
16:23:                  22	28.13
16:23:                  52	28.08
16:24:                  22	28.13
16:24:                  52	28.17
16:25:                  22	28.17
16:25:                  52	28.23
16:26:                  22	28.13
16:26:                  52	28.17
16:27:                  22	28.13
16:27:                  52	28.09
16:28:                  22	28.05
16:28:                  52	28.08
16:29:                  22	28.04
16:29:                  52	28.09
16:30:                  22	28.18
16:30:                  52	28.32
16:31:                  22	28.32
16:31:                  52	28.38
16:32:                  22	28.47
16:32:                  53	28.58
16:33:                  23	28.66
16:33:                  53	28.73
16:34:                  23	28.71
16:34:                  53	28.78
16:35:                  23	28.79
16:35:                  53	28.80
16:36:                  23	28.75
16:36:                  53	28.74
16:37:                  23	28.77
16:37:                  53	28.79
16:38:                  23	28.79
16:38:                  53	28.76
16:39:                  23	28.74
16:39:                  53	28.74
16:40:                  23	28.86
16:40:                  53	28.93
16:41:                  23	28.90
16:41:                  53	28.88
16:42:                  23	28.89
16:42:                  53	28.89
16:43:                  23	28.86
16:43:                  53	28.86
16:44:                  23	28.86
16:44:                  53	28.92
16:45:                  23	28.93
16:45:                  53	28.89
16:46:                  23	28.95
16:46:                  53	28.94
16:47:                  23	28.91
16:47:                  53	28.88
16:48:                  23	28.95
16:48:                  53	28.97
16:49:                  24	28.91
16:49:                  54	28.90
16:50:                  24	28.93
16:50:                  54	28.98
16:51:                  24	28.98
16:51:                  54	28.97
16:52:                  24	28.94
16:52:                  54	29.00
16:53:                  24	29.03
16:53:                  54	29.03
16:54:                  24	29.02
16:54:                  54	29.00
16:55:                  24	28.95
16:55:                  54	29.03
16:56:                  24	28.99
16:56:                  54	29.04
16:57:                  24	29.05
16:57:                  54	29.01
16:58:                  24	29.10
16:58:                  54	29.11
16:59:                  24	29.13
16:59:                  54	29.12
17:00:                  24	29.11
17:00:                  54	29.12
17:01:                  24	29.15
17:01:                  54	29.10
17:02:                  24	29.15
17:02:                  54	29.17
17:03:                  24	29.11
17:03:                  54	29.13
17:04:                  24	29.13
17:04:                  54	29.03
17:05:                  24	29.07
17:05:                  54	29.17
17:06:                  25	29.09
17:06:                  55	29.13
17:07:                  25	29.11
17:07:                  55	29.06
17:08:                  25	29.04
17:08:                  55	29.04
17:09:                  25	29.00
17:09:                  55	29.07
17:10:                  25	29.10
17:10:                  55	29.04
17:11:                  25	29.07
17:11:                  55	29.02
17:12:                  25	29.06
17:12:                  55	28.97
17:13:                  25	29.02
17:13:                  55	29.05
17:14:                  25	29.07
17:14:                  55	29.13
17:15:                  25	29.10
17:15:                  55	29.13
17:16:                  25	29.19
17:16:                  55	29.12
17:17:                  25	29.01
17:17:                  55	29.16
17:18:                  25	29.03
17:18:                  55	29.04
17:19:                  25	29.15
17:19:                  55	29.03
17:20:                  25	29.00
17:20:                  55	29.12
17:21:                  25	29.13
17:21:                  55	29.12
17:22:                  26	29.11
17:22:                  56	29.15
17:23:                  26	29.19
17:23:                  56	29.21
17:24:                  26	29.29
17:24:                  56	29.16
17:25:                  26	29.18
17:25:                  56	29.11
17:26:                  26	29.14
17:26:                  56	29.13
17:27:                  26	29.24
17:27:                  56	29.19
17:28:                  26	29.06
17:28:                  56	29.12
17:29:                  26	29.15
17:29:                  56	29.14
17:30:                  26	29.16
17:30:                  56	29.19
17:31:                  26	29.21
17:31:                  56	29.19
17:32:                  26	29.19
17:32:                  56	29.11
17:33:                  26	29.32
17:33:                  56	29.37
17:34:                  26	29.26
17:34:                  56	29.17
17:35:                  26	29.21
17:35:                  56	29.18
17:36:                  26	29.16
17:36:                  56	29.20
17:37:                  26	29.11
17:37:                  56	29.09
17:38:                  26	29.15
17:38:                  56	29.23
17:39:                  26	29.34
17:39:                  56	29.38
17:40:                  26	29.34
17:40:                  57	29.35
17:41:                  27	29.38
17:41:                  57	29.37
17:42:                  27	29.32
17:42:                  57	29.34
17:43:                  27	29.38
17:43:                  57	29.40
17:44:                  27	29.42
17:44:                  57	29.41
17:45:                  27	29.55
17:45:                  57	29.57
17:46:                  27	29.47
17:46:                  57	29.55
17:47:                  27	29.56
17:47:                  57	29.42
17:48:                  27	29.34
17:48:                  57	29.32
17:49:                  27	29.26
17:49:                  57	29.20
17:50:                  27	29.20
17:50:                  57	29.17
17:51:                  27	29.11
17:51:                  57	29.08
17:52:                  27	29.07
17:52:                  57	29.03
17:53:                  27	28.97
17:53:                  57	28.99
17:54:                  27	29.04
17:54:                  57	29.03
17:55:                  27	29.08
17:55:                  57	29.00
17:56:                  27	29.00
17:56:                  57	28.94
17:57:                  27	29.01
17:57:                  57	29.04
17:58:                  27	29.05
17:58:                  57	28.99
17:59:                  28	29.02
17:59:                  58	29.08
18:00:                  28	29.07
18:00:                  58	29.01
18:01:                  28	29.03
18:01:                  58	28.96
18:02:                  28	29.01
18:02:                  58	29.10
18:03:                  28	29.03
18:03:                  58	29.00
18:04:                  28	28.99
18:04:                  58	29.04
18:05:                  28	28.98
18:05:                  58	28.95
18:06:                  28	28.99
18:06:                  58	29.09
18:07:                  28	29.14
18:07:                  58	29.11
18:08:                  28	29.08
18:08:                  58	29.06
18:09:                  28	28.99
18:09:                  58	29.02
18:10:                  28	29.01
18:10:                  58	28.96
18:11:                  28	29.00
18:11:                  58	29.06
18:12:                  28	29.00
18:12:                  58	29.06
18:13:                  28	28.99
18:13:                  58	29.04
18:14:                  28	28.98
18:14:                  58	29.24
18:15:                  28	29.35
18:15:                  58	29.54
18:16:                  29	29.56
18:16:                  59	29.67
18:17:                  29	29.79
18:17:                  59	29.88
18:18:                  29	29.91
18:18:                  59	29.95
18:19:                  29	29.94
18:19:                  59	29.94
18:20:                  29	29.94
18:20:                  59	29.91
18:21:                  29	29.98
18:21:                  59	29.98
18:22:                  29	29.98
18:22:                  59	29.98
18:23:                  29	29.94
18:23:                  59	29.94
18:24:                  29	29.94
18:24:                  59	29.96
18:25:                  29	29.94
18:25:                  59	29.82
18:26:                  29	29.91
18:26:                  59	30.00
18:27:                  29	30.01
18:27:                  59	29.98
18:28:                  29	29.94
18:28:                  59	29.89
18:29:                  29	29.91
18:29:                  59	29.86
18:30:                  29	29.85
18:30:                  59	29.79
18:31:                  29	29.80
18:31:                  59	29.80
18:32:                  29	29.88
18:32:                  59	29.85
18:33:                  29	29.89
18:33:                  59	29.91
18:34:                  30	29.95
18:35:                   0	29.94
18:35:                  30	29.95
18:36:                   0	29.92
18:36:                  30	29.99
18:37:                   0	30.01
18:37:                  30	30.04
18:38:                   0	30.05
18:38:                  30	30.12
18:39:                   0	30.15
18:39:                  30	30.12
18:40:                   0	30.11
18:40:                  30	30.16
18:41:                   0	30.08
18:41:                  30	30.08
18:42:                   0	30.13
18:42:                  30	30.13
18:43:                   0	30.12
18:43:                  30	30.10
18:44:                   0	30.12
18:44:                  30	30.17
18:45:                   0	30.14
18:45:                  30	30.07
18:46:                   0	30.10
18:46:                  30	30.11
18:47:                   0	30.10
18:47:                  30	30.06
18:48:                   0	30.18
18:48:                  30	30.17
18:49:                   0	30.11
18:49:                  30	30.04
18:50:                   0	30.06
18:50:                  30	30.09
18:51:                   0	30.14
18:51:                  31	30.11
18:52:                   1	30.05
18:52:                  31	30.08
18:53:                   1	30.02
18:53:                  31	30.00
18:54:                   1	30.00
18:54:                  31	29.93
18:55:                   1	29.85
18:55:                  31	29.83
18:56:                   1	29.80
18:56:                  31	29.78
18:57:                   1	29.78
18:57:                  31	29.72
18:58:                   1	29.72
18:58:                  31	29.69
18:59:                   1	29.65
18:59:                  31	29.66
19:00:                   1	29.68
19:00:                  31	29.70
19:01:                   1	29.75
19:01:                  31	29.69
19:02:                   1	29.67
19:02:                  31	29.64
19:03:                   1	29.56
19:03:                  31	29.56
19:04:                   1	29.55
19:04:                  31	29.55
19:05:                   1	29.53
19:05:                  31	29.48
19:06:                   1	29.47
19:06:                  31	29.51
19:07:                   1	29.48
19:07:                  31	29.54
19:08:                   1	29.52
19:08:                  31	29.54
19:09:                   1	29.54
19:09:                  31	29.53
19:10:                   1	29.56
19:10:                  31	29.58
19:11:                   1	29.64
19:11:                  32	29.65
19:12:                   2	29.68
19:12:                  32	29.65
19:13:                   2	29.60
19:13:                  32	29.65
19:14:                   2	29.66
19:14:                  32	29.67
19:15:                   2	29.50
19:15:                  32	29.45
19:16:                   2	29.51
19:16:                  32	29.54
19:17:                   2	29.56
19:17:                  32	29.51
19:18:                   2	29.54
19:18:                  32	29.54
19:19:                   2	29.57
19:19:                  32	29.62
19:20:                   2	29.59
19:20:                  32	29.58
19:21:                   2	29.52
19:21:                  32	29.47
19:22:                   2	29.51
19:22:                  32	29.57
19:23:                   2	29.56
19:23:                  32	29.57
19:24:                   2	29.58
19:24:                  32	29.59
19:25:                   2	29.59
19:25:                  32	29.57
19:26:                   2	29.56
19:26:                  32	29.56
19:27:                   2	29.57
19:27:                  32	29.57
19:28:                   2	29.53
19:28:                  32	29.53
19:29:                   2	29.48
19:29:                  32	29.46
19:30:                   2	29.44
19:30:                  32	29.45
19:31:                   2	29.44
19:31:                  32	29.43
19:32:                   2	29.37
19:32:                  32	29.42
19:33:                   2	29.46
19:33:                  32	29.45
19:34:                   2	29.51
19:34:                  32	29.56
19:35:                   2	29.58
19:35:                  33	29.56
19:36:                   3	29.58
19:36:                  33	29.64
19:37:                   3	29.69
19:37:                  33	29.65
19:38:                   3	29.63
19:38:                  33	29.65
19:39:                   3	29.65
19:39:                  33	29.63
19:40:                   3	29.60
19:40:                  33	29.60
19:41:                   3	29.61
19:41:                  33	29.64
19:42:                   3	29.63
19:42:                  33	29.58
19:43:                   3	29.56
19:43:                  33	29.54
19:44:                   3	29.49
19:44:                  33	29.47
19:45:                   3	29.28
19:45:                  33	29.16
19:46:                   3	29.27
19:46:                  33	29.27
19:47:                   3	29.21
19:47:                  33	29.26
19:48:                   3	29.17
19:48:                  33	29.20
19:49:                   3	29.08
19:49:                  33	29.03
19:50:                   3	29.05
19:50:                  33	29.12
19:51:                   3	29.15
19:51:                  33	29.14
19:52:                   3	29.09
19:52:                  33	28.96
19:53:                   3	28.87
19:53:                  33	28.87
19:54:                   4	28.75
19:54:                  34	28.87
19:55:                   4	28.80
19:55:                  34	28.82
19:56:                   4	28.82
19:56:                  34	28.75
19:57:                   4	28.70
19:57:                  34	28.69
19:58:                   4	28.69
19:58:                  34	28.65
19:59:                   4	28.65
19:59:                  34	28.72
20:00:                   4	28.81
20:00:                  34	28.73
20:01:                   4	28.63
20:01:                  34	28.57
20:02:                   4	28.62
20:02:                  34	28.51
20:03:                   4	28.49
20:03:                  34	28.41
20:04:                   4	28.48
20:04:                  34	28.42
20:05:                   4	28.51
20:05:                  34	28.50
20:06:                   4	28.38
20:06:                  34	28.46
20:07:                   4	28.46
20:07:                  34	28.45
20:08:                   4	28.42
20:08:                  34	28.40
20:09:                   4	28.40
20:09:                  34	28.38
20:10:                   4	28.34
20:10:                  34	28.42
20:11:                   5	28.38
20:11:                  35	28.35
20:12:                   5	28.29
20:12:                  35	28.25
20:13:                   5	28.28
20:13:                  35	28.30
20:14:                   5	28.28
20:14:                  35	28.26
20:15:                   5	28.30
20:15:                  35	28.25
20:16:                   5	28.25
20:16:                  35	28.31
20:17:                   5	28.31
20:17:                  35	28.25
20:18:                   5	28.23
20:18:                  35	28.18
20:19:                   5	28.25
20:19:                  35	28.28
20:20:                   5	28.22
20:20:                  35	28.25
20:21:                   5	28.26
20:21:                  35	28.32
20:22:                   5	28.45
20:22:                  35	28.58
20:23:                   5	28.63
20:23:                  35	28.64
20:24:                   5	28.60
20:24:                  35	28.60
20:25:                   5	28.68
20:25:                  35	28.69
20:26:                   5	28.68
20:26:                  35	28.69
20:27:                   5	28.74
20:27:                  36	28.67
20:28:                   6	28.69
20:28:                  36	28.76
20:29:                   6	28.71
20:29:                  36	28.69
20:30:                   6	28.72
20:30:                  36	28.75
20:31:                   6	28.71
20:31:                  36	28.68
20:32:                   6	28.69
20:32:                  36	28.69
20:33:                   6	28.64
20:33:                  36	28.72
20:34:                   6	28.69
20:34:                  36	28.64
20:35:                   6	28.64
20:35:                  36	28.68
20:36:                   6	28.70
20:36:                  36	28.64
20:37:                   6	28.61
20:37:                  36	28.69
20:38:                   6	28.71
20:38:                  36	28.69
20:39:                   6	28.72
20:39:                  36	28.65
20:40:                   6	28.64
20:40:                  36	28.73
20:41:                   6	28.72
20:41:                  36	28.69
20:42:                   6	28.64
20:42:                  36	28.64
20:43:                   6	28.61
20:43:                  36	28.64
20:44:                   7	28.62
20:44:                  37	28.56
20:45:                   7	28.56
20:45:                  37	28.56
20:46:                   7	28.58
20:46:                  37	28.57
20:47:                   7	28.58
20:47:                  37	28.63
20:48:                   7	28.63
20:48:                  37	28.61
20:49:                   7	28.55
20:49:                  37	28.63
20:50:                   7	28.60
20:50:                  37	28.56
20:51:                   7	28.55
20:51:                  37	28.51
20:52:                   7	28.61
20:52:                  37	28.58
20:53:                   7	28.61
20:53:                  37	28.53
20:54:                   7	28.63
20:54:                  37	28.62
20:55:                   7	28.62
20:55:                  37	28.56
20:56:                   7	28.63
20:56:                  37	28.60
20:57:                   7	28.61
20:57:                  37	28.59
20:58:                   7	28.56
20:58:                  37	28.54
20:59:                   7	28.58
20:59:                  37	28.49
21:00:                   7	28.50
21:00:                  38	28.49
21:01:                   8	28.50
21:01:                  38	28.56
21:02:                   8	28.51
21:02:                  38	28.55
21:03:                   8	28.54
21:03:                  38	28.50
21:04:                   8	28.56
21:04:                  38	28.50
21:05:                   8	28.46
21:05:                  38	28.49
21:06:                   8	28.51
21:06:                  38	28.52
21:07:                   8	28.48
21:07:                  38	28.41
21:08:                   8	28.46
21:08:                  38	28.50
21:09:                   8	28.54
21:09:                  38	28.53
21:10:                   8	28.50
21:10:                  38	28.52
21:11:                   8	28.49
21:11:                  38	28.57
21:12:                   8	28.55
21:12:                  38	28.50
21:13:                   8	28.47
21:13:                  38	28.47
21:14:                   8	28.48
21:14:                  38	28.51
21:15:                   8	28.50
21:15:                  38	28.51
21:16:                   8	28.50
21:16:                  38	28.55
21:17:                   8	28.52
21:17:                  38	28.48
21:18:                   8	28.50
21:18:                  38	28.51
21:19:                   8	28.46
21:19:                  38	28.41
21:20:                   8	28.45
21:20:                  38	28.49
21:21:                   8	28.45
21:21:                  39	28.44
21:22:                   9	28.45
21:22:                  39	28.46
21:23:                   9	28.45
21:23:                  39	28.46
21:24:                   9	28.48
21:24:                  39	28.45
21:25:                   9	28.43
21:25:                  39	28.49
21:26:                   9	28.49
21:26:                  39	28.49
21:27:                   9	28.49
21:27:                  39	28.45
21:28:                   9	28.48
21:28:                  39	28.44
21:29:                   9	28.44
21:29:                  39	28.47
21:30:                   9	28.49
21:30:                  39	28.49
21:31:                   9	28.50
21:31:                  39	28.48
21:32:                   9	28.46
21:32:                  39	28.45
21:33:                   9	28.49
21:33:                  39	28.45
21:34:                   9	28.47
21:34:                  39	28.50
21:35:                   9	28.51
21:35:                  39	28.48
21:36:                   9	28.48
21:36:                  39	28.44
21:37:                   9	28.45
21:37:                  39	28.46
21:38:                   9	28.44
21:38:                  39	28.40
21:39:                   9	28.42
21:39:                  39	28.43
21:40:                   9	28.41
21:40:                  39	28.40
21:41:                   9	28.41
21:41:                  39	28.40
21:42:                   9	28.39
21:42:                  39	28.39
21:43:                  10	28.35
21:43:                  40	28.39
21:44:                  10	28.42
21:44:                  40	28.44
21:45:                  10	28.44
21:45:                  40	28.44
21:46:                  10	28.44
21:46:                  40	28.45
21:47:                  10	28.49
21:47:                  40	28.52
21:48:                  10	28.49
21:48:                  40	28.51
21:49:                  10	28.44
21:49:                  40	28.47
21:50:                  10	28.46
21:50:                  40	28.40
21:51:                  10	28.41
21:51:                  40	28.48
21:52:                  10	28.46
21:52:                  40	28.44
21:53:                  10	28.39
21:53:                  40	28.38
21:54:                  10	28.46
21:54:                  40	28.45
21:55:                  10	28.56
21:55:                  40	28.53
21:56:                  10	28.60
21:56:                  40	28.55
21:57:                  10	28.47
21:57:                  40	28.43
21:58:                  10	28.42
21:58:                  40	28.48
21:59:                  10	28.49
21:59:                  40	28.48
22:00:                  10	28.51
22:00:                  40	28.51
22:01:                  10	28.47
22:01:                  41	28.45
22:02:                  11	28.48
22:02:                  41	28.40
22:03:                  11	28.41
22:03:                  41	28.38
22:04:                  11	28.34
22:04:                  41	28.33
22:05:                  11	28.35
22:05:                  41	28.31
22:06:                  11	28.40
22:06:                  41	28.38
22:07:                  11	28.39
22:07:                  41	28.40
22:08:                  11	28.38
22:08:                  41	28.38
22:09:                  11	28.33
22:09:                  41	28.31
22:10:                  11	28.31
22:10:                  41	28.33
22:11:                  11	28.31
22:11:                  41	28.30
22:12:                  11	28.30
22:12:                  41	28.34
22:13:                  11	28.30
22:13:                  41	28.33
22:14:                  11	28.28
22:14:                  41	28.31
22:15:                  11	28.29
22:15:                  41	28.28
22:16:                  11	28.32
22:16:                  41	28.31
22:17:                  11	28.31
22:17:                  41	28.42
22:18:                  11	28.37
22:18:                  41	28.35
22:19:                  11	28.33
22:19:                  41	28.34
22:20:                  11	28.32
22:20:                  41	28.22
22:21:                  11	28.26
22:21:                  41	28.29
22:22:                  11	28.27
22:22:                  41	28.31
22:23:                  11	28.34
22:23:                  42	28.33
22:24:                  12	28.37
22:24:                  42	28.35
22:25:                  12	28.36
22:25:                  42	28.32
22:26:                  12	28.34
22:26:                  42	28.31
22:27:                  12	28.32
22:27:                  42	28.32
22:28:                  12	28.36
22:28:                  42	28.35
22:29:                  12	28.35
22:29:                  42	28.35
22:30:                  12	28.38
22:30:                  42	28.40
22:31:                  12	28.33
22:31:                  42	28.32
22:32:                  12	28.30
22:32:                  42	28.29
22:33:                  12	28.33
22:33:                  42	28.40
22:34:                  12	28.37
22:34:                  42	28.37
22:35:                  12	28.33
22:35:                  42	28.27
22:36:                  12	28.31
22:36:                  42	28.41
22:37:                  12	28.37
22:37:                  42	28.33
22:38:                  12	28.37
22:38:                  42	28.35
22:39:                  12	28.34
22:39:                  42	28.36
22:40:                  12	28.37
22:40:                  42	28.32
22:41:                  12	28.34
22:41:                  42	28.32
22:42:                  12	28.29
22:42:                  42	28.32
22:43:                  12	28.32
22:43:                  42	28.29
22:44:                  12	28.35
22:44:                  42	28.33
22:45:                  12	28.22
22:45:                  42	28.24
22:46:                  13	28.32
22:46:                  43	28.32
22:47:                  13	28.33
22:47:                  43	28.31
22:48:                  13	28.32
22:48:                  43	28.33
22:49:                  13	28.31
22:49:                  43	28.38
22:50:                  13	28.33
22:50:                  43	28.32
22:51:                  13	28.26
22:51:                  43	28.30
22:52:                  13	28.34
22:52:                  43	28.35
22:53:                  13	28.34
22:53:                  43	28.31
22:54:                  13	28.32
22:54:                  43	28.34
22:55:                  13	28.34
22:55:                  43	28.33
22:56:                  13	28.35
22:56:                  43	28.34
22:57:                  13	28.37
22:57:                  43	28.40
22:58:                  13	28.38
22:58:                  43	28.39
22:59:                  13	28.35
22:59:                  43	28.35
23:00:                  13	28.32
23:00:                  43	28.37
23:01:                  13	28.39
23:01:                  43	28.34
23:02:                  13	28.27
23:02:                  43	28.28
23:03:                  13	28.33
23:03:                  43	28.33
23:04:                  13	28.28
23:04:                  43	28.29
23:05:                  13	28.31
23:05:                  43	28.33
23:06:                  14	28.38
23:06:                  44	28.35
23:07:                  14	28.30
23:07:                  44	28.32
23:08:                  14	28.32
23:08:                  44	28.33
23:09:                  14	28.37
23:09:                  44	28.33
23:10:                  14	28.31
23:10:                  44	28.29
23:11:                  14	28.30
23:11:                  44	28.29
23:12:                  14	28.27
23:12:                  44	28.29
23:13:                  14	28.31
23:13:                  44	28.28
23:14:                  14	28.27
23:14:                  44	28.28
23:15:                  14	28.29
23:15:                  44	28.29
23:16:                  14	28.31
23:16:                  44	28.31
23:17:                  14	28.28
23:17:                  44	28.29
23:18:                  14	28.30
23:18:                  44	28.37
23:19:                  14	28.33
23:19:                  44	28.34
23:20:                  14	28.33
23:20:                  44	28.33
23:21:                  14	28.32
23:21:                  44	28.30
23:22:                  14	28.28
23:22:                  44	28.27
23:23:                  14	28.26
23:23:                  44	28.25
23:24:                  14	28.26
23:24:                  44	28.27
23:25:                  15	28.29
23:25:                  45	28.31
23:26:                  15	28.31
23:26:                  45	28.33
23:27:                  15	28.34
23:27:                  45	28.32
23:28:                  15	28.32
23:28:                  45	28.32
23:29:                  15	28.31
23:29:                  45	28.28
23:30:                  15	28.29
23:30:                  45	28.28
23:31:                  15	28.31
23:31:                  45	28.26
23:32:                  15	28.29
23:32:                  45	28.30
23:33:                  15	28.30
23:33:                  45	28.30
23:34:                  15	28.28
23:34:                  45	28.26
23:35:                  15	28.30
23:35:                  45	28.30
23:36:                  15	28.29
23:36:                  45	28.32
23:37:                  15	28.27
23:37:                  45	28.27
23:38:                  15	28.29
23:38:                  45	28.32
23:39:                  15	28.31
23:39:                  45	28.32
23:40:                  15	28.31
23:40:                  45	28.28
23:41:                  15	28.27
23:41:                  46	28.28
23:42:                  16	28.31
23:42:                  46	28.32
23:43:                  16	28.28
23:43:                  46	28.29
23:44:                  16	28.30
23:44:                  46	28.30
23:45:                  16	28.28
23:45:                  46	28.28
23:46:                  16	28.28
23:46:                  46	28.29
23:47:                  16	28.31
23:47:                  46	28.31
23:48:                  16	28.26
23:48:                  46	28.25
23:49:                  16	28.27
23:49:                  46	28.29
23:50:                  16	28.29
23:50:                  46	28.29
23:51:                  16	28.29
23:51:                  46	28.28
23:52:                  16	28.26
23:52:                  46	28.30
23:53:                  16	28.28
23:53:                  46	28.29
23:54:                  16	28.29
23:54:                  46	28.30
23:55:                  16	28.31
23:55:                  46	28.32
23:56:                  16	28.32
23:56:                  46	28.32
23:57:                  16	28.31
23:57:                  46	28.32
23:58:                  17	28.31
23:58:                  47	28.32
23:59:                  17	28.33
23:59:                  47	28.30
