0:00:                  10	30.89
0:00:                  40	30.89
0:01:                  10	30.89
0:01:                  40	30.88
0:02:                  10	30.90
0:02:                  40	30.89
0:03:                  10	30.89
0:03:                  40	30.89
0:04:                  10	30.88
0:04:                  40	30.90
0:05:                  10	30.88
0:05:                  40	30.89
0:06:                  10	30.88
0:06:                  40	30.89
0:07:                  10	30.89
0:07:                  40	30.88
0:08:                  10	30.88
0:08:                  40	30.88
0:09:                  10	30.89
0:09:                  40	30.88
0:10:                  10	30.89
0:10:                  40	30.89
0:11:                  10	30.89
0:11:                  40	30.89
0:12:                  10	30.89
0:12:                  40	30.89
0:13:                  10	30.89
0:13:                  41	30.89
0:14:                  11	30.89
0:14:                  41	30.89
0:15:                  11	30.89
0:15:                  41	30.88
0:16:                  11	30.86
0:16:                  41	30.88
0:17:                  11	30.89
0:17:                  41	30.89
0:18:                  11	30.88
0:18:                  41	30.87
0:19:                  11	30.88
0:19:                  41	30.86
0:20:                  11	30.87
0:20:                  41	30.86
0:21:                  11	30.86
0:21:                  41	30.85
0:22:                  11	30.85
0:22:                  41	30.86
0:23:                  11	30.85
0:23:                  41	30.86
0:24:                  11	30.86
0:24:                  41	30.87
0:25:                  11	30.86
0:25:                  41	30.86
0:26:                  11	30.86
0:26:                  41	30.86
0:27:                  11	30.85
0:27:                  41	30.86
0:28:                  11	30.85
0:28:                  41	30.85
0:29:                  11	30.85
0:29:                  41	30.85
0:30:                  11	30.85
0:30:                  41	30.84
0:31:                  11	30.85
0:31:                  41	30.85
0:32:                  11	30.84
0:32:                  41	30.85
0:33:                  11	30.84
0:33:                  41	30.84
0:34:                  11	30.85
0:34:                  41	30.83
0:35:                  11	30.84
0:35:                  41	30.83
0:36:                  11	30.84
0:36:                  41	30.83
0:37:                  11	30.83
0:37:                  41	30.82
0:38:                  11	30.83
0:38:                  41	30.82
0:39:                  11	30.82
0:39:                  41	30.83
0:40:                  11	30.82
0:40:                  41	30.83
0:41:                  11	30.82
0:41:                  41	30.82
0:42:                  12	30.82
0:42:                  42	30.83
0:43:                  12	30.82
0:43:                  42	30.82
0:44:                  12	30.82
0:44:                  42	30.81
0:45:                  12	30.81
0:45:                  42	30.82
0:46:                  12	30.82
0:46:                  42	30.81
0:47:                  12	30.81
0:47:                  42	30.81
0:48:                  12	30.81
0:48:                  42	30.81
0:49:                  12	30.81
0:49:                  42	30.80
0:50:                  12	30.81
0:50:                  42	30.80
0:51:                  12	30.80
0:51:                  42	30.80
0:52:                  12	30.79
0:52:                  42	30.80
0:53:                  12	30.79
0:53:                  42	30.81
0:54:                  12	30.80
0:54:                  42	30.79
0:55:                  12	30.80
0:55:                  42	30.80
0:56:                  12	30.80
0:56:                  42	30.80
0:57:                  12	30.80
0:57:                  42	30.80
0:58:                  12	30.80
0:58:                  42	30.79
0:59:                  12	30.80
0:59:                  42	30.80
1:00:                  12	30.80
1:00:                  42	30.80
1:01:                  12	30.79
1:01:                  42	30.79
1:02:                  12	30.80
1:02:                  42	30.79
1:03:                  12	30.79
1:03:                  42	30.79
1:04:                  12	30.79
1:04:                  42	30.80
1:05:                  12	30.78
1:05:                  42	30.79
1:06:                  12	30.78
1:06:                  42	30.78
1:07:                  12	30.78
1:07:                  42	30.78
1:08:                  12	30.77
1:08:                  42	30.78
1:09:                  12	30.78
1:09:                  42	30.77
1:10:                  12	30.77
1:10:                  42	30.78
1:11:                  12	30.78
1:11:                  43	30.78
1:12:                  13	30.78
1:12:                  43	30.78
1:13:                  13	30.77
1:13:                  43	30.77
1:14:                  13	30.78
1:14:                  43	30.78
1:15:                  13	30.76
1:15:                  43	30.77
1:16:                  13	30.76
1:16:                  43	30.77
1:17:                  13	30.77
1:17:                  43	30.76
1:18:                  13	30.76
1:18:                  43	30.77
1:19:                  13	30.77
1:19:                  43	30.76
1:20:                  13	30.76
1:20:                  43	30.76
1:21:                  13	30.76
1:21:                  43	30.76
1:22:                  13	30.76
1:22:                  43	30.77
1:23:                  13	30.75
1:23:                  43	30.76
1:24:                  13	30.76
1:24:                  43	30.76
1:25:                  13	30.76
1:25:                  43	30.76
1:26:                  13	30.76
1:26:                  43	30.74
1:27:                  13	30.75
1:27:                  43	30.75
1:28:                  13	30.75
1:28:                  43	30.74
1:29:                  13	30.74
1:29:                  43	30.75
1:30:                  13	30.75
1:30:                  43	30.74
1:31:                  13	30.73
1:31:                  43	30.74
1:32:                  13	30.75
1:32:                  43	30.74
1:33:                  13	30.75
1:33:                  43	30.74
1:34:                  13	30.74
1:34:                  43	30.74
1:35:                  13	30.74
1:35:                  43	30.73
1:36:                  13	30.75
1:36:                  43	30.73
1:37:                  13	30.73
1:37:                  43	30.72
1:38:                  13	30.73
1:38:                  43	30.73
1:39:                  13	30.72
1:39:                  43	30.73
1:40:                  13	30.73
1:40:                  43	30.72
1:41:                  13	30.73
1:41:                  43	30.74
1:42:                  13	30.73
1:42:                  43	30.73
1:43:                  13	30.73
1:43:                  43	30.72
1:44:                  13	30.72
1:44:                  43	30.71
1:45:                  13	30.73
1:45:                  43	30.72
1:46:                  13	30.72
1:46:                  43	30.72
1:47:                  13	30.72
1:47:                  43	30.73
1:48:                  13	30.72
1:48:                  43	30.72
1:49:                  13	30.72
1:49:                  43	30.73
1:50:                  13	30.73
1:50:                  43	30.72
1:51:                  14	30.72
1:51:                  44	30.72
1:52:                  14	30.72
1:52:                  44	30.72
1:53:                  14	30.72
1:53:                  44	30.71
1:54:                  14	30.71
1:54:                  44	30.71
1:55:                  14	30.71
1:55:                  44	30.71
1:56:                  14	30.72
1:56:                  44	30.71
1:57:                  14	30.71
1:57:                  44	30.71
1:58:                  14	30.71
1:58:                  44	30.71
1:59:                  14	30.72
1:59:                  44	30.72
2:00:                  14	30.72
2:00:                  44	30.72
2:01:                  14	30.71
2:01:                  44	30.72
2:02:                  14	30.71
2:02:                  44	30.72
2:03:                  14	30.71
2:03:                  44	30.71
2:04:                  14	30.72
2:04:                  44	30.72
2:05:                  14	30.71
2:05:                  44	30.71
2:06:                  14	30.70
2:06:                  44	30.70
2:07:                  14	30.70
2:07:                  44	30.71
2:08:                  14	30.70
2:08:                  44	30.70
2:09:                  14	30.70
2:09:                  44	30.70
2:10:                  14	30.71
2:10:                  44	30.70
2:11:                  14	30.70
2:11:                  44	30.70
2:12:                  14	30.69
2:12:                  44	30.69
2:13:                  14	30.70
2:13:                  44	30.70
2:14:                  14	30.69
2:14:                  44	30.69
2:15:                  14	30.70
2:15:                  44	30.70
2:16:                  14	30.69
2:16:                  44	30.70
2:17:                  14	30.68
2:17:                  44	30.69
2:18:                  14	30.70
2:18:                  44	30.69
2:19:                  14	30.69
2:19:                  44	30.69
2:20:                  14	30.69
2:20:                  44	30.69
2:21:                  14	30.69
2:21:                  44	30.69
2:22:                  14	30.69
2:22:                  44	30.69
2:23:                  14	30.68
2:23:                  44	30.69
2:24:                  14	30.69
2:24:                  44	30.68
2:25:                  14	30.67
2:25:                  44	30.68
2:26:                  14	30.67
2:26:                  44	30.67
2:27:                  14	30.69
2:27:                  44	30.68
2:28:                  14	30.68
2:28:                  44	30.69
2:29:                  14	30.68
2:29:                  44	30.68
2:30:                  14	30.67
2:30:                  44	30.67
2:31:                  14	30.68
2:31:                  44	30.68
2:32:                  14	30.68
2:32:                  44	30.67
2:33:                  15	30.68
2:33:                  45	30.67
2:34:                  15	30.68
2:34:                  45	30.66
2:35:                  15	30.67
2:35:                  45	30.67
2:36:                  15	30.67
2:36:                  45	30.67
2:37:                  15	30.67
2:37:                  45	30.66
2:38:                  15	30.66
2:38:                  45	30.65
2:39:                  15	30.66
2:39:                  45	30.66
2:40:                  15	30.66
2:40:                  45	30.66
2:41:                  15	30.66
2:41:                  45	30.66
2:42:                  15	30.65
2:42:                  45	30.67
2:43:                  15	30.68
2:43:                  45	30.67
2:44:                  15	30.67
2:44:                  45	30.66
2:45:                  15	30.66
2:45:                  45	30.66
2:46:                  15	30.66
2:46:                  45	30.65
2:47:                  15	30.65
2:47:                  45	30.65
2:48:                  15	30.65
2:48:                  45	30.66
2:49:                  15	30.66
2:49:                  45	30.65
2:50:                  15	30.65
2:50:                  45	30.64
2:51:                  15	30.65
2:51:                  45	30.64
2:52:                  15	30.64
2:52:                  45	30.65
2:53:                  15	30.65
2:53:                  45	30.64
2:54:                  15	30.65
2:54:                  45	30.65
2:55:                  15	30.65
2:55:                  45	30.65
2:56:                  15	30.64
2:56:                  45	30.64
2:57:                  15	30.64
2:57:                  46	30.63
2:58:                  16	30.64
2:58:                  46	30.65
2:59:                  16	30.64
2:59:                  46	30.64
3:00:                  16	30.64
3:00:                  46	30.64
3:01:                  16	30.64
3:01:                  46	30.64
3:02:                  16	30.64
3:02:                  46	30.64
3:03:                  16	30.63
3:03:                  46	30.65
3:04:                  16	30.63
3:04:                  46	30.64
3:05:                  16	30.64
3:05:                  46	30.63
3:06:                  16	30.64
3:06:                  46	30.63
3:07:                  16	30.63
3:07:                  46	30.64
3:08:                  16	30.63
3:08:                  46	30.63
3:09:                  16	30.63
3:09:                  46	30.64
3:10:                  16	30.63
3:10:                  46	30.63
3:11:                  16	30.64
3:11:                  46	30.63
3:12:                  16	30.64
3:12:                  46	30.63
3:13:                  16	30.64
3:13:                  46	30.63
3:14:                  16	30.63
3:14:                  46	30.64
3:15:                  16	30.64
3:15:                  46	30.63
3:16:                  16	30.63
3:16:                  46	30.62
3:17:                  16	30.62
3:17:                  46	30.62
3:18:                  16	30.63
3:18:                  46	30.62
3:19:                  16	30.62
3:19:                  46	30.61
3:20:                  16	30.61
3:20:                  46	30.62
3:21:                  16	30.61
3:21:                  46	30.61
3:22:                  16	30.62
3:22:                  46	30.61
3:23:                  16	30.62
3:23:                  46	30.61
3:24:                  16	30.61
3:24:                  46	30.61
3:25:                  16	30.60
3:25:                  46	30.60
3:26:                  16	30.60
3:26:                  46	30.60
3:27:                  16	30.60
3:27:                  46	30.61
3:28:                  16	30.60
3:28:                  46	30.59
3:29:                  16	30.61
3:29:                  46	30.61
3:30:                  17	30.61
3:30:                  47	30.60
3:31:                  17	30.61
3:31:                  47	30.60
3:32:                  17	30.61
3:32:                  47	30.61
3:33:                  17	30.61
3:33:                  47	30.61
3:34:                  17	30.60
3:34:                  47	30.61
3:35:                  17	30.61
3:35:                  47	30.60
3:36:                  17	30.60
3:36:                  47	30.60
3:37:                  17	30.60
3:37:                  47	30.60
3:38:                  17	30.60
3:38:                  47	30.60
3:39:                  17	30.59
3:39:                  47	30.60
3:40:                  17	30.59
3:40:                  47	30.59
3:41:                  17	30.59
3:41:                  47	30.58
3:42:                  17	30.59
3:42:                  47	30.59
3:43:                  17	30.59
3:43:                  47	30.59
3:44:                  17	30.59
3:44:                  47	30.60
3:45:                  17	30.58
3:45:                  47	30.59
3:46:                  17	30.59
3:46:                  47	30.59
3:47:                  17	30.58
3:47:                  47	30.59
3:48:                  17	30.59
3:48:                  47	30.59
3:49:                  17	30.59
3:49:                  47	30.58
3:50:                  17	30.57
3:50:                  47	30.58
3:51:                  17	30.57
3:51:                  47	30.58
3:52:                  17	30.58
3:52:                  47	30.58
3:53:                  17	30.58
3:53:                  47	30.57
3:54:                  17	30.57
3:54:                  47	30.57
3:55:                  17	30.56
3:55:                  47	30.56
3:56:                  17	30.57
3:56:                  47	30.57
3:57:                  17	30.56
3:57:                  47	30.56
3:58:                  17	30.56
3:58:                  47	30.56
3:59:                  17	30.56
3:59:                  47	30.54
4:00:                  17	30.56
4:00:                  47	30.56
4:01:                  17	30.56
4:01:                  47	30.57
4:02:                  18	30.57
4:02:                  48	30.56
4:03:                  18	30.56
4:03:                  48	30.56
4:04:                  18	30.56
4:04:                  48	30.56
4:05:                  18	30.57
4:05:                  48	30.56
4:06:                  18	30.56
4:06:                  48	30.55
4:07:                  18	30.56
4:07:                  48	30.54
4:08:                  18	30.54
4:08:                  48	30.55
4:09:                  18	30.54
4:09:                  48	30.56
4:10:                  18	30.56
4:10:                  48	30.54
4:11:                  18	30.56
4:11:                  48	30.55
4:12:                  18	30.55
4:12:                  48	30.54
4:13:                  18	30.56
4:13:                  48	30.56
4:14:                  18	30.54
4:14:                  48	30.54
4:15:                  18	30.54
4:15:                  48	30.54
4:16:                  18	30.53
4:16:                  48	30.54
4:17:                  18	30.53
4:17:                  48	30.54
4:18:                  18	30.54
4:18:                  48	30.53
4:19:                  18	30.53
4:19:                  48	30.53
4:20:                  18	30.54
4:20:                  48	30.53
4:21:                  18	30.53
4:21:                  48	30.52
4:22:                  18	30.53
4:22:                  48	30.52
4:23:                  18	30.52
4:23:                  48	30.52
4:24:                  18	30.53
4:24:                  48	30.52
4:25:                  18	30.51
4:25:                  48	30.52
4:26:                  18	30.52
4:26:                  49	30.52
4:27:                  19	30.51
4:27:                  49	30.52
4:28:                  19	30.52
4:28:                  49	30.51
4:29:                  19	30.52
4:29:                  49	30.51
4:30:                  19	30.50
4:30:                  49	30.51
4:31:                  19	30.51
4:31:                  49	30.51
4:32:                  19	30.51
4:32:                  49	30.50
4:33:                  19	30.50
4:33:                  49	30.51
4:34:                  19	30.51
4:34:                  49	30.51
4:35:                  19	30.51
4:35:                  49	30.50
4:36:                  19	30.51
4:36:                  49	30.51
4:37:                  19	30.51
4:37:                  49	30.50
4:38:                  19	30.50
4:38:                  49	30.50
4:39:                  19	30.50
4:39:                  49	30.50
4:40:                  19	30.50
4:40:                  49	30.49
4:41:                  19	30.50
4:41:                  49	30.49
4:42:                  19	30.50
4:42:                  49	30.50
4:43:                  19	30.49
4:43:                  49	30.50
4:44:                  19	30.49
4:44:                  49	30.49
4:45:                  20	30.49
4:45:                  50	30.48
4:46:                  20	30.48
4:46:                  50	30.49
4:47:                  20	30.50
4:47:                  50	30.50
4:48:                  20	30.50
4:48:                  50	30.50
4:49:                  20	30.50
4:49:                  50	30.49
4:50:                  20	30.49
4:50:                  50	30.50
4:51:                  20	30.49
4:51:                  50	30.48
4:52:                  20	30.49
4:52:                  50	30.49
4:53:                  20	30.49
4:53:                  50	30.49
4:54:                  20	30.49
4:54:                  50	30.47
4:55:                  20	30.48
4:55:                  50	30.48
4:56:                  20	30.49
4:56:                  50	30.49
4:57:                  20	30.49
4:57:                  50	30.49
4:58:                  20	30.48
4:58:                  50	30.49
4:59:                  20	30.48
4:59:                  50	30.49
5:00:                  20	30.49
5:00:                  50	30.47
5:01:                  20	30.47
5:01:                  50	30.48
5:02:                  20	30.47
5:02:                  50	30.48
5:03:                  20	30.47
5:03:                  50	30.48
5:04:                  20	30.49
5:04:                  50	30.49
5:05:                  20	30.49
5:05:                  50	30.48
5:06:                  20	30.48
5:06:                  50	30.47
5:07:                  20	30.48
5:07:                  50	30.47
5:08:                  20	30.49
5:08:                  50	30.47
5:09:                  20	30.47
5:09:                  50	30.47
5:10:                  20	30.45
5:10:                  50	30.46
5:11:                  20	30.47
5:11:                  50	30.46
5:12:                  20	30.46
5:12:                  50	30.47
5:13:                  20	30.46
5:13:                  50	30.46
5:14:                  20	30.47
5:14:                  50	30.46
5:15:                  20	30.47
5:15:                  50	30.46
5:16:                  20	30.46
5:16:                  50	30.46
5:17:                  20	30.46
5:17:                  50	30.46
5:18:                  20	30.46
5:18:                  50	30.45
5:19:                  20	30.46
5:19:                  50	30.46
5:20:                  20	30.46
5:20:                  50	30.46
5:21:                  20	30.45
5:21:                  51	30.45
5:22:                  21	30.45
5:22:                  51	30.45
5:23:                  21	30.44
5:23:                  51	30.45
5:24:                  21	30.43
5:24:                  51	30.44
5:25:                  21	30.44
5:25:                  51	30.44
5:26:                  21	30.43
5:26:                  51	30.44
5:27:                  21	30.44
5:27:                  51	30.44
5:28:                  21	30.43
5:28:                  51	30.44
5:29:                  21	30.43
5:29:                  51	30.45
5:30:                  21	30.44
5:30:                  51	30.44
5:31:                  21	30.43
5:31:                  51	30.43
5:32:                  21	30.44
5:32:                  51	30.43
5:33:                  21	30.44
5:33:                  51	30.44
5:34:                  21	30.43
5:34:                  51	30.42
5:35:                  21	30.43
5:35:                  51	30.44
5:36:                  21	30.43
5:36:                  51	30.42
5:37:                  21	30.43
5:37:                  51	30.42
5:38:                  21	30.43
5:38:                  51	30.42
5:39:                  21	30.42
5:39:                  51	30.43
5:40:                  21	30.42
5:40:                  51	30.42
5:41:                  21	30.42
5:41:                  51	30.43
5:42:                  21	30.44
5:42:                  51	30.44
5:43:                  21	30.43
5:43:                  51	30.44
5:44:                  21	30.44
5:44:                  51	30.43
5:45:                  21	30.42
5:45:                  51	30.42
5:46:                  21	30.43
5:46:                  51	30.42
5:47:                  21	30.42
5:47:                  51	30.43
5:48:                  21	30.42
5:48:                  51	30.41
5:49:                  21	30.42
5:49:                  51	30.41
5:50:                  21	30.41
5:50:                  51	30.41
5:51:                  21	30.42
5:51:                  51	30.41
5:52:                  21	30.42
5:52:                  51	30.42
5:53:                  21	30.41
5:53:                  51	30.41
5:54:                  21	30.41
5:54:                  51	30.41
5:55:                  21	30.41
5:55:                  51	30.39
5:56:                  21	30.41
5:56:                  51	30.39
5:57:                  22	30.39
5:57:                  52	30.40
5:58:                  22	30.39
5:58:                  52	30.39
5:59:                  22	30.40
5:59:                  52	30.39
6:00:                  22	30.39
6:00:                  52	30.39
6:01:                  22	30.40
6:01:                  52	30.40
6:02:                  22	30.40
6:02:                  52	30.39
6:03:                  22	30.39
6:03:                  52	30.40
6:04:                  22	30.39
6:04:                  52	30.39
6:05:                  22	30.39
6:05:                  52	30.39
6:06:                  22	30.39
6:06:                  52	30.39
6:07:                  22	30.38
6:07:                  52	30.38
6:08:                  22	30.39
6:08:                  52	30.38
6:09:                  22	30.38
6:09:                  52	30.38
6:10:                  22	30.39
6:10:                  52	30.39
6:11:                  22	30.40
6:11:                  52	30.39
6:12:                  22	30.40
6:12:                  52	30.39
6:13:                  22	30.40
6:13:                  52	30.39
6:14:                  22	30.39
6:14:                  52	30.39
6:15:                  22	30.39
6:15:                  52	30.39
6:16:                  22	30.39
6:16:                  52	30.39
6:17:                  22	30.39
6:17:                  52	30.38
6:18:                  22	30.39
6:18:                  52	30.39
6:19:                  22	30.39
6:19:                  52	30.39
6:20:                  22	30.39
6:20:                  52	30.38
6:21:                  22	30.38
6:21:                  52	30.38
6:22:                  22	30.37
6:22:                  52	30.37
6:23:                  22	30.39
6:23:                  52	30.39
6:24:                  22	30.38
6:24:                  52	30.37
6:25:                  22	30.38
6:25:                  52	30.37
6:26:                  22	30.38
6:26:                  53	30.39
6:27:                  23	30.37
6:27:                  53	30.38
6:28:                  23	30.38
6:28:                  53	30.37
6:29:                  23	30.38
6:29:                  53	30.37
6:30:                  23	30.37
6:30:                  53	30.38
6:31:                  23	30.37
6:31:                  53	30.37
6:32:                  23	30.38
6:32:                  53	30.37
6:33:                  23	30.37
6:33:                  53	30.37
6:34:                  23	30.37
6:34:                  53	30.37
6:35:                  23	30.36
6:35:                  53	30.36
6:36:                  23	30.36
6:36:                  53	30.36
6:37:                  23	30.36
6:37:                  53	30.37
6:38:                  23	30.36
6:38:                  53	30.36
6:39:                  23	30.35
6:39:                  53	30.35
6:40:                  23	30.36
6:40:                  53	30.35
6:41:                  23	30.36
6:41:                  53	30.36
6:42:                  23	30.35
6:42:                  53	30.35
6:43:                  23	30.35
6:43:                  53	30.35
6:44:                  23	30.35
6:44:                  53	30.35
6:45:                  23	30.35
6:45:                  53	30.35
6:46:                  23	30.35
6:46:                  53	30.35
6:47:                  23	30.35
6:47:                  53	30.35
6:48:                  23	30.36
6:48:                  53	30.36
6:49:                  23	30.35
6:49:                  53	30.35
6:50:                  23	30.36
6:50:                  53	30.35
6:51:                  23	30.34
6:51:                  53	30.35
6:52:                  23	30.35
6:52:                  53	30.35
6:53:                  23	30.34
6:53:                  53	30.33
6:54:                  23	30.34
6:54:                  53	30.34
6:55:                  23	30.34
6:55:                  53	30.34
6:56:                  23	30.34
6:56:                  53	30.34
6:57:                  23	30.34
6:57:                  53	30.34
6:58:                  23	30.33
6:58:                  53	30.33
6:59:                  23	30.33
6:59:                  53	30.33
7:00:                  23	30.33
7:00:                  53	30.33
7:01:                  23	30.34
7:01:                  53	30.33
7:02:                  23	30.33
7:02:                  53	30.33
7:03:                  23	30.32
7:03:                  53	30.33
7:04:                  23	30.33
7:04:                  53	30.33
7:05:                  23	30.33
7:05:                  53	30.32
7:06:                  23	30.32
7:06:                  53	30.32
7:07:                  23	30.32
7:07:                  54	30.32
7:08:                  24	30.31
7:08:                  54	30.32
7:09:                  24	30.32
7:09:                  54	30.32
7:10:                  24	30.33
7:10:                  54	30.33
7:11:                  24	30.32
7:11:                  54	30.32
7:12:                  24	30.31
7:12:                  54	30.30
7:13:                  24	30.30
7:13:                  54	30.31
7:14:                  24	30.31
7:14:                  54	30.32
7:15:                  24	30.31
7:15:                  54	30.31
7:16:                  24	30.31
7:16:                  54	30.31
7:17:                  24	30.30
7:17:                  54	30.31
7:18:                  24	30.30
7:18:                  54	30.32
7:19:                  24	30.32
7:19:                  54	30.31
7:20:                  24	30.31
7:20:                  54	30.32
7:21:                  24	30.32
7:21:                  54	30.31
7:22:                  24	30.31
7:22:                  54	30.32
7:23:                  24	30.31
7:23:                  54	30.32
7:24:                  24	30.31
7:24:                  54	30.30
7:25:                  24	30.30
7:25:                  54	30.31
7:26:                  24	30.30
7:26:                  54	30.31
7:27:                  24	30.30
7:27:                  54	30.29
7:28:                  24	30.30
7:28:                  54	30.29
7:29:                  24	30.29
7:29:                  54	30.29
7:30:                  24	30.29
7:30:                  54	30.30
7:31:                  24	30.30
7:31:                  54	30.30
7:32:                  24	30.29
7:32:                  54	30.31
7:33:                  25	30.30
7:33:                  55	30.30
7:34:                  25	30.30
7:34:                  55	30.30
7:35:                  25	30.29
7:35:                  55	30.30
7:36:                  25	30.28
7:36:                  55	30.29
7:37:                  25	30.30
7:37:                  55	30.29
7:38:                  25	30.28
7:38:                  55	30.29
7:39:                  25	30.29
7:39:                  55	30.28
7:40:                  25	30.30
7:40:                  55	30.29
7:41:                  25	30.28
7:41:                  55	30.29
7:42:                  25	30.28
7:42:                  55	30.28
7:43:                  25	30.28
7:43:                  55	30.28
7:44:                  25	30.28
7:44:                  55	30.27
7:45:                  25	30.28
7:45:                  55	30.29
7:46:                  25	30.29
7:46:                  55	30.29
7:47:                  25	30.29
7:47:                  55	30.29
7:48:                  25	30.28
7:48:                  55	30.29
7:49:                  25	30.29
7:49:                  55	30.29
7:50:                  25	30.28
7:50:                  55	30.28
7:51:                  25	30.29
7:51:                  55	30.29
7:52:                  25	30.29
7:52:                  55	30.28
7:53:                  25	30.29
7:53:                  55	30.29
7:54:                  25	30.29
7:54:                  55	30.28
7:55:                  25	30.28
7:55:                  55	30.27
7:56:                  25	30.27
7:56:                  55	30.28
7:57:                  25	30.28
7:57:                  55	30.27
7:58:                  25	30.27
7:58:                  55	30.27
7:59:                  25	30.27
7:59:                  55	30.27
8:00:                  25	30.26
8:00:                  55	30.26
8:01:                  25	30.27
8:01:                  55	30.25
8:02:                  26	30.26
8:02:                  56	30.26
8:03:                  26	30.27
8:03:                  56	30.26
8:04:                  26	30.26
8:04:                  56	30.26
8:05:                  26	30.27
8:05:                  56	30.26
8:06:                  26	30.26
8:06:                  56	30.26
8:07:                  26	30.27
8:07:                  56	30.27
8:08:                  26	30.27
8:08:                  56	30.26
8:09:                  26	30.26
8:09:                  56	30.26
8:10:                  26	30.26
8:10:                  56	30.27
8:11:                  26	30.27
8:11:                  56	30.27
8:12:                  26	30.27
8:12:                  56	30.27
8:13:                  26	30.26
8:13:                  56	30.26
8:14:                  26	30.26
8:14:                  56	30.26
8:15:                  26	30.27
8:15:                  56	30.26
8:16:                  26	30.26
8:16:                  56	30.25
8:17:                  26	30.25
8:17:                  56	30.26
8:18:                  26	30.26
8:18:                  56	30.26
8:19:                  26	30.26
8:19:                  56	30.27
8:20:                  26	30.26
8:20:                  56	30.27
8:21:                  26	30.26
8:21:                  56	30.27
8:22:                  26	30.27
8:22:                  56	30.26
8:23:                  26	30.26
8:23:                  57	30.26
8:24:                  27	30.26
8:24:                  57	30.26
8:25:                  27	30.27
8:25:                  57	30.26
8:26:                  27	30.26
8:26:                  57	30.26
8:27:                  27	30.26
8:27:                  57	30.27
8:28:                  27	30.26
8:28:                  57	30.26
8:29:                  27	30.27
8:29:                  57	30.27
8:30:                  27	30.26
8:30:                  57	30.27
8:31:                  27	30.27
8:31:                  57	30.26
8:32:                  27	30.26
8:32:                  57	30.26
8:33:                  27	30.26
8:33:                  57	30.26
8:34:                  27	30.25
8:34:                  57	30.26
8:35:                  27	30.25
8:35:                  57	30.26
8:36:                  27	30.26
8:36:                  57	30.26
8:37:                  27	30.25
8:37:                  57	30.26
8:38:                  27	30.26
8:38:                  57	30.26
8:39:                  27	30.26
8:39:                  57	30.27
8:40:                  27	30.26
8:40:                  58	30.26
8:41:                  28	30.25
8:41:                  58	30.26
8:42:                  28	30.28
8:42:                  58	30.27
8:43:                  28	30.27
8:43:                  58	30.27
8:44:                  28	30.27
8:44:                  58	30.27
8:45:                  28	30.26
8:45:                  58	30.27
8:46:                  28	30.27
8:46:                  58	30.27
8:47:                  28	30.26
8:47:                  58	30.26
8:48:                  28	30.26
8:48:                  58	30.27
8:49:                  28	30.28
8:49:                  58	30.24
8:50:                  28	30.26
8:50:                  58	30.26
8:51:                  28	30.27
8:51:                  58	30.27
8:52:                  28	30.23
8:52:                  58	30.25
8:53:                  28	30.26
8:53:                  58	30.27
8:54:                  28	30.28
8:54:                  58	30.29
8:55:                  28	30.31
8:55:                  58	30.32
8:56:                  28	30.34
8:56:                  58	30.35
8:57:                  28	30.35
8:57:                  58	30.36
8:58:                  28	30.38
8:58:                  58	30.38
8:59:                  28	30.39
8:59:                  58	30.41
9:00:                  28	30.42
9:00:                  58	30.42
9:01:                  28	30.44
9:01:                  58	30.46
9:02:                  28	30.46
9:02:                  58	30.47
9:03:                  28	30.49
9:03:                  58	30.50
9:04:                  28	30.50
9:04:                  58	30.52
9:05:                  28	30.52
9:05:                  58	30.53
9:06:                  28	30.54
9:06:                  58	30.54
9:07:                  28	30.51
9:07:                  58	30.55
9:08:                  28	30.57
9:08:                  58	30.57
9:09:                  29	30.59
9:09:                  59	30.58
9:10:                  29	30.53
9:10:                  59	30.55
9:11:                  29	30.59
9:11:                  59	30.61
9:12:                  29	30.64
9:12:                  59	30.66
9:13:                  29	30.68
9:13:                  59	30.70
9:14:                  29	30.73
9:14:                  59	30.74
9:15:                  29	30.74
9:15:                  59	30.68
9:16:                  29	30.61
9:16:                  59	30.61
9:17:                  29	30.61
9:17:                  59	30.60
9:18:                  29	30.64
9:18:                  59	30.68
9:19:                  29	30.68
9:19:                  59	30.67
9:20:                  29	30.67
9:20:                  59	30.66
9:21:                  29	30.68
9:21:                  59	30.70
9:22:                  29	30.70
9:22:                  59	30.72
9:23:                  29	30.71
9:23:                  59	30.73
9:24:                  29	30.74
9:24:                  59	30.75
9:25:                  29	30.76
9:25:                  59	30.78
9:26:                  29	30.78
9:26:                  59	30.78
9:27:                  29	30.78
9:27:                  59	30.78
9:28:                  29	30.82
9:28:                  59	30.82
9:29:                  29	30.82
9:29:                  59	30.84
9:30:                  29	30.85
9:30:                  59	30.86
9:31:                  29	30.86
9:31:                  59	30.88
9:32:                  29	30.88
9:32:                  59	30.88
9:33:                  29	30.89
9:33:                  59	30.88
9:34:                  29	30.88
9:34:                  59	30.90
9:35:                  29	30.90
9:35:                  59	30.92
9:36:                  30	30.93
9:37:                   0	30.93
9:37:                  30	30.95
9:38:                   0	30.95
9:38:                  30	30.97
9:39:                   0	30.98
9:39:                  30	31.00
9:40:                   0	31.01
9:40:                  30	31.02
9:41:                   0	31.02
9:41:                  30	31.04
9:42:                   0	31.05
9:42:                  30	31.07
9:43:                   0	31.09
9:43:                  30	31.12
9:44:                   0	31.15
9:44:                  30	31.17
9:45:                   0	31.19
9:45:                  30	31.21
9:46:                   0	31.16
9:46:                  30	31.13
9:47:                   0	31.15
9:47:                  30	31.14
9:48:                   0	31.13
9:48:                  30	31.13
9:49:                   0	31.11
9:49:                  30	31.11
9:50:                   0	31.09
9:50:                  30	31.09
9:51:                   0	31.08
9:51:                  30	31.08
9:52:                   0	31.07
9:52:                  30	31.04
9:53:                   0	31.03
9:53:                  30	31.02
9:54:                   0	31.03
9:54:                  30	31.02
9:55:                   0	31.02
9:55:                  30	31.00
9:56:                   0	31.01
9:56:                  30	31.00
9:57:                   0	30.98
9:57:                  30	31.00
9:58:                   0	30.98
9:58:                  30	30.97
9:59:                   0	30.94
9:59:                  30	30.93
10:00:                   0	30.93
10:00:                  30	30.94
10:01:                   1	30.95
10:01:                  31	30.93
10:02:                   1	30.95
10:02:                  31	30.95
10:03:                   1	30.93
10:03:                  31	30.93
10:04:                   1	30.94
10:04:                  31	30.95
10:05:                   1	30.94
10:05:                  31	30.93
10:06:                   1	30.92
10:06:                  31	30.92
10:07:                   1	30.91
10:07:                  31	30.91
10:08:                   1	30.92
10:08:                  31	30.90
10:09:                   1	30.92
10:09:                  31	30.91
10:10:                   1	30.90
10:10:                  31	30.89
10:11:                   1	30.89
10:11:                  31	30.90
10:12:                   1	30.91
10:12:                  31	30.90
10:13:                   1	30.91
10:13:                  31	30.90
10:14:                   1	30.89
10:14:                  31	30.89
10:15:                   1	30.89
10:15:                  31	30.89
10:16:                   1	30.89
10:16:                  31	30.88
10:17:                   1	30.87
10:17:                  31	30.84
10:18:                   1	30.83
10:18:                  31	30.86
10:19:                   1	30.85
10:19:                  31	30.84
10:20:                   1	30.84
10:20:                  31	30.83
10:21:                   1	30.84
10:21:                  31	30.83
10:22:                   1	30.82
10:22:                  31	30.82
10:23:                   1	30.81
10:23:                  31	30.81
10:24:                   1	30.79
10:24:                  31	30.79
10:25:                   1	30.79
10:25:                  31	30.82
10:26:                   1	30.80
10:26:                  31	30.79
10:27:                   1	30.81
10:27:                  31	30.81
10:28:                   1	30.81
10:28:                  31	30.81
10:29:                   1	30.80
10:29:                  31	30.82
10:30:                   1	30.81
10:30:                  31	30.82
10:31:                   1	30.82
10:31:                  31	30.82
10:32:                   1	30.82
10:32:                  31	30.82
10:33:                   1	30.82
10:33:                  32	30.82
10:34:                   2	30.82
10:34:                  32	30.82
10:35:                   2	30.81
10:35:                  32	30.82
10:36:                   2	30.83
10:36:                  32	30.82
10:37:                   2	30.83
10:37:                  32	30.83
10:38:                   2	30.84
10:38:                  32	30.83
10:39:                   2	30.84
10:39:                  32	30.84
10:40:                   2	30.84
10:40:                  32	30.86
10:41:                   2	30.84
10:41:                  32	30.85
10:42:                   2	30.84
10:42:                  32	30.83
10:43:                   2	30.84
10:43:                  32	30.85
10:44:                   2	30.85
10:44:                  32	30.85
10:45:                   2	30.84
10:45:                  32	30.83
10:46:                   2	30.84
10:46:                  32	30.86
10:47:                   2	30.86
10:47:                  32	30.88
10:48:                   2	30.87
10:48:                  32	30.86
10:49:                   2	30.85
10:49:                  32	30.86
10:50:                   2	30.86
10:50:                  32	30.84
10:51:                   2	30.85
10:51:                  32	30.83
10:52:                   2	30.83
10:52:                  33	30.83
10:53:                   3	30.83
10:53:                  33	30.84
10:54:                   3	30.83
10:54:                  33	30.83
10:55:                   3	30.83
10:55:                  33	30.84
10:56:                   3	30.83
10:56:                  33	30.84
10:57:                   3	30.85
10:57:                  33	30.84
10:58:                   3	30.83
10:58:                  33	30.83
10:59:                   3	30.84
10:59:                  33	30.84
11:00:                   3	30.83
11:00:                  33	30.85
11:01:                   3	30.86
11:01:                  33	30.85
11:02:                   3	30.85
11:02:                  33	30.85
11:03:                   3	30.85
11:03:                  33	30.85
11:04:                   3	30.88
11:04:                  33	30.86
11:05:                   3	30.85
11:05:                  33	30.85
11:06:                   3	30.85
11:06:                  33	30.85
11:07:                   3	30.86
11:07:                  33	30.86
11:08:                   3	30.86
11:08:                  33	30.84
11:09:                   3	30.86
11:09:                  33	30.86
11:10:                   3	30.85
11:10:                  34	30.85
11:11:                   4	30.86
11:11:                  34	30.85
11:12:                   4	30.86
11:12:                  34	30.86
11:13:                   4	30.85
11:13:                  34	30.86
11:14:                   4	30.87
11:14:                  34	30.88
11:15:                   4	30.88
11:15:                  34	30.88
11:16:                   4	30.89
11:16:                  34	30.89
11:17:                   4	30.89
11:17:                  34	30.89
11:18:                   4	30.89
11:18:                  34	30.89
11:19:                   4	30.89
11:19:                  34	30.88
11:20:                   4	30.90
11:20:                  34	30.89
11:21:                   4	30.90
11:21:                  34	30.90
11:22:                   4	30.89
11:22:                  34	30.89
11:23:                   4	30.90
11:23:                  34	30.90
11:24:                   4	30.90
11:24:                  34	30.90
11:25:                   4	30.90
11:25:                  34	30.89
11:26:                   4	30.88
11:26:                  34	30.90
11:27:                   5	30.90
11:27:                  35	30.89
11:28:                   5	30.89
11:28:                  35	30.89
11:29:                   5	30.90
11:29:                  35	30.91
11:30:                   5	30.91
11:30:                  35	30.91
11:31:                   5	30.90
11:31:                  35	30.91
11:32:                   5	30.92
11:32:                  35	30.92
11:33:                   5	30.91
11:33:                  35	30.92
11:34:                   5	30.93
11:34:                  35	30.93
11:35:                   5	30.93
11:35:                  35	30.94
11:36:                   5	30.94
11:36:                  35	30.93
11:37:                   5	30.92
11:37:                  35	30.93
11:38:                   5	30.93
11:38:                  35	30.93
11:39:                   5	30.95
11:39:                  35	30.94
11:40:                   5	30.96
11:40:                  35	30.95
11:41:                   5	30.95
11:41:                  35	30.96
11:42:                   5	30.96
11:42:                  35	30.95
11:43:                   5	30.96
11:43:                  35	30.96
11:44:                   5	30.96
11:44:                  35	30.96
11:45:                   5	30.98
11:45:                  35	30.98
11:46:                   5	30.98
11:46:                  35	30.98
11:47:                   6	30.99
11:47:                  36	30.99
11:48:                   6	30.98
11:48:                  36	30.99
11:49:                   6	30.99
11:49:                  36	31.00
11:50:                   6	31.00
11:50:                  36	31.01
11:51:                   6	31.01
11:51:                  36	31.00
11:52:                   6	31.00
11:52:                  36	31.02
11:53:                   6	31.01
11:53:                  36	31.01
11:54:                   6	31.01
11:54:                  36	31.00
11:55:                   6	31.01
11:55:                  36	31.01
11:56:                   6	31.01
11:56:                  36	31.02
11:57:                   6	31.01
11:57:                  36	31.02
11:58:                   6	31.02
11:58:                  36	31.03
11:59:                   6	31.04
11:59:                  36	31.04
12:00:                   6	31.05
12:00:                  36	31.05
12:01:                   6	31.05
12:01:                  36	31.05
12:02:                   6	31.04
12:02:                  36	31.05
12:03:                   6	31.06
12:03:                  36	31.05
12:04:                   6	31.05
12:04:                  37	31.07
12:05:                   7	31.06
12:05:                  37	31.06
12:06:                   7	31.06
12:06:                  37	31.07
12:07:                   7	31.08
12:07:                  37	31.08
12:08:                   7	31.07
12:08:                  37	31.07
12:09:                   7	31.08
12:09:                  37	31.07
12:10:                   7	31.08
12:10:                  37	31.08
12:11:                   7	31.08
12:11:                  37	31.06
12:12:                   7	31.07
12:12:                  37	31.08
12:13:                   7	31.08
12:13:                  37	31.09
12:14:                   7	31.08
12:14:                  37	31.09
12:15:                   7	31.07
12:15:                  37	31.06
12:16:                   7	31.06
12:16:                  37	31.08
12:17:                   7	31.07
12:17:                  37	31.08
12:18:                   7	31.07
12:18:                  37	31.08
12:19:                   7	31.07
12:19:                  37	31.08
12:20:                   7	31.07
12:20:                  37	31.07
12:21:                   7	31.09
12:21:                  37	31.08
12:22:                   7	31.09
12:22:                  37	31.08
12:23:                   7	31.09
12:23:                  37	31.09
12:24:                   7	31.10
12:24:                  37	31.11
12:25:                   7	31.10
12:25:                  37	31.11
12:26:                   7	31.11
12:26:                  37	31.11
12:27:                   7	31.11
12:27:                  37	31.12
12:28:                   7	31.13
12:28:                  37	31.13
12:29:                   7	31.14
12:29:                  37	31.15
12:30:                   7	31.14
12:30:                  37	31.13
12:31:                   7	31.15
12:31:                  37	31.15
12:32:                   7	31.16
12:32:                  38	31.15
12:33:                   8	31.16
12:33:                  38	31.16
12:34:                   8	31.16
12:34:                  38	31.16
12:35:                   8	31.15
12:35:                  38	31.17
12:36:                   8	31.16
12:36:                  38	31.16
12:37:                   8	31.16
12:37:                  38	31.17
12:38:                   8	31.16
12:38:                  38	31.16
12:39:                   8	31.15
12:39:                  38	31.16
12:40:                   8	31.16
12:40:                  38	31.15
12:41:                   8	31.16
12:41:                  38	31.16
12:42:                   8	31.16
12:42:                  38	31.16
12:43:                   8	31.16
12:43:                  38	31.15
12:44:                   8	31.16
12:44:                  38	31.16
12:45:                   8	31.16
12:45:                  38	31.17
12:46:                   8	31.19
12:46:                  38	31.16
12:47:                   8	31.16
12:47:                  38	31.16
12:48:                   9	31.15
12:48:                  39	31.15
12:49:                   9	31.15
12:49:                  39	31.15
12:50:                   9	31.14
12:50:                  39	31.14
12:51:                   9	31.15
12:51:                  39	31.14
12:52:                   9	31.14
12:52:                  39	31.14
12:53:                   9	31.14
12:53:                  39	31.14
12:54:                   9	31.15
12:54:                  39	31.14
12:55:                   9	31.14
12:55:                  39	31.14
12:56:                   9	31.14
12:56:                  39	31.14
12:57:                   9	31.14
12:57:                  39	31.15
12:58:                   9	31.14
12:58:                  39	31.14
12:59:                   9	31.15
12:59:                  39	31.15
13:00:                   9	31.15
13:00:                  39	31.15
13:01:                   9	31.14
13:01:                  39	31.15
13:02:                   9	31.14
13:02:                  39	31.15
13:03:                   9	31.14
13:03:                  39	31.14
13:04:                   9	31.15
13:04:                  39	31.15
13:05:                   9	31.14
13:05:                  39	31.13
13:06:                   9	31.14
13:06:                  39	31.14
13:07:                   9	31.13
13:07:                  39	31.14
13:08:                   9	31.15
13:08:                  39	31.15
13:09:                   9	31.14
13:09:                  39	31.15
13:10:                   9	31.15
13:10:                  39	31.14
13:11:                   9	31.14
13:11:                  39	31.14
13:12:                  10	31.14
13:12:                  40	31.16
13:13:                  10	31.15
13:13:                  40	31.16
13:14:                  10	31.15
13:14:                  40	31.15
13:15:                  10	31.17
13:15:                  40	31.16
13:16:                  10	31.17
13:16:                  40	31.16
13:17:                  10	31.15
13:17:                  40	31.16
13:18:                  10	31.16
13:18:                  40	31.16
13:19:                  10	31.16
13:19:                  40	31.14
13:20:                  10	31.15
13:20:                  40	31.15
13:21:                  10	31.15
13:21:                  40	31.15
13:22:                  10	31.16
13:22:                  40	31.16
13:23:                  10	31.16
13:23:                  40	31.16
13:24:                  10	31.15
13:24:                  40	31.17
13:25:                  10	31.15
13:25:                  40	31.15
13:26:                  10	31.15
13:26:                  40	31.15
13:27:                  10	31.14
13:27:                  40	31.14
13:28:                  11	31.15
13:28:                  41	31.15
13:29:                  11	31.15
13:29:                  41	31.15
13:30:                  11	31.15
13:30:                  41	31.15
13:31:                  11	31.16
13:31:                  41	31.15
13:32:                  11	31.15
13:32:                  41	31.16
13:33:                  11	31.16
13:33:                  41	31.15
13:34:                  11	31.16
13:34:                  41	31.16
13:35:                  11	31.15
13:35:                  41	31.16
13:36:                  11	31.16
13:36:                  41	31.16
13:37:                  11	31.17
13:37:                  41	31.17
13:38:                  11	31.17
13:38:                  41	31.16
13:39:                  11	31.15
13:39:                  41	31.14
13:40:                  11	31.15
13:40:                  41	31.16
13:41:                  11	31.15
13:41:                  41	31.15
13:42:                  11	31.15
13:42:                  41	31.15
13:43:                  11	31.15
13:43:                  41	31.15
13:44:                  11	31.15
13:44:                  41	31.16
13:45:                  11	31.16
13:45:                  41	31.17
13:46:                  11	31.16
13:46:                  41	31.16
13:47:                  11	31.17
13:47:                  41	31.17
13:48:                  11	31.17
13:48:                  41	31.16
13:49:                  11	31.17
13:49:                  41	31.19
13:50:                  11	31.18
13:50:                  41	31.16
13:51:                  11	31.17
13:51:                  41	31.16
13:52:                  12	31.16
13:52:                  42	31.16
13:53:                  12	31.14
13:53:                  42	31.13
13:54:                  12	31.14
13:54:                  42	31.12
13:55:                  12	31.15
13:55:                  42	31.15
13:56:                  12	31.16
13:56:                  42	31.16
13:57:                  12	31.17
13:57:                  42	31.17
13:58:                  12	31.16
13:58:                  42	31.17
13:59:                  12	31.17
13:59:                  42	31.17
14:00:                  12	31.19
14:00:                  42	31.19
14:01:                  12	31.19
14:01:                  42	31.17
14:02:                  12	31.17
14:02:                  42	31.17
14:03:                  12	31.17
14:03:                  42	31.17
14:04:                  12	31.18
14:04:                  42	31.16
14:05:                  12	31.16
14:05:                  42	31.17
14:06:                  12	31.19
14:06:                  42	31.19
14:07:                  12	31.17
14:07:                  43	31.19
14:08:                  13	31.18
14:08:                  43	31.19
14:09:                  13	31.17
14:09:                  43	31.17
14:10:                  13	31.18
14:10:                  43	31.19
14:11:                  13	31.17
14:11:                  43	31.19
14:12:                  13	31.19
14:12:                  43	31.19
14:13:                  13	31.19
14:13:                  43	31.18
14:14:                  13	31.20
14:14:                  43	31.19
14:15:                  13	31.19
14:15:                  43	31.19
14:16:                  13	31.19
14:16:                  43	31.19
14:17:                  13	31.19
14:17:                  43	31.19
14:18:                  13	31.19
14:18:                  43	31.19
14:19:                  13	31.18
14:19:                  43	31.18
14:20:                  13	31.19
14:20:                  43	31.19
14:21:                  13	31.19
14:21:                  43	31.19
14:22:                  13	31.17
14:22:                  43	31.17
14:23:                  13	31.16
14:23:                  43	31.17
14:24:                  13	31.17
14:24:                  43	31.17
14:25:                  13	31.17
14:25:                  43	31.19
14:26:                  13	31.18
14:26:                  43	31.18
14:27:                  13	31.19
14:27:                  43	31.20
14:28:                  13	31.16
14:28:                  43	31.16
14:29:                  13	31.17
14:29:                  43	31.17
14:30:                  13	31.17
14:30:                  43	31.17
14:31:                  13	31.17
14:31:                  43	31.19
14:32:                  13	31.19
14:32:                  43	31.18
14:33:                  13	31.19
14:33:                  43	31.19
14:34:                  13	31.19
14:34:                  43	31.18
14:35:                  13	31.19
14:35:                  43	31.19
14:36:                  13	31.17
14:36:                  43	31.17
14:37:                  13	31.17
14:37:                  43	31.17
14:38:                  13	31.16
14:38:                  43	31.15
14:39:                  13	31.17
14:39:                  43	31.17
14:40:                  13	31.17
14:40:                  43	31.17
14:41:                  13	31.17
14:41:                  43	31.17
14:42:                  13	31.17
14:42:                  43	31.19
14:43:                  13	31.18
14:43:                  43	31.17
14:44:                  13	31.16
14:44:                  44	31.17
14:45:                  14	31.16
14:45:                  44	31.16
14:46:                  14	31.16
14:46:                  44	31.17
14:47:                  14	31.15
14:47:                  44	31.16
14:48:                  14	31.17
14:48:                  44	31.17
14:49:                  14	31.17
14:49:                  44	31.16
14:50:                  14	31.16
14:50:                  44	31.16
14:51:                  14	31.16
14:51:                  44	31.15
14:52:                  14	31.17
14:52:                  44	31.17
14:53:                  14	31.16
14:53:                  44	31.16
14:54:                  14	31.15
14:54:                  44	31.16
14:55:                  14	31.14
14:55:                  44	31.16
14:56:                  14	31.16
14:56:                  44	31.17
14:57:                  14	31.16
14:57:                  44	31.16
14:58:                  14	31.16
14:58:                  44	31.17
14:59:                  14	31.17
14:59:                  44	31.16
15:00:                  15	31.17
15:00:                  45	31.17
15:01:                  15	31.18
15:01:                  45	31.18
15:02:                  15	31.19
15:02:                  45	31.20
15:03:                  15	31.20
15:03:                  45	31.19
15:04:                  15	31.19
15:04:                  45	31.20
15:05:                  15	31.20
15:05:                  45	31.20
15:06:                  15	31.20
15:06:                  45	31.21
15:07:                  15	31.19
15:07:                  45	31.20
15:08:                  15	31.19
15:08:                  45	31.20
15:09:                  15	31.19
15:09:                  45	31.19
15:10:                  15	31.17
15:10:                  45	31.18
15:11:                  15	31.18
15:11:                  45	31.17
15:12:                  15	31.17
15:12:                  45	31.17
15:13:                  15	31.16
15:13:                  45	31.16
15:14:                  15	31.16
15:14:                  45	31.15
15:15:                  15	31.16
15:15:                  45	31.16
15:16:                  15	31.15
15:16:                  45	31.16
15:17:                  15	31.15
15:17:                  45	31.16
15:18:                  15	31.15
15:18:                  45	31.15
15:19:                  15	31.16
15:19:                  45	31.15
15:20:                  15	31.15
15:20:                  46	31.16
15:21:                  16	31.16
15:21:                  46	31.16
15:22:                  16	31.16
15:22:                  46	31.17
15:23:                  16	31.17
15:23:                  46	31.18
15:24:                  16	31.19
15:24:                  46	31.18
15:25:                  16	31.19
15:25:                  46	31.18
15:26:                  16	31.17
15:26:                  46	31.17
15:27:                  16	31.17
15:27:                  46	31.19
15:28:                  16	31.17
15:28:                  46	31.17
15:29:                  16	31.16
15:29:                  46	31.17
15:30:                  16	31.18
15:30:                  46	31.19
15:31:                  16	31.17
15:31:                  46	31.17
15:32:                  16	31.17
15:32:                  46	31.17
15:33:                  16	31.16
15:33:                  46	31.15
15:34:                  16	31.15
15:34:                  46	31.15
15:35:                  16	31.14
15:35:                  46	31.16
15:36:                  16	31.15
15:36:                  46	31.16
15:37:                  16	31.15
15:37:                  46	31.16
15:38:                  16	31.16
15:38:                  46	31.17
15:39:                  16	31.17
15:39:                  46	31.18
15:40:                  16	31.19
15:40:                  46	31.19
15:41:                  16	31.16
15:41:                  47	31.16
15:42:                  17	31.16
15:42:                  47	31.17
15:43:                  17	31.18
15:43:                  47	31.17
15:44:                  17	31.16
15:44:                  47	31.16
15:45:                  17	31.16
15:45:                  47	31.15
15:46:                  17	31.16
15:46:                  47	31.16
15:47:                  17	31.17
15:47:                  47	31.17
15:48:                  17	31.18
15:48:                  47	31.19
15:49:                  17	31.19
15:49:                  47	31.17
15:50:                  17	31.16
15:50:                  47	31.16
15:51:                  17	31.17
15:51:                  47	31.16
15:52:                  17	31.17
15:52:                  47	31.17
15:53:                  17	31.16
15:53:                  47	31.17
15:54:                  17	31.16
15:54:                  47	31.17
15:55:                  17	31.16
15:55:                  47	31.16
15:56:                  17	31.17
15:56:                  47	31.19
15:57:                  17	31.17
15:57:                  47	31.17
15:58:                  17	31.18
15:58:                  47	31.17
15:59:                  17	31.17
15:59:                  47	31.16
16:00:                  17	31.17
16:00:                  47	31.16
16:01:                  17	31.17
16:01:                  47	31.17
16:02:                  17	31.17
16:02:                  47	31.19
16:03:                  17	31.19
16:03:                  47	31.17
16:04:                  17	31.17
16:04:                  47	31.17
16:05:                  17	31.16
16:05:                  47	31.16
16:06:                  17	31.17
16:06:                  47	31.19
16:07:                  17	31.19
16:07:                  47	31.19
16:08:                  17	31.18
16:08:                  47	31.17
16:09:                  17	31.17
16:09:                  47	31.16
16:10:                  17	31.17
16:10:                  47	31.18
16:11:                  18	31.18
16:11:                  48	31.18
16:12:                  18	31.20
16:12:                  48	31.20
16:13:                  18	31.20
16:13:                  48	31.21
16:14:                  18	31.21
16:14:                  48	31.21
16:15:                  18	31.21
16:15:                  48	31.20
16:16:                  18	31.20
16:16:                  48	31.21
16:17:                  18	31.21
16:17:                  48	31.21
16:18:                  18	31.22
16:18:                  48	31.21
16:19:                  18	31.21
16:19:                  48	31.23
16:20:                  18	31.22
16:20:                  48	31.23
16:21:                  18	31.22
16:21:                  48	31.22
16:22:                  18	31.21
16:22:                  48	31.21
16:23:                  18	31.22
16:23:                  48	31.22
16:24:                  18	31.21
16:24:                  48	31.22
16:25:                  18	31.23
16:25:                  48	31.23
16:26:                  18	31.23
16:26:                  48	31.22
16:27:                  18	31.23
16:27:                  48	31.22
16:28:                  18	31.25
16:28:                  48	31.24
16:29:                  18	31.24
16:29:                  48	31.23
16:30:                  18	31.22
16:30:                  48	31.21
16:31:                  18	31.21
16:31:                  48	31.21
16:32:                  18	31.22
16:32:                  48	31.23
16:33:                  19	31.21
16:33:                  49	31.20
16:34:                  19	31.21
16:34:                  49	31.20
16:35:                  19	31.20
16:35:                  49	31.20
16:36:                  19	31.20
16:36:                  49	31.19
16:37:                  19	31.19
16:37:                  49	31.20
16:38:                  19	31.20
16:38:                  49	31.19
16:39:                  19	31.17
16:39:                  49	31.19
16:40:                  19	31.20
16:40:                  49	31.20
16:41:                  19	31.21
16:41:                  49	31.22
16:42:                  19	31.22
16:42:                  49	31.23
16:43:                  19	31.21
16:43:                  49	31.21
16:44:                  19	31.21
16:44:                  49	31.21
16:45:                  19	31.20
16:45:                  49	31.20
16:46:                  19	31.19
16:46:                  49	31.17
16:47:                  19	31.18
16:47:                  49	31.19
16:48:                  19	31.19
16:48:                  49	31.17
16:49:                  19	31.19
16:49:                  49	31.18
16:50:                  20	31.17
16:50:                  50	31.17
16:51:                  20	31.18
16:51:                  50	31.18
16:52:                  20	31.17
16:52:                  50	31.19
16:53:                  20	31.17
16:53:                  50	31.17
16:54:                  20	31.17
16:54:                  50	31.17
16:55:                  20	31.17
16:55:                  50	31.18
16:56:                  20	31.19
16:56:                  50	31.19
16:57:                  20	31.19
16:57:                  50	31.18
16:58:                  20	31.19
16:58:                  50	31.20
16:59:                  20	31.19
16:59:                  50	31.17
17:00:                  20	31.19
17:00:                  50	31.19
17:01:                  20	31.20
17:01:                  50	31.22
17:02:                  20	31.23
17:02:                  50	31.22
17:03:                  20	31.24
17:03:                  50	31.24
17:04:                  20	31.24
17:04:                  50	31.25
17:05:                  20	31.24
17:05:                  50	31.25
17:06:                  20	31.24
17:06:                  50	31.24
17:07:                  20	31.22
17:07:                  50	31.23
17:08:                  20	31.22
17:08:                  50	31.20
17:09:                  20	31.22
17:09:                  50	31.21
17:10:                  20	31.21
17:10:                  50	31.21
17:11:                  20	31.21
17:11:                  50	31.22
17:12:                  20	31.22
17:12:                  50	31.22
17:13:                  20	31.22
17:13:                  50	31.23
17:14:                  20	31.23
17:14:                  50	31.23
17:15:                  20	31.23
17:15:                  50	31.22
17:16:                  20	31.21
17:16:                  50	31.21
17:17:                  20	31.23
17:17:                  50	31.22
17:18:                  20	31.21
17:18:                  50	31.21
17:19:                  20	31.20
17:19:                  50	31.20
17:20:                  21	31.20
17:20:                  51	31.21
17:21:                  21	31.20
17:21:                  51	31.20
17:22:                  21	31.19
17:22:                  51	31.19
17:23:                  21	31.20
17:23:                  51	31.20
17:24:                  21	31.19
17:24:                  51	31.19
17:25:                  21	31.19
17:25:                  51	31.19
17:26:                  21	31.19
17:26:                  51	31.20
17:27:                  21	31.20
17:27:                  51	31.19
17:28:                  21	31.19
17:28:                  51	31.20
17:29:                  21	31.19
17:29:                  51	31.19
17:30:                  21	31.17
17:30:                  51	31.17
17:31:                  21	31.16
17:31:                  51	31.17
17:32:                  21	31.19
17:32:                  51	31.21
17:33:                  21	31.23
17:33:                  51	31.25
17:34:                  21	31.23
17:34:                  51	31.24
17:35:                  21	31.24
17:35:                  51	31.23
17:36:                  21	31.23
17:36:                  51	31.22
17:37:                  21	31.21
17:37:                  51	31.21
17:38:                  21	31.21
17:38:                  51	31.22
17:39:                  21	31.23
17:39:                  51	31.21
17:40:                  21	31.23
17:40:                  52	31.25
17:41:                  22	31.26
17:41:                  52	31.27
17:42:                  22	31.27
17:42:                  52	31.27
17:43:                  22	31.27
17:43:                  52	31.27
17:44:                  22	31.26
17:44:                  52	31.24
17:45:                  22	31.25
17:45:                  52	31.26
17:46:                  22	31.25
17:46:                  52	31.26
17:47:                  22	31.26
17:47:                  52	31.27
17:48:                  22	31.26
17:48:                  52	31.26
17:49:                  22	31.27
17:49:                  52	31.28
17:50:                  22	31.30
17:50:                  52	31.28
17:51:                  22	31.27
17:51:                  52	31.26
17:52:                  22	31.26
17:52:                  52	31.25
17:53:                  22	31.24
17:53:                  52	31.24
17:54:                  22	31.23
17:54:                  52	31.22
17:55:                  22	31.21
17:55:                  52	31.20
17:56:                  22	31.20
17:56:                  52	31.18
17:57:                  22	31.16
17:57:                  52	31.19
17:58:                  22	31.18
17:58:                  52	31.19
17:59:                  22	31.20
17:59:                  52	31.20
18:00:                  22	31.20
18:00:                  52	31.20
18:01:                  22	31.19
18:01:                  52	31.17
18:02:                  22	31.16
18:02:                  52	31.14
18:03:                  22	31.14
18:03:                  52	31.15
18:04:                  22	31.15
18:04:                  52	31.15
18:05:                  22	31.16
18:05:                  52	31.16
18:06:                  22	31.16
18:06:                  52	31.16
18:07:                  22	31.16
18:07:                  52	31.16
18:08:                  22	31.14
18:08:                  52	31.14
18:09:                  23	31.13
18:09:                  53	31.14
18:10:                  23	31.14
18:10:                  53	31.13
18:11:                  23	31.15
18:11:                  53	31.15
18:12:                  23	31.14
18:12:                  53	31.13
18:13:                  23	31.13
18:13:                  53	31.14
18:14:                  23	31.14
18:14:                  53	31.14
18:15:                  23	31.14
18:15:                  53	31.13
18:16:                  23	31.14
18:16:                  53	31.17
18:17:                  23	31.18
18:17:                  53	31.21
18:18:                  23	31.22
18:18:                  53	31.24
18:19:                  23	31.25
18:19:                  53	31.26
18:20:                  23	31.26
18:20:                  53	31.24
18:21:                  23	31.25
18:21:                  53	31.26
18:22:                  23	31.26
18:22:                  53	31.26
18:23:                  23	31.24
18:23:                  53	31.24
18:24:                  23	31.24
18:24:                  53	31.24
18:25:                  23	31.23
18:25:                  54	31.23
18:26:                  24	31.22
18:26:                  54	31.20
18:27:                  24	31.20
18:27:                  54	31.21
18:28:                  24	31.21
18:28:                  54	31.23
18:29:                  24	31.21
18:29:                  54	31.21
18:30:                  24	31.19
18:30:                  54	31.19
18:31:                  24	31.19
18:31:                  54	31.18
18:32:                  24	31.19
18:32:                  54	31.17
18:33:                  24	31.16
18:33:                  54	31.16
18:34:                  24	31.16
18:34:                  54	31.15
18:35:                  24	31.15
18:35:                  54	31.15
18:36:                  24	31.13
18:36:                  54	31.13
18:37:                  24	31.13
18:37:                  54	31.12
18:38:                  24	31.13
18:38:                  54	31.13
18:39:                  24	31.13
18:39:                  54	31.12
18:40:                  24	31.12
18:40:                  54	31.13
18:41:                  24	31.14
18:41:                  54	31.14
18:42:                  24	31.14
18:42:                  54	31.13
18:43:                  24	31.15
18:43:                  54	31.14
18:44:                  24	31.14
18:44:                  54	31.15
18:45:                  24	31.14
18:45:                  54	31.13
18:46:                  24	31.12
18:46:                  55	31.12
18:47:                  25	31.13
18:47:                  55	31.14
18:48:                  25	31.14
18:48:                  55	31.13
18:49:                  25	31.13
18:49:                  55	31.11
18:50:                  25	31.12
18:50:                  55	31.13
18:51:                  25	31.12
18:51:                  55	31.13
18:52:                  25	31.10
18:52:                  55	31.12
18:53:                  25	31.12
18:53:                  55	31.11
18:54:                  25	31.11
18:54:                  55	31.12
18:55:                  25	31.12
18:55:                  55	31.14
18:56:                  25	31.12
18:56:                  55	31.13
18:57:                  25	31.12
18:57:                  55	31.13
18:58:                  25	31.13
18:58:                  55	31.12
18:59:                  25	31.11
18:59:                  55	31.12
19:00:                  25	31.12
19:00:                  55	31.11
19:01:                  25	31.11
19:01:                  55	31.11
19:02:                  25	31.12
19:02:                  56	31.13
19:03:                  26	31.12
19:03:                  56	31.13
19:04:                  26	31.13
19:04:                  56	31.12
19:05:                  26	31.11
19:05:                  56	31.11
19:06:                  26	31.11
19:06:                  56	31.11
19:07:                  26	31.11
19:07:                  56	31.12
19:08:                  26	31.11
19:08:                  56	31.11
19:09:                  26	31.11
19:09:                  56	31.12
19:10:                  26	31.11
19:10:                  56	31.10
19:11:                  26	31.10
19:11:                  56	31.10
19:12:                  26	31.10
19:12:                  56	31.12
19:13:                  26	31.11
19:13:                  56	31.12
19:14:                  26	31.10
19:14:                  56	31.13
19:15:                  26	31.12
19:15:                  56	31.12
19:16:                  26	31.11
19:16:                  56	31.13
19:17:                  26	31.13
19:17:                  56	31.12
19:18:                  26	31.11
19:18:                  56	31.10
19:19:                  26	31.10
19:19:                  56	31.11
19:20:                  26	31.12
19:20:                  56	31.11
19:21:                  26	31.10
19:21:                  56	31.11
19:22:                  26	31.11
19:22:                  56	31.11
19:23:                  26	31.10
19:23:                  56	31.09
19:24:                  26	31.08
19:24:                  56	31.09
19:25:                  26	31.09
19:25:                  56	31.09
19:26:                  26	31.09
19:26:                  56	31.09
19:27:                  26	31.08
19:27:                  56	31.09
19:28:                  26	31.08
19:28:                  56	31.07
19:29:                  26	31.08
19:29:                  56	31.08
19:30:                  26	31.09
19:30:                  56	31.08
19:31:                  26	31.08
19:31:                  56	31.08
19:32:                  26	31.08
19:32:                  56	31.07
19:33:                  26	31.08
19:33:                  56	31.06
19:34:                  26	31.07
19:34:                  56	31.07
19:35:                  26	31.07
19:35:                  56	31.08
19:36:                  26	31.06
19:36:                  56	31.07
19:37:                  26	31.07
19:37:                  56	31.07
19:38:                  26	31.06
19:38:                  56	31.07
19:39:                  26	31.07
19:39:                  56	31.08
19:40:                  26	31.08
19:40:                  56	31.10
19:41:                  26	31.09
19:41:                  56	31.10
19:42:                  27	31.11
19:42:                  57	31.10
19:43:                  27	31.12
19:43:                  57	31.12
19:44:                  27	31.11
19:44:                  57	31.10
19:45:                  27	31.10
19:45:                  57	31.09
19:46:                  27	31.10
19:46:                  57	31.10
19:47:                  27	31.08
19:47:                  57	31.08
19:48:                  27	31.08
19:48:                  57	31.08
19:49:                  27	31.08
19:49:                  57	31.06
19:50:                  27	31.08
19:50:                  57	31.07
19:51:                  27	31.07
19:51:                  57	31.08
19:52:                  27	31.06
19:52:                  57	31.07
19:53:                  27	31.09
19:53:                  57	31.08
19:54:                  27	31.09
19:54:                  57	31.10
19:55:                  27	31.09
19:55:                  57	31.08
19:56:                  27	31.09
19:56:                  57	31.09
19:57:                  27	31.07
19:57:                  57	31.07
19:58:                  27	31.07
19:58:                  57	31.07
19:59:                  27	31.09
19:59:                  57	31.07
20:00:                  27	31.06
20:00:                  58	31.05
20:01:                  28	31.06
20:01:                  58	31.07
20:02:                  28	31.06
20:02:                  58	31.07
20:03:                  28	31.06
20:03:                  58	31.06
20:04:                  28	31.06
20:04:                  58	31.06
20:05:                  28	31.07
20:05:                  58	31.05
20:06:                  28	31.06
20:06:                  58	31.06
20:07:                  28	31.05
20:07:                  58	31.06
20:08:                  28	31.07
20:08:                  58	31.08
20:09:                  28	31.07
20:09:                  58	31.07
20:10:                  28	31.06
20:10:                  58	31.06
20:11:                  28	31.05
20:11:                  58	31.05
20:12:                  28	31.05
20:12:                  58	31.05
20:13:                  28	31.06
20:13:                  58	31.06
20:14:                  28	31.07
20:14:                  58	31.06
20:15:                  28	31.07
20:15:                  58	31.08
20:16:                  28	31.06
20:16:                  58	31.06
20:17:                  28	31.05
20:17:                  58	31.06
20:18:                  28	31.06
20:18:                  58	31.05
20:19:                  28	31.05
20:19:                  58	31.06
20:20:                  28	31.05
20:20:                  58	31.04
20:21:                  28	31.04
20:21:                  58	31.05
20:22:                  28	31.04
20:22:                  58	31.05
20:23:                  28	31.05
20:23:                  58	31.04
20:24:                  28	31.03
20:24:                  58	31.03
20:25:                  28	31.04
20:25:                  58	31.03
20:26:                  28	31.03
20:26:                  58	31.02
20:27:                  29	31.01
20:27:                  59	31.02
20:28:                  29	31.03
20:28:                  59	31.03
20:29:                  29	31.01
20:29:                  59	31.00
20:30:                  29	31.01
20:30:                  59	31.01
20:31:                  29	31.02
20:31:                  59	31.05
20:32:                  29	31.04
20:32:                  59	31.03
20:33:                  29	31.03
20:33:                  59	31.03
20:34:                  29	31.04
20:34:                  59	31.07
20:35:                  29	31.06
20:35:                  59	31.04
20:36:                  29	31.04
20:36:                  59	31.04
20:37:                  29	31.06
20:37:                  59	31.03
20:38:                  29	31.04
20:38:                  59	31.04
20:39:                  29	31.04
20:39:                  59	31.02
20:40:                  29	31.05
20:40:                  59	31.05
20:41:                  29	31.05
20:41:                  59	31.05
20:42:                  29	31.05
20:42:                  59	31.05
20:43:                  29	31.04
20:43:                  59	31.04
20:44:                  29	31.03
20:44:                  59	31.04
20:45:                  29	31.03
20:45:                  59	31.04
20:46:                  29	31.03
20:46:                  59	31.03
20:47:                  29	31.02
20:47:                  59	31.02
20:48:                  29	31.04
20:48:                  59	31.02
20:49:                  29	31.04
20:49:                  59	31.04
20:50:                  29	31.03
20:50:                  59	31.02
20:51:                  29	31.01
20:51:                  59	31.03
20:52:                  29	31.02
20:52:                  59	31.03
20:53:                  29	31.03
20:53:                  59	31.01
20:54:                  29	31.01
20:54:                  59	31.00
20:55:                  29	31.00
20:55:                  59	31.01
20:56:                  29	31.02
20:56:                  59	31.02
20:57:                  29	31.03
20:57:                  59	31.03
20:58:                  29	31.01
20:58:                  59	31.01
20:59:                  29	31.01
20:59:                  59	31.01
21:00:                  29	31.01
21:00:                  59	31.02
21:01:                  29	31.01
21:01:                  59	31.01
21:02:                  29	31.01
21:02:                  59	31.00
21:03:                  29	31.01
21:03:                  59	30.99
21:04:                  29	31.00
21:04:                  59	31.00
21:05:                  29	31.00
21:05:                  59	30.99
21:06:                  29	30.98
21:06:                  59	30.97
21:07:                  29	30.97
21:07:                  59	30.97
21:08:                  30	30.96
21:09:                   0	30.98
21:09:                  30	30.98
21:10:                   0	30.98
21:10:                  30	30.97
21:11:                   0	30.96
21:11:                  30	30.97
21:12:                   0	30.98
21:12:                  30	30.97
21:13:                   0	30.97
21:13:                  30	30.96
21:14:                   0	30.98
21:14:                  30	30.97
21:15:                   0	30.96
21:15:                  30	30.97
21:16:                   0	30.99
21:16:                  30	30.98
21:17:                   0	30.98
21:17:                  30	30.97
21:18:                   0	30.97
21:18:                  30	30.97
21:19:                   0	30.97
21:19:                  30	30.98
21:20:                   0	30.98
21:20:                  30	30.98
21:21:                   0	30.98
21:21:                  30	30.98
21:22:                   0	30.98
21:22:                  30	30.98
21:23:                   0	30.98
21:23:                  30	30.98
21:24:                   1	30.97
21:24:                  31	30.97
21:25:                   1	30.97
21:25:                  31	30.97
21:26:                   1	30.97
21:26:                  31	30.97
21:27:                   1	30.97
21:27:                  31	30.96
21:28:                   1	30.96
21:28:                  31	30.97
21:29:                   1	30.96
21:29:                  31	30.96
21:30:                   1	30.97
21:30:                  31	30.95
21:31:                   1	30.96
21:31:                  31	30.96
21:32:                   1	30.96
21:32:                  31	30.97
21:33:                   1	30.97
21:33:                  31	30.96
21:34:                   1	30.95
21:34:                  31	30.96
21:35:                   1	30.95
21:35:                  31	30.96
21:36:                   1	30.96
21:36:                  31	30.95
21:37:                   1	30.96
21:37:                  31	30.96
21:38:                   1	30.96
21:38:                  31	30.97
21:39:                   1	30.96
21:39:                  31	30.97
21:40:                   1	30.96
21:40:                  31	30.97
21:41:                   1	30.97
21:41:                  31	30.98
21:42:                   1	30.97
21:42:                  31	30.98
21:43:                   1	30.97
21:43:                  31	30.95
21:44:                   1	30.96
21:44:                  31	30.96
21:45:                   1	30.96
21:45:                  31	30.97
21:46:                   1	30.95
21:46:                  31	30.96
21:47:                   1	30.96
21:47:                  31	30.96
21:48:                   1	30.97
21:48:                  31	30.96
21:49:                   1	30.96
21:49:                  31	30.97
21:50:                   1	30.96
21:50:                  31	30.95
21:51:                   1	30.95
21:51:                  31	30.93
21:52:                   1	30.93
21:52:                  31	30.93
21:53:                   1	30.94
21:53:                  31	30.94
21:54:                   1	30.95
21:54:                  31	30.94
21:55:                   1	30.94
21:55:                  31	30.93
21:56:                   1	30.94
21:56:                  31	30.95
21:57:                   1	30.94
21:57:                  31	30.94
21:58:                   1	30.95
21:58:                  31	30.94
21:59:                   1	30.96
21:59:                  31	30.94
22:00:                   1	30.93
22:00:                  31	30.94
22:01:                   2	30.95
22:01:                  32	30.95
22:02:                   2	30.95
22:02:                  32	30.95
22:03:                   2	30.95
22:03:                  32	30.94
22:04:                   2	30.93
22:04:                  32	30.93
22:05:                   2	30.93
22:05:                  32	30.93
22:06:                   2	30.92
22:06:                  32	30.93
22:07:                   2	30.93
22:07:                  32	30.93
22:08:                   2	30.92
22:08:                  32	30.92
22:09:                   2	30.91
22:09:                  32	30.91
22:10:                   2	30.91
22:10:                  32	30.92
22:11:                   2	30.93
22:11:                  32	30.93
22:12:                   2	30.94
22:12:                  32	30.94
22:13:                   2	30.95
22:13:                  32	30.94
22:14:                   2	30.94
22:14:                  32	30.93
22:15:                   2	30.93
22:15:                  32	30.93
22:16:                   2	30.93
22:16:                  32	30.93
22:17:                   2	30.92
22:17:                  32	30.93
22:18:                   2	30.91
22:18:                  32	30.93
22:19:                   2	30.92
22:19:                  32	30.92
22:20:                   2	30.91
22:20:                  32	30.91
22:21:                   2	30.90
22:21:                  32	30.92
22:22:                   2	30.91
22:22:                  32	30.91
22:23:                   2	30.91
22:23:                  32	30.92
22:24:                   2	30.92
22:24:                  32	30.92
22:25:                   2	30.91
22:25:                  32	30.90
22:26:                   2	30.90
22:26:                  32	30.91
22:27:                   3	30.92
22:27:                  33	30.91
22:28:                   3	30.92
22:28:                  33	30.91
22:29:                   3	30.92
22:29:                  33	30.92
22:30:                   3	30.93
22:30:                  33	30.93
22:31:                   3	30.92
22:31:                  33	30.91
22:32:                   3	30.92
22:32:                  33	30.92
22:33:                   3	30.91
22:33:                  33	30.92
22:34:                   3	30.92
22:34:                  33	30.91
22:35:                   3	30.91
22:35:                  33	30.91
22:36:                   3	30.91
22:36:                  33	30.90
22:37:                   3	30.89
22:37:                  33	30.90
22:38:                   3	30.89
22:38:                  33	30.90
22:39:                   3	30.90
22:39:                  33	30.90
22:40:                   3	30.90
22:40:                  33	30.90
22:41:                   3	30.89
22:41:                  33	30.89
22:42:                   3	30.88
22:42:                  34	30.90
22:43:                   4	30.90
22:43:                  34	30.90
22:44:                   4	30.91
22:44:                  34	30.91
22:45:                   4	30.90
22:45:                  34	30.90
22:46:                   4	30.89
22:46:                  34	30.90
22:47:                   4	30.89
22:47:                  34	30.89
22:48:                   4	30.88
22:48:                  34	30.88
22:49:                   4	30.90
22:49:                  34	30.89
22:50:                   4	30.89
22:50:                  34	30.89
22:51:                   4	30.89
22:51:                  34	30.89
22:52:                   4	30.89
22:52:                  34	30.88
22:53:                   4	30.88
22:53:                  34	30.88
22:54:                   4	30.88
22:54:                  34	30.86
22:55:                   4	30.88
22:55:                  34	30.88
22:56:                   4	30.87
22:56:                  34	30.88
22:57:                   4	30.88
22:57:                  34	30.88
22:58:                   4	30.86
22:58:                  35	30.86
22:59:                   5	30.86
22:59:                  35	30.88
23:00:                   5	30.88
23:00:                  35	30.89
23:01:                   5	30.89
23:01:                  35	30.88
23:02:                   5	30.89
23:02:                  35	30.88
23:03:                   5	30.91
23:03:                  35	30.89
23:04:                   5	30.89
23:04:                  35	30.88
23:05:                   5	30.89
23:05:                  35	30.88
23:06:                   5	30.86
23:06:                  35	30.88
23:07:                   5	30.86
23:07:                  35	30.87
23:08:                   5	30.87
23:08:                  35	30.88
23:09:                   5	30.86
23:09:                  35	30.88
23:10:                   5	30.88
23:10:                  35	30.87
23:11:                   5	30.89
23:11:                  35	30.89
23:12:                   5	30.87
23:12:                  35	30.87
23:13:                   5	30.89
23:13:                  35	30.90
23:14:                   5	30.89
23:14:                  36	30.89
23:15:                   6	30.89
23:15:                  36	30.88
23:16:                   6	30.88
23:16:                  36	30.88
23:17:                   6	30.88
23:17:                  36	30.88
23:18:                   6	30.87
23:18:                  36	30.87
23:19:                   6	30.88
23:19:                  36	30.86
23:20:                   6	30.86
23:20:                  36	30.86
23:21:                   6	30.87
23:21:                  36	30.86
23:22:                   6	30.85
23:22:                  36	30.85
23:23:                   6	30.86
23:23:                  36	30.86
23:24:                   6	30.86
23:24:                  36	30.87
23:25:                   6	30.86
23:25:                  36	30.86
23:26:                   6	30.87
23:26:                  36	30.86
23:27:                   6	30.85
23:27:                  36	30.86
23:28:                   6	30.85
23:28:                  36	30.87
23:29:                   6	30.86
23:29:                  36	30.88
23:30:                   7	30.86
23:30:                  37	30.89
23:31:                   7	30.89
23:31:                  37	30.86
23:32:                   7	30.86
23:32:                  37	30.87
23:33:                   7	30.89
23:33:                  37	30.88
23:34:                   7	30.88
23:34:                  37	30.86
23:35:                   7	30.87
23:35:                  37	30.88
23:36:                   7	30.87
23:36:                  37	30.88
23:37:                   7	30.89
23:37:                  37	30.89
23:38:                   7	30.87
23:38:                  37	30.88
23:39:                   7	30.87
23:39:                  37	30.88
23:40:                   7	30.89
23:40:                  37	30.89
23:41:                   7	30.89
23:41:                  37	30.88
23:42:                   7	30.86
23:42:                  37	30.85
23:43:                   7	30.86
23:43:                  37	30.87
23:44:                   7	30.84
23:44:                  37	30.84
23:45:                   7	30.86
23:45:                  37	30.85
23:46:                   7	30.85
23:46:                  38	30.85
23:47:                   8	30.85
23:47:                  38	30.85
23:48:                   8	30.85
23:48:                  38	30.84
23:49:                   8	30.86
23:49:                  38	30.86
23:50:                   8	30.86
23:50:                  38	30.86
23:51:                   8	30.86
23:51:                  38	30.85
23:52:                   8	30.85
23:52:                  38	30.85
23:53:                   8	30.84
23:53:                  38	30.85
23:54:                   8	30.86
23:54:                  38	30.85
23:55:                   8	30.85
23:55:                  38	30.85
23:56:                   8	30.84
23:56:                  38	30.84
23:57:                   8	30.84
23:57:                  38	30.85
23:58:                   8	30.83
23:58:                  38	30.84
23:59:                   8	30.84
23:59:                  38	30.85
