0:00:                  11	30.14
0:00:                  41	30.13
0:01:                  11	30.13
0:01:                  41	30.13
0:02:                  11	30.12
0:02:                  41	30.12
0:03:                  11	30.12
0:03:                  41	30.13
0:04:                  11	30.12
0:04:                  41	30.13
0:05:                  11	30.13
0:05:                  41	30.13
0:06:                  11	30.13
0:06:                  41	30.12
0:07:                  11	30.12
0:07:                  41	30.12
0:08:                  11	30.11
0:08:                  41	30.12
0:09:                  11	30.12
0:09:                  41	30.12
0:10:                  11	30.12
0:10:                  41	30.12
0:11:                  11	30.12
0:11:                  41	30.11
0:12:                  11	30.12
0:12:                  41	30.12
0:13:                  11	30.12
0:13:                  41	30.12
0:14:                  11	30.13
0:14:                  41	30.10
0:15:                  11	30.10
0:15:                  42	30.11
0:16:                  12	30.12
0:16:                  42	30.12
0:17:                  12	30.11
0:17:                  42	30.10
0:18:                  12	30.10
0:18:                  42	30.11
0:19:                  12	30.12
0:19:                  42	30.09
0:20:                  12	30.11
0:20:                  42	30.10
0:21:                  12	30.10
0:21:                  42	30.11
0:22:                  12	30.09
0:22:                  42	30.09
0:23:                  12	30.09
0:23:                  42	30.09
0:24:                  12	30.09
0:24:                  42	30.10
0:25:                  12	30.09
0:25:                  42	30.10
0:26:                  12	30.09
0:26:                  42	30.09
0:27:                  12	30.09
0:27:                  42	30.09
0:28:                  12	30.09
0:28:                  42	30.10
0:29:                  12	30.10
0:29:                  42	30.09
0:30:                  12	30.09
0:30:                  42	30.08
0:31:                  12	30.09
0:31:                  42	30.09
0:32:                  12	30.09
0:32:                  42	30.08
0:33:                  12	30.09
0:33:                  42	30.08
0:34:                  12	30.09
0:34:                  42	30.09
0:35:                  12	30.10
0:35:                  42	30.08
0:36:                  12	30.09
0:36:                  42	30.09
0:37:                  12	30.09
0:37:                  42	30.07
0:38:                  12	30.09
0:38:                  42	30.08
0:39:                  12	30.08
0:39:                  42	30.08
0:40:                  12	30.08
0:40:                  42	30.07
0:41:                  12	30.08
0:41:                  42	30.09
0:42:                  12	30.09
0:42:                  42	30.09
0:43:                  12	30.08
0:43:                  42	30.09
0:44:                  12	30.09
0:44:                  42	30.09
0:45:                  12	30.08
0:45:                  42	30.07
0:46:                  12	30.07
0:46:                  42	30.08
0:47:                  12	30.07
0:47:                  42	30.08
0:48:                  12	30.07
0:48:                  42	30.07
0:49:                  12	30.06
0:49:                  42	30.07
0:50:                  12	30.07
0:50:                  42	30.06
0:51:                  12	30.06
0:51:                  42	30.07
0:52:                  12	30.07
0:52:                  42	30.08
0:53:                  12	30.06
0:53:                  42	30.07
0:54:                  12	30.07
0:54:                  42	30.07
0:55:                  13	30.08
0:55:                  43	30.08
0:56:                  13	30.08
0:56:                  43	30.06
0:57:                  13	30.07
0:57:                  43	30.07
0:58:                  13	30.07
0:58:                  43	30.07
0:59:                  13	30.07
0:59:                  43	30.07
1:00:                  13	30.07
1:00:                  43	30.06
1:01:                  13	30.07
1:01:                  43	30.06
1:02:                  13	30.06
1:02:                  43	30.05
1:03:                  13	30.07
1:03:                  43	30.06
1:04:                  13	30.06
1:04:                  43	30.06
1:05:                  13	30.07
1:05:                  43	30.06
1:06:                  13	30.06
1:06:                  43	30.06
1:07:                  13	30.06
1:07:                  43	30.07
1:08:                  13	30.06
1:08:                  43	30.06
1:09:                  13	30.07
1:09:                  43	30.05
1:10:                  13	30.05
1:10:                  43	30.06
1:11:                  13	30.05
1:11:                  43	30.05
1:12:                  13	30.06
1:12:                  43	30.06
1:13:                  13	30.06
1:13:                  43	30.05
1:14:                  13	30.04
1:14:                  43	30.04
1:15:                  13	30.03
1:15:                  43	30.04
1:16:                  13	30.04
1:16:                  43	30.04
1:17:                  13	30.04
1:17:                  43	30.05
1:18:                  13	30.05
1:18:                  43	30.02
1:19:                  13	30.04
1:19:                  43	30.03
1:20:                  13	30.04
1:20:                  43	30.04
1:21:                  13	30.04
1:21:                  43	30.03
1:22:                  13	30.03
1:22:                  43	30.03
1:23:                  13	30.03
1:23:                  43	30.03
1:24:                  13	30.03
1:24:                  43	30.05
1:25:                  13	30.03
1:25:                  43	30.04
1:26:                  13	30.04
1:26:                  43	30.04
1:27:                  13	30.04
1:27:                  43	30.05
1:28:                  13	30.04
1:28:                  43	30.04
1:29:                  13	30.04
1:29:                  43	30.04
1:30:                  13	30.04
1:30:                  43	30.04
1:31:                  13	30.04
1:31:                  43	30.05
1:32:                  13	30.04
1:32:                  43	30.03
1:33:                  13	30.04
1:33:                  43	30.03
1:34:                  13	30.03
1:34:                  43	30.03
1:35:                  13	30.03
1:35:                  43	30.04
1:36:                  13	30.03
1:36:                  43	30.03
1:37:                  13	30.03
1:37:                  43	30.04
1:38:                  13	30.02
1:38:                  43	30.03
1:39:                  13	30.02
1:39:                  43	30.01
1:40:                  13	30.02
1:40:                  43	30.03
1:41:                  13	30.03
1:41:                  43	30.03
1:42:                  13	30.03
1:42:                  43	30.02
1:43:                  13	30.02
1:43:                  43	30.02
1:44:                  13	30.02
1:44:                  43	30.03
1:45:                  13	30.02
1:45:                  43	30.02
1:46:                  13	30.02
1:46:                  43	30.03
1:47:                  13	30.03
1:47:                  43	30.01
1:48:                  13	30.03
1:48:                  43	30.02
1:49:                  13	30.02
1:49:                  43	30.02
1:50:                  13	30.03
1:50:                  43	30.02
1:51:                  13	30.02
1:51:                  43	30.02
1:52:                  13	30.03
1:52:                  43	30.03
1:53:                  13	30.03
1:53:                  43	30.02
1:54:                  13	30.01
1:54:                  43	30.01
1:55:                  13	30.01
1:55:                  43	30.02
1:56:                  13	30.02
1:56:                  43	30.01
1:57:                  13	30.01
1:57:                  43	30.01
1:58:                  13	30.01
1:58:                  43	30.02
1:59:                  13	30.02
1:59:                  43	30.01
2:00:                  14	30.01
2:00:                  44	30.02
2:01:                  14	30.02
2:01:                  44	30.01
2:02:                  14	30.01
2:02:                  44	30.01
2:03:                  14	30.01
2:03:                  44	30.01
2:04:                  14	30.01
2:04:                  44	30.01
2:05:                  14	30.01
2:05:                  44	30.01
2:06:                  14	30.01
2:06:                  44	29.99
2:07:                  14	29.99
2:07:                  44	30.01
2:08:                  14	30.01
2:08:                  44	30.00
2:09:                  14	30.01
2:09:                  44	30.02
2:10:                  14	30.01
2:10:                  44	30.01
2:11:                  14	30.02
2:11:                  44	30.00
2:12:                  14	30.00
2:12:                  44	30.00
2:13:                  14	29.99
2:13:                  44	29.98
2:14:                  14	29.99
2:14:                  44	29.98
2:15:                  14	29.98
2:15:                  44	29.98
2:16:                  14	29.98
2:16:                  44	29.98
2:17:                  14	29.98
2:17:                  44	29.99
2:18:                  14	29.99
2:18:                  44	29.99
2:19:                  14	30.00
2:19:                  44	29.99
2:20:                  14	29.98
2:20:                  44	29.98
2:21:                  14	29.98
2:21:                  44	29.98
2:22:                  14	29.98
2:22:                  44	29.98
2:23:                  14	29.99
2:23:                  44	29.98
2:24:                  14	29.98
2:24:                  45	29.99
2:25:                  15	29.98
2:25:                  45	29.98
2:26:                  15	29.99
2:26:                  45	29.99
2:27:                  15	29.99
2:27:                  45	29.98
2:28:                  15	29.99
2:28:                  45	29.99
2:29:                  15	29.98
2:29:                  45	29.98
2:30:                  15	29.98
2:30:                  45	29.98
2:31:                  15	29.98
2:31:                  45	29.98
2:32:                  15	29.99
2:32:                  45	29.98
2:33:                  15	29.98
2:33:                  45	29.98
2:34:                  15	29.97
2:34:                  45	29.98
2:35:                  15	29.98
2:35:                  45	29.98
2:36:                  15	29.98
2:36:                  45	29.98
2:37:                  15	29.98
2:37:                  45	29.98
2:38:                  15	29.98
2:38:                  45	29.96
2:39:                  15	29.98
2:39:                  45	29.97
2:40:                  15	29.97
2:40:                  45	29.96
2:41:                  15	29.97
2:41:                  45	29.96
2:42:                  15	29.96
2:42:                  45	29.96
2:43:                  15	29.98
2:43:                  45	29.97
2:44:                  15	29.97
2:44:                  45	29.97
2:45:                  15	29.97
2:45:                  45	29.96
2:46:                  15	29.97
2:46:                  46	29.97
2:47:                  16	29.95
2:47:                  46	29.96
2:48:                  16	29.97
2:48:                  46	29.97
2:49:                  16	29.97
2:49:                  46	29.96
2:50:                  16	29.97
2:50:                  46	29.97
2:51:                  16	29.97
2:51:                  46	29.96
2:52:                  16	29.95
2:52:                  46	29.96
2:53:                  16	29.97
2:53:                  46	29.95
2:54:                  16	29.96
2:54:                  46	29.97
2:55:                  16	29.96
2:55:                  46	29.96
2:56:                  16	29.97
2:56:                  46	29.98
2:57:                  16	29.96
2:57:                  46	29.96
2:58:                  16	29.94
2:58:                  46	29.95
2:59:                  16	29.95
2:59:                  46	29.95
3:00:                  16	29.96
3:00:                  46	29.95
3:01:                  16	29.95
3:01:                  46	29.95
3:02:                  16	29.95
3:02:                  46	29.94
3:03:                  16	29.95
3:03:                  46	29.95
3:04:                  16	29.95
3:04:                  46	29.94
3:05:                  16	29.94
3:05:                  46	29.95
3:06:                  16	29.94
3:06:                  46	29.94
3:07:                  16	29.94
3:07:                  46	29.94
3:08:                  16	29.95
3:08:                  46	29.94
3:09:                  16	29.94
3:09:                  46	29.94
3:10:                  16	29.95
3:10:                  46	29.95
3:11:                  16	29.96
3:11:                  46	29.95
3:12:                  16	29.95
3:12:                  46	29.96
3:13:                  16	29.96
3:13:                  46	29.96
3:14:                  16	29.96
3:14:                  46	29.95
3:15:                  16	29.95
3:15:                  46	29.96
3:16:                  16	29.95
3:16:                  46	29.95
3:17:                  16	29.94
3:17:                  46	29.95
3:18:                  16	29.95
3:18:                  46	29.95
3:19:                  16	29.95
3:19:                  46	29.95
3:20:                  16	29.95
3:20:                  46	29.94
3:21:                  16	29.95
3:21:                  46	29.95
3:22:                  17	29.96
3:22:                  47	29.94
3:23:                  17	29.96
3:23:                  47	29.94
3:24:                  17	29.94
3:24:                  47	29.94
3:25:                  17	29.94
3:25:                  47	29.95
3:26:                  17	29.95
3:26:                  47	29.94
3:27:                  17	29.95
3:27:                  47	29.95
3:28:                  17	29.95
3:28:                  47	29.94
3:29:                  17	29.94
3:29:                  47	29.94
3:30:                  17	29.93
3:30:                  47	29.94
3:31:                  17	29.94
3:31:                  47	29.94
3:32:                  17	29.95
3:32:                  47	29.93
3:33:                  17	29.93
3:33:                  47	29.93
3:34:                  17	29.93
3:34:                  47	29.92
3:35:                  17	29.94
3:35:                  47	29.93
3:36:                  17	29.93
3:36:                  47	29.91
3:37:                  17	29.93
3:37:                  47	29.93
3:38:                  17	29.91
3:38:                  47	29.93
3:39:                  17	29.91
3:39:                  47	29.91
3:40:                  17	29.91
3:40:                  47	29.92
3:41:                  17	29.93
3:41:                  47	29.92
3:42:                  18	29.91
3:42:                  48	29.91
3:43:                  18	29.91
3:43:                  48	29.92
3:44:                  18	29.91
3:44:                  48	29.91
3:45:                  18	29.93
3:45:                  48	29.92
3:46:                  18	29.91
3:46:                  48	29.92
3:47:                  18	29.93
3:47:                  48	29.91
3:48:                  18	29.93
3:48:                  48	29.93
3:49:                  18	29.93
3:49:                  48	29.93
3:50:                  18	29.93
3:50:                  48	29.93
3:51:                  18	29.92
3:51:                  48	29.92
3:52:                  18	29.91
3:52:                  48	29.91
3:53:                  18	29.91
3:53:                  48	29.91
3:54:                  18	29.91
3:54:                  48	29.91
3:55:                  18	29.90
3:55:                  48	29.91
3:56:                  18	29.90
3:56:                  48	29.90
3:57:                  18	29.91
3:57:                  48	29.90
3:58:                  18	29.90
3:58:                  48	29.92
3:59:                  18	29.91
3:59:                  48	29.91
4:00:                  18	29.90
4:00:                  48	29.90
4:01:                  18	29.90
4:01:                  48	29.90
4:02:                  18	29.91
4:02:                  48	29.91
4:03:                  18	29.90
4:03:                  49	29.90
4:04:                  19	29.91
4:04:                  49	29.89
4:05:                  19	29.90
4:05:                  49	29.91
4:06:                  19	29.91
4:06:                  49	29.91
4:07:                  19	29.91
4:07:                  49	29.91
4:08:                  19	29.90
4:08:                  49	29.91
4:09:                  19	29.90
4:09:                  49	29.91
4:10:                  19	29.90
4:10:                  49	29.90
4:11:                  19	29.91
4:11:                  49	29.90
4:12:                  19	29.90
4:12:                  49	29.90
4:13:                  19	29.90
4:13:                  49	29.89
4:14:                  19	29.89
4:14:                  49	29.90
4:15:                  19	29.90
4:15:                  49	29.90
4:16:                  19	29.90
4:16:                  49	29.90
4:17:                  19	29.90
4:17:                  49	29.90
4:18:                  19	29.90
4:18:                  49	29.89
4:19:                  19	29.89
4:19:                  49	29.89
4:20:                  19	29.89
4:20:                  49	29.88
4:21:                  19	29.89
4:21:                  49	29.88
4:22:                  19	29.88
4:22:                  49	29.89
4:23:                  20	29.88
4:23:                  50	29.88
4:24:                  20	29.89
4:24:                  50	29.88
4:25:                  20	29.87
4:25:                  50	29.86
4:26:                  20	29.87
4:26:                  50	29.87
4:27:                  20	29.88
4:27:                  50	29.88
4:28:                  20	29.88
4:28:                  50	29.87
4:29:                  20	29.88
4:29:                  50	29.87
4:30:                  20	29.88
4:30:                  50	29.88
4:31:                  20	29.88
4:31:                  50	29.87
4:32:                  20	29.87
4:32:                  50	29.88
4:33:                  20	29.88
4:33:                  50	29.87
4:34:                  20	29.88
4:34:                  50	29.88
4:35:                  20	29.87
4:35:                  50	29.87
4:36:                  20	29.87
4:36:                  50	29.88
4:37:                  20	29.86
4:37:                  50	29.87
4:38:                  20	29.86
4:38:                  50	29.87
4:39:                  20	29.87
4:39:                  50	29.88
4:40:                  20	29.87
4:40:                  50	29.88
4:41:                  21	29.87
4:41:                  51	29.88
4:42:                  21	29.87
4:42:                  51	29.87
4:43:                  21	29.86
4:43:                  51	29.87
4:44:                  21	29.87
4:44:                  51	29.87
4:45:                  21	29.86
4:45:                  51	29.86
4:46:                  21	29.86
4:46:                  51	29.87
4:47:                  21	29.87
4:47:                  51	29.87
4:48:                  21	29.87
4:48:                  51	29.87
4:49:                  21	29.86
4:49:                  51	29.85
4:50:                  21	29.86
4:50:                  51	29.86
4:51:                  21	29.86
4:51:                  51	29.85
4:52:                  21	29.85
4:52:                  51	29.86
4:53:                  21	29.85
4:53:                  51	29.87
4:54:                  21	29.87
4:54:                  51	29.86
4:55:                  21	29.86
4:55:                  51	29.85
4:56:                  21	29.86
4:56:                  52	29.85
4:57:                  22	29.85
4:57:                  52	29.86
4:58:                  22	29.86
4:58:                  52	29.86
4:59:                  22	29.86
4:59:                  52	29.86
5:00:                  22	29.86
5:00:                  52	29.85
5:01:                  22	29.86
5:01:                  52	29.85
5:02:                  22	29.86
5:02:                  52	29.86
5:03:                  22	29.87
5:03:                  52	29.86
5:04:                  22	29.85
5:04:                  52	29.86
5:05:                  22	29.87
5:05:                  52	29.85
5:06:                  22	29.84
5:06:                  52	29.85
5:07:                  22	29.85
5:07:                  52	29.85
5:08:                  22	29.85
5:08:                  52	29.85
5:09:                  22	29.85
5:09:                  52	29.83
5:10:                  22	29.84
5:10:                  52	29.83
5:11:                  22	29.83
5:11:                  52	29.84
5:12:                  22	29.85
5:12:                  53	29.86
5:13:                  23	29.85
5:13:                  53	29.85
5:14:                  23	29.85
5:14:                  53	29.85
5:15:                  23	29.84
5:15:                  53	29.84
5:16:                  23	29.84
5:16:                  53	29.84
5:17:                  23	29.84
5:17:                  53	29.84
5:18:                  23	29.84
5:18:                  53	29.84
5:19:                  23	29.84
5:19:                  53	29.85
5:20:                  23	29.84
5:20:                  53	29.84
5:21:                  23	29.84
5:21:                  53	29.85
5:22:                  23	29.84
5:22:                  53	29.85
5:23:                  23	29.85
5:23:                  53	29.84
5:24:                  23	29.85
5:24:                  53	29.84
5:25:                  23	29.84
5:25:                  53	29.84
5:26:                  23	29.83
5:26:                  53	29.84
5:27:                  23	29.83
5:27:                  53	29.83
5:28:                  23	29.83
5:28:                  54	29.83
5:29:                  24	29.83
5:29:                  54	29.83
5:30:                  24	29.82
5:30:                  54	29.82
5:31:                  24	29.83
5:31:                  54	29.82
5:32:                  24	29.82
5:32:                  54	29.82
5:33:                  24	29.83
5:33:                  54	29.83
5:34:                  24	29.83
5:34:                  54	29.82
5:35:                  24	29.83
5:35:                  54	29.83
5:36:                  24	29.82
5:36:                  54	29.82
5:37:                  24	29.83
5:37:                  54	29.83
5:38:                  24	29.83
5:38:                  54	29.82
5:39:                  24	29.83
5:39:                  54	29.82
5:40:                  24	29.82
5:40:                  54	29.82
5:41:                  24	29.83
5:41:                  54	29.84
5:42:                  24	29.83
5:42:                  54	29.83
5:43:                  24	29.83
5:43:                  54	29.83
5:44:                  24	29.84
5:44:                  54	29.83
5:45:                  24	29.83
5:45:                  54	29.84
5:46:                  24	29.83
5:46:                  54	29.83
5:47:                  24	29.83
5:47:                  54	29.83
5:48:                  24	29.82
5:48:                  54	29.84
5:49:                  24	29.83
5:49:                  55	29.82
5:50:                  25	29.82
5:50:                  55	29.82
5:51:                  25	29.81
5:51:                  55	29.81
5:52:                  25	29.81
5:52:                  55	29.82
5:53:                  25	29.81
5:53:                  55	29.81
5:54:                  25	29.82
5:54:                  55	29.81
5:55:                  25	29.81
5:55:                  55	29.82
5:56:                  25	29.82
5:56:                  55	29.82
5:57:                  25	29.81
5:57:                  55	29.81
5:58:                  25	29.80
5:58:                  55	29.80
5:59:                  25	29.80
5:59:                  55	29.80
6:00:                  25	29.80
6:00:                  55	29.80
6:01:                  25	29.79
6:01:                  55	29.79
6:02:                  25	29.78
6:02:                  55	29.78
6:03:                  25	29.80
6:03:                  55	29.81
6:04:                  25	29.81
6:04:                  55	29.80
6:05:                  25	29.80
6:05:                  55	29.79
6:06:                  25	29.79
6:06:                  55	29.79
6:07:                  26	29.80
6:07:                  56	29.79
6:08:                  26	29.78
6:08:                  56	29.78
6:09:                  26	29.80
6:09:                  56	29.79
6:10:                  26	29.79
6:10:                  56	29.80
6:11:                  26	29.79
6:11:                  56	29.79
6:12:                  26	29.79
6:12:                  56	29.79
6:13:                  26	29.78
6:13:                  56	29.79
6:14:                  26	29.78
6:14:                  56	29.79
6:15:                  26	29.79
6:15:                  56	29.78
6:16:                  26	29.79
6:16:                  56	29.78
6:17:                  26	29.78
6:17:                  56	29.79
6:18:                  26	29.78
6:18:                  56	29.77
6:19:                  26	29.78
6:19:                  56	29.76
6:20:                  26	29.76
6:20:                  56	29.76
6:21:                  26	29.76
6:21:                  56	29.77
6:22:                  26	29.77
6:22:                  56	29.76
6:23:                  26	29.75
6:23:                  56	29.76
6:24:                  26	29.76
6:24:                  57	29.77
6:25:                  27	29.77
6:25:                  57	29.78
6:26:                  27	29.78
6:26:                  57	29.78
6:27:                  27	29.78
6:27:                  57	29.79
6:28:                  27	29.79
6:28:                  57	29.80
6:29:                  27	29.78
6:29:                  57	29.77
6:30:                  27	29.78
6:30:                  57	29.79
6:31:                  27	29.77
6:31:                  57	29.78
6:32:                  27	29.77
6:32:                  57	29.77
6:33:                  27	29.77
6:33:                  57	29.77
6:34:                  27	29.76
6:34:                  57	29.75
6:35:                  27	29.76
6:35:                  57	29.76
6:36:                  27	29.77
6:36:                  57	29.75
6:37:                  27	29.76
6:37:                  57	29.76
6:38:                  27	29.75
6:38:                  57	29.77
6:39:                  27	29.76
6:39:                  57	29.78
6:40:                  27	29.77
6:40:                  57	29.77
6:41:                  27	29.77
6:41:                  57	29.76
6:42:                  27	29.77
6:42:                  57	29.77
6:43:                  27	29.77
6:43:                  57	29.77
6:44:                  27	29.77
6:44:                  57	29.77
6:45:                  27	29.76
6:45:                  58	29.76
6:46:                  28	29.76
6:46:                  58	29.75
6:47:                  28	29.77
6:47:                  58	29.75
6:48:                  28	29.75
6:48:                  58	29.75
6:49:                  28	29.76
6:49:                  58	29.75
6:50:                  28	29.73
6:50:                  58	29.74
6:51:                  28	29.74
6:51:                  58	29.74
6:52:                  28	29.74
6:52:                  58	29.73
6:53:                  28	29.73
6:53:                  58	29.73
6:54:                  28	29.74
6:54:                  58	29.73
6:55:                  28	29.72
6:55:                  58	29.74
6:56:                  28	29.72
6:56:                  58	29.74
6:57:                  28	29.73
6:57:                  58	29.74
6:58:                  28	29.72
6:58:                  58	29.73
6:59:                  28	29.73
6:59:                  58	29.74
7:00:                  28	29.73
7:00:                  58	29.72
7:01:                  28	29.73
7:01:                  58	29.73
7:02:                  28	29.74
7:02:                  58	29.74
7:03:                  28	29.73
7:03:                  58	29.72
7:04:                  28	29.72
7:04:                  58	29.72
7:05:                  28	29.72
7:05:                  58	29.73
7:06:                  28	29.73
7:06:                  58	29.72
7:07:                  28	29.70
7:07:                  58	29.72
7:08:                  28	29.70
7:08:                  58	29.72
7:09:                  28	29.72
7:09:                  58	29.72
7:10:                  28	29.72
7:10:                  58	29.71
7:11:                  29	29.73
7:11:                  59	29.72
7:12:                  29	29.72
7:12:                  59	29.73
7:13:                  29	29.73
7:13:                  59	29.72
7:14:                  29	29.72
7:14:                  59	29.72
7:15:                  29	29.72
7:15:                  59	29.72
7:16:                  29	29.72
7:16:                  59	29.72
7:17:                  29	29.72
7:17:                  59	29.72
7:18:                  29	29.72
7:18:                  59	29.72
7:19:                  29	29.71
7:19:                  59	29.72
7:20:                  29	29.72
7:20:                  59	29.72
7:21:                  29	29.72
7:21:                  59	29.72
7:22:                  29	29.72
7:22:                  59	29.72
7:23:                  29	29.70
7:23:                  59	29.71
7:24:                  29	29.71
7:24:                  59	29.72
7:25:                  29	29.70
7:25:                  59	29.70
7:26:                  29	29.71
7:26:                  59	29.72
7:27:                  29	29.72
7:27:                  59	29.71
7:28:                  29	29.71
7:28:                  59	29.71
7:29:                  29	29.71
7:29:                  59	29.70
7:30:                  29	29.70
7:30:                  59	29.70
7:31:                  29	29.71
7:31:                  59	29.70
7:32:                  29	29.71
7:32:                  59	29.70
7:33:                  29	29.69
7:33:                  59	29.70
7:34:                  29	29.70
7:34:                  59	29.70
7:35:                  29	29.70
7:35:                  59	29.70
7:36:                  30	29.70
7:37:                   0	29.70
7:37:                  30	29.70
7:38:                   0	29.70
7:38:                  30	29.70
7:39:                   0	29.70
7:39:                  30	29.68
7:40:                   0	29.70
7:40:                  30	29.70
7:41:                   0	29.70
7:41:                  30	29.69
7:42:                   0	29.70
7:42:                  30	29.70
7:43:                   0	29.70
7:43:                  30	29.69
7:44:                   0	29.70
7:44:                  30	29.69
7:45:                   0	29.69
7:45:                  30	29.69
7:46:                   0	29.69
7:46:                  30	29.69
7:47:                   0	29.68
7:47:                  30	29.68
7:48:                   0	29.68
7:48:                  30	29.68
7:49:                   0	29.67
7:49:                  30	29.67
7:50:                   0	29.67
7:50:                  30	29.67
7:51:                   0	29.67
7:51:                  30	29.68
7:52:                   0	29.68
7:52:                  30	29.67
7:53:                   0	29.68
7:53:                  30	29.68
7:54:                   0	29.67
7:54:                  30	29.67
7:55:                   0	29.67
7:55:                  30	29.66
7:56:                   0	29.67
7:56:                  30	29.67
7:57:                   0	29.67
7:57:                  30	29.67
7:58:                   0	29.67
7:58:                  30	29.66
7:59:                   0	29.67
7:59:                  30	29.66
8:00:                   0	29.65
8:00:                  30	29.66
8:01:                   0	29.66
8:01:                  30	29.66
8:02:                   0	29.66
8:02:                  30	29.66
8:03:                   0	29.66
8:03:                  30	29.67
8:04:                   0	29.66
8:04:                  30	29.67
8:05:                   1	29.67
8:05:                  31	29.66
8:06:                   1	29.66
8:06:                  31	29.66
8:07:                   1	29.67
8:07:                  31	29.67
8:08:                   1	29.66
8:08:                  31	29.66
8:09:                   1	29.67
8:09:                  31	29.67
8:10:                   1	29.66
8:10:                  31	29.66
8:11:                   1	29.67
8:11:                  31	29.67
8:12:                   1	29.66
8:12:                  31	29.67
8:13:                   1	29.67
8:13:                  31	29.67
8:14:                   1	29.66
8:14:                  31	29.66
8:15:                   1	29.66
8:15:                  31	29.65
8:16:                   1	29.65
8:16:                  31	29.66
8:17:                   1	29.66
8:17:                  31	29.65
8:18:                   1	29.66
8:18:                  31	29.66
8:19:                   1	29.66
8:19:                  31	29.66
8:20:                   1	29.64
8:20:                  31	29.65
8:21:                   1	29.66
8:21:                  31	29.67
8:22:                   1	29.68
8:22:                  31	29.67
8:23:                   1	29.67
8:23:                  32	29.67
8:24:                   2	29.66
8:24:                  32	29.66
8:25:                   2	29.67
8:25:                  32	29.67
8:26:                   2	29.67
8:26:                  32	29.68
8:27:                   2	29.66
8:27:                  32	29.67
8:28:                   2	29.67
8:28:                  32	29.67
8:29:                   2	29.67
8:29:                  32	29.65
8:30:                   2	29.66
8:30:                  32	29.65
8:31:                   2	29.64
8:31:                  32	29.65
8:32:                   2	29.66
8:32:                  32	29.66
8:33:                   2	29.66
8:33:                  32	29.66
8:34:                   2	29.66
8:34:                  32	29.64
8:35:                   2	29.64
8:35:                  32	29.63
8:36:                   2	29.64
8:36:                  32	29.65
8:37:                   2	29.65
8:37:                  32	29.66
8:38:                   2	29.66
8:38:                  32	29.65
8:39:                   2	29.66
8:39:                  32	29.65
8:40:                   2	29.64
8:40:                  32	29.65
8:41:                   2	29.64
8:41:                  32	29.64
8:42:                   2	29.66
8:42:                  32	29.65
8:43:                   2	29.66
8:43:                  32	29.66
8:44:                   2	29.67
8:44:                  32	29.66
8:45:                   2	29.66
8:45:                  32	29.67
8:46:                   2	29.67
8:46:                  32	29.66
8:47:                   2	29.66
8:47:                  32	29.66
8:48:                   2	29.66
8:48:                  32	29.66
8:49:                   2	29.66
8:49:                  32	29.66
8:50:                   2	29.67
8:50:                  32	29.66
8:51:                   2	29.66
8:51:                  32	29.67
8:52:                   2	29.67
8:52:                  32	29.67
8:53:                   2	29.66
8:53:                  32	29.66
8:54:                   2	29.66
8:54:                  32	29.65
8:55:                   2	29.66
8:55:                  32	29.66
8:56:                   2	29.66
8:56:                  32	29.65
8:57:                   3	29.66
8:57:                  33	29.66
8:58:                   3	29.65
8:58:                  33	29.66
8:59:                   3	29.66
8:59:                  33	29.65
9:00:                   3	29.66
9:00:                  33	29.66
9:01:                   3	29.66
9:01:                  33	29.67
9:02:                   3	29.67
9:02:                  33	29.66
9:03:                   3	29.66
9:03:                  33	29.67
9:04:                   3	29.66
9:04:                  33	29.67
9:05:                   3	29.67
9:05:                  33	29.68
9:06:                   3	29.66
9:06:                  33	29.66
9:07:                   3	29.66
9:07:                  33	29.66
9:08:                   3	29.66
9:08:                  33	29.67
9:09:                   3	29.65
9:09:                  33	29.66
9:10:                   3	29.67
9:10:                  33	29.66
9:11:                   3	29.67
9:11:                  33	29.67
9:12:                   3	29.67
9:12:                  33	29.67
9:13:                   3	29.68
9:13:                  33	29.69
9:14:                   3	29.68
9:14:                  33	29.69
9:15:                   3	29.69
9:15:                  33	29.69
9:16:                   3	29.70
9:16:                  33	29.69
9:17:                   3	29.69
9:17:                  33	29.68
9:18:                   3	29.70
9:18:                  33	29.68
9:19:                   3	29.69
9:19:                  33	29.69
9:20:                   3	29.68
9:20:                  33	29.68
9:21:                   3	29.69
9:21:                  33	29.68
9:22:                   3	29.68
9:22:                  33	29.69
9:23:                   3	29.68
9:23:                  33	29.69
9:24:                   3	29.69
9:24:                  33	29.69
9:25:                   3	29.69
9:25:                  33	29.69
9:26:                   3	29.68
9:26:                  33	29.69
9:27:                   3	29.69
9:27:                  33	29.68
9:28:                   3	29.68
9:28:                  33	29.67
9:29:                   3	29.67
9:29:                  33	29.68
9:30:                   3	29.68
9:30:                  33	29.67
9:31:                   3	29.67
9:31:                  33	29.67
9:32:                   3	29.66
9:32:                  33	29.67
9:33:                   3	29.68
9:33:                  33	29.67
9:34:                   3	29.67
9:34:                  34	29.67
9:35:                   4	29.69
9:35:                  34	29.68
9:36:                   4	29.68
9:36:                  34	29.69
9:37:                   4	29.68
9:37:                  34	29.68
9:38:                   4	29.69
9:38:                  34	29.69
9:39:                   4	29.69
9:39:                  34	29.69
9:40:                   4	29.69
9:40:                  34	29.69
9:41:                   4	29.70
9:41:                  34	29.68
9:42:                   4	29.70
9:42:                  34	29.69
9:43:                   4	29.68
9:43:                  34	29.69
9:44:                   4	29.69
9:44:                  34	29.69
9:45:                   4	29.69
9:45:                  34	29.69
9:46:                   4	29.69
9:46:                  34	29.70
9:47:                   4	29.69
9:47:                  34	29.70
9:48:                   4	29.69
9:48:                  34	29.70
9:49:                   4	29.71
9:49:                  34	29.71
9:50:                   4	29.71
9:50:                  34	29.70
9:51:                   4	29.71
9:51:                  34	29.71
9:52:                   4	29.71
9:52:                  34	29.71
9:53:                   4	29.70
9:53:                  34	29.71
9:54:                   4	29.70
9:54:                  34	29.71
9:55:                   4	29.71
9:55:                  34	29.70
9:56:                   4	29.71
9:56:                  34	29.71
9:57:                   4	29.71
9:57:                  34	29.70
9:58:                   4	29.71
9:58:                  34	29.71
9:59:                   4	29.71
9:59:                  34	29.70
10:00:                   4	29.70
10:00:                  34	29.71
10:01:                   4	29.71
10:01:                  34	29.72
10:02:                   5	29.72
10:02:                  35	29.71
10:03:                   5	29.71
10:03:                  35	29.72
10:04:                   5	29.72
10:04:                  35	29.73
10:05:                   5	29.72
10:05:                  35	29.73
10:06:                   5	29.73
10:06:                  35	29.73
10:07:                   5	29.74
10:07:                  35	29.74
10:08:                   5	29.73
10:08:                  35	29.72
10:09:                   5	29.72
10:09:                  35	29.72
10:10:                   5	29.74
10:10:                  35	29.73
10:11:                   5	29.72
10:11:                  35	29.74
10:12:                   5	29.74
10:12:                  35	29.74
10:13:                   5	29.74
10:13:                  35	29.73
10:14:                   5	29.73
10:14:                  35	29.73
10:15:                   5	29.73
10:15:                  35	29.73
10:16:                   5	29.72
10:16:                  35	29.72
10:17:                   5	29.72
10:17:                  35	29.71
10:18:                   5	29.72
10:18:                  35	29.72
10:19:                   5	29.72
10:19:                  35	29.71
10:20:                   5	29.72
10:20:                  35	29.72
10:21:                   5	29.71
10:21:                  35	29.72
10:22:                   5	29.71
10:22:                  35	29.71
10:23:                   5	29.71
10:23:                  35	29.70
10:24:                   5	29.68
10:24:                  35	29.68
10:25:                   5	29.68
10:25:                  35	29.67
10:26:                   5	29.67
10:26:                  35	29.68
10:27:                   5	29.68
10:27:                  35	29.69
10:28:                   5	29.69
10:28:                  35	29.70
10:29:                   5	29.70
10:29:                  35	29.70
10:30:                   5	29.71
10:30:                  35	29.72
10:31:                   5	29.72
10:31:                  35	29.72
10:32:                   5	29.72
10:32:                  35	29.74
10:33:                   5	29.73
10:33:                  35	29.73
10:34:                   5	29.73
10:34:                  35	29.74
10:35:                   6	29.74
10:35:                  36	29.72
10:36:                   6	29.74
10:36:                  36	29.75
10:37:                   6	29.75
10:37:                  36	29.75
10:38:                   6	29.77
10:38:                  36	29.77
10:39:                   6	29.77
10:39:                  36	29.77
10:40:                   6	29.79
10:40:                  36	29.80
10:41:                   6	29.81
10:41:                  36	29.82
10:42:                   6	29.83
10:42:                  36	29.85
10:43:                   6	29.86
10:43:                  36	29.85
10:44:                   6	29.86
10:44:                  36	29.86
10:45:                   6	29.88
10:45:                  36	29.89
10:46:                   6	29.89
10:46:                  36	29.89
10:47:                   6	29.90
10:47:                  36	29.90
10:48:                   6	29.91
10:48:                  36	29.93
10:49:                   6	29.91
10:49:                  36	29.93
10:50:                   6	29.93
10:50:                  36	29.94
10:51:                   6	29.95
10:51:                  36	29.95
10:52:                   6	29.95
10:52:                  36	29.95
10:53:                   6	29.95
10:53:                  36	29.95
10:54:                   6	29.95
10:54:                  36	29.96
10:55:                   6	29.98
10:55:                  36	29.98
10:56:                   6	29.98
10:56:                  36	29.99
10:57:                   6	30.00
10:57:                  36	29.99
10:58:                   6	30.00
10:58:                  36	30.00
10:59:                   6	29.99
10:59:                  36	30.00
11:00:                   6	30.00
11:00:                  36	30.01
11:01:                   6	30.00
11:01:                  36	30.01
11:02:                   6	30.00
11:02:                  36	30.01
11:03:                   6	30.01
11:03:                  36	30.03
11:04:                   6	30.03
11:04:                  36	30.03
11:05:                   6	30.03
11:05:                  36	30.03
11:06:                   6	30.04
11:06:                  36	30.04
11:07:                   6	30.04
11:07:                  36	30.04
11:08:                   6	30.04
11:08:                  36	30.04
11:09:                   6	30.04
11:09:                  36	30.05
11:10:                   7	30.05
11:10:                  37	30.05
11:11:                   7	30.06
11:11:                  37	30.06
11:12:                   7	30.06
11:12:                  37	30.07
11:13:                   7	30.08
11:13:                  37	30.08
11:14:                   7	30.08
11:14:                  37	30.08
11:15:                   7	30.08
11:15:                  37	30.08
11:16:                   7	30.09
11:16:                  37	30.08
11:17:                   7	30.08
11:17:                  37	30.08
11:18:                   7	30.09
11:18:                  37	30.10
11:19:                   7	30.11
11:19:                  37	30.12
11:20:                   7	30.12
11:20:                  37	30.12
11:21:                   7	30.13
11:21:                  37	30.11
11:22:                   7	30.12
11:22:                  37	30.12
11:23:                   7	30.13
11:23:                  37	30.14
11:24:                   7	30.14
11:24:                  37	30.13
11:25:                   7	30.14
11:25:                  37	30.14
11:26:                   7	30.15
11:26:                  37	30.13
11:27:                   7	30.14
11:27:                  37	30.15
11:28:                   7	30.15
11:28:                  37	30.13
11:29:                   7	30.16
11:29:                  37	30.15
11:30:                   7	30.15
11:30:                  37	30.14
11:31:                   7	30.14
11:31:                  37	30.14
11:32:                   7	30.15
11:32:                  37	30.15
11:33:                   7	30.16
11:33:                  37	30.16
11:34:                   7	30.17
11:34:                  37	30.17
11:35:                   7	30.16
11:35:                  37	30.17
11:36:                   7	30.17
11:36:                  37	30.18
11:37:                   7	30.19
11:37:                  37	30.19
11:38:                   7	30.19
11:38:                  37	30.19
11:39:                   7	30.18
11:39:                  37	30.19
11:40:                   7	30.18
11:40:                  37	30.18
11:41:                   7	30.19
11:41:                  37	30.19
11:42:                   7	30.20
11:42:                  37	30.19
11:43:                   7	30.19
11:43:                  37	30.19
11:44:                   7	30.19
11:44:                  37	30.19
11:45:                   7	30.20
11:45:                  37	30.20
11:46:                   7	30.20
11:46:                  37	30.21
11:47:                   7	30.21
11:47:                  37	30.21
11:48:                   7	30.21
11:48:                  38	30.20
11:49:                   8	30.20
11:49:                  38	30.20
11:50:                   8	30.21
11:50:                  38	30.21
11:51:                   8	30.22
11:51:                  38	30.20
11:52:                   8	30.21
11:52:                  38	30.21
11:53:                   8	30.21
11:53:                  38	30.22
11:54:                   8	30.22
11:54:                  38	30.23
11:55:                   8	30.23
11:55:                  38	30.23
11:56:                   8	30.22
11:56:                  38	30.23
11:57:                   8	30.24
11:57:                  38	30.23
11:58:                   8	30.23
11:58:                  38	30.22
11:59:                   8	30.24
11:59:                  38	30.24
12:00:                   8	30.24
12:00:                  38	30.24
12:01:                   8	30.25
12:01:                  38	30.26
12:02:                   8	30.24
12:02:                  38	30.25
12:03:                   8	30.26
12:03:                  38	30.26
12:04:                   8	30.25
12:04:                  38	30.26
12:05:                   8	30.26
12:05:                  38	30.26
12:06:                   8	30.27
12:06:                  38	30.27
12:07:                   8	30.28
12:07:                  38	30.27
12:08:                   8	30.27
12:08:                  38	30.27
12:09:                   8	30.29
12:09:                  38	30.27
12:10:                   8	30.26
12:10:                  38	30.28
12:11:                   8	30.27
12:11:                  38	30.28
12:12:                   8	30.26
12:12:                  38	30.28
12:13:                   8	30.27
12:13:                  38	30.27
12:14:                   8	30.26
12:14:                  38	30.28
12:15:                   8	30.29
12:15:                  38	30.28
12:16:                   8	30.28
12:16:                  38	30.27
12:17:                   8	30.27
12:17:                  38	30.29
12:18:                   8	30.28
12:18:                  38	30.27
12:19:                   8	30.27
12:19:                  38	30.27
12:20:                   8	30.26
12:20:                  38	30.26
12:21:                   8	30.27
12:21:                  38	30.25
12:22:                   8	30.25
12:22:                  38	30.23
12:23:                   8	30.25
12:23:                  38	30.27
12:24:                   8	30.26
12:24:                  38	30.25
12:25:                   8	30.25
12:25:                  38	30.25
12:26:                   8	30.25
12:26:                  38	30.26
12:27:                   8	30.25
12:27:                  38	30.25
12:28:                   8	30.25
12:28:                  38	30.24
12:29:                   8	30.25
12:29:                  38	30.25
12:30:                   8	30.24
12:30:                  39	30.24
12:31:                   9	30.25
12:31:                  39	30.22
12:32:                   9	30.25
12:32:                  39	30.23
12:33:                   9	30.22
12:33:                  39	30.23
12:34:                   9	30.24
12:34:                  39	30.22
12:35:                   9	30.22
12:35:                  39	30.22
12:36:                   9	30.21
12:36:                  39	30.23
12:37:                   9	30.23
12:37:                  39	30.23
12:38:                   9	30.20
12:38:                  39	30.21
12:39:                   9	30.22
12:39:                  39	30.23
12:40:                   9	30.24
12:40:                  39	30.23
12:41:                   9	30.22
12:41:                  39	30.21
12:42:                   9	30.21
12:42:                  39	30.23
12:43:                   9	30.24
12:43:                  39	30.24
12:44:                   9	30.24
12:44:                  39	30.24
12:45:                   9	30.25
12:45:                  39	30.26
12:46:                   9	30.23
12:46:                  39	30.23
12:47:                   9	30.24
12:47:                  39	30.24
12:48:                   9	30.24
12:48:                  39	30.24
12:49:                   9	30.24
12:49:                  39	30.25
12:50:                   9	30.25
12:50:                  39	30.26
12:51:                   9	30.26
12:51:                  39	30.25
12:52:                   9	30.24
12:52:                  39	30.25
12:53:                   9	30.24
12:53:                  39	30.25
12:54:                  10	30.26
12:54:                  40	30.25
12:55:                  10	30.26
12:55:                  40	30.26
12:56:                  10	30.26
12:56:                  40	30.24
12:57:                  10	30.25
12:57:                  40	30.25
12:58:                  10	30.26
12:58:                  40	30.24
12:59:                  10	30.24
12:59:                  40	30.24
13:00:                  10	30.25
13:00:                  40	30.23
13:01:                  10	30.24
13:01:                  40	30.25
13:02:                  10	30.24
13:02:                  40	30.25
13:03:                  10	30.25
13:03:                  40	30.26
13:04:                  10	30.26
13:04:                  40	30.26
13:05:                  10	30.25
13:05:                  40	30.27
13:06:                  10	30.27
13:06:                  40	30.27
13:07:                  10	30.26
13:07:                  40	30.26
13:08:                  10	30.26
13:08:                  40	30.26
13:09:                  10	30.27
13:09:                  40	30.27
13:10:                  10	30.28
13:10:                  40	30.28
13:11:                  10	30.28
13:11:                  40	30.29
13:12:                  10	30.28
13:12:                  40	30.29
13:13:                  10	30.30
13:13:                  40	30.29
13:14:                  10	30.30
13:14:                  40	30.30
13:15:                  10	30.29
13:15:                  40	30.30
13:16:                  10	30.30
13:16:                  40	30.30
13:17:                  10	30.30
13:17:                  40	30.30
13:18:                  10	30.29
13:18:                  40	30.30
13:19:                  10	30.29
13:19:                  40	30.30
13:20:                  10	30.30
13:20:                  40	30.29
13:21:                  10	30.29
13:21:                  40	30.30
13:22:                  10	30.30
13:22:                  40	30.30
13:23:                  10	30.30
13:23:                  40	30.30
13:24:                  10	30.29
13:24:                  40	30.31
13:25:                  10	30.30
13:25:                  40	30.31
13:26:                  10	30.31
13:26:                  40	30.31
13:27:                  10	30.31
13:27:                  40	30.31
13:28:                  10	30.33
13:28:                  40	30.33
13:29:                  10	30.32
13:29:                  40	30.32
13:30:                  10	30.32
13:30:                  40	30.33
13:31:                  10	30.32
13:31:                  40	30.32
13:32:                  10	30.32
13:32:                  40	30.31
13:33:                  10	30.31
13:33:                  40	30.32
13:34:                  10	30.30
13:34:                  40	30.31
13:35:                  10	30.30
13:35:                  40	30.30
13:36:                  10	30.31
13:36:                  40	30.31
13:37:                  10	30.32
13:37:                  40	30.33
13:38:                  10	30.32
13:38:                  40	30.30
13:39:                  10	30.31
13:39:                  40	30.31
13:40:                  10	30.31
13:40:                  41	30.30
13:41:                  11	30.31
13:41:                  41	30.33
13:42:                  11	30.33
13:42:                  41	30.33
13:43:                  11	30.33
13:43:                  41	30.34
13:44:                  11	30.32
13:44:                  41	30.32
13:45:                  11	30.34
13:45:                  41	30.34
13:46:                  11	30.33
13:46:                  41	30.33
13:47:                  11	30.34
13:47:                  41	30.33
13:48:                  11	30.33
13:48:                  41	30.33
13:49:                  11	30.31
13:49:                  41	30.32
13:50:                  11	30.33
13:50:                  41	30.32
13:51:                  11	30.32
13:51:                  41	30.32
13:52:                  11	30.32
13:52:                  41	30.32
13:53:                  11	30.32
13:53:                  41	30.32
13:54:                  11	30.33
13:54:                  41	30.32
13:55:                  11	30.32
13:55:                  41	30.32
13:56:                  11	30.32
13:56:                  41	30.32
13:57:                  11	30.33
13:57:                  41	30.33
13:58:                  11	30.33
13:58:                  41	30.33
13:59:                  11	30.33
13:59:                  41	30.33
14:00:                  11	30.34
14:00:                  41	30.33
14:01:                  11	30.35
14:01:                  41	30.34
14:02:                  11	30.33
14:02:                  41	30.34
14:03:                  11	30.35
14:03:                  41	30.35
14:04:                  11	30.35
14:04:                  41	30.35
14:05:                  11	30.34
14:05:                  41	30.35
14:06:                  11	30.34
14:06:                  41	30.35
14:07:                  11	30.34
14:07:                  41	30.34
14:08:                  11	30.34
14:08:                  42	30.35
14:09:                  12	30.35
14:09:                  42	30.35
14:10:                  12	30.35
14:10:                  42	30.35
14:11:                  12	30.36
14:11:                  42	30.35
14:12:                  12	30.36
14:12:                  42	30.36
14:13:                  12	30.36
14:13:                  42	30.35
14:14:                  12	30.35
14:14:                  42	30.37
14:15:                  12	30.37
14:15:                  42	30.37
14:16:                  12	30.37
14:16:                  42	30.37
14:17:                  12	30.38
14:17:                  42	30.37
14:18:                  12	30.37
14:18:                  42	30.37
14:19:                  12	30.38
14:19:                  42	30.38
14:20:                  12	30.38
14:20:                  42	30.38
14:21:                  12	30.38
14:21:                  42	30.39
14:22:                  12	30.39
14:22:                  42	30.39
14:23:                  12	30.39
14:23:                  42	30.39
14:24:                  12	30.40
14:24:                  42	30.39
14:25:                  12	30.40
14:25:                  42	30.40
14:26:                  12	30.40
14:26:                  42	30.40
14:27:                  12	30.40
14:27:                  42	30.39
14:28:                  12	30.40
14:28:                  42	30.41
14:29:                  12	30.40
14:29:                  42	30.40
14:30:                  12	30.40
14:30:                  42	30.40
14:31:                  12	30.41
14:31:                  42	30.40
14:32:                  12	30.40
14:32:                  42	30.40
14:33:                  12	30.40
14:33:                  42	30.40
14:34:                  12	30.40
14:34:                  42	30.41
14:35:                  12	30.41
14:35:                  42	30.40
14:36:                  12	30.41
14:36:                  42	30.42
14:37:                  12	30.42
14:37:                  42	30.41
14:38:                  12	30.40
14:38:                  42	30.42
14:39:                  12	30.41
14:39:                  42	30.41
14:40:                  12	30.41
14:40:                  43	30.41
14:41:                  13	30.41
14:41:                  43	30.42
14:42:                  13	30.42
14:42:                  43	30.42
14:43:                  13	30.42
14:43:                  43	30.42
14:44:                  13	30.41
14:44:                  43	30.43
14:45:                  13	30.43
14:45:                  43	30.42
14:46:                  13	30.43
14:46:                  43	30.42
14:47:                  13	30.42
14:47:                  43	30.42
14:48:                  13	30.42
14:48:                  43	30.42
14:49:                  13	30.42
14:49:                  43	30.42
14:50:                  13	30.41
14:50:                  43	30.41
14:51:                  13	30.43
14:51:                  43	30.42
14:52:                  13	30.42
14:52:                  43	30.43
14:53:                  13	30.41
14:53:                  43	30.42
14:54:                  13	30.43
14:54:                  43	30.43
14:55:                  13	30.42
14:55:                  43	30.42
14:56:                  13	30.43
14:56:                  43	30.43
14:57:                  13	30.43
14:57:                  43	30.44
14:58:                  13	30.44
14:58:                  43	30.43
14:59:                  13	30.42
14:59:                  43	30.44
15:00:                  13	30.44
15:00:                  43	30.44
15:01:                  13	30.45
15:01:                  43	30.44
15:02:                  13	30.45
15:02:                  43	30.44
15:03:                  13	30.44
15:03:                  43	30.44
15:04:                  13	30.45
15:04:                  43	30.45
15:05:                  13	30.44
15:05:                  43	30.44
15:06:                  13	30.44
15:06:                  44	30.44
15:07:                  14	30.43
15:07:                  44	30.44
15:08:                  14	30.45
15:08:                  44	30.44
15:09:                  14	30.45
15:09:                  44	30.46
15:10:                  14	30.49
15:10:                  44	30.58
15:11:                  14	30.73
15:11:                  44	30.87
15:12:                  14	30.98
15:12:                  44	31.04
15:13:                  14	31.09
15:13:                  44	31.10
15:14:                  14	31.11
15:14:                  44	31.11
15:15:                  14	31.11
15:15:                  44	31.12
15:16:                  14	31.10
15:16:                  44	31.09
15:17:                  14	31.07
15:17:                  44	31.06
15:18:                  14	31.04
15:18:                  44	31.01
15:19:                  14	31.00
15:19:                  44	30.97
15:20:                  14	30.97
15:20:                  44	30.94
15:21:                  14	30.92
15:21:                  44	30.90
15:22:                  14	30.88
15:22:                  44	30.87
15:23:                  14	30.84
15:23:                  44	30.82
15:24:                  14	30.81
15:24:                  44	30.80
15:25:                  14	30.80
15:25:                  44	30.78
15:26:                  14	30.76
15:26:                  44	30.74
15:27:                  14	30.73
15:27:                  44	30.71
15:28:                  14	30.70
15:28:                  44	30.69
15:29:                  14	30.69
15:29:                  45	30.69
15:30:                  15	30.67
15:30:                  45	30.67
15:31:                  15	30.66
15:31:                  45	30.65
15:32:                  15	30.64
15:32:                  45	30.62
15:33:                  15	30.63
15:33:                  45	30.62
15:34:                  15	30.61
15:34:                  45	30.60
15:35:                  15	30.60
15:35:                  45	30.59
15:36:                  15	30.59
15:36:                  45	30.58
15:37:                  15	30.58
15:37:                  45	30.57
15:38:                  15	30.57
15:38:                  45	30.56
15:39:                  15	30.57
15:39:                  45	30.56
15:40:                  15	30.55
15:40:                  45	30.55
15:41:                  15	30.54
15:41:                  45	30.54
15:42:                  15	30.53
15:42:                  45	30.53
15:43:                  15	30.53
15:43:                  45	30.53
15:44:                  15	30.52
15:44:                  45	30.53
15:45:                  15	30.52
15:45:                  45	30.54
15:46:                  15	30.53
15:46:                  45	30.53
15:47:                  15	30.52
15:47:                  45	30.53
15:48:                  15	30.53
15:48:                  45	30.53
15:49:                  15	30.52
15:49:                  45	30.52
15:50:                  15	30.52
15:50:                  45	30.52
15:51:                  16	30.51
15:51:                  46	30.52
15:52:                  16	30.51
15:52:                  46	30.52
15:53:                  16	30.52
15:53:                  46	30.53
15:54:                  16	30.54
15:54:                  46	30.52
15:55:                  16	30.52
15:55:                  46	30.51
15:56:                  16	30.51
15:56:                  46	30.51
15:57:                  16	30.51
15:57:                  46	30.51
15:58:                  16	30.52
15:58:                  46	30.51
15:59:                  16	30.51
15:59:                  46	30.50
16:00:                  16	30.52
16:00:                  46	30.51
16:01:                  16	30.50
16:01:                  46	30.51
16:02:                  16	30.50
16:02:                  46	30.50
16:03:                  16	30.50
16:03:                  46	30.50
16:04:                  16	30.50
16:04:                  46	30.50
16:05:                  16	30.50
16:05:                  46	30.51
16:06:                  16	30.51
16:06:                  46	30.50
16:07:                  16	30.50
16:07:                  46	30.51
16:08:                  16	30.50
16:08:                  46	30.50
16:09:                  16	30.50
16:09:                  46	30.51
16:10:                  16	30.51
16:10:                  46	30.51
16:11:                  16	30.51
16:11:                  46	30.50
16:12:                  16	30.50
16:12:                  46	30.50
16:13:                  16	30.50
16:13:                  46	30.51
16:14:                  16	30.51
16:14:                  46	30.50
16:15:                  16	30.51
16:15:                  46	30.51
16:16:                  16	30.52
16:16:                  46	30.52
16:17:                  16	30.52
16:17:                  46	30.53
16:18:                  16	30.53
16:18:                  46	30.51
16:19:                  16	30.53
16:19:                  46	30.52
16:20:                  16	30.52
16:20:                  46	30.53
16:21:                  16	30.52
16:21:                  46	30.52
16:22:                  16	30.52
16:22:                  46	30.53
16:23:                  16	30.53
16:23:                  46	30.51
16:24:                  16	30.52
16:24:                  46	30.51
16:25:                  17	30.51
16:25:                  47	30.51
16:26:                  17	30.51
16:26:                  47	30.51
16:27:                  17	30.52
16:27:                  47	30.51
16:28:                  17	30.52
16:28:                  47	30.52
16:29:                  17	30.51
16:29:                  47	30.52
16:30:                  17	30.51
16:30:                  47	30.52
16:31:                  17	30.52
16:31:                  47	30.51
16:32:                  17	30.52
16:32:                  47	30.52
16:33:                  17	30.52
16:33:                  47	30.51
16:34:                  17	30.52
16:34:                  47	30.52
16:35:                  17	30.51
16:35:                  47	30.51
16:36:                  17	30.52
16:36:                  47	30.52
16:37:                  17	30.52
16:37:                  47	30.52
16:38:                  17	30.51
16:38:                  47	30.52
16:39:                  17	30.51
16:39:                  47	30.51
16:40:                  17	30.50
16:40:                  47	30.51
16:41:                  17	30.53
16:41:                  47	30.52
16:42:                  17	30.53
16:42:                  47	30.52
16:43:                  17	30.51
16:43:                  47	30.51
16:44:                  17	30.52
16:44:                  47	30.52
16:45:                  17	30.52
16:45:                  47	30.52
16:46:                  17	30.52
16:46:                  47	30.52
16:47:                  17	30.53
16:47:                  47	30.52
16:48:                  17	30.52
16:48:                  47	30.52
16:49:                  17	30.52
16:49:                  47	30.52
16:50:                  17	30.52
16:50:                  47	30.52
16:51:                  17	30.52
16:51:                  47	30.52
16:52:                  17	30.51
16:52:                  47	30.51
16:53:                  17	30.50
16:53:                  48	30.51
16:54:                  18	30.52
16:54:                  48	30.51
16:55:                  18	30.52
16:55:                  48	30.52
16:56:                  18	30.52
16:56:                  48	30.50
16:57:                  18	30.51
16:57:                  48	30.51
16:58:                  18	30.50
16:58:                  48	30.50
16:59:                  18	30.49
16:59:                  48	30.50
17:00:                  18	30.50
17:00:                  48	30.48
17:01:                  18	30.46
17:01:                  48	30.44
17:02:                  18	30.42
17:02:                  48	30.43
17:03:                  18	30.43
17:03:                  48	30.41
17:04:                  18	30.39
17:04:                  48	30.39
17:05:                  18	30.38
17:05:                  48	30.37
17:06:                  18	30.38
17:06:                  48	30.34
17:07:                  18	30.35
17:07:                  48	30.35
17:08:                  18	30.36
17:08:                  48	30.35
17:09:                  18	30.37
17:09:                  48	30.35
17:10:                  18	30.35
17:10:                  48	30.37
17:11:                  18	30.37
17:11:                  48	30.37
17:12:                  18	30.37
17:12:                  48	30.38
17:13:                  18	30.37
17:13:                  48	30.34
17:14:                  18	30.33
17:14:                  48	30.33
17:15:                  18	30.32
17:15:                  48	30.34
17:16:                  18	30.36
17:16:                  48	30.36
17:17:                  18	30.35
17:17:                  48	30.37
17:18:                  18	30.39
17:18:                  48	30.39
17:19:                  18	30.39
17:19:                  48	30.39
17:20:                  18	30.35
17:20:                  48	30.34
17:21:                  18	30.36
17:21:                  48	30.37
17:22:                  18	30.37
17:22:                  48	30.37
17:23:                  18	30.38
17:23:                  48	30.39
17:24:                  18	30.40
17:24:                  48	30.41
17:25:                  18	30.41
17:25:                  48	30.43
17:26:                  18	30.44
17:26:                  48	30.43
17:27:                  18	30.43
17:27:                  48	30.42
17:28:                  18	30.41
17:28:                  48	30.39
17:29:                  18	30.39
17:29:                  48	30.39
17:30:                  18	30.41
17:30:                  48	30.42
17:31:                  18	30.38
17:31:                  48	30.36
17:32:                  18	30.36
17:32:                  48	30.37
17:33:                  18	30.35
17:33:                  48	30.34
17:34:                  18	30.36
17:34:                  48	30.35
17:35:                  18	30.37
17:35:                  48	30.39
17:36:                  18	30.37
17:36:                  48	30.36
17:37:                  18	30.38
17:37:                  48	30.38
17:38:                  18	30.37
17:38:                  48	30.38
17:39:                  18	30.39
17:39:                  48	30.38
17:40:                  18	30.39
17:40:                  48	30.39
17:41:                  18	30.41
17:41:                  48	30.40
17:42:                  18	30.40
17:42:                  48	30.42
17:43:                  18	30.41
17:43:                  48	30.43
17:44:                  18	30.42
17:44:                  48	30.43
17:45:                  18	30.42
17:45:                  48	30.43
17:46:                  18	30.42
17:46:                  48	30.43
17:47:                  18	30.44
17:47:                  48	30.44
17:48:                  18	30.45
17:48:                  49	30.44
17:49:                  19	30.43
17:49:                  49	30.44
17:50:                  19	30.45
17:50:                  49	30.45
17:51:                  19	30.44
17:51:                  49	30.45
17:52:                  19	30.45
17:52:                  49	30.44
17:53:                  19	30.43
17:53:                  49	30.45
17:54:                  19	30.44
17:54:                  49	30.45
17:55:                  19	30.43
17:55:                  49	30.44
17:56:                  19	30.45
17:56:                  49	30.46
17:57:                  19	30.46
17:57:                  49	30.46
17:58:                  19	30.46
17:58:                  49	30.46
17:59:                  19	30.46
17:59:                  49	30.46
18:00:                  19	30.47
18:00:                  49	30.47
18:01:                  19	30.47
18:01:                  49	30.47
18:02:                  19	30.47
18:02:                  49	30.47
18:03:                  19	30.47
18:03:                  49	30.46
18:04:                  19	30.45
18:04:                  49	30.46
18:05:                  19	30.45
18:05:                  49	30.45
18:06:                  19	30.45
18:06:                  49	30.46
18:07:                  19	30.44
18:07:                  49	30.46
18:08:                  19	30.45
18:08:                  49	30.45
18:09:                  19	30.46
18:09:                  49	30.45
18:10:                  19	30.45
18:10:                  49	30.44
18:11:                  19	30.43
18:11:                  49	30.44
18:12:                  19	30.43
18:12:                  49	30.43
18:13:                  19	30.43
18:13:                  49	30.44
18:14:                  19	30.42
18:14:                  49	30.43
18:15:                  19	30.42
18:15:                  49	30.42
18:16:                  19	30.42
18:16:                  49	30.42
18:17:                  19	30.41
18:17:                  49	30.41
18:18:                  19	30.41
18:18:                  49	30.41
18:19:                  19	30.42
18:19:                  49	30.42
18:20:                  19	30.42
18:20:                  49	30.42
18:21:                  19	30.41
18:21:                  49	30.42
18:22:                  19	30.42
18:22:                  49	30.41
18:23:                  19	30.41
18:23:                  49	30.41
18:24:                  19	30.41
18:24:                  49	30.40
18:25:                  19	30.41
18:25:                  49	30.41
18:26:                  19	30.42
18:26:                  49	30.42
18:27:                  19	30.42
18:27:                  49	30.41
18:28:                  19	30.41
18:28:                  50	30.41
18:29:                  20	30.41
18:29:                  50	30.41
18:30:                  20	30.41
18:30:                  50	30.41
18:31:                  20	30.40
18:31:                  50	30.40
18:32:                  20	30.40
18:32:                  50	30.41
18:33:                  20	30.40
18:33:                  50	30.40
18:34:                  20	30.41
18:34:                  50	30.40
18:35:                  20	30.41
18:35:                  50	30.41
18:36:                  20	30.40
18:36:                  50	30.41
18:37:                  20	30.40
18:37:                  50	30.39
18:38:                  20	30.39
18:38:                  50	30.38
18:39:                  20	30.38
18:39:                  50	30.38
18:40:                  20	30.39
18:40:                  50	30.39
18:41:                  20	30.38
18:41:                  50	30.38
18:42:                  20	30.38
18:42:                  50	30.37
18:43:                  20	30.38
18:43:                  50	30.37
18:44:                  20	30.37
18:44:                  50	30.37
18:45:                  20	30.38
18:45:                  50	30.38
18:46:                  20	30.36
18:46:                  50	30.36
18:47:                  20	30.36
18:47:                  50	30.36
18:48:                  20	30.36
18:48:                  50	30.37
18:49:                  20	30.36
18:49:                  50	30.36
18:50:                  20	30.36
18:50:                  50	30.36
18:51:                  20	30.35
18:51:                  50	30.35
18:52:                  20	30.35
18:52:                  50	30.36
18:53:                  20	30.35
18:53:                  50	30.35
18:54:                  20	30.35
18:54:                  50	30.34
18:55:                  20	30.34
18:55:                  51	30.35
18:56:                  21	30.34
18:56:                  51	30.34
18:57:                  21	30.34
18:57:                  51	30.33
18:58:                  21	30.33
18:58:                  51	30.34
18:59:                  21	30.32
18:59:                  51	30.32
19:00:                  21	30.32
19:00:                  51	30.32
19:01:                  21	30.31
19:01:                  51	30.32
19:02:                  21	30.33
19:02:                  51	30.30
19:03:                  21	30.32
19:03:                  51	30.32
19:04:                  21	30.31
19:04:                  51	30.31
19:05:                  21	30.33
19:05:                  51	30.33
19:06:                  21	30.32
19:06:                  51	30.32
19:07:                  21	30.31
19:07:                  51	30.32
19:08:                  21	30.32
19:08:                  51	30.31
19:09:                  21	30.32
19:09:                  51	30.32
19:10:                  21	30.31
19:10:                  51	30.31
19:11:                  21	30.32
19:11:                  51	30.32
19:12:                  21	30.32
19:12:                  51	30.32
19:13:                  21	30.31
19:13:                  51	30.31
19:14:                  21	30.31
19:14:                  51	30.31
19:15:                  21	30.31
19:15:                  51	30.31
19:16:                  21	30.32
19:16:                  51	30.31
19:17:                  21	30.31
19:17:                  51	30.32
19:18:                  21	30.31
19:18:                  51	30.31
19:19:                  21	30.32
19:19:                  51	30.31
19:20:                  21	30.31
19:20:                  51	30.32
19:21:                  21	30.30
19:21:                  51	30.30
19:22:                  21	30.29
19:22:                  51	30.29
19:23:                  21	30.29
19:23:                  51	30.29
19:24:                  21	30.30
19:24:                  51	30.28
19:25:                  21	30.27
19:25:                  51	30.28
19:26:                  21	30.27
19:26:                  51	30.27
19:27:                  21	30.28
19:27:                  51	30.26
19:28:                  22	30.28
19:28:                  52	30.28
19:29:                  22	30.27
19:29:                  52	30.27
19:30:                  22	30.27
19:30:                  52	30.27
19:31:                  22	30.26
19:31:                  52	30.26
19:32:                  22	30.25
19:32:                  52	30.25
19:33:                  22	30.26
19:33:                  52	30.26
19:34:                  22	30.26
19:34:                  52	30.26
19:35:                  22	30.27
19:35:                  52	30.26
19:36:                  22	30.26
19:36:                  52	30.25
19:37:                  22	30.26
19:37:                  52	30.25
19:38:                  22	30.25
19:38:                  52	30.25
19:39:                  22	30.26
19:39:                  52	30.25
19:40:                  22	30.26
19:40:                  52	30.26
19:41:                  22	30.26
19:41:                  52	30.26
19:42:                  22	30.25
19:42:                  52	30.25
19:43:                  22	30.24
19:43:                  52	30.26
19:44:                  22	30.25
19:44:                  52	30.26
19:45:                  22	30.24
19:45:                  52	30.25
19:46:                  22	30.24
19:46:                  52	30.24
19:47:                  22	30.24
19:47:                  52	30.24
19:48:                  22	30.25
19:48:                  52	30.25
19:49:                  22	30.25
19:49:                  52	30.24
19:50:                  22	30.25
19:50:                  52	30.25
19:51:                  22	30.22
19:51:                  52	30.24
19:52:                  22	30.26
19:52:                  52	30.25
19:53:                  22	30.25
19:53:                  52	30.25
19:54:                  22	30.25
19:54:                  52	30.25
19:55:                  22	30.25
19:55:                  52	30.25
19:56:                  22	30.24
19:56:                  52	30.24
19:57:                  22	30.23
19:57:                  52	30.23
19:58:                  22	30.22
19:58:                  52	30.22
19:59:                  22	30.22
19:59:                  52	30.22
20:00:                  22	30.23
20:00:                  52	30.22
20:01:                  22	30.23
20:01:                  52	30.21
20:02:                  22	30.22
20:02:                  52	30.22
20:03:                  22	30.22
20:03:                  52	30.21
20:04:                  22	30.22
20:04:                  52	30.21
20:05:                  22	30.21
20:05:                  52	30.22
20:06:                  22	30.22
20:06:                  52	30.22
20:07:                  22	30.22
20:07:                  52	30.23
20:08:                  22	30.23
20:08:                  52	30.23
20:09:                  22	30.23
20:09:                  52	30.23
20:10:                  22	30.23
20:10:                  53	30.23
20:11:                  23	30.23
20:11:                  53	30.23
20:12:                  23	30.23
20:12:                  53	30.23
20:13:                  23	30.22
20:13:                  53	30.22
20:14:                  23	30.21
20:14:                  53	30.23
20:15:                  23	30.21
20:15:                  53	30.22
20:16:                  23	30.21
20:16:                  53	30.23
20:17:                  23	30.22
20:17:                  53	30.21
20:18:                  23	30.22
20:18:                  53	30.22
20:19:                  23	30.22
20:19:                  53	30.21
20:20:                  23	30.21
20:20:                  53	30.21
20:21:                  23	30.21
20:21:                  53	30.21
20:22:                  23	30.21
20:22:                  53	30.20
20:23:                  23	30.21
20:23:                  53	30.22
20:24:                  23	30.21
20:24:                  53	30.22
20:25:                  23	30.22
20:25:                  53	30.22
20:26:                  23	30.20
20:26:                  53	30.21
20:27:                  23	30.21
20:27:                  53	30.20
20:28:                  23	30.19
20:28:                  53	30.21
20:29:                  23	30.19
20:29:                  53	30.20
20:30:                  23	30.20
20:30:                  53	30.20
20:31:                  23	30.20
20:31:                  53	30.20
20:32:                  23	30.21
20:32:                  53	30.19
20:33:                  23	30.20
20:33:                  53	30.19
20:34:                  23	30.20
20:34:                  53	30.20
20:35:                  23	30.19
20:35:                  53	30.19
20:36:                  23	30.19
20:36:                  53	30.19
20:37:                  23	30.19
20:37:                  53	30.18
20:38:                  23	30.18
20:38:                  53	30.19
20:39:                  23	30.19
20:39:                  53	30.19
20:40:                  24	30.17
20:40:                  54	30.17
20:41:                  24	30.18
20:41:                  54	30.17
20:42:                  24	30.17
20:42:                  54	30.18
20:43:                  24	30.17
20:43:                  54	30.17
20:44:                  24	30.17
20:44:                  54	30.17
20:45:                  24	30.17
20:45:                  54	30.16
20:46:                  24	30.16
20:46:                  54	30.16
20:47:                  24	30.17
20:47:                  54	30.17
20:48:                  24	30.16
20:48:                  54	30.16
20:49:                  24	30.16
20:49:                  54	30.16
20:50:                  24	30.15
20:50:                  54	30.14
20:51:                  24	30.14
20:51:                  54	30.14
20:52:                  24	30.15
20:52:                  54	30.15
20:53:                  24	30.14
20:53:                  54	30.14
20:54:                  24	30.13
20:54:                  54	30.14
20:55:                  24	30.14
20:55:                  54	30.14
20:56:                  24	30.14
20:56:                  54	30.14
20:57:                  25	30.14
20:57:                  55	30.13
20:58:                  25	30.13
20:58:                  55	30.12
20:59:                  25	30.12
20:59:                  55	30.13
21:00:                  25	30.14
21:00:                  55	30.13
21:01:                  25	30.12
21:01:                  55	30.13
21:02:                  25	30.14
21:02:                  55	30.13
21:03:                  25	30.14
21:03:                  55	30.13
21:04:                  25	30.13
21:04:                  55	30.13
21:05:                  25	30.13
21:05:                  55	30.11
21:06:                  25	30.11
21:06:                  55	30.12
21:07:                  25	30.12
21:07:                  55	30.12
21:08:                  25	30.13
21:08:                  55	30.12
21:09:                  25	30.12
21:09:                  55	30.12
21:10:                  25	30.11
21:10:                  55	30.11
21:11:                  25	30.11
21:11:                  55	30.12
21:12:                  25	30.11
21:12:                  55	30.12
21:13:                  25	30.12
21:13:                  55	30.12
21:14:                  25	30.12
21:14:                  55	30.12
21:15:                  25	30.10
21:15:                  55	30.12
21:16:                  25	30.11
21:16:                  55	30.11
21:17:                  25	30.11
21:17:                  55	30.11
21:18:                  25	30.11
21:18:                  55	30.09
21:19:                  26	30.11
21:19:                  56	30.12
21:20:                  26	30.11
21:20:                  56	30.10
21:21:                  26	30.10
21:21:                  56	30.10
21:22:                  26	30.11
21:22:                  56	30.09
21:23:                  26	30.10
21:23:                  56	30.11
21:24:                  26	30.13
21:24:                  56	30.12
21:25:                  26	30.12
21:25:                  56	30.12
21:26:                  26	30.12
21:26:                  56	30.12
21:27:                  26	30.12
21:27:                  56	30.10
21:28:                  26	30.10
21:28:                  56	30.10
21:29:                  26	30.10
21:29:                  56	30.09
21:30:                  26	30.08
21:30:                  56	30.10
21:31:                  26	30.10
21:31:                  56	30.09
21:32:                  26	30.11
21:32:                  56	30.11
21:33:                  26	30.10
21:33:                  56	30.09
21:34:                  26	30.09
21:34:                  56	30.09
21:35:                  26	30.10
21:35:                  56	30.10
21:36:                  26	30.09
21:36:                  56	30.09
21:37:                  27	30.09
21:37:                  57	30.09
21:38:                  27	30.10
21:38:                  57	30.09
21:39:                  27	30.09
21:39:                  57	30.09
21:40:                  27	30.09
21:40:                  57	30.10
21:41:                  27	30.08
21:41:                  57	30.09
21:42:                  27	30.09
21:42:                  57	30.08
21:43:                  27	30.08
21:43:                  57	30.09
21:44:                  27	30.08
21:44:                  57	30.08
21:45:                  27	30.07
21:45:                  57	30.08
21:46:                  27	30.07
21:46:                  57	30.07
21:47:                  27	30.08
21:47:                  57	30.07
21:48:                  27	30.08
21:48:                  57	30.08
21:49:                  27	30.07
21:49:                  57	30.08
21:50:                  27	30.07
21:50:                  57	30.07
21:51:                  27	30.08
21:51:                  57	30.08
21:52:                  27	30.07
21:52:                  57	30.07
21:53:                  27	30.08
21:53:                  57	30.06
21:54:                  27	30.07
21:54:                  57	30.07
21:55:                  27	30.07
21:55:                  57	30.07
21:56:                  27	30.07
21:56:                  57	30.07
21:57:                  27	30.08
21:57:                  57	30.07
21:58:                  27	30.07
21:58:                  57	30.07
21:59:                  27	30.07
21:59:                  57	30.06
22:00:                  27	30.06
22:00:                  57	30.08
22:01:                  27	30.08
22:01:                  57	30.07
22:02:                  27	30.06
22:02:                  57	30.07
22:03:                  27	30.07
22:03:                  57	30.08
22:04:                  27	30.07
22:04:                  57	30.06
22:05:                  27	30.07
22:05:                  57	30.07
22:06:                  27	30.07
22:06:                  57	30.06
22:07:                  27	30.07
22:07:                  57	30.07
22:08:                  27	30.08
22:08:                  57	30.06
22:09:                  27	30.06
22:09:                  57	30.06
22:10:                  28	30.06
22:10:                  58	30.08
22:11:                  28	30.07
22:11:                  58	30.08
22:12:                  28	30.09
22:12:                  58	30.07
22:13:                  28	30.07
22:13:                  58	30.08
22:14:                  28	30.07
22:14:                  58	30.07
22:15:                  28	30.07
22:15:                  58	30.07
22:16:                  28	30.06
22:16:                  58	30.06
22:17:                  28	30.06
22:17:                  58	30.07
22:18:                  28	30.07
22:18:                  58	30.06
22:19:                  28	30.06
22:19:                  58	30.05
22:20:                  28	30.06
22:20:                  58	30.06
22:21:                  28	30.06
22:21:                  58	30.05
22:22:                  28	30.06
22:22:                  58	30.05
22:23:                  28	30.05
22:23:                  58	30.05
22:24:                  28	30.04
22:24:                  58	30.03
22:25:                  28	30.04
22:25:                  58	30.04
22:26:                  28	30.05
22:26:                  58	30.05
22:27:                  28	30.05
22:27:                  58	30.04
22:28:                  28	30.05
22:28:                  58	30.04
22:29:                  28	30.05
22:29:                  58	30.05
22:30:                  28	30.05
22:30:                  58	30.06
22:31:                  28	30.04
22:31:                  58	30.04
22:32:                  28	30.04
22:32:                  58	30.04
22:33:                  28	30.03
22:33:                  58	30.04
22:34:                  28	30.03
22:34:                  58	30.03
22:35:                  28	30.03
22:35:                  58	30.04
22:36:                  28	30.04
22:36:                  58	30.03
22:37:                  28	30.03
22:37:                  58	30.04
22:38:                  28	30.04
22:38:                  58	30.04
22:39:                  28	30.04
22:39:                  58	30.03
22:40:                  28	30.04
22:40:                  58	30.03
22:41:                  28	30.03
22:41:                  59	30.02
22:42:                  29	30.03
22:42:                  59	30.03
22:43:                  29	30.03
22:43:                  59	30.03
22:44:                  29	30.03
22:44:                  59	30.03
22:45:                  29	30.02
22:45:                  59	30.03
22:46:                  29	30.03
22:46:                  59	30.02
22:47:                  29	30.02
22:47:                  59	30.03
22:48:                  29	30.02
22:48:                  59	30.05
22:49:                  29	30.03
22:49:                  59	30.03
22:50:                  29	30.04
22:50:                  59	30.03
22:51:                  29	30.03
22:51:                  59	30.03
22:52:                  29	30.03
22:52:                  59	30.02
22:53:                  29	30.03
22:53:                  59	30.02
22:54:                  29	30.02
22:54:                  59	30.01
22:55:                  29	30.02
22:55:                  59	30.02
22:56:                  29	30.03
22:56:                  59	30.02
22:57:                  29	30.01
22:57:                  59	30.01
22:58:                  29	30.03
22:58:                  59	30.03
22:59:                  29	30.02
22:59:                  59	30.02
23:00:                  29	30.01
23:00:                  59	30.03
23:01:                  29	30.01
23:01:                  59	30.02
23:02:                  29	30.01
23:02:                  59	30.01
23:03:                  29	30.01
23:04:                   0	30.00
23:04:                  30	30.01
23:05:                   0	30.01
23:05:                  30	30.01
23:06:                   0	30.02
23:06:                  30	30.02
23:07:                   0	30.00
23:07:                  30	30.00
23:08:                   0	30.01
23:08:                  30	30.00
23:09:                   0	30.01
23:09:                  30	30.02
23:10:                   0	30.01
23:10:                  30	30.02
23:11:                   0	30.02
23:11:                  30	30.00
23:12:                   0	30.01
23:12:                  30	30.01
23:13:                   0	30.02
23:13:                  30	30.01
23:14:                   0	30.01
23:14:                  30	30.02
23:15:                   0	30.02
23:15:                  30	30.01
23:16:                   0	30.01
23:16:                  30	30.02
23:17:                   0	30.01
23:17:                  30	30.01
23:18:                   0	30.02
23:18:                  30	30.01
23:19:                   0	30.01
23:19:                  30	30.02
23:20:                   0	30.02
23:20:                  30	30.01
23:21:                   0	30.03
23:21:                  30	30.02
23:22:                   0	30.02
23:22:                  30	30.01
23:23:                   0	30.01
23:23:                  30	30.01
23:24:                   0	30.01
23:24:                  30	30.00
23:25:                   0	30.00
23:25:                  30	30.00
23:26:                   0	30.01
23:26:                  30	29.99
23:27:                   0	30.00
23:27:                  30	30.01
23:28:                   0	30.01
23:28:                  30	30.00
23:29:                   0	30.00
23:29:                  30	30.01
23:30:                   0	30.01
23:30:                  30	30.01
23:31:                   0	30.00
23:31:                  30	30.00
23:32:                   0	29.99
23:32:                  30	29.99
23:33:                   0	30.00
23:33:                  30	30.01
23:34:                   0	30.01
23:34:                  30	30.00
23:35:                   0	30.00
23:35:                  30	30.00
23:36:                   0	30.01
23:36:                  30	30.00
23:37:                   1	30.00
23:37:                  31	29.99
23:38:                   1	29.99
23:38:                  31	30.00
23:39:                   1	30.01
23:39:                  31	30.00
23:40:                   1	30.01
23:40:                  31	30.00
23:41:                   1	30.00
23:41:                  31	29.99
23:42:                   1	30.00
23:42:                  31	30.00
23:43:                   1	30.00
23:43:                  31	30.00
23:44:                   1	29.99
23:44:                  31	29.99
23:45:                   1	29.99
23:45:                  31	29.99
23:46:                   1	30.00
23:46:                  31	29.99
23:47:                   1	29.98
23:47:                  31	29.99
23:48:                   1	29.99
23:48:                  31	29.98
23:49:                   1	29.98
23:49:                  31	29.98
23:50:                   1	29.98
23:50:                  31	29.98
23:51:                   1	29.98
23:51:                  31	29.97
23:52:                   1	29.98
23:52:                  31	29.98
23:53:                   1	29.98
23:53:                  31	29.99
23:54:                   1	29.99
23:54:                  31	29.98
23:55:                   1	29.98
23:55:                  31	29.98
23:56:                   1	29.99
23:56:                  31	29.99
23:57:                   1	29.98
23:57:                  31	29.99
23:58:                   1	29.99
23:58:                  31	29.99
23:59:                   1	29.99
23:59:                  31	29.99
