0:00:                  20	30.90
0:00:                  50	30.91
0:01:                  20	30.91
0:01:                  51	30.91
0:02:                  21	30.89
0:02:                  51	30.88
0:03:                  21	30.90
0:03:                  51	30.91
0:04:                  21	30.91
0:04:                  51	30.92
0:05:                  21	30.91
0:05:                  51	30.90
0:06:                  21	30.89
0:06:                  51	30.89
0:07:                  21	30.90
0:07:                  51	30.91
0:08:                  21	30.90
0:08:                  51	30.91
0:09:                  21	30.89
0:09:                  51	30.91
0:10:                  21	30.90
0:10:                  51	30.90
0:11:                  21	30.91
0:11:                  51	30.90
0:12:                  21	30.89
0:12:                  51	30.90
0:13:                  21	30.91
0:13:                  51	30.92
0:14:                  21	30.91
0:14:                  51	30.90
0:15:                  21	30.89
0:15:                  51	30.90
0:16:                  21	30.90
0:16:                  51	30.89
0:17:                  21	30.91
0:17:                  51	30.90
0:18:                  22	30.89
0:18:                  52	30.91
0:19:                  22	30.90
0:19:                  52	30.89
0:20:                  22	30.92
0:20:                  52	30.90
0:21:                  22	30.90
0:21:                  52	30.89
0:22:                  22	30.89
0:22:                  52	30.91
0:23:                  22	30.93
0:23:                  52	30.93
0:24:                  22	30.93
0:24:                  52	30.92
0:25:                  22	30.90
0:25:                  52	30.89
0:26:                  22	30.90
0:26:                  52	30.89
0:27:                  22	30.91
0:27:                  52	30.89
0:28:                  22	30.87
0:28:                  52	30.91
0:29:                  22	30.90
0:29:                  52	30.92
0:30:                  22	30.91
0:30:                  52	30.93
0:31:                  22	30.94
0:31:                  52	30.91
0:32:                  22	30.91
0:32:                  52	30.92
0:33:                  22	30.92
0:33:                  52	30.92
0:34:                  22	30.92
0:34:                  52	30.90
0:35:                  22	30.91
0:35:                  52	30.93
0:36:                  22	30.92
0:36:                  52	30.93
0:37:                  23	30.92
0:37:                  53	30.93
0:38:                  23	30.92
0:38:                  53	30.93
0:39:                  23	30.93
0:39:                  53	30.93
0:40:                  23	30.92
0:40:                  53	30.93
0:41:                  23	30.93
0:41:                  53	30.91
0:42:                  23	30.92
0:42:                  53	30.90
0:43:                  23	30.92
0:43:                  53	30.89
0:44:                  23	30.90
0:44:                  53	30.91
0:45:                  23	30.91
0:45:                  53	30.94
0:46:                  23	30.94
0:46:                  53	30.91
0:47:                  23	30.94
0:47:                  53	30.93
0:48:                  23	30.95
0:48:                  53	30.91
0:49:                  23	30.92
0:49:                  53	30.91
0:50:                  23	30.93
0:50:                  53	30.95
0:51:                  23	30.93
0:51:                  53	30.92
0:52:                  23	30.92
0:52:                  53	30.92
0:53:                  23	30.94
0:53:                  53	30.91
0:54:                  23	30.92
0:54:                  53	30.94
0:55:                  23	30.93
0:55:                  53	30.94
0:56:                  23	30.91
0:56:                  54	30.92
0:57:                  24	30.93
0:57:                  54	30.92
0:58:                  24	30.93
0:58:                  54	30.94
0:59:                  24	30.93
0:59:                  54	30.92
1:00:                  24	30.91
1:00:                  54	30.92
1:01:                  24	30.92
1:01:                  54	30.91
1:02:                  24	30.92
1:02:                  54	30.92
1:03:                  24	30.91
1:03:                  54	30.93
1:04:                  24	30.92
1:04:                  54	30.93
1:05:                  24	30.91
1:05:                  54	30.93
1:06:                  24	30.92
1:06:                  54	30.91
1:07:                  24	30.92
1:07:                  54	30.92
1:08:                  24	30.94
1:08:                  54	30.95
1:09:                  24	30.94
1:09:                  54	30.94
1:10:                  24	30.92
1:10:                  54	30.93
1:11:                  24	30.92
1:11:                  54	30.94
1:12:                  24	30.91
1:12:                  54	30.94
1:13:                  24	30.93
1:13:                  54	30.93
1:14:                  24	30.94
1:14:                  54	30.92
1:15:                  24	30.92
1:15:                  54	30.93
1:16:                  24	30.95
1:16:                  54	30.93
1:17:                  24	30.94
1:17:                  54	30.96
1:18:                  25	30.96
1:18:                  55	30.95
1:19:                  25	30.94
1:19:                  55	30.92
1:20:                  25	30.94
1:20:                  55	30.95
1:21:                  25	30.92
1:21:                  55	30.95
1:22:                  25	30.94
1:22:                  55	30.91
1:23:                  25	30.91
1:23:                  55	30.93
1:24:                  25	30.93
1:24:                  55	30.93
1:25:                  25	30.93
1:25:                  55	30.93
1:26:                  25	30.94
1:26:                  55	30.93
1:27:                  25	30.94
1:27:                  55	30.95
1:28:                  25	30.95
1:28:                  55	30.94
1:29:                  25	30.93
1:29:                  55	30.95
1:30:                  25	30.93
1:30:                  55	30.95
1:31:                  25	30.95
1:31:                  55	30.96
1:32:                  25	30.94
1:32:                  55	30.95
1:33:                  25	30.96
1:33:                  55	30.95
1:34:                  25	30.92
1:34:                  55	30.93
1:35:                  25	30.93
1:35:                  55	30.95
1:36:                  25	30.94
1:36:                  55	30.94
1:37:                  26	30.95
1:37:                  56	30.95
1:38:                  26	30.93
1:38:                  56	30.94
1:39:                  26	30.93
1:39:                  56	30.95
1:40:                  26	30.95
1:40:                  56	30.94
1:41:                  26	30.95
1:41:                  56	30.95
1:42:                  26	30.94
1:42:                  56	30.95
1:43:                  26	30.95
1:43:                  56	30.93
1:44:                  26	30.92
1:44:                  56	30.94
1:45:                  26	30.94
1:45:                  56	30.92
1:46:                  26	30.92
1:46:                  56	30.93
1:47:                  26	30.93
1:47:                  56	30.92
1:48:                  26	30.93
1:48:                  56	30.95
1:49:                  26	30.95
1:49:                  56	30.95
1:50:                  26	30.93
1:50:                  56	30.92
1:51:                  26	30.96
1:51:                  56	30.96
1:52:                  26	30.92
1:52:                  56	30.93
1:53:                  26	30.92
1:53:                  56	30.93
1:54:                  26	30.93
1:54:                  56	30.94
1:55:                  26	30.95
1:55:                  56	30.95
1:56:                  26	30.95
1:56:                  56	30.94
1:57:                  26	30.95
1:57:                  56	30.93
1:58:                  26	30.94
1:58:                  56	30.94
1:59:                  26	30.95
1:59:                  57	30.94
2:00:                  27	30.94
2:00:                  57	30.95
2:01:                  27	30.94
2:01:                  57	30.96
2:02:                  27	30.95
2:02:                  57	30.93
2:03:                  27	30.93
2:03:                  57	30.97
2:04:                  27	30.93
2:04:                  57	30.94
2:05:                  27	30.93
2:05:                  57	30.97
2:06:                  27	30.94
2:06:                  57	30.96
2:07:                  27	30.95
2:07:                  57	30.94
2:08:                  27	30.95
2:08:                  57	30.95
2:09:                  27	30.95
2:09:                  57	30.95
2:10:                  27	30.93
2:10:                  57	30.91
2:11:                  27	30.93
2:11:                  57	30.93
2:12:                  27	30.95
2:12:                  57	30.94
2:13:                  27	30.94
2:13:                  57	30.95
2:14:                  27	30.95
2:14:                  57	30.92
2:15:                  27	30.95
2:15:                  57	30.96
2:16:                  27	30.96
2:16:                  57	30.93
2:17:                  27	30.91
2:17:                  57	30.93
2:18:                  27	30.93
2:18:                  58	30.96
2:19:                  28	30.95
2:19:                  58	30.94
2:20:                  28	30.95
2:20:                  58	30.94
2:21:                  28	30.92
2:21:                  58	30.90
2:22:                  28	30.94
2:22:                  58	30.96
2:23:                  28	30.93
2:23:                  58	30.92
2:24:                  28	30.93
2:24:                  58	30.93
2:25:                  28	30.92
2:25:                  58	30.95
2:26:                  28	30.93
2:26:                  58	30.93
2:27:                  28	30.94
2:27:                  58	30.93
2:28:                  28	30.92
2:28:                  58	30.94
2:29:                  28	30.92
2:29:                  58	30.94
2:30:                  28	30.93
2:30:                  58	30.92
2:31:                  28	30.95
2:31:                  58	30.93
2:32:                  28	30.93
2:32:                  58	30.95
2:33:                  28	30.93
2:33:                  58	30.92
2:34:                  28	30.93
2:34:                  58	30.92
2:35:                  28	30.92
2:35:                  58	30.94
2:36:                  28	30.96
2:36:                  58	30.95
2:37:                  28	30.93
2:37:                  58	30.92
2:38:                  28	30.91
2:38:                  59	30.92
2:39:                  29	30.93
2:39:                  59	30.96
2:40:                  29	30.95
2:40:                  59	30.95
2:41:                  29	30.94
2:41:                  59	30.94
2:42:                  29	30.95
2:42:                  59	30.95
2:43:                  29	30.95
2:43:                  59	30.97
2:44:                  29	30.95
2:44:                  59	30.94
2:45:                  29	30.93
2:45:                  59	30.93
2:46:                  29	30.92
2:46:                  59	30.92
2:47:                  29	30.93
2:47:                  59	30.95
2:48:                  29	30.91
2:48:                  59	30.91
2:49:                  29	30.93
2:49:                  59	30.91
2:50:                  29	30.93
2:50:                  59	30.94
2:51:                  29	30.92
2:51:                  59	30.92
2:52:                  29	30.93
2:52:                  59	30.94
2:53:                  29	30.92
2:53:                  59	30.92
2:54:                  29	30.93
2:54:                  59	30.93
2:55:                  29	30.92
2:55:                  59	30.93
2:56:                  29	30.95
2:56:                  59	30.93
2:57:                  29	30.92
2:57:                  59	30.91
2:58:                  29	30.91
2:58:                  59	30.94
2:59:                  30	30.94
3:00:                   0	30.93
3:00:                  30	30.95
3:01:                   0	30.91
3:01:                  30	30.90
3:02:                   0	30.92
3:02:                  30	30.92
3:03:                   0	30.91
3:03:                  30	30.92
3:04:                   0	30.91
3:04:                  30	30.93
3:05:                   0	30.92
3:05:                  30	30.92
3:06:                   0	30.93
3:06:                  30	30.92
3:07:                   0	30.93
3:07:                  30	30.92
3:08:                   0	30.93
3:08:                  30	30.92
3:09:                   0	30.94
3:09:                  30	30.92
3:10:                   0	30.93
3:10:                  30	30.93
3:11:                   0	30.94
3:11:                  30	30.95
3:12:                   0	30.94
3:12:                  30	30.93
3:13:                   0	30.96
3:13:                  30	30.92
3:14:                   0	30.92
3:14:                  30	30.93
3:15:                   0	30.93
3:15:                  30	30.96
3:16:                   0	30.95
3:16:                  30	30.94
3:17:                   0	30.94
3:17:                  30	30.94
3:18:                   0	30.94
3:18:                  30	30.94
3:19:                   1	30.97
3:19:                  31	30.99
3:20:                   1	30.97
3:20:                  31	30.95
3:21:                   1	30.96
3:21:                  31	30.96
3:22:                   1	30.94
3:22:                  31	30.94
3:23:                   1	30.94
3:23:                  31	30.94
3:24:                   1	30.96
3:24:                  31	30.93
3:25:                   1	30.96
3:25:                  31	30.96
3:26:                   1	30.95
3:26:                  31	30.93
3:27:                   1	30.94
3:27:                  31	30.93
3:28:                   1	30.94
3:28:                  31	30.94
3:29:                   1	30.94
3:29:                  31	30.94
3:30:                   1	30.96
3:30:                  31	30.93
3:31:                   1	30.95
3:31:                  31	30.95
3:32:                   1	30.95
3:32:                  31	30.92
3:33:                   1	30.93
3:33:                  31	30.94
3:34:                   1	30.94
3:34:                  31	30.92
3:35:                   1	30.93
3:35:                  31	30.92
3:36:                   1	30.93
3:36:                  31	30.96
3:37:                   1	30.93
3:37:                  31	30.93
3:38:                   1	30.94
3:38:                  31	30.96
3:39:                   2	30.94
3:39:                  32	30.96
3:40:                   2	30.96
3:40:                  32	30.95
3:41:                   2	30.97
3:41:                  32	30.96
3:42:                   2	30.95
3:42:                  32	30.95
3:43:                   2	30.93
3:43:                  32	30.94
3:44:                   2	30.95
3:44:                  32	30.94
3:45:                   2	30.92
3:45:                  32	30.92
3:46:                   2	30.93
3:46:                  32	30.92
3:47:                   2	30.94
3:47:                  32	30.92
3:48:                   2	30.92
3:48:                  32	30.94
3:49:                   2	30.91
3:49:                  32	30.90
3:50:                   2	30.91
3:50:                  32	30.93
3:51:                   2	30.93
3:51:                  32	30.94
3:52:                   2	30.94
3:52:                  32	30.94
3:53:                   2	30.94
3:53:                  32	30.95
3:54:                   2	30.96
3:54:                  32	30.98
3:55:                   2	30.94
3:55:                  32	30.94
3:56:                   2	30.95
3:56:                  33	30.95
3:57:                   3	30.95
3:57:                  33	30.94
3:58:                   3	30.93
3:58:                  33	30.95
3:59:                   3	30.96
3:59:                  33	30.95
4:00:                   3	30.95
4:00:                  33	30.94
4:01:                   3	30.95
4:01:                  33	30.95
4:02:                   3	30.95
4:02:                  33	30.95
4:03:                   3	30.95
4:03:                  33	30.93
4:04:                   3	30.93
4:04:                  33	30.94
4:05:                   3	30.95
4:05:                  33	30.95
4:06:                   3	30.95
4:06:                  33	30.98
4:07:                   3	30.95
4:07:                  33	30.95
4:08:                   3	30.96
4:08:                  33	30.93
4:09:                   3	30.95
4:09:                  33	30.94
4:10:                   3	30.94
4:10:                  33	30.94
4:11:                   3	30.93
4:11:                  33	30.93
4:12:                   3	30.96
4:12:                  33	30.94
4:13:                   3	30.94
4:13:                  33	30.93
4:14:                   3	30.94
4:14:                  33	30.93
4:15:                   3	30.93
4:15:                  33	30.93
4:16:                   3	30.93
4:16:                  33	30.94
4:17:                   3	30.93
4:17:                  33	30.94
4:18:                   4	30.93
4:18:                  34	30.94
4:19:                   4	30.93
4:19:                  34	30.93
4:20:                   4	30.95
4:20:                  34	30.93
4:21:                   4	30.93
4:21:                  34	30.92
4:22:                   4	30.92
4:22:                  34	30.93
4:23:                   4	30.93
4:23:                  34	30.93
4:24:                   4	30.94
4:24:                  34	30.93
4:25:                   4	30.94
4:25:                  34	30.95
4:26:                   4	30.95
4:26:                  34	30.95
4:27:                   4	30.95
4:27:                  34	30.94
4:28:                   4	30.94
4:28:                  34	30.93
4:29:                   4	30.94
4:29:                  34	30.95
4:30:                   4	30.95
4:30:                  34	30.94
4:31:                   4	30.92
4:31:                  34	30.93
4:32:                   4	30.93
4:32:                  34	30.93
4:33:                   4	30.92
4:33:                  34	30.94
4:34:                   4	30.92
4:34:                  34	30.92
4:35:                   5	30.96
4:35:                  35	30.95
4:36:                   5	30.93
4:36:                  35	30.95
4:37:                   5	30.93
4:37:                  35	30.93
4:38:                   5	30.93
4:38:                  35	30.93
4:39:                   5	30.93
4:39:                  35	30.93
4:40:                   5	30.94
4:40:                  35	30.92
4:41:                   5	30.92
4:41:                  35	30.93
4:42:                   5	30.94
4:42:                  35	30.93
4:43:                   5	30.93
4:43:                  35	30.92
4:44:                   5	30.94
4:44:                  35	30.94
4:45:                   5	30.94
4:45:                  35	30.96
4:46:                   5	30.94
4:46:                  35	30.94
4:47:                   5	30.96
4:47:                  35	30.95
4:48:                   5	30.95
4:48:                  35	30.95
4:49:                   5	30.92
4:49:                  35	30.93
4:50:                   5	30.93
4:50:                  35	30.93
4:51:                   5	30.93
4:51:                  36	30.94
4:52:                   6	30.92
4:52:                  36	30.93
4:53:                   6	30.95
4:53:                  36	30.93
4:54:                   6	30.92
4:54:                  36	30.94
4:55:                   6	30.94
4:55:                  36	30.94
4:56:                   6	30.92
4:56:                  36	30.91
4:57:                   6	30.93
4:57:                  36	30.93
4:58:                   6	30.94
4:58:                  36	30.96
4:59:                   6	30.94
4:59:                  36	30.92
5:00:                   6	30.93
5:00:                  36	30.93
5:01:                   6	30.93
5:01:                  36	30.91
5:02:                   6	30.93
5:02:                  36	30.91
5:03:                   6	30.91
5:03:                  36	30.93
5:04:                   6	30.92
5:04:                  36	30.91
5:05:                   6	30.92
5:05:                  36	30.89
5:06:                   6	30.90
5:06:                  36	30.89
5:07:                   6	30.88
5:07:                  36	30.91
5:08:                   7	30.92
5:08:                  37	30.91
5:09:                   7	30.92
5:09:                  37	30.91
5:10:                   7	30.92
5:10:                  37	30.92
5:11:                   7	30.93
5:11:                  37	30.92
5:12:                   7	30.92
5:12:                  37	30.95
5:13:                   7	30.91
5:13:                  37	30.91
5:14:                   7	30.91
5:14:                  37	30.91
5:15:                   7	30.92
5:15:                  37	30.93
5:16:                   7	30.92
5:16:                  37	30.95
5:17:                   7	30.92
5:17:                  37	30.94
5:18:                   7	30.91
5:18:                  37	30.91
5:19:                   7	30.91
5:19:                  37	30.91
5:20:                   7	30.90
5:20:                  37	30.91
5:21:                   7	30.92
5:21:                  37	30.92
5:22:                   7	30.91
5:22:                  37	30.92
5:23:                   7	30.90
5:23:                  37	30.90
5:24:                   7	30.90
5:24:                  37	30.89
5:25:                   8	30.91
5:25:                  38	30.93
5:26:                   8	30.91
5:26:                  38	30.90
5:27:                   8	30.91
5:27:                  38	30.91
5:28:                   8	30.92
5:28:                  38	30.93
5:29:                   8	30.92
5:29:                  38	30.93
5:30:                   8	30.92
5:30:                  38	30.92
5:31:                   8	30.93
5:31:                  38	30.93
5:32:                   8	30.91
5:32:                  38	30.94
5:33:                   8	30.91
5:33:                  38	30.92
5:34:                   8	30.93
5:34:                  38	30.91
5:35:                   8	30.92
5:35:                  38	30.91
5:36:                   8	30.91
5:36:                  38	30.93
5:37:                   8	30.92
5:37:                  38	30.92
5:38:                   8	30.91
5:38:                  38	30.93
5:39:                   8	30.92
5:39:                  38	30.91
5:40:                   8	30.91
5:40:                  38	30.92
5:41:                   8	30.91
5:41:                  38	30.91
5:42:                   8	30.92
5:42:                  38	30.91
5:43:                   8	30.90
5:43:                  38	30.89
5:44:                   8	30.89
5:44:                  38	30.90
5:45:                   8	30.90
5:45:                  38	30.88
5:46:                   8	30.91
5:46:                  38	30.91
5:47:                   8	30.90
5:47:                  39	30.92
5:48:                   9	30.91
5:48:                  39	30.90
5:49:                   9	30.90
5:49:                  39	30.89
5:50:                   9	30.91
5:50:                  39	30.89
5:51:                   9	30.89
5:51:                  39	30.90
5:52:                   9	30.92
5:52:                  39	30.91
5:53:                   9	30.90
5:53:                  39	30.89
5:54:                   9	30.90
5:54:                  39	30.90
5:55:                   9	30.92
5:55:                  39	30.91
5:56:                   9	30.89
5:56:                  39	30.92
5:57:                   9	30.91
5:57:                  39	30.89
5:58:                   9	30.89
5:58:                  39	30.89
5:59:                   9	30.90
5:59:                  39	30.90
6:00:                   9	30.90
6:00:                  39	30.90
6:01:                   9	30.88
6:01:                  39	30.88
6:02:                   9	30.89
6:02:                  39	30.90
6:03:                   9	30.89
6:03:                  39	30.88
6:04:                   9	30.89
6:04:                  39	30.90
6:05:                   9	30.90
6:05:                  39	30.89
6:06:                   9	30.87
6:06:                  39	30.89
6:07:                   9	30.90
6:07:                  40	30.87
6:08:                  10	30.89
6:08:                  40	30.87
6:09:                  10	30.89
6:09:                  40	30.91
6:10:                  10	30.89
6:10:                  40	30.86
6:11:                  10	30.85
6:11:                  40	30.85
6:12:                  10	30.86
6:12:                  40	30.88
6:13:                  10	30.88
6:13:                  40	30.89
6:14:                  10	30.91
6:14:                  40	30.88
6:15:                  10	30.86
6:15:                  40	30.86
6:16:                  10	30.87
6:16:                  40	30.89
6:17:                  10	30.86
6:17:                  40	30.86
6:18:                  10	30.85
6:18:                  40	30.86
6:19:                  10	30.85
6:19:                  40	30.84
6:20:                  10	30.85
6:20:                  40	30.86
6:21:                  10	30.87
6:21:                  40	30.88
6:22:                  10	30.89
6:22:                  40	30.85
6:23:                  10	30.87
6:23:                  40	30.86
6:24:                  10	30.85
6:24:                  41	30.85
6:25:                  11	30.86
6:25:                  41	30.84
6:26:                  11	30.84
6:26:                  41	30.85
6:27:                  11	30.84
6:27:                  41	30.82
6:28:                  11	30.84
6:28:                  41	30.83
6:29:                  11	30.82
6:29:                  41	30.82
6:30:                  11	30.84
6:30:                  41	30.84
6:31:                  11	30.82
6:31:                  41	30.82
6:32:                  11	30.83
6:32:                  41	30.82
6:33:                  11	30.82
6:33:                  41	30.84
6:34:                  11	30.84
6:34:                  41	30.85
6:35:                  11	30.83
6:35:                  41	30.82
6:36:                  11	30.83
6:36:                  41	30.82
6:37:                  11	30.85
6:37:                  41	30.85
6:38:                  11	30.84
6:38:                  41	30.82
6:39:                  11	30.84
6:39:                  41	30.83
6:40:                  11	30.83
6:40:                  41	30.82
6:41:                  11	30.82
6:41:                  41	30.83
6:42:                  11	30.83
6:42:                  41	30.83
6:43:                  11	30.83
6:43:                  41	30.85
6:44:                  11	30.82
6:44:                  41	30.83
6:45:                  11	30.80
6:45:                  41	30.81
6:46:                  11	30.81
6:46:                  42	30.81
6:47:                  12	30.81
6:47:                  42	30.84
6:48:                  12	30.83
6:48:                  42	30.83
6:49:                  12	30.82
6:49:                  42	30.82
6:50:                  12	30.81
6:50:                  42	30.81
6:51:                  12	30.81
6:51:                  42	30.82
6:52:                  12	30.83
6:52:                  42	30.85
6:53:                  12	30.82
6:53:                  42	30.82
6:54:                  12	30.81
6:54:                  42	30.82
6:55:                  12	30.82
6:55:                  42	30.80
6:56:                  12	30.80
6:56:                  42	30.84
6:57:                  12	30.81
6:57:                  42	30.80
6:58:                  12	30.83
6:58:                  42	30.81
6:59:                  12	30.81
6:59:                  42	30.81
7:00:                  12	30.80
7:00:                  42	30.80
7:01:                  12	30.83
7:01:                  42	30.81
7:02:                  12	30.81
7:02:                  42	30.83
7:03:                  12	30.79
7:03:                  42	30.81
7:04:                  13	30.80
7:04:                  43	30.81
7:05:                  13	30.82
7:05:                  43	30.84
7:06:                  13	30.81
7:06:                  43	30.79
7:07:                  13	30.80
7:07:                  43	30.79
7:08:                  13	30.81
7:08:                  43	30.80
7:09:                  13	30.81
7:09:                  43	30.80
7:10:                  13	30.80
7:10:                  43	30.79
7:11:                  13	30.79
7:11:                  43	30.79
7:12:                  13	30.81
7:12:                  43	30.79
7:13:                  13	30.80
7:13:                  43	30.79
7:14:                  13	30.80
7:14:                  43	30.81
7:15:                  13	30.80
7:15:                  43	30.80
7:16:                  13	30.82
7:16:                  43	30.79
7:17:                  13	30.82
7:17:                  43	30.81
7:18:                  13	30.78
7:18:                  43	30.76
7:19:                  13	30.79
7:19:                  43	30.79
7:20:                  13	30.79
7:20:                  43	30.78
7:21:                  13	30.77
7:21:                  43	30.76
7:22:                  13	30.75
7:22:                  43	30.78
7:23:                  13	30.77
7:23:                  43	30.74
7:24:                  14	30.76
7:24:                  44	30.77
7:25:                  14	30.76
7:25:                  44	30.77
7:26:                  14	30.77
7:26:                  44	30.76
7:27:                  14	30.76
7:27:                  44	30.76
7:28:                  14	30.75
7:28:                  44	30.76
7:29:                  14	30.76
7:29:                  44	30.77
7:30:                  14	30.76
7:30:                  44	30.75
7:31:                  14	30.77
7:31:                  44	30.75
7:32:                  14	30.79
7:32:                  44	30.78
7:33:                  14	30.75
7:33:                  44	30.73
7:34:                  14	30.77
7:34:                  44	30.79
7:35:                  14	30.79
7:35:                  44	30.78
7:36:                  14	30.78
7:36:                  44	30.78
7:37:                  14	30.73
7:37:                  44	30.75
7:38:                  14	30.72
7:38:                  44	30.72
7:39:                  14	30.69
7:39:                  44	30.72
7:40:                  14	30.73
7:40:                  44	30.72
7:41:                  14	30.72
7:41:                  44	30.69
7:42:                  14	30.69
7:42:                  44	30.67
7:43:                  14	30.64
7:43:                  44	30.66
7:44:                  14	30.67
7:44:                  44	30.70
7:45:                  14	30.67
7:45:                  44	30.69
7:46:                  14	30.73
7:46:                  45	30.70
7:47:                  15	30.71
7:47:                  45	30.70
7:48:                  15	30.69
7:48:                  45	30.71
7:49:                  15	30.71
7:49:                  45	30.69
7:50:                  15	30.67
7:50:                  45	30.66
7:51:                  15	30.63
7:51:                  45	30.64
7:52:                  15	30.64
7:52:                  45	30.67
7:53:                  15	30.67
7:53:                  45	30.66
7:54:                  15	30.61
7:54:                  45	30.65
7:55:                  15	30.66
7:55:                  45	30.68
7:56:                  15	30.67
7:56:                  45	30.65
7:57:                  15	30.63
7:57:                  45	30.63
7:58:                  15	30.65
7:58:                  45	30.64
7:59:                  15	30.64
7:59:                  45	30.60
8:00:                  15	30.61
8:00:                  45	30.62
8:01:                  15	30.61
8:01:                  45	30.59
8:02:                  15	30.60
8:02:                  45	30.58
8:03:                  15	30.58
8:03:                  45	30.57
8:04:                  15	30.61
8:04:                  45	30.60
8:05:                  15	30.56
8:05:                  45	30.58
8:06:                  16	30.56
8:06:                  46	30.56
8:07:                  16	30.54
8:07:                  46	30.56
8:08:                  16	30.57
8:08:                  46	30.57
8:09:                  16	30.56
8:09:                  46	30.53
8:10:                  16	30.54
8:10:                  46	30.53
8:11:                  16	30.53
8:11:                  46	30.53
8:12:                  16	30.53
8:12:                  46	30.53
8:13:                  16	30.54
8:13:                  46	30.53
8:14:                  16	30.53
8:14:                  46	30.52
8:15:                  16	30.54
8:15:                  46	30.54
8:16:                  16	30.52
8:16:                  46	30.51
8:17:                  16	30.51
8:17:                  46	30.51
8:18:                  16	30.51
8:18:                  46	30.51
8:19:                  16	30.49
8:19:                  46	30.50
8:20:                  16	30.48
8:20:                  46	30.46
8:21:                  16	30.45
8:21:                  46	30.47
8:22:                  16	30.48
8:22:                  46	30.45
8:23:                  16	30.47
8:23:                  46	30.46
8:24:                  16	30.47
8:24:                  46	30.48
8:25:                  16	30.46
8:25:                  46	30.44
8:26:                  17	30.42
8:26:                  47	30.44
8:27:                  17	30.43
8:27:                  47	30.41
8:28:                  17	30.42
8:28:                  47	30.42
8:29:                  17	30.42
8:29:                  47	30.42
8:30:                  17	30.42
8:30:                  47	30.44
8:31:                  17	30.43
8:31:                  47	30.41
8:32:                  17	30.42
8:32:                  47	30.41
8:33:                  17	30.43
8:33:                  47	30.43
8:34:                  17	30.41
8:34:                  47	30.41
8:35:                  17	30.40
8:35:                  47	30.40
8:36:                  17	30.39
8:36:                  47	30.39
8:37:                  17	30.37
8:37:                  47	30.37
8:38:                  17	30.39
8:38:                  47	30.38
8:39:                  17	30.41
8:39:                  47	30.40
8:40:                  17	30.40
8:40:                  47	30.38
8:41:                  17	30.37
8:41:                  47	30.32
8:42:                  17	30.31
8:42:                  47	30.31
8:43:                  17	30.29
8:43:                  47	30.27
8:44:                  17	30.27
8:44:                  48	30.26
8:45:                  18	30.24
8:45:                  48	30.23
8:46:                  18	30.21
8:46:                  48	30.21
8:47:                  18	30.21
8:47:                  48	30.22
8:48:                  18	30.21
8:48:                  48	30.22
8:49:                  18	30.22
8:49:                  48	30.20
8:50:                  18	30.21
8:50:                  48	30.20
8:51:                  18	30.19
8:51:                  48	30.19
8:52:                  18	30.19
8:52:                  48	30.17
8:53:                  18	30.16
8:53:                  48	30.20
8:54:                  18	30.18
8:54:                  48	30.16
8:55:                  18	30.16
8:55:                  48	30.14
8:56:                  18	30.15
8:56:                  48	30.15
8:57:                  18	30.13
8:57:                  48	30.13
8:58:                  18	30.13
8:58:                  48	30.13
8:59:                  18	30.12
8:59:                  48	30.11
9:00:                  18	30.09
9:00:                  48	30.08
9:01:                  18	30.09
9:01:                  48	30.09
9:02:                  18	30.11
9:02:                  49	30.12
9:03:                  19	30.10
9:03:                  49	30.12
9:04:                  19	30.13
9:04:                  49	30.12
9:05:                  19	30.09
9:05:                  49	30.13
9:06:                  19	30.15
9:06:                  49	30.20
9:07:                  19	30.24
9:07:                  49	30.25
9:08:                  19	30.28
9:08:                  49	30.26
9:09:                  19	30.28
9:09:                  49	30.28
9:10:                  19	30.29
9:10:                  49	30.29
9:11:                  19	30.29
9:11:                  49	30.29
9:12:                  19	30.28
9:12:                  49	30.29
9:13:                  19	30.31
9:13:                  49	30.31
9:14:                  19	30.29
9:14:                  49	30.31
9:15:                  19	30.30
9:15:                  49	30.33
9:16:                  19	30.35
9:16:                  49	30.35
9:17:                  19	30.37
9:17:                  49	30.35
9:18:                  19	30.32
9:18:                  49	30.32
9:19:                  19	30.32
9:19:                  49	30.31
9:20:                  19	30.30
9:20:                  49	30.30
9:21:                  19	30.30
9:21:                  49	30.27
9:22:                  19	30.26
9:22:                  50	30.22
9:23:                  20	30.22
9:23:                  50	30.22
9:24:                  20	30.20
9:24:                  50	30.21
9:25:                  20	30.20
9:25:                  50	30.19
9:26:                  20	30.20
9:26:                  50	30.23
9:27:                  20	30.24
9:27:                  50	30.24
9:28:                  20	30.20
9:28:                  50	30.24
9:29:                  20	30.25
9:29:                  50	30.23
9:30:                  20	30.23
9:30:                  50	30.22
9:31:                  20	30.22
9:31:                  50	30.20
9:32:                  20	30.22
9:32:                  50	30.22
9:33:                  20	30.19
9:33:                  50	30.22
9:34:                  20	30.20
9:34:                  50	30.21
9:35:                  20	30.20
9:35:                  50	30.20
9:36:                  20	30.19
9:36:                  50	30.19
9:37:                  20	30.18
9:37:                  50	30.18
9:38:                  20	30.17
9:38:                  50	30.19
9:39:                  21	30.18
9:39:                  51	30.20
9:40:                  21	30.22
9:40:                  51	30.19
9:41:                  21	30.19
9:41:                  51	30.19
9:42:                  21	30.15
9:42:                  51	30.16
9:43:                  21	30.17
9:43:                  51	30.18
9:44:                  21	30.11
9:44:                  51	30.11
9:45:                  21	30.12
9:45:                  51	30.09
9:46:                  21	30.06
9:46:                  51	30.11
9:47:                  21	30.10
9:47:                  51	30.12
9:48:                  21	30.09
9:48:                  51	30.12
9:49:                  21	30.10
9:49:                  51	30.07
9:50:                  21	30.08
9:50:                  51	30.09
9:51:                  21	30.11
9:51:                  51	30.09
9:52:                  21	30.08
9:52:                  51	30.09
9:53:                  21	30.08
9:53:                  51	30.09
9:54:                  21	30.07
9:54:                  51	30.06
9:55:                  21	30.06
9:55:                  52	30.06
9:56:                  22	30.05
9:56:                  52	30.05
9:57:                  22	30.06
9:57:                  52	30.06
9:58:                  22	30.06
9:58:                  52	30.04
9:59:                  22	30.06
9:59:                  52	30.05
10:00:                  22	30.06
10:00:                  52	30.04
10:01:                  22	30.03
10:01:                  52	30.06
10:02:                  22	30.06
10:02:                  52	30.06
10:03:                  22	30.02
10:03:                  52	30.01
10:04:                  22	30.00
10:04:                  52	29.99
10:05:                  22	29.99
10:05:                  52	30.00
10:06:                  22	30.01
10:06:                  52	30.03
10:07:                  22	30.02
10:07:                  52	30.01
10:08:                  22	30.01
10:08:                  52	30.04
10:09:                  22	30.00
10:09:                  52	30.02
10:10:                  22	30.00
10:10:                  52	30.00
10:11:                  22	29.98
10:11:                  53	29.98
10:12:                  23	29.98
10:12:                  53	29.98
10:13:                  23	29.97
10:13:                  53	29.98
10:14:                  23	29.96
10:14:                  53	29.95
10:15:                  23	29.97
10:15:                  53	30.01
10:16:                  23	30.00
10:16:                  53	30.02
10:17:                  23	30.01
10:17:                  53	30.02
10:18:                  23	30.01
10:18:                  53	29.99
10:19:                  23	30.00
10:19:                  53	30.00
10:20:                  23	29.98
10:20:                  53	29.99
10:21:                  23	29.97
10:21:                  53	29.97
10:22:                  23	29.97
10:22:                  53	29.98
10:23:                  23	29.98
10:23:                  53	29.95
10:24:                  23	29.96
10:24:                  53	29.96
10:25:                  23	29.91
10:25:                  53	29.93
10:26:                  23	29.92
10:26:                  53	29.93
10:27:                  23	29.93
10:27:                  53	29.94
10:28:                  23	29.92
10:28:                  53	29.91
10:29:                  23	29.91
10:29:                  53	29.94
10:30:                  23	29.92
10:30:                  54	29.91
10:31:                  24	29.91
10:31:                  54	29.93
10:32:                  24	29.93
10:32:                  54	29.92
10:33:                  24	29.92
10:33:                  54	29.94
10:34:                  24	29.94
10:34:                  54	29.94
10:35:                  24	29.92
10:35:                  54	29.93
10:36:                  24	29.91
10:36:                  54	29.91
10:37:                  24	29.89
10:37:                  54	29.87
10:38:                  24	29.88
10:38:                  54	29.91
10:39:                  24	29.89
10:39:                  54	29.92
10:40:                  24	29.89
10:40:                  54	29.89
10:41:                  24	29.89
10:41:                  54	29.89
10:42:                  24	29.92
10:42:                  54	29.90
10:43:                  24	29.89
10:43:                  54	29.89
10:44:                  24	29.86
10:44:                  54	29.86
10:45:                  24	29.85
10:45:                  54	29.84
10:46:                  24	29.83
10:46:                  54	29.81
10:47:                  24	29.82
10:47:                  54	29.84
10:48:                  24	29.85
10:48:                  54	29.86
10:49:                  24	29.85
10:49:                  54	29.86
10:50:                  24	29.84
10:50:                  54	29.83
10:51:                  25	29.86
10:51:                  55	29.85
10:52:                  25	29.83
10:52:                  55	29.84
10:53:                  25	29.86
10:53:                  55	29.85
10:54:                  25	29.84
10:54:                  55	29.83
10:55:                  25	29.84
10:55:                  55	29.82
10:56:                  25	29.82
10:56:                  55	29.84
10:57:                  25	29.84
10:57:                  55	29.84
10:58:                  25	29.83
10:58:                  55	29.85
10:59:                  25	29.84
10:59:                  55	29.83
11:00:                  25	29.82
11:00:                  55	29.81
11:01:                  25	29.79
11:01:                  55	29.79
11:02:                  25	29.79
11:02:                  55	29.80
11:03:                  25	29.80
11:03:                  55	29.81
11:04:                  25	29.79
11:04:                  55	29.80
11:05:                  25	29.80
11:05:                  55	29.80
11:06:                  25	29.82
11:06:                  55	29.80
11:07:                  25	29.82
11:07:                  55	29.82
11:08:                  25	29.82
11:08:                  55	29.82
11:09:                  25	29.83
11:09:                  55	29.81
11:10:                  26	29.84
11:10:                  56	29.82
11:11:                  26	29.83
11:11:                  56	29.84
11:12:                  26	29.82
11:12:                  56	29.80
11:13:                  26	29.79
11:13:                  56	29.80
11:14:                  26	29.78
11:14:                  56	29.78
11:15:                  26	29.77
11:15:                  56	29.76
11:16:                  26	29.78
11:16:                  56	29.76
11:17:                  26	29.77
11:17:                  56	29.78
11:18:                  26	29.77
11:18:                  56	29.76
11:19:                  26	29.75
11:19:                  56	29.74
11:20:                  26	29.75
11:20:                  56	29.73
11:21:                  26	29.73
11:21:                  56	29.73
11:22:                  26	29.72
11:22:                  56	29.74
11:23:                  26	29.72
11:23:                  56	29.72
11:24:                  26	29.70
11:24:                  56	29.69
11:25:                  26	29.67
11:25:                  56	29.67
11:26:                  26	29.68
11:26:                  57	29.71
11:27:                  27	29.69
11:27:                  57	29.67
11:28:                  27	29.69
11:28:                  57	29.70
11:29:                  27	29.69
11:29:                  57	29.71
11:30:                  27	29.70
11:30:                  57	29.73
11:31:                  27	29.72
11:31:                  57	29.76
11:32:                  27	29.75
11:32:                  57	29.73
11:33:                  27	29.72
11:33:                  57	29.72
11:34:                  27	29.71
11:34:                  57	29.69
11:35:                  27	29.68
11:35:                  57	29.69
11:36:                  27	29.72
11:36:                  57	29.70
11:37:                  27	29.67
11:37:                  57	29.74
11:38:                  27	29.74
11:38:                  57	29.72
11:39:                  27	29.72
11:39:                  57	29.73
11:40:                  27	29.73
11:40:                  57	29.73
11:41:                  27	29.75
11:41:                  57	29.76
11:42:                  27	29.76
11:42:                  58	29.76
11:43:                  28	29.75
11:43:                  58	29.76
11:44:                  28	29.76
11:44:                  58	29.75
11:45:                  28	29.74
11:45:                  58	29.72
11:46:                  28	29.73
11:46:                  58	29.72
11:47:                  28	29.73
11:47:                  58	29.74
11:48:                  28	29.75
11:48:                  58	29.73
11:49:                  28	29.73
11:49:                  58	29.73
11:50:                  28	29.72
11:50:                  58	29.73
11:51:                  28	29.73
11:51:                  58	29.73
11:52:                  28	29.73
11:52:                  58	29.72
11:53:                  28	29.72
11:53:                  58	29.72
11:54:                  28	29.72
11:54:                  58	29.72
11:55:                  28	29.73
11:55:                  58	29.72
11:56:                  28	29.71
11:56:                  58	29.74
11:57:                  28	29.72
11:57:                  58	29.71
11:58:                  28	29.72
11:58:                  58	29.72
11:59:                  28	29.73
11:59:                  59	29.74
12:00:                  29	29.72
12:00:                  59	29.74
12:01:                  29	29.71
12:01:                  59	29.72
12:02:                  29	29.72
12:02:                  59	29.71
12:03:                  29	29.70
12:03:                  59	29.72
12:04:                  29	29.72
12:04:                  59	29.73
12:05:                  29	29.73
12:05:                  59	29.73
12:06:                  29	29.72
12:06:                  59	29.72
12:07:                  29	29.73
12:07:                  59	29.73
12:08:                  29	29.74
12:08:                  59	29.74
12:09:                  29	29.73
12:09:                  59	29.71
12:10:                  29	29.73
12:10:                  59	29.72
12:11:                  29	29.72
12:11:                  59	29.71
12:12:                  29	29.72
12:12:                  59	29.73
12:13:                  29	29.73
12:13:                  59	29.73
12:14:                  29	29.74
12:14:                  59	29.75
12:15:                  29	29.75
12:15:                  59	29.76
12:16:                  29	29.74
12:16:                  59	29.74
12:17:                  29	29.73
12:17:                  59	29.75
12:18:                  29	29.74
12:18:                  59	29.74
12:19:                  30	29.75
12:20:                   0	29.74
12:20:                  30	29.75
12:21:                   0	29.76
12:21:                  30	29.78
12:22:                   0	29.78
12:22:                  30	29.77
12:23:                   0	29.77
12:23:                  30	29.78
12:24:                   0	29.77
12:24:                  30	29.77
12:25:                   0	29.76
12:25:                  30	29.78
12:26:                   0	29.78
12:26:                  30	29.74
12:27:                   0	29.78
12:27:                  30	29.79
12:28:                   0	29.76
12:28:                  30	29.76
12:29:                   0	29.77
12:29:                  30	29.76
12:30:                   0	29.76
12:30:                  30	29.76
12:31:                   0	29.79
12:31:                  30	29.77
12:32:                   0	29.78
12:32:                  30	29.80
12:33:                   0	29.78
12:33:                  30	29.79
12:34:                   0	29.81
12:34:                  30	29.80
12:35:                   0	29.78
12:35:                  30	29.77
12:36:                   1	29.76
12:36:                  31	29.78
12:37:                   1	29.78
12:37:                  31	29.77
12:38:                   1	29.74
12:38:                  31	29.75
12:39:                   1	29.75
12:39:                  31	29.77
12:40:                   1	29.76
12:40:                  31	29.77
12:41:                   1	29.75
12:41:                  31	29.76
12:42:                   1	29.75
12:42:                  31	29.72
12:43:                   1	29.74
12:43:                  31	29.75
12:44:                   1	29.76
12:44:                  31	29.77
12:45:                   1	29.75
12:45:                  31	29.75
12:46:                   1	29.75
12:46:                  31	29.74
12:47:                   1	29.74
12:47:                  31	29.76
12:48:                   1	29.78
12:48:                  31	29.74
12:49:                   1	29.75
12:49:                  31	29.76
12:50:                   1	29.79
12:50:                  31	29.79
12:51:                   1	29.81
12:51:                  31	29.82
12:52:                   1	29.83
12:52:                  31	29.80
12:53:                   1	29.80
12:53:                  31	29.82
12:54:                   1	29.82
12:54:                  31	29.81
12:55:                   2	29.81
12:55:                  32	29.80
12:56:                   2	29.81
12:56:                  32	29.82
12:57:                   2	29.82
12:57:                  32	29.81
12:58:                   2	29.80
12:58:                  32	29.81
12:59:                   2	29.80
12:59:                  32	29.81
13:00:                   2	29.78
13:00:                  32	29.78
13:01:                   2	29.79
13:01:                  32	29.77
13:02:                   2	29.78
13:02:                  32	29.78
13:03:                   2	29.79
13:03:                  32	29.78
13:04:                   2	29.77
13:04:                  32	29.79
13:05:                   2	29.75
13:05:                  32	29.78
13:06:                   2	29.79
13:06:                  32	29.80
13:07:                   2	29.79
13:07:                  32	29.81
13:08:                   2	29.83
13:08:                  32	29.82
13:09:                   2	29.83
13:09:                  32	29.84
13:10:                   2	29.83
13:10:                  32	29.85
13:11:                   2	29.85
13:11:                  33	29.85
13:12:                   3	29.84
13:12:                  33	29.84
13:13:                   3	29.83
13:13:                  33	29.83
13:14:                   3	29.84
13:14:                  33	29.84
13:15:                   3	29.83
13:15:                  33	29.83
13:16:                   3	29.82
13:16:                  33	29.81
13:17:                   3	29.79
13:17:                  33	29.79
13:18:                   3	29.80
13:18:                  33	29.82
13:19:                   3	29.84
13:19:                  33	29.85
13:20:                   3	29.84
13:20:                  33	29.84
13:21:                   3	29.84
13:21:                  33	29.84
13:22:                   3	29.84
13:22:                  33	29.83
13:23:                   3	29.83
13:23:                  33	29.83
13:24:                   3	29.85
13:24:                  33	29.84
13:25:                   3	29.86
13:25:                  33	29.87
13:26:                   3	29.87
13:26:                  33	29.87
13:27:                   3	29.86
13:27:                  33	29.86
13:28:                   4	29.86
13:28:                  34	29.87
13:29:                   4	29.85
13:29:                  34	29.87
13:30:                   4	29.88
13:30:                  34	29.86
13:31:                   4	29.84
13:31:                  34	29.83
13:32:                   4	29.85
13:32:                  34	29.84
13:33:                   4	29.83
13:33:                  34	29.82
13:34:                   4	29.82
13:34:                  34	29.82
13:35:                   4	29.82
13:35:                  34	29.80
13:36:                   4	29.81
13:36:                  34	29.81
13:37:                   4	29.82
13:37:                  34	29.83
13:38:                   4	29.83
13:38:                  34	29.83
13:39:                   4	29.81
13:39:                  34	29.82
13:40:                   4	29.85
13:40:                  34	29.85
13:41:                   4	29.84
13:41:                  34	29.84
13:42:                   4	29.84
13:42:                  34	29.86
13:43:                   4	29.86
13:43:                  34	29.87
13:44:                   4	29.87
13:44:                  35	29.85
13:45:                   5	29.87
13:45:                  35	29.85
13:46:                   5	29.85
13:46:                  35	29.84
13:47:                   5	29.84
13:47:                  35	29.86
13:48:                   5	29.83
13:48:                  35	29.84
13:49:                   5	29.85
13:49:                  35	29.83
13:50:                   5	29.85
13:50:                  35	29.84
13:51:                   5	29.84
13:51:                  35	29.87
13:52:                   5	29.85
13:52:                  35	29.84
13:53:                   5	29.84
13:53:                  35	29.84
13:54:                   5	29.87
13:54:                  35	29.86
13:55:                   5	29.86
13:55:                  35	29.83
13:56:                   5	29.81
13:56:                  35	29.81
13:57:                   5	29.83
13:57:                  35	29.84
13:58:                   5	29.84
13:58:                  35	29.83
13:59:                   5	29.84
13:59:                  35	29.82
14:00:                   5	29.83
14:00:                  35	29.81
14:01:                   6	29.81
14:01:                  36	29.80
14:02:                   6	29.84
14:02:                  36	29.84
14:03:                   6	29.86
14:03:                  36	29.89
14:04:                   6	29.89
14:04:                  36	29.90
14:05:                   6	29.87
14:05:                  36	29.87
14:06:                   6	29.85
14:06:                  36	29.85
14:07:                   6	29.86
14:07:                  36	29.86
14:08:                   6	29.89
14:08:                  36	29.86
14:09:                   6	29.87
14:09:                  36	29.87
14:10:                   6	29.84
14:10:                  36	29.87
14:11:                   6	29.84
14:11:                  36	29.82
14:12:                   6	29.83
14:12:                  36	29.87
14:13:                   6	29.85
14:13:                  36	29.86
14:14:                   6	29.87
14:14:                  36	29.85
14:15:                   6	29.81
14:15:                  36	29.79
14:16:                   6	29.80
14:16:                  36	29.82
14:17:                   6	29.82
14:17:                  36	29.84
14:18:                   7	29.86
14:18:                  37	29.87
14:19:                   7	29.87
14:19:                  37	29.87
14:20:                   7	29.90
14:20:                  37	29.88
14:21:                   7	29.88
14:21:                  37	29.89
14:22:                   7	29.88
14:22:                  37	29.86
14:23:                   7	29.85
14:23:                  37	29.87
14:24:                   7	29.87
14:24:                  37	29.87
14:25:                   7	29.88
14:25:                  37	29.86
14:26:                   7	29.89
14:26:                  37	29.86
14:27:                   7	29.85
14:27:                  37	29.85
14:28:                   7	29.84
14:28:                  37	29.89
14:29:                   7	29.85
14:29:                  37	29.82
14:30:                   7	29.84
14:30:                  37	29.84
14:31:                   7	29.85
14:31:                  37	29.87
14:32:                   7	29.88
14:32:                  37	29.83
14:33:                   7	29.84
14:33:                  37	29.82
14:34:                   7	29.82
14:34:                  38	29.84
14:35:                   8	29.87
14:35:                  38	29.84
14:36:                   8	29.83
14:36:                  38	29.85
14:37:                   8	29.85
14:37:                  38	29.83
14:38:                   8	29.86
14:38:                  38	29.86
14:39:                   8	29.85
14:39:                  38	29.85
14:40:                   8	29.84
14:40:                  38	29.84
14:41:                   8	29.85
14:41:                  38	29.86
14:42:                   8	29.84
14:42:                  38	29.86
14:43:                   8	29.87
14:43:                  38	29.86
14:44:                   8	29.86
14:44:                  38	29.88
14:45:                   8	29.87
14:45:                  38	29.88
14:46:                   8	29.89
14:46:                  38	29.88
14:47:                   8	29.86
14:47:                  38	29.85
14:48:                   8	29.85
14:48:                  38	29.85
14:49:                   8	29.88
14:49:                  38	29.86
14:50:                   8	29.90
14:50:                  38	29.87
14:51:                   9	29.85
14:51:                  39	29.87
14:52:                   9	29.87
14:52:                  39	29.86
14:53:                   9	29.85
14:53:                  39	29.85
14:54:                   9	29.85
14:54:                  39	29.84
14:55:                   9	29.85
14:55:                  39	29.84
14:56:                   9	29.83
14:56:                  39	29.83
14:57:                   9	29.85
14:57:                  39	29.84
14:58:                   9	29.83
14:58:                  39	29.85
14:59:                   9	29.86
14:59:                  39	29.88
15:00:                   9	29.86
15:00:                  39	29.89
15:01:                   9	29.87
15:01:                  39	29.88
15:02:                   9	29.87
15:02:                  39	29.87
15:03:                   9	29.82
15:03:                  39	29.84
15:04:                   9	29.86
15:04:                  39	29.87
15:05:                   9	29.88
15:05:                  39	29.87
15:06:                   9	29.87
15:06:                  39	29.89
15:07:                   9	29.84
15:07:                  40	29.86
15:08:                  10	29.85
15:08:                  40	29.83
15:09:                  10	29.87
15:09:                  40	29.85
15:10:                  10	29.86
15:10:                  40	29.86
15:11:                  10	29.86
15:11:                  40	29.87
15:12:                  10	29.88
15:12:                  40	29.89
15:13:                  10	29.87
15:13:                  40	29.88
15:14:                  10	29.90
15:14:                  40	29.88
15:15:                  10	29.88
15:15:                  40	29.87
15:16:                  10	29.87
15:16:                  40	29.88
15:17:                  10	29.88
15:17:                  40	29.89
15:18:                  10	29.89
15:18:                  40	29.90
15:19:                  10	29.90
15:19:                  40	29.89
15:20:                  10	29.89
15:20:                  40	29.87
15:21:                  10	29.87
15:21:                  40	29.84
15:22:                  10	29.84
15:22:                  40	29.86
15:23:                  10	29.84
15:23:                  40	29.82
15:24:                  10	29.81
15:24:                  40	29.81
15:25:                  10	29.81
15:25:                  40	29.82
15:26:                  10	29.83
15:26:                  41	29.83
15:27:                  11	29.81
15:27:                  41	29.81
15:28:                  11	29.80
15:28:                  41	29.80
15:29:                  11	29.82
15:29:                  41	29.80
15:30:                  11	29.80
15:30:                  41	29.79
15:31:                  11	29.81
15:31:                  41	29.80
15:32:                  11	29.81
15:32:                  41	29.81
15:33:                  11	29.81
15:33:                  41	29.81
15:34:                  11	29.82
15:34:                  41	29.80
15:35:                  11	29.83
15:35:                  41	29.81
15:36:                  11	29.82
15:36:                  41	29.80
15:37:                  11	29.78
15:37:                  41	29.77
15:38:                  11	29.73
15:38:                  41	29.75
15:39:                  11	29.75
15:39:                  41	29.76
15:40:                  11	29.76
15:40:                  41	29.77
15:41:                  11	29.76
15:41:                  41	29.76
15:42:                  11	29.78
15:42:                  41	29.78
15:43:                  12	29.79
15:43:                  42	29.75
15:44:                  12	29.75
15:44:                  42	29.77
15:45:                  12	29.77
15:45:                  42	29.74
15:46:                  12	29.75
15:46:                  42	29.75
15:47:                  12	29.75
15:47:                  42	29.76
15:48:                  12	29.76
15:48:                  42	29.75
15:49:                  12	29.75
15:49:                  42	29.75
15:50:                  12	29.77
15:50:                  42	29.77
15:51:                  12	29.77
15:51:                  42	29.77
15:52:                  12	29.77
15:52:                  42	29.77
15:53:                  12	29.77
15:53:                  42	29.75
15:54:                  12	29.76
15:54:                  42	29.78
15:55:                  12	29.81
15:55:                  42	29.77
15:56:                  12	29.81
15:56:                  42	29.81
15:57:                  12	29.79
15:57:                  42	29.78
15:58:                  12	29.79
15:58:                  42	29.78
15:59:                  13	29.81
15:59:                  43	29.78
16:00:                  13	29.78
16:00:                  43	29.77
16:01:                  13	29.80
16:01:                  43	29.74
16:02:                  13	29.77
16:02:                  43	29.76
16:03:                  13	29.78
16:03:                  43	29.77
16:04:                  13	29.78
16:04:                  43	29.78
16:05:                  13	29.79
16:05:                  43	29.79
16:06:                  13	29.77
16:06:                  43	29.77
16:07:                  13	29.80
16:07:                  43	29.77
16:08:                  13	29.77
16:08:                  43	29.77
16:09:                  13	29.74
16:09:                  43	29.80
16:10:                  13	29.78
16:10:                  43	29.78
16:11:                  13	29.79
16:11:                  43	29.77
16:12:                  13	29.77
16:12:                  43	29.80
16:13:                  13	29.79
16:13:                  43	29.79
16:14:                  13	29.81
16:14:                  43	29.81
16:15:                  13	29.83
16:15:                  43	29.83
16:16:                  13	29.78
16:16:                  43	29.76
16:17:                  13	29.77
16:17:                  43	29.77
16:18:                  13	29.77
16:18:                  44	29.77
16:19:                  14	29.78
16:19:                  44	29.76
16:20:                  14	29.76
16:20:                  44	29.77
16:21:                  14	29.76
16:21:                  44	29.76
16:22:                  14	29.78
16:22:                  44	29.78
16:23:                  14	29.79
16:23:                  44	29.80
16:24:                  14	29.79
16:24:                  44	29.78
16:25:                  14	29.76
16:25:                  44	29.77
16:26:                  14	29.77
16:26:                  44	29.76
16:27:                  14	29.76
16:27:                  44	29.73
16:28:                  14	29.77
16:28:                  44	29.76
16:29:                  14	29.75
16:29:                  44	29.74
16:30:                  14	29.74
16:30:                  44	29.72
16:31:                  14	29.70
16:31:                  44	29.71
16:32:                  14	29.71
16:32:                  44	29.73
16:33:                  14	29.75
16:33:                  44	29.74
16:34:                  14	29.74
16:34:                  44	29.75
16:35:                  15	29.74
16:35:                  45	29.76
16:36:                  15	29.72
16:36:                  45	29.72
16:37:                  15	29.72
16:37:                  45	29.75
16:38:                  15	29.74
16:38:                  45	29.72
16:39:                  15	29.72
16:39:                  45	29.74
16:40:                  15	29.74
16:40:                  45	29.77
16:41:                  15	29.75
16:41:                  45	29.75
16:42:                  15	29.78
16:42:                  45	29.80
16:43:                  15	29.79
16:43:                  45	29.80
16:44:                  15	29.82
16:44:                  45	29.79
16:45:                  15	29.77
16:45:                  45	29.76
16:46:                  15	29.73
16:46:                  45	29.73
16:47:                  15	29.72
16:47:                  45	29.72
16:48:                  15	29.70
16:48:                  45	29.69
16:49:                  15	29.72
16:49:                  45	29.72
16:50:                  15	29.72
16:50:                  45	29.75
16:51:                  15	29.74
16:51:                  46	29.72
16:52:                  16	29.70
16:52:                  46	29.70
16:53:                  16	29.69
16:53:                  46	29.70
16:54:                  16	29.69
16:54:                  46	29.71
16:55:                  16	29.74
16:55:                  46	29.73
16:56:                  16	29.72
16:56:                  46	29.72
16:57:                  16	29.73
16:57:                  46	29.73
16:58:                  16	29.72
16:58:                  46	29.74
16:59:                  16	29.74
16:59:                  46	29.73
17:00:                  16	29.76
17:00:                  46	29.74
17:01:                  16	29.73
17:01:                  46	29.73
17:02:                  16	29.72
17:02:                  46	29.73
17:03:                  16	29.74
17:03:                  46	29.72
17:04:                  16	29.73
17:04:                  46	29.72
17:05:                  16	29.72
17:05:                  46	29.72
17:06:                  16	29.72
17:06:                  46	29.71
17:07:                  16	29.69
17:07:                  46	29.68
17:08:                  16	29.66
17:08:                  46	29.66
17:09:                  16	29.67
17:09:                  46	29.64
17:10:                  16	29.66
17:10:                  46	29.64
17:11:                  16	29.65
17:11:                  47	29.63
17:12:                  17	29.63
17:12:                  47	29.63
17:13:                  17	29.64
17:13:                  47	29.64
17:14:                  17	29.65
17:14:                  47	29.61
17:15:                  17	29.64
17:15:                  47	29.65
17:16:                  17	29.68
17:16:                  47	29.74
17:17:                  17	29.72
17:17:                  47	29.69
17:18:                  17	29.69
17:18:                  47	29.69
17:19:                  17	29.69
17:19:                  47	29.71
17:20:                  17	29.66
17:20:                  47	29.68
17:21:                  17	29.70
17:21:                  47	29.70
17:22:                  17	29.69
17:22:                  47	29.68
17:23:                  17	29.68
17:23:                  47	29.69
17:24:                  17	29.69
17:24:                  47	29.69
17:25:                  17	29.70
17:25:                  47	29.69
17:26:                  17	29.70
17:26:                  47	29.70
17:27:                  17	29.66
17:27:                  47	29.69
17:28:                  17	29.69
17:28:                  47	29.70
17:29:                  17	29.72
17:29:                  47	29.71
17:30:                  17	29.70
17:30:                  48	29.71
17:31:                  18	29.70
17:31:                  48	29.71
17:32:                  18	29.68
17:32:                  48	29.68
17:33:                  18	29.67
17:33:                  48	29.69
17:34:                  18	29.68
17:34:                  48	29.68
17:35:                  18	29.67
17:35:                  48	29.68
17:36:                  18	29.66
17:36:                  48	29.67
17:37:                  18	29.69
17:37:                  48	29.67
17:38:                  18	29.67
17:38:                  48	29.67
17:39:                  18	29.66
17:39:                  48	29.67
17:40:                  18	29.66
17:40:                  48	29.65
17:41:                  18	29.65
17:41:                  48	29.63
17:42:                  18	29.64
17:42:                  48	29.65
17:43:                  18	29.66
17:43:                  48	29.64
17:44:                  18	29.64
17:44:                  48	29.65
17:45:                  18	29.67
17:45:                  48	29.65
17:46:                  18	29.66
17:46:                  48	29.65
17:47:                  18	29.65
17:47:                  48	29.65
17:48:                  18	29.66
17:48:                  48	29.64
17:49:                  18	29.64
17:49:                  48	29.64
17:50:                  18	29.66
17:50:                  49	29.70
17:51:                  19	29.70
17:51:                  49	29.71
17:52:                  19	29.69
17:52:                  49	29.69
17:53:                  19	29.70
17:53:                  49	29.70
17:54:                  19	29.71
17:54:                  49	29.70
17:55:                  19	29.69
17:55:                  49	29.69
17:56:                  19	29.68
17:56:                  49	29.68
17:57:                  19	29.66
17:57:                  49	29.67
17:58:                  19	29.68
17:58:                  49	29.67
17:59:                  19	29.68
17:59:                  49	29.66
18:00:                  19	29.67
18:00:                  49	29.69
18:01:                  19	29.68
18:01:                  49	29.67
18:02:                  19	29.66
18:02:                  49	29.68
18:03:                  19	29.68
18:03:                  49	29.70
18:04:                  19	29.70
18:04:                  49	29.68
18:05:                  19	29.67
18:05:                  49	29.66
18:06:                  19	29.67
18:06:                  49	29.66
18:07:                  19	29.66
18:07:                  49	29.66
18:08:                  20	29.67
18:08:                  50	29.65
18:09:                  20	29.65
18:09:                  50	29.67
18:10:                  20	29.65
18:10:                  50	29.65
18:11:                  20	29.65
18:11:                  50	29.66
18:12:                  20	29.66
18:12:                  50	29.66
18:13:                  20	29.67
18:13:                  50	29.66
18:14:                  20	29.66
18:14:                  50	29.66
18:15:                  20	29.67
18:15:                  50	29.66
18:16:                  20	29.67
18:16:                  50	29.68
18:17:                  20	29.68
18:17:                  50	29.68
18:18:                  20	29.67
18:18:                  50	29.66
18:19:                  20	29.66
18:19:                  50	29.66
18:20:                  20	29.64
18:20:                  50	29.66
18:21:                  20	29.69
18:21:                  50	29.68
18:22:                  20	29.68
18:22:                  50	29.68
18:23:                  20	29.70
18:23:                  50	29.69
18:24:                  20	29.68
18:24:                  50	29.69
18:25:                  21	29.69
18:25:                  51	29.72
18:26:                  21	29.73
18:26:                  51	29.75
18:27:                  21	29.77
18:27:                  51	29.75
18:28:                  21	29.74
18:28:                  51	29.76
18:29:                  21	29.77
18:29:                  51	29.76
18:30:                  21	29.77
18:30:                  51	29.76
18:31:                  21	29.79
18:31:                  51	29.78
18:32:                  21	29.76
18:32:                  51	29.77
18:33:                  21	29.78
18:33:                  51	29.79
18:34:                  21	29.79
18:34:                  51	29.80
18:35:                  21	29.80
18:35:                  51	29.78
18:36:                  21	29.78
18:36:                  51	29.79
18:37:                  21	29.80
18:37:                  51	29.81
18:38:                  21	29.79
18:38:                  51	29.80
18:39:                  21	29.77
18:39:                  51	29.78
18:40:                  21	29.78
18:40:                  51	29.78
18:41:                  21	29.79
18:41:                  52	29.77
18:42:                  22	29.79
18:42:                  52	29.78
18:43:                  22	29.75
18:43:                  52	29.79
18:44:                  22	29.79
18:44:                  52	29.79
18:45:                  22	29.77
18:45:                  52	29.82
18:46:                  22	29.77
18:46:                  52	29.80
18:47:                  22	29.79
18:47:                  52	29.77
18:48:                  22	29.79
18:48:                  52	29.75
18:49:                  22	29.77
18:49:                  52	29.78
18:50:                  22	29.79
18:50:                  52	29.81
18:51:                  22	29.80
18:51:                  52	29.83
18:52:                  22	29.78
18:52:                  52	29.78
18:53:                  22	29.76
18:53:                  52	29.78
18:54:                  22	29.74
18:54:                  52	29.77
18:55:                  22	29.75
18:55:                  52	29.78
18:56:                  22	29.79
18:56:                  52	29.80
18:57:                  22	29.83
18:57:                  52	29.82
18:58:                  22	29.81
18:58:                  52	29.83
18:59:                  22	29.81
18:59:                  52	29.82
19:00:                  23	29.81
19:00:                  53	29.83
19:01:                  23	29.82
19:01:                  53	29.83
19:02:                  23	29.82
19:02:                  53	29.83
19:03:                  23	29.85
19:03:                  53	29.84
19:04:                  23	29.83
19:04:                  53	29.86
19:05:                  23	29.85
19:05:                  53	29.84
19:06:                  23	29.81
19:06:                  53	29.79
19:07:                  23	29.80
19:07:                  53	29.76
19:08:                  23	29.74
19:08:                  53	29.78
19:09:                  23	29.83
19:09:                  53	29.86
19:10:                  23	29.82
19:10:                  53	29.83
19:11:                  23	29.81
19:11:                  53	29.82
19:12:                  23	29.82
19:12:                  53	29.84
19:13:                  23	29.86
19:13:                  53	29.85
19:14:                  23	29.85
19:14:                  53	29.84
19:15:                  23	29.83
19:15:                  53	29.78
19:16:                  23	29.79
19:16:                  54	29.79
19:17:                  24	29.78
19:17:                  54	29.78
19:18:                  24	29.76
19:18:                  54	29.79
19:19:                  24	29.79
19:19:                  54	29.78
19:20:                  24	29.77
19:20:                  54	29.81
19:21:                  24	29.81
19:21:                  54	29.81
19:22:                  24	29.80
19:22:                  54	29.77
19:23:                  24	29.74
19:23:                  54	29.77
19:24:                  24	29.76
19:24:                  54	29.77
19:25:                  24	29.78
19:25:                  54	29.78
19:26:                  24	29.76
19:26:                  54	29.74
19:27:                  24	29.74
19:27:                  54	29.74
19:28:                  24	29.73
19:28:                  54	29.73
19:29:                  24	29.74
19:29:                  54	29.79
19:30:                  24	29.80
19:30:                  54	29.79
19:31:                  24	29.76
19:31:                  54	29.78
19:32:                  24	29.76
19:32:                  54	29.79
19:33:                  24	29.80
19:33:                  54	29.83
19:34:                  24	29.81
19:34:                  54	29.80
19:35:                  24	29.79
19:35:                  54	29.78
19:36:                  24	29.79
19:36:                  55	29.80
19:37:                  25	29.81
19:37:                  55	29.79
19:38:                  25	29.81
19:38:                  55	29.81
19:39:                  25	29.79
19:39:                  55	29.80
19:40:                  25	29.81
19:40:                  55	29.81
19:41:                  25	29.80
19:41:                  55	29.81
19:42:                  25	29.80
19:42:                  55	29.80
19:43:                  25	29.77
19:43:                  55	29.78
19:44:                  25	29.80
19:44:                  55	29.80
19:45:                  25	29.79
19:45:                  55	29.78
19:46:                  25	29.76
19:46:                  55	29.74
19:47:                  25	29.75
19:47:                  55	29.73
19:48:                  25	29.74
19:48:                  55	29.74
19:49:                  25	29.76
19:49:                  55	29.78
19:50:                  25	29.78
19:50:                  55	29.77
19:51:                  25	29.77
19:51:                  55	29.76
19:52:                  25	29.74
19:52:                  55	29.72
19:53:                  25	29.73
19:53:                  55	29.72
19:54:                  26	29.75
19:54:                  56	29.76
19:55:                  26	29.79
19:55:                  56	29.79
19:56:                  26	29.76
19:56:                  56	29.74
19:57:                  26	29.72
19:57:                  56	29.72
19:58:                  26	29.77
19:58:                  56	29.75
19:59:                  26	29.75
19:59:                  56	29.72
20:00:                  26	29.77
20:00:                  56	29.78
20:01:                  26	29.78
20:01:                  56	29.78
20:02:                  26	29.80
20:02:                  56	29.79
20:03:                  26	29.78
20:03:                  56	29.78
20:04:                  26	29.75
20:04:                  56	29.76
20:05:                  26	29.78
20:05:                  56	29.75
20:06:                  26	29.77
20:06:                  56	29.76
20:07:                  26	29.75
20:07:                  56	29.77
20:08:                  26	29.79
20:08:                  56	29.78
20:09:                  26	29.76
20:09:                  56	29.76
20:10:                  26	29.75
20:10:                  56	29.75
20:11:                  26	29.76
20:11:                  56	29.81
20:12:                  26	29.82
20:12:                  56	29.83
20:13:                  26	29.81
20:13:                  56	29.83
20:14:                  26	29.79
20:14:                  56	29.80
20:15:                  26	29.82
20:15:                  56	29.80
20:16:                  27	29.80
20:16:                  57	29.80
20:17:                  27	29.77
20:17:                  57	29.78
20:18:                  27	29.80
20:18:                  57	29.79
20:19:                  27	29.78
20:19:                  57	29.77
20:20:                  27	29.77
20:20:                  57	29.77
20:21:                  27	29.78
20:21:                  57	29.77
20:22:                  27	29.77
20:22:                  57	29.78
20:23:                  27	29.78
20:23:                  57	29.81
20:24:                  27	29.79
20:24:                  57	29.79
20:25:                  27	29.79
20:25:                  57	29.80
20:26:                  27	29.81
20:26:                  57	29.81
20:27:                  27	29.79
20:27:                  57	29.79
20:28:                  27	29.81
20:28:                  57	29.80
20:29:                  27	29.83
20:29:                  57	29.83
20:30:                  27	29.81
20:30:                  57	29.79
20:31:                  27	29.78
20:31:                  57	29.80
20:32:                  27	29.85
20:32:                  58	29.84
20:33:                  28	29.83
20:33:                  58	29.85
20:34:                  28	29.86
20:34:                  58	29.81
20:35:                  28	29.84
20:35:                  58	29.85
20:36:                  28	29.83
20:36:                  58	29.82
20:37:                  28	29.79
20:37:                  58	29.82
20:38:                  28	29.80
20:38:                  58	29.81
20:39:                  28	29.83
20:39:                  58	29.83
20:40:                  28	29.82
20:40:                  58	29.82
20:41:                  28	29.83
20:41:                  58	29.81
20:42:                  28	29.82
20:42:                  58	29.81
20:43:                  28	29.84
20:43:                  58	29.85
20:44:                  28	29.89
20:44:                  58	29.86
20:45:                  28	29.87
20:45:                  58	29.85
20:46:                  28	29.86
20:46:                  58	29.86
20:47:                  28	29.88
20:47:                  58	29.87
20:48:                  28	29.86
20:48:                  58	29.84
20:49:                  29	29.83
20:49:                  59	29.82
20:50:                  29	29.79
20:50:                  59	29.80
20:51:                  29	29.79
20:51:                  59	29.78
20:52:                  29	29.80
20:52:                  59	29.80
20:53:                  29	29.80
20:53:                  59	29.79
20:54:                  29	29.82
20:54:                  59	29.82
20:55:                  29	29.82
20:55:                  59	29.81
20:56:                  29	29.83
20:56:                  59	29.83
20:57:                  29	29.83
20:57:                  59	29.82
20:58:                  29	29.81
20:58:                  59	29.83
20:59:                  29	29.85
20:59:                  59	29.84
21:00:                  29	29.83
21:00:                  59	29.84
21:01:                  29	29.85
21:01:                  59	29.83
21:02:                  29	29.80
21:02:                  59	29.82
21:03:                  29	29.84
21:03:                  59	29.84
21:04:                  29	29.82
21:04:                  59	29.85
21:05:                  29	29.85
21:05:                  59	29.83
21:06:                  29	29.84
21:07:                   0	29.82
21:07:                  30	29.83
21:08:                   0	29.84
21:08:                  30	29.85
21:09:                   0	29.84
21:09:                  30	29.83
21:10:                   0	29.84
21:10:                  30	29.83
21:11:                   0	29.81
21:11:                  30	29.81
21:12:                   0	29.81
21:12:                  30	29.82
21:13:                   0	29.83
21:13:                  30	29.83
21:14:                   0	29.82
21:14:                  30	29.81
21:15:                   0	29.82
21:15:                  30	29.80
21:16:                   0	29.83
21:16:                  30	29.83
21:17:                   0	29.79
21:17:                  30	29.83
21:18:                   0	29.83
21:18:                  30	29.83
21:19:                   0	29.82
21:19:                  30	29.85
21:20:                   0	29.86
21:20:                  30	29.83
21:21:                   0	29.87
21:21:                  30	29.87
21:22:                   0	29.83
21:22:                  30	29.85
21:23:                   0	29.84
21:23:                  30	29.83
21:24:                   0	29.81
21:24:                  30	29.82
21:25:                   0	29.80
21:25:                  30	29.82
21:26:                   0	29.81
21:26:                  31	29.84
21:27:                   1	29.84
21:27:                  31	29.84
21:28:                   1	29.82
21:28:                  31	29.81
21:29:                   1	29.82
21:29:                  31	29.84
21:30:                   1	29.86
21:30:                  31	29.83
21:31:                   1	29.84
21:31:                  31	29.83
21:32:                   1	29.85
21:32:                  31	29.85
21:33:                   1	29.87
21:33:                  31	29.87
21:34:                   1	29.85
21:34:                  31	29.83
21:35:                   1	29.84
21:35:                  31	29.84
21:36:                   1	29.86
21:36:                  31	29.85
21:37:                   1	29.89
21:37:                  31	29.90
21:38:                   1	29.87
21:38:                  31	29.85
21:39:                   1	29.88
21:39:                  31	29.88
21:40:                   1	29.86
21:40:                  31	29.83
21:41:                   1	29.87
21:41:                  31	29.87
21:42:                   1	29.85
21:42:                  31	29.83
21:43:                   1	29.83
21:43:                  31	29.82
21:44:                   1	29.84
21:44:                  31	29.86
21:45:                   1	29.84
21:45:                  32	29.84
21:46:                   2	29.82
21:46:                  32	29.82
21:47:                   2	29.85
21:47:                  32	29.84
21:48:                   2	29.81
21:48:                  32	29.80
21:49:                   2	29.80
21:49:                  32	29.79
21:50:                   2	29.80
21:50:                  32	29.81
21:51:                   2	29.80
21:51:                  32	29.81
21:52:                   2	29.79
21:52:                  32	29.80
21:53:                   2	29.80
21:53:                  32	29.81
21:54:                   2	29.82
21:54:                  32	29.83
21:55:                   2	29.84
21:55:                  32	29.85
21:56:                   2	29.84
21:56:                  32	29.83
21:57:                   2	29.82
21:57:                  32	29.81
21:58:                   2	29.79
21:58:                  32	29.79
21:59:                   2	29.82
21:59:                  32	29.82
22:00:                   2	29.79
22:00:                  32	29.82
22:01:                   2	29.85
22:01:                  33	29.84
22:02:                   3	29.84
22:02:                  33	29.82
22:03:                   3	29.83
22:03:                  33	29.81
22:04:                   3	29.80
22:04:                  33	29.82
22:05:                   3	29.81
22:05:                  33	29.81
22:06:                   3	29.83
22:06:                  33	29.86
22:07:                   3	29.86
22:07:                  33	29.85
22:08:                   3	29.85
22:08:                  33	29.83
22:09:                   3	29.84
22:09:                  33	29.82
22:10:                   3	29.81
22:10:                  33	29.81
22:11:                   3	29.83
22:11:                  33	29.84
22:12:                   3	29.86
22:12:                  33	29.85
22:13:                   3	29.84
22:13:                  33	29.83
22:14:                   3	29.83
22:14:                  33	29.82
22:15:                   3	29.79
22:15:                  33	29.79
22:16:                   3	29.81
22:16:                  33	29.84
22:17:                   3	29.84
22:17:                  33	29.81
22:18:                   3	29.80
22:18:                  33	29.81
22:19:                   3	29.81
22:19:                  34	29.84
22:20:                   4	29.83
22:20:                  34	29.84
22:21:                   4	29.86
22:21:                  34	29.85
22:22:                   4	29.84
22:22:                  34	29.84
22:23:                   4	29.84
22:23:                  34	29.82
22:24:                   4	29.81
22:24:                  34	29.80
22:25:                   4	29.85
22:25:                  34	29.85
22:26:                   4	29.84
22:26:                  34	29.83
22:27:                   4	29.82
22:27:                  34	29.83
22:28:                   4	29.82
22:28:                  34	29.81
22:29:                   4	29.80
22:29:                  34	29.83
22:30:                   4	29.86
22:30:                  34	29.84
22:31:                   4	29.85
22:31:                  34	29.83
22:32:                   4	29.83
22:32:                  34	29.82
22:33:                   4	29.81
22:33:                  34	29.81
22:34:                   4	29.81
22:34:                  34	29.82
22:35:                   4	29.82
22:35:                  34	29.81
22:36:                   4	29.83
22:36:                  35	29.82
22:37:                   5	29.82
22:37:                  35	29.79
22:38:                   5	29.79
22:38:                  35	29.80
22:39:                   5	29.80
22:39:                  35	29.81
22:40:                   5	29.84
22:40:                  35	29.84
22:41:                   5	29.84
22:41:                  35	29.83
22:42:                   5	29.83
22:42:                  35	29.83
22:43:                   5	29.82
22:43:                  35	29.82
22:44:                   5	29.83
22:44:                  35	29.83
22:45:                   5	29.85
22:45:                  35	29.86
22:46:                   5	29.84
22:46:                  35	29.84
22:47:                   5	29.81
22:47:                  35	29.82
22:48:                   5	29.83
22:48:                  35	29.83
22:49:                   5	29.82
22:49:                  35	29.83
22:50:                   5	29.81
22:50:                  35	29.82
22:51:                   5	29.82
22:51:                  35	29.81
22:52:                   5	29.82
22:52:                  35	29.82
22:53:                   5	29.83
22:53:                  35	29.85
22:54:                   5	29.85
22:54:                  36	29.84
22:55:                   6	29.83
22:55:                  36	29.84
22:56:                   6	29.85
22:56:                  36	29.86
22:57:                   6	29.86
22:57:                  36	29.86
22:58:                   6	29.87
22:58:                  36	29.86
22:59:                   6	29.85
22:59:                  36	29.83
23:00:                   6	29.83
23:00:                  36	29.83
23:01:                   6	29.83
23:01:                  36	29.82
23:02:                   6	29.82
23:02:                  36	29.81
23:03:                   6	29.82
23:03:                  36	29.82
23:04:                   6	29.82
23:04:                  36	29.84
23:05:                   6	29.85
23:05:                  36	29.84
23:06:                   6	29.84
23:06:                  36	29.84
23:07:                   6	29.83
23:07:                  36	29.84
23:08:                   6	29.84
23:08:                  36	29.83
23:09:                   6	29.82
23:09:                  36	29.82
23:10:                   6	29.83
23:10:                  36	29.86
23:11:                   6	29.82
23:11:                  36	29.83
23:12:                   6	29.84
23:12:                  36	29.82
23:13:                   6	29.84
23:13:                  37	29.85
23:14:                   7	29.83
23:14:                  37	29.81
23:15:                   7	29.81
23:15:                  37	29.79
23:16:                   7	29.78
23:16:                  37	29.79
23:17:                   7	29.78
23:17:                  37	29.77
23:18:                   7	29.77
23:18:                  37	29.78
23:19:                   7	29.79
23:19:                  37	29.77
23:20:                   7	29.81
23:20:                  37	29.82
23:21:                   7	29.85
23:21:                  37	29.85
23:22:                   7	29.84
23:22:                  37	29.82
23:23:                   7	29.82
23:23:                  37	29.82
23:24:                   7	29.82
23:24:                  37	29.81
23:25:                   7	29.80
23:25:                  37	29.80
23:26:                   7	29.80
23:26:                  37	29.80
23:27:                   7	29.80
23:27:                  37	29.81
23:28:                   7	29.81
23:28:                  37	29.78
23:29:                   7	29.80
23:29:                  37	29.81
23:30:                   7	29.80
23:30:                  37	29.80
23:31:                   7	29.80
23:31:                  37	29.79
23:32:                   7	29.81
23:32:                  37	29.82
23:33:                   8	29.83
23:33:                  38	29.80
23:34:                   8	29.79
23:34:                  38	29.77
23:35:                   8	29.76
23:35:                  38	29.77
23:36:                   8	29.78
23:36:                  38	29.78
23:37:                   8	29.78
23:37:                  38	29.76
23:38:                   8	29.76
23:38:                  38	29.77
23:39:                   8	29.77
23:39:                  38	29.76
23:40:                   8	29.76
23:40:                  38	29.75
23:41:                   8	29.75
23:41:                  38	29.78
23:42:                   8	29.79
23:42:                  38	29.79
23:43:                   8	29.78
23:43:                  38	29.78
23:44:                   8	29.78
23:44:                  38	29.78
23:45:                   8	29.79
23:45:                  38	29.78
23:46:                   8	29.77
23:46:                  38	29.78
23:47:                   8	29.78
23:47:                  38	29.79
23:48:                   8	29.78
23:48:                  38	29.78
23:49:                   8	29.80
23:49:                  39	29.79
23:50:                   9	29.78
23:50:                  39	29.80
23:51:                   9	29.81
23:51:                  39	29.80
23:52:                   9	29.83
23:52:                  39	29.83
23:53:                   9	29.82
23:53:                  39	29.80
23:54:                   9	29.78
23:54:                  39	29.77
23:55:                   9	29.78
23:55:                  39	29.77
23:56:                   9	29.78
23:56:                  39	29.80
23:57:                   9	29.80
23:57:                  39	29.80
23:58:                   9	29.79
23:58:                  39	29.80
23:59:                   9	29.80
23:59:                  39	29.81
