0:00:                  19	30.69
0:00:                  49	30.68
0:01:                  19	30.69
0:01:                  49	30.70
0:02:                  19	30.69
0:02:                  49	30.69
0:03:                  19	30.70
0:03:                  49	30.71
0:04:                  19	30.71
0:04:                  49	30.70
0:05:                  19	30.69
0:05:                  49	30.68
0:06:                  19	30.68
0:06:                  50	30.67
0:07:                  20	30.67
0:07:                  50	30.66
0:08:                  20	30.67
0:08:                  50	30.66
0:09:                  20	30.65
0:09:                  50	30.66
0:10:                  20	30.66
0:10:                  50	30.65
0:11:                  20	30.65
0:11:                  50	30.67
0:12:                  20	30.67
0:12:                  50	30.67
0:13:                  20	30.68
0:13:                  50	30.71
0:14:                  20	30.69
0:14:                  50	30.67
0:15:                  20	30.67
0:15:                  50	30.69
0:16:                  20	30.68
0:16:                  50	30.67
0:17:                  20	30.66
0:17:                  50	30.66
0:18:                  20	30.69
0:18:                  50	30.69
0:19:                  20	30.69
0:19:                  50	30.70
0:20:                  20	30.71
0:20:                  50	30.72
0:21:                  20	30.73
0:21:                  50	30.72
0:22:                  20	30.71
0:22:                  50	30.70
0:23:                  21	30.71
0:23:                  51	30.70
0:24:                  21	30.71
0:24:                  51	30.72
0:25:                  21	30.72
0:25:                  51	30.70
0:26:                  21	30.70
0:26:                  51	30.69
0:27:                  21	30.71
0:27:                  51	30.71
0:28:                  21	30.71
0:28:                  51	30.70
0:29:                  21	30.69
0:29:                  51	30.70
0:30:                  21	30.70
0:30:                  51	30.71
0:31:                  21	30.73
0:31:                  51	30.73
0:32:                  21	30.73
0:32:                  51	30.73
0:33:                  21	30.72
0:33:                  51	30.72
0:34:                  21	30.71
0:34:                  51	30.70
0:35:                  21	30.71
0:35:                  51	30.72
0:36:                  21	30.72
0:36:                  51	30.73
0:37:                  21	30.73
0:37:                  51	30.72
0:38:                  21	30.73
0:38:                  51	30.72
0:39:                  21	30.72
0:39:                  52	30.73
0:40:                  22	30.74
0:40:                  52	30.73
0:41:                  22	30.71
0:41:                  52	30.71
0:42:                  22	30.72
0:42:                  52	30.72
0:43:                  22	30.73
0:43:                  52	30.74
0:44:                  22	30.73
0:44:                  52	30.74
0:45:                  22	30.74
0:45:                  52	30.75
0:46:                  22	30.74
0:46:                  52	30.73
0:47:                  22	30.73
0:47:                  52	30.72
0:48:                  22	30.73
0:48:                  52	30.72
0:49:                  22	30.73
0:49:                  52	30.73
0:50:                  22	30.73
0:50:                  52	30.72
0:51:                  22	30.72
0:51:                  52	30.73
0:52:                  22	30.71
0:52:                  52	30.73
0:53:                  22	30.71
0:53:                  52	30.72
0:54:                  22	30.71
0:54:                  52	30.73
0:55:                  22	30.73
0:55:                  52	30.72
0:56:                  22	30.72
0:56:                  52	30.73
0:57:                  22	30.71
0:57:                  52	30.73
0:58:                  22	30.71
0:58:                  52	30.70
0:59:                  22	30.70
0:59:                  52	30.69
1:00:                  22	30.71
1:00:                  52	30.70
1:01:                  22	30.71
1:01:                  53	30.71
1:02:                  23	30.71
1:02:                  53	30.69
1:03:                  23	30.70
1:03:                  53	30.69
1:04:                  23	30.69
1:04:                  53	30.70
1:05:                  23	30.71
1:05:                  53	30.71
1:06:                  23	30.71
1:06:                  53	30.72
1:07:                  23	30.71
1:07:                  53	30.71
1:08:                  23	30.71
1:08:                  53	30.70
1:09:                  23	30.71
1:09:                  53	30.69
1:10:                  23	30.69
1:10:                  53	30.69
1:11:                  23	30.69
1:11:                  53	30.68
1:12:                  23	30.68
1:12:                  53	30.68
1:13:                  23	30.68
1:13:                  53	30.69
1:14:                  23	30.69
1:14:                  53	30.70
1:15:                  23	30.70
1:15:                  53	30.71
1:16:                  23	30.71
1:16:                  53	30.71
1:17:                  23	30.71
1:17:                  53	30.71
1:18:                  23	30.72
1:18:                  53	30.71
1:19:                  23	30.70
1:19:                  53	30.70
1:20:                  23	30.69
1:20:                  53	30.70
1:21:                  23	30.70
1:21:                  53	30.69
1:22:                  24	30.69
1:22:                  54	30.71
1:23:                  24	30.70
1:23:                  54	30.71
1:24:                  24	30.70
1:24:                  54	30.69
1:25:                  24	30.68
1:25:                  54	30.69
1:26:                  24	30.71
1:26:                  54	30.71
1:27:                  24	30.69
1:27:                  54	30.69
1:28:                  24	30.68
1:28:                  54	30.69
1:29:                  24	30.68
1:29:                  54	30.68
1:30:                  24	30.69
1:30:                  54	30.69
1:31:                  24	30.69
1:31:                  54	30.70
1:32:                  24	30.69
1:32:                  54	30.69
1:33:                  24	30.69
1:33:                  54	30.68
1:34:                  24	30.68
1:34:                  54	30.68
1:35:                  24	30.68
1:35:                  54	30.67
1:36:                  24	30.67
1:36:                  54	30.66
1:37:                  24	30.66
1:37:                  54	30.67
1:38:                  24	30.66
1:38:                  54	30.66
1:39:                  24	30.65
1:39:                  54	30.65
1:40:                  24	30.65
1:40:                  54	30.65
1:41:                  24	30.66
1:41:                  54	30.66
1:42:                  25	30.64
1:42:                  55	30.65
1:43:                  25	30.64
1:43:                  55	30.64
1:44:                  25	30.65
1:44:                  55	30.66
1:45:                  25	30.66
1:45:                  55	30.67
1:46:                  25	30.66
1:46:                  55	30.67
1:47:                  25	30.66
1:47:                  55	30.68
1:48:                  25	30.68
1:48:                  55	30.67
1:49:                  25	30.67
1:49:                  55	30.67
1:50:                  25	30.67
1:50:                  55	30.67
1:51:                  25	30.66
1:51:                  55	30.66
1:52:                  25	30.65
1:52:                  55	30.65
1:53:                  25	30.65
1:53:                  55	30.64
1:54:                  25	30.64
1:54:                  55	30.64
1:55:                  25	30.64
1:55:                  55	30.64
1:56:                  25	30.64
1:56:                  55	30.64
1:57:                  25	30.65
1:57:                  55	30.66
1:58:                  25	30.69
1:58:                  56	30.69
1:59:                  26	30.68
1:59:                  56	30.69
2:00:                  26	30.68
2:00:                  56	30.68
2:01:                  26	30.68
2:01:                  56	30.69
2:02:                  26	30.69
2:02:                  56	30.69
2:03:                  26	30.68
2:03:                  56	30.67
2:04:                  26	30.68
2:04:                  56	30.67
2:05:                  26	30.66
2:05:                  56	30.66
2:06:                  26	30.67
2:06:                  56	30.67
2:07:                  26	30.66
2:07:                  56	30.66
2:08:                  26	30.66
2:08:                  56	30.67
2:09:                  26	30.67
2:09:                  56	30.67
2:10:                  26	30.68
2:10:                  56	30.68
2:11:                  26	30.69
2:11:                  56	30.67
2:12:                  26	30.69
2:12:                  56	30.67
2:13:                  26	30.69
2:13:                  56	30.69
2:14:                  26	30.70
2:14:                  56	30.69
2:15:                  26	30.71
2:15:                  56	30.71
2:16:                  26	30.71
2:16:                  56	30.69
2:17:                  26	30.70
2:17:                  56	30.70
2:18:                  26	30.70
2:18:                  56	30.71
2:19:                  26	30.71
2:19:                  56	30.71
2:20:                  27	30.71
2:20:                  57	30.73
2:21:                  27	30.71
2:21:                  57	30.72
2:22:                  27	30.72
2:22:                  57	30.73
2:23:                  27	30.71
2:23:                  57	30.73
2:24:                  27	30.73
2:24:                  57	30.71
2:25:                  27	30.70
2:25:                  57	30.70
2:26:                  27	30.71
2:26:                  57	30.71
2:27:                  27	30.70
2:27:                  57	30.70
2:28:                  27	30.70
2:28:                  57	30.70
2:29:                  27	30.70
2:29:                  57	30.71
2:30:                  27	30.72
2:30:                  57	30.72
2:31:                  27	30.71
2:31:                  57	30.71
2:32:                  27	30.71
2:32:                  57	30.71
2:33:                  27	30.71
2:33:                  57	30.68
2:34:                  27	30.69
2:34:                  57	30.70
2:35:                  27	30.71
2:35:                  57	30.71
2:36:                  27	30.73
2:36:                  57	30.72
2:37:                  27	30.71
2:37:                  57	30.70
2:38:                  27	30.72
2:38:                  57	30.72
2:39:                  27	30.72
2:39:                  57	30.72
2:40:                  27	30.71
2:40:                  57	30.71
2:41:                  27	30.72
2:41:                  58	30.72
2:42:                  28	30.74
2:42:                  58	30.73
2:43:                  28	30.72
2:43:                  58	30.71
2:44:                  28	30.71
2:44:                  58	30.71
2:45:                  28	30.72
2:45:                  58	30.70
2:46:                  28	30.71
2:46:                  58	30.71
2:47:                  28	30.72
2:47:                  58	30.72
2:48:                  28	30.71
2:48:                  58	30.71
2:49:                  28	30.72
2:49:                  58	30.73
2:50:                  28	30.71
2:50:                  58	30.74
2:51:                  28	30.73
2:51:                  58	30.73
2:52:                  28	30.74
2:52:                  58	30.73
2:53:                  28	30.74
2:53:                  58	30.73
2:54:                  28	30.72
2:54:                  58	30.73
2:55:                  28	30.72
2:55:                  58	30.72
2:56:                  28	30.73
2:56:                  58	30.75
2:57:                  28	30.75
2:57:                  58	30.73
2:58:                  29	30.73
2:58:                  59	30.73
2:59:                  29	30.71
2:59:                  59	30.69
3:00:                  29	30.70
3:00:                  59	30.70
3:01:                  29	30.69
3:01:                  59	30.67
3:02:                  29	30.68
3:02:                  59	30.68
3:03:                  29	30.69
3:03:                  59	30.68
3:04:                  29	30.68
3:04:                  59	30.68
3:05:                  29	30.68
3:05:                  59	30.69
3:06:                  29	30.69
3:06:                  59	30.66
3:07:                  29	30.66
3:07:                  59	30.65
3:08:                  29	30.66
3:08:                  59	30.66
3:09:                  29	30.66
3:09:                  59	30.66
3:10:                  29	30.66
3:10:                  59	30.64
3:11:                  29	30.65
3:11:                  59	30.63
3:12:                  29	30.64
3:12:                  59	30.63
3:13:                  29	30.64
3:13:                  59	30.63
3:14:                  29	30.62
3:14:                  59	30.62
3:15:                  29	30.63
3:15:                  59	30.62
3:16:                  29	30.62
3:16:                  59	30.64
3:17:                  29	30.64
3:17:                  59	30.65
3:18:                  30	30.64
3:19:                   0	30.63
3:19:                  30	30.62
3:20:                   0	30.63
3:20:                  30	30.62
3:21:                   0	30.63
3:21:                  30	30.63
3:22:                   0	30.63
3:22:                  30	30.66
3:23:                   0	30.66
3:23:                  30	30.64
3:24:                   0	30.65
3:24:                  30	30.65
3:25:                   0	30.66
3:25:                  30	30.67
3:26:                   0	30.69
3:26:                  30	30.68
3:27:                   0	30.68
3:27:                  30	30.67
3:28:                   0	30.69
3:28:                  30	30.67
3:29:                   0	30.68
3:29:                  30	30.67
3:30:                   0	30.66
3:30:                  30	30.64
3:31:                   0	30.66
3:31:                  30	30.66
3:32:                   0	30.63
3:32:                  30	30.64
3:33:                   0	30.61
3:33:                  30	30.61
3:34:                   0	30.60
3:34:                  30	30.62
3:35:                   0	30.62
3:35:                  30	30.61
3:36:                   0	30.62
3:36:                  30	30.63
3:37:                   0	30.61
3:37:                  30	30.62
3:38:                   0	30.64
3:38:                  30	30.62
3:39:                   0	30.61
3:39:                  30	30.62
3:40:                   0	30.63
3:40:                  30	30.64
3:41:                   1	30.65
3:41:                  31	30.65
3:42:                   1	30.65
3:42:                  31	30.66
3:43:                   1	30.66
3:43:                  31	30.67
3:44:                   1	30.67
3:44:                  31	30.65
3:45:                   1	30.65
3:45:                  31	30.63
3:46:                   1	30.61
3:46:                  31	30.59
3:47:                   1	30.60
3:47:                  31	30.60
3:48:                   1	30.61
3:48:                  31	30.61
3:49:                   1	30.62
3:49:                  31	30.61
3:50:                   1	30.59
3:50:                  31	30.61
3:51:                   1	30.61
3:51:                  31	30.60
3:52:                   1	30.60
3:52:                  31	30.59
3:53:                   1	30.57
3:53:                  31	30.59
3:54:                   1	30.59
3:54:                  31	30.60
3:55:                   1	30.62
3:55:                  31	30.62
3:56:                   1	30.63
3:56:                  31	30.61
3:57:                   1	30.62
3:57:                  31	30.62
3:58:                   1	30.62
3:58:                  31	30.61
3:59:                   1	30.61
3:59:                  31	30.61
4:00:                   1	30.63
4:00:                  31	30.63
4:01:                   2	30.64
4:01:                  32	30.66
4:02:                   2	30.67
4:02:                  32	30.68
4:03:                   2	30.68
4:03:                  32	30.66
4:04:                   2	30.68
4:04:                  32	30.67
4:05:                   2	30.68
4:05:                  32	30.68
4:06:                   2	30.68
4:06:                  32	30.68
4:07:                   2	30.67
4:07:                  32	30.68
4:08:                   2	30.67
4:08:                  32	30.67
4:09:                   2	30.67
4:09:                  32	30.67
4:10:                   2	30.68
4:10:                  32	30.67
4:11:                   2	30.68
4:11:                  32	30.66
4:12:                   2	30.66
4:12:                  32	30.64
4:13:                   2	30.66
4:13:                  32	30.66
4:14:                   2	30.65
4:14:                  32	30.64
4:15:                   2	30.63
4:15:                  32	30.63
4:16:                   2	30.62
4:16:                  32	30.64
4:17:                   2	30.64
4:17:                  32	30.64
4:18:                   2	30.63
4:18:                  32	30.63
4:19:                   2	30.63
4:19:                  32	30.64
4:20:                   2	30.67
4:20:                  32	30.65
4:21:                   2	30.67
4:21:                  32	30.66
4:22:                   3	30.66
4:22:                  33	30.66
4:23:                   3	30.65
4:23:                  33	30.65
4:24:                   3	30.64
4:24:                  33	30.64
4:25:                   3	30.64
4:25:                  33	30.65
4:26:                   3	30.64
4:26:                  33	30.65
4:27:                   3	30.64
4:27:                  33	30.63
4:28:                   3	30.62
4:28:                  33	30.61
4:29:                   3	30.62
4:29:                  33	30.60
4:30:                   3	30.60
4:30:                  33	30.60
4:31:                   3	30.58
4:31:                  33	30.56
4:32:                   3	30.58
4:32:                  33	30.58
4:33:                   3	30.59
4:33:                  33	30.60
4:34:                   3	30.60
4:34:                  33	30.61
4:35:                   3	30.59
4:35:                  33	30.58
4:36:                   3	30.58
4:36:                  33	30.57
4:37:                   3	30.57
4:37:                  33	30.56
4:38:                   3	30.57
4:38:                  33	30.57
4:39:                   3	30.57
4:39:                  33	30.57
4:40:                   3	30.57
4:40:                  33	30.56
4:41:                   3	30.54
4:41:                  33	30.53
4:42:                   3	30.54
4:42:                  33	30.57
4:43:                   3	30.56
4:43:                  33	30.57
4:44:                   3	30.56
4:44:                  33	30.57
4:45:                   3	30.57
4:45:                  33	30.58
4:46:                   3	30.59
4:46:                  33	30.59
4:47:                   4	30.59
4:47:                  34	30.58
4:48:                   4	30.60
4:48:                  34	30.59
4:49:                   4	30.58
4:49:                  34	30.58
4:50:                   4	30.59
4:50:                  34	30.58
4:51:                   4	30.59
4:51:                  34	30.58
4:52:                   4	30.58
4:52:                  34	30.56
4:53:                   4	30.56
4:53:                  34	30.57
4:54:                   4	30.54
4:54:                  34	30.54
4:55:                   4	30.54
4:55:                  34	30.53
4:56:                   4	30.53
4:56:                  34	30.53
4:57:                   4	30.51
4:57:                  34	30.53
4:58:                   4	30.54
4:58:                  34	30.52
4:59:                   4	30.50
4:59:                  34	30.50
5:00:                   4	30.50
5:00:                  34	30.50
5:01:                   4	30.50
5:01:                  34	30.50
5:02:                   4	30.51
5:02:                  34	30.50
5:03:                   4	30.50
5:03:                  34	30.49
5:04:                   4	30.49
5:04:                  34	30.48
5:05:                   4	30.49
5:05:                  34	30.48
5:06:                   4	30.49
5:06:                  35	30.48
5:07:                   5	30.50
5:07:                  35	30.48
5:08:                   5	30.46
5:08:                  35	30.48
5:09:                   5	30.46
5:09:                  35	30.46
5:10:                   5	30.48
5:10:                  35	30.47
5:11:                   5	30.47
5:11:                  35	30.47
5:12:                   5	30.47
5:12:                  35	30.46
5:13:                   5	30.47
5:13:                  35	30.47
5:14:                   5	30.46
5:14:                  35	30.47
5:15:                   5	30.47
5:15:                  35	30.47
5:16:                   5	30.48
5:16:                  35	30.48
5:17:                   5	30.47
5:17:                  35	30.49
5:18:                   5	30.49
5:18:                  35	30.49
5:19:                   5	30.48
5:19:                  35	30.50
5:20:                   5	30.48
5:20:                  35	30.47
5:21:                   5	30.47
5:21:                  35	30.48
5:22:                   5	30.49
5:22:                  35	30.48
5:23:                   5	30.46
5:23:                  35	30.46
5:24:                   5	30.46
5:24:                  35	30.45
5:25:                   5	30.43
5:25:                  36	30.44
5:26:                   6	30.42
5:26:                  36	30.45
5:27:                   6	30.45
5:27:                  36	30.46
5:28:                   6	30.45
5:28:                  36	30.45
5:29:                   6	30.44
5:29:                  36	30.43
5:30:                   6	30.43
5:30:                  36	30.42
5:31:                   6	30.42
5:31:                  36	30.42
5:32:                   6	30.44
5:32:                  36	30.45
5:33:                   6	30.44
5:33:                  36	30.44
5:34:                   6	30.41
5:34:                  36	30.40
5:35:                   6	30.40
5:35:                  36	30.40
5:36:                   6	30.39
5:36:                  36	30.39
5:37:                   6	30.36
5:37:                  36	30.36
5:38:                   6	30.37
5:38:                  36	30.39
5:39:                   6	30.39
5:39:                  36	30.37
5:40:                   6	30.38
5:40:                  36	30.39
5:41:                   6	30.39
5:41:                  36	30.37
5:42:                   6	30.38
5:42:                  36	30.37
5:43:                   6	30.36
5:43:                  36	30.36
5:44:                   6	30.37
5:44:                  36	30.36
5:45:                   6	30.35
5:45:                  36	30.36
5:46:                   6	30.36
5:46:                  36	30.37
5:47:                   7	30.37
5:47:                  37	30.39
5:48:                   7	30.37
5:48:                  37	30.37
5:49:                   7	30.37
5:49:                  37	30.37
5:50:                   7	30.36
5:50:                  37	30.36
5:51:                   7	30.38
5:51:                  37	30.38
5:52:                   7	30.37
5:52:                  37	30.36
5:53:                   7	30.37
5:53:                  37	30.36
5:54:                   7	30.37
5:54:                  37	30.37
5:55:                   7	30.38
5:55:                  37	30.38
5:56:                   7	30.37
5:56:                  37	30.41
5:57:                   7	30.41
5:57:                  37	30.39
5:58:                   7	30.42
5:58:                  37	30.41
5:59:                   7	30.41
5:59:                  37	30.43
6:00:                   7	30.43
6:00:                  37	30.42
6:01:                   7	30.43
6:01:                  37	30.42
6:02:                   7	30.42
6:02:                  37	30.42
6:03:                   7	30.42
6:03:                  37	30.43
6:04:                   7	30.43
6:04:                  37	30.43
6:05:                   7	30.43
6:05:                  37	30.43
6:06:                   7	30.43
6:06:                  37	30.43
6:07:                   7	30.44
6:07:                  37	30.44
6:08:                   7	30.47
6:08:                  37	30.44
6:09:                   7	30.46
6:09:                  38	30.45
6:10:                   8	30.46
6:10:                  38	30.44
6:11:                   8	30.43
6:11:                  38	30.43
6:12:                   8	30.42
6:12:                  38	30.42
6:13:                   8	30.40
6:13:                  38	30.42
6:14:                   8	30.42
6:14:                  38	30.42
6:15:                   8	30.41
6:15:                  38	30.41
6:16:                   8	30.39
6:16:                  38	30.37
6:17:                   8	30.38
6:17:                  38	30.37
6:18:                   8	30.38
6:18:                  38	30.40
6:19:                   8	30.41
6:19:                  38	30.40
6:20:                   8	30.43
6:20:                  38	30.42
6:21:                   8	30.42
6:21:                  38	30.42
6:22:                   8	30.45
6:22:                  38	30.43
6:23:                   8	30.44
6:23:                  38	30.44
6:24:                   8	30.44
6:24:                  38	30.46
6:25:                   8	30.47
6:25:                  38	30.47
6:26:                   8	30.47
6:26:                  38	30.46
6:27:                   8	30.46
6:27:                  38	30.44
6:28:                   9	30.43
6:28:                  39	30.41
6:29:                   9	30.42
6:29:                  39	30.41
6:30:                   9	30.40
6:30:                  39	30.41
6:31:                   9	30.39
6:31:                  39	30.39
6:32:                   9	30.41
6:32:                  39	30.41
6:33:                   9	30.41
6:33:                  39	30.42
6:34:                   9	30.40
6:34:                  39	30.41
6:35:                   9	30.41
6:35:                  39	30.40
6:36:                   9	30.40
6:36:                  39	30.39
6:37:                   9	30.39
6:37:                  39	30.41
6:38:                   9	30.40
6:38:                  39	30.42
6:39:                   9	30.41
6:39:                  39	30.40
6:40:                   9	30.40
6:40:                  39	30.40
6:41:                   9	30.40
6:41:                  39	30.40
6:42:                   9	30.40
6:42:                  39	30.41
6:43:                   9	30.39
6:43:                  39	30.40
6:44:                   9	30.39
6:44:                  39	30.40
6:45:                   9	30.39
6:45:                  39	30.42
6:46:                   9	30.41
6:46:                  39	30.41
6:47:                   9	30.41
6:47:                  40	30.43
6:48:                  10	30.41
6:48:                  40	30.41
6:49:                  10	30.41
6:49:                  40	30.42
6:50:                  10	30.41
6:50:                  40	30.42
6:51:                  10	30.42
6:51:                  40	30.42
6:52:                  10	30.42
6:52:                  40	30.42
6:53:                  10	30.42
6:53:                  40	30.42
6:54:                  10	30.43
6:54:                  40	30.42
6:55:                  10	30.42
6:55:                  40	30.43
6:56:                  10	30.42
6:56:                  40	30.42
6:57:                  10	30.41
6:57:                  40	30.40
6:58:                  10	30.40
6:58:                  40	30.41
6:59:                  10	30.41
6:59:                  40	30.41
7:00:                  10	30.42
7:00:                  40	30.40
7:01:                  10	30.39
7:01:                  40	30.41
7:02:                  10	30.43
7:02:                  40	30.42
7:03:                  10	30.41
7:03:                  41	30.41
7:04:                  11	30.42
7:04:                  41	30.42
7:05:                  11	30.43
7:05:                  41	30.43
7:06:                  11	30.42
7:06:                  41	30.43
7:07:                  11	30.43
7:07:                  41	30.43
7:08:                  11	30.44
7:08:                  41	30.45
7:09:                  11	30.47
7:09:                  41	30.47
7:10:                  11	30.50
7:10:                  41	30.50
7:11:                  11	30.51
7:11:                  41	30.51
7:12:                  11	30.50
7:12:                  41	30.49
7:13:                  11	30.48
7:13:                  41	30.49
7:14:                  11	30.49
7:14:                  41	30.48
7:15:                  11	30.47
7:15:                  41	30.45
7:16:                  11	30.45
7:16:                  41	30.43
7:17:                  11	30.41
7:17:                  41	30.42
7:18:                  11	30.41
7:18:                  41	30.42
7:19:                  11	30.42
7:19:                  41	30.42
7:20:                  11	30.42
7:20:                  42	30.44
7:21:                  12	30.42
7:21:                  42	30.44
7:22:                  12	30.43
7:22:                  42	30.43
7:23:                  12	30.41
7:23:                  42	30.41
7:24:                  12	30.41
7:24:                  42	30.41
7:25:                  12	30.42
7:25:                  42	30.41
7:26:                  12	30.41
7:26:                  42	30.40
7:27:                  12	30.41
7:27:                  42	30.41
7:28:                  12	30.42
7:28:                  42	30.42
7:29:                  12	30.40
7:29:                  42	30.42
7:30:                  12	30.43
7:30:                  42	30.44
7:31:                  12	30.42
7:31:                  42	30.40
7:32:                  12	30.41
7:32:                  42	30.42
7:33:                  12	30.43
7:33:                  42	30.43
7:34:                  12	30.42
7:34:                  42	30.41
7:35:                  12	30.43
7:35:                  42	30.43
7:36:                  12	30.42
7:36:                  42	30.41
7:37:                  12	30.42
7:37:                  42	30.43
7:38:                  12	30.45
7:38:                  42	30.45
7:39:                  12	30.42
7:39:                  42	30.44
7:40:                  12	30.48
7:40:                  42	30.50
7:41:                  12	30.49
7:41:                  42	30.49
7:42:                  12	30.48
7:42:                  42	30.47
7:43:                  12	30.48
7:43:                  43	30.49
7:44:                  13	30.47
7:44:                  43	30.45
7:45:                  13	30.50
7:45:                  43	30.50
7:46:                  13	30.53
7:46:                  43	30.56
7:47:                  13	30.59
7:47:                  43	30.59
7:48:                  13	30.58
7:48:                  43	30.58
7:49:                  13	30.60
7:49:                  43	30.61
7:50:                  13	30.62
7:50:                  43	30.63
7:51:                  13	30.62
7:51:                  43	30.64
7:52:                  13	30.64
7:52:                  43	30.62
7:53:                  13	30.63
7:53:                  43	30.62
7:54:                  13	30.62
7:54:                  43	30.60
7:55:                  13	30.59
7:55:                  43	30.60
7:56:                  13	30.59
7:56:                  43	30.60
7:57:                  13	30.63
7:57:                  43	30.64
7:58:                  13	30.65
7:58:                  43	30.68
7:59:                  13	30.70
7:59:                  43	30.69
8:00:                  13	30.70
8:00:                  43	30.67
8:01:                  13	30.68
8:01:                  43	30.67
8:02:                  13	30.69
8:02:                  43	30.71
8:03:                  13	30.70
8:03:                  43	30.69
8:04:                  14	30.68
8:04:                  44	30.69
8:05:                  14	30.68
8:05:                  44	30.66
8:06:                  14	30.66
8:06:                  44	30.71
8:07:                  14	30.71
8:07:                  44	30.69
8:08:                  14	30.67
8:08:                  44	30.65
8:09:                  14	30.62
8:09:                  44	30.62
8:10:                  14	30.64
8:10:                  44	30.64
8:11:                  14	30.65
8:11:                  44	30.67
8:12:                  14	30.69
8:12:                  44	30.68
8:13:                  14	30.67
8:13:                  44	30.67
8:14:                  14	30.67
8:14:                  44	30.68
8:15:                  14	30.67
8:15:                  44	30.67
8:16:                  14	30.68
8:16:                  44	30.67
8:17:                  14	30.66
8:17:                  44	30.65
8:18:                  14	30.66
8:18:                  44	30.65
8:19:                  14	30.63
8:19:                  44	30.63
8:20:                  14	30.61
8:20:                  44	30.63
8:21:                  14	30.61
8:21:                  44	30.60
8:22:                  14	30.59
8:22:                  44	30.56
8:23:                  14	30.55
8:23:                  44	30.56
8:24:                  14	30.56
8:24:                  44	30.56
8:25:                  14	30.57
8:25:                  44	30.56
8:26:                  14	30.53
8:26:                  44	30.56
8:27:                  14	30.56
8:27:                  44	30.53
8:28:                  14	30.52
8:28:                  44	30.52
8:29:                  14	30.52
8:29:                  45	30.52
8:30:                  15	30.53
8:30:                  45	30.53
8:31:                  15	30.53
8:31:                  45	30.54
8:32:                  15	30.55
8:32:                  45	30.56
8:33:                  15	30.57
8:33:                  45	30.58
8:34:                  15	30.58
8:34:                  45	30.57
8:35:                  15	30.54
8:35:                  45	30.54
8:36:                  15	30.53
8:36:                  45	30.53
8:37:                  15	30.53
8:37:                  45	30.53
8:38:                  15	30.52
8:38:                  45	30.54
8:39:                  15	30.54
8:39:                  45	30.52
8:40:                  15	30.54
8:40:                  45	30.54
8:41:                  15	30.56
8:41:                  45	30.54
8:42:                  15	30.53
8:42:                  45	30.52
8:43:                  15	30.52
8:43:                  45	30.53
8:44:                  15	30.53
8:44:                  45	30.56
8:45:                  15	30.54
8:45:                  45	30.53
8:46:                  15	30.53
8:46:                  45	30.52
8:47:                  15	30.52
8:47:                  45	30.55
8:48:                  15	30.53
8:48:                  45	30.54
8:49:                  16	30.57
8:49:                  46	30.57
8:50:                  16	30.56
8:50:                  46	30.57
8:51:                  16	30.58
8:51:                  46	30.58
8:52:                  16	30.58
8:52:                  46	30.58
8:53:                  16	30.57
8:53:                  46	30.59
8:54:                  16	30.58
8:54:                  46	30.58
8:55:                  16	30.59
8:55:                  46	30.59
8:56:                  16	30.58
8:56:                  46	30.58
8:57:                  16	30.57
8:57:                  46	30.58
8:58:                  16	30.58
8:58:                  46	30.61
8:59:                  16	30.64
8:59:                  46	30.65
9:00:                  16	30.62
9:00:                  46	30.63
9:01:                  16	30.63
9:01:                  46	30.60
9:02:                  16	30.60
9:02:                  46	30.60
9:03:                  16	30.60
9:03:                  46	30.62
9:04:                  16	30.64
9:04:                  46	30.62
9:05:                  16	30.61
9:05:                  46	30.61
9:06:                  16	30.59
9:06:                  46	30.60
9:07:                  16	30.60
9:07:                  46	30.61
9:08:                  16	30.62
9:08:                  46	30.63
9:09:                  16	30.64
9:09:                  46	30.64
9:10:                  16	30.63
9:10:                  46	30.68
9:11:                  16	30.72
9:11:                  46	30.75
9:12:                  16	30.78
9:12:                  46	30.80
9:13:                  16	30.82
9:13:                  46	30.82
9:14:                  16	30.83
9:14:                  46	30.84
9:15:                  17	30.86
9:15:                  47	30.86
9:16:                  17	30.86
9:16:                  47	30.87
9:17:                  17	30.88
9:17:                  47	30.88
9:18:                  17	30.91
9:18:                  47	30.94
9:19:                  17	30.96
9:19:                  47	30.98
9:20:                  17	30.97
9:20:                  47	31.00
9:21:                  17	30.99
9:21:                  47	31.00
9:22:                  17	30.99
9:22:                  47	31.00
9:23:                  17	31.01
9:23:                  47	31.01
9:24:                  17	30.99
9:24:                  47	30.97
9:25:                  17	30.94
9:25:                  47	30.94
9:26:                  17	30.94
9:26:                  47	30.92
9:27:                  17	30.92
9:27:                  47	30.89
9:28:                  17	30.88
9:28:                  47	30.85
9:29:                  17	30.84
9:29:                  47	30.83
9:30:                  17	30.83
9:30:                  47	30.82
9:31:                  17	30.81
9:31:                  47	30.78
9:32:                  17	30.78
9:32:                  47	30.78
9:33:                  17	30.79
9:33:                  47	30.78
9:34:                  17	30.78
9:34:                  47	30.76
9:35:                  17	30.77
9:35:                  47	30.76
9:36:                  17	30.75
9:36:                  47	30.75
9:37:                  17	30.75
9:37:                  47	30.75
9:38:                  17	30.77
9:38:                  47	30.79
9:39:                  17	30.80
9:39:                  47	30.83
9:40:                  18	30.85
9:40:                  48	30.87
9:41:                  18	30.86
9:41:                  48	30.90
9:42:                  18	30.91
9:42:                  48	30.91
9:43:                  18	30.93
9:43:                  48	30.93
9:44:                  18	30.91
9:44:                  48	30.92
9:45:                  18	30.94
9:45:                  48	30.92
9:46:                  18	30.95
9:46:                  48	30.95
9:47:                  18	30.94
9:47:                  48	30.92
9:48:                  18	30.95
9:48:                  48	30.95
9:49:                  18	30.96
9:49:                  48	30.97
9:50:                  18	30.95
9:50:                  48	30.98
9:51:                  18	30.96
9:51:                  48	30.93
9:52:                  18	30.93
9:52:                  48	30.91
9:53:                  18	30.90
9:53:                  48	30.91
9:54:                  18	30.94
9:54:                  48	30.93
9:55:                  18	30.94
9:55:                  48	30.96
9:56:                  18	30.96
9:56:                  49	30.95
9:57:                  19	30.93
9:57:                  49	30.95
9:58:                  19	30.96
9:58:                  49	30.95
9:59:                  19	30.95
9:59:                  49	30.93
10:00:                  19	30.98
10:00:                  49	31.03
10:01:                  19	31.09
10:01:                  49	31.15
10:02:                  19	31.19
10:02:                  49	31.19
10:03:                  19	31.20
10:03:                  49	31.19
10:04:                  19	31.19
10:04:                  49	31.17
10:05:                  19	31.15
10:05:                  49	31.13
10:06:                  19	31.09
10:06:                  49	31.06
10:07:                  19	31.04
10:07:                  49	31.02
10:08:                  19	30.99
10:08:                  49	31.00
10:09:                  19	30.98
10:09:                  49	30.98
10:10:                  19	31.00
10:10:                  49	30.98
10:11:                  19	30.96
10:11:                  49	30.96
10:12:                  19	30.98
10:12:                  49	30.97
10:13:                  19	30.93
10:13:                  49	30.91
10:14:                  19	30.88
10:14:                  49	30.90
10:15:                  19	30.88
10:15:                  49	30.89
10:16:                  19	30.88
10:16:                  49	30.88
10:17:                  20	30.86
10:17:                  50	30.86
10:18:                  20	30.85
10:18:                  50	30.85
10:19:                  20	30.85
10:19:                  50	30.83
10:20:                  20	30.83
10:20:                  50	30.80
10:21:                  20	30.78
10:21:                  50	30.76
10:22:                  20	30.78
10:22:                  50	30.78
10:23:                  20	30.77
10:23:                  50	30.76
10:24:                  20	30.76
10:24:                  50	30.72
10:25:                  20	30.72
10:25:                  50	30.70
10:26:                  20	30.68
10:26:                  50	30.68
10:27:                  20	30.67
10:27:                  50	30.66
10:28:                  20	30.64
10:28:                  50	30.63
10:29:                  20	30.60
10:29:                  50	30.58
10:30:                  20	30.59
10:30:                  50	30.59
10:31:                  20	30.60
10:31:                  50	30.59
10:32:                  20	30.62
10:32:                  50	30.62
10:33:                  20	30.63
10:33:                  51	30.61
10:34:                  21	30.58
10:34:                  51	30.59
10:35:                  21	30.59
10:35:                  51	30.59
10:36:                  21	30.60
10:36:                  51	30.59
10:37:                  21	30.58
10:37:                  51	30.57
10:38:                  21	30.54
10:38:                  51	30.52
10:39:                  21	30.53
10:39:                  51	30.49
10:40:                  21	30.49
10:40:                  51	30.49
10:41:                  21	30.45
10:41:                  51	30.48
10:42:                  21	30.47
10:42:                  51	30.50
10:43:                  21	30.51
10:43:                  51	30.52
10:44:                  21	30.57
10:44:                  51	30.57
10:45:                  21	30.56
10:45:                  51	30.52
10:46:                  21	30.51
10:46:                  51	30.49
10:47:                  21	30.48
10:47:                  51	30.49
10:48:                  21	30.49
10:48:                  51	30.48
10:49:                  21	30.49
10:49:                  51	30.48
10:50:                  22	30.48
10:50:                  52	30.48
10:51:                  22	30.47
10:51:                  52	30.47
10:52:                  22	30.47
10:52:                  52	30.45
10:53:                  22	30.43
10:53:                  52	30.41
10:54:                  22	30.38
10:54:                  52	30.39
10:55:                  22	30.39
10:55:                  52	30.40
10:56:                  22	30.38
10:56:                  52	30.37
10:57:                  22	30.38
10:57:                  52	30.39
10:58:                  22	30.37
10:58:                  52	30.37
10:59:                  22	30.37
10:59:                  52	30.40
11:00:                  22	30.42
11:00:                  52	30.41
11:01:                  22	30.43
11:01:                  52	30.42
11:02:                  22	30.41
11:02:                  52	30.42
11:03:                  22	30.42
11:03:                  52	30.43
11:04:                  22	30.42
11:04:                  52	30.42
11:05:                  22	30.43
11:05:                  52	30.44
11:06:                  22	30.43
11:06:                  52	30.41
11:07:                  22	30.38
11:07:                  52	30.37
11:08:                  22	30.38
11:08:                  52	30.34
11:09:                  22	30.36
11:09:                  52	30.34
11:10:                  22	30.32
11:10:                  52	30.31
11:11:                  22	30.29
11:11:                  53	30.29
11:12:                  23	30.30
11:12:                  53	30.28
11:13:                  23	30.28
11:13:                  53	30.27
11:14:                  23	30.28
11:14:                  53	30.27
11:15:                  23	30.26
11:15:                  53	30.25
11:16:                  23	30.25
11:16:                  53	30.26
11:17:                  23	30.27
11:17:                  53	30.26
11:18:                  23	30.27
11:18:                  53	30.27
11:19:                  23	30.27
11:19:                  53	30.29
11:20:                  23	30.29
11:20:                  53	30.30
11:21:                  23	30.30
11:21:                  53	30.29
11:22:                  23	30.30
11:22:                  53	30.31
11:23:                  23	30.31
11:23:                  53	30.33
11:24:                  23	30.32
11:24:                  53	30.30
11:25:                  23	30.32
11:25:                  53	30.32
11:26:                  23	30.31
11:26:                  53	30.31
11:27:                  23	30.31
11:27:                  53	30.30
11:28:                  24	30.29
11:28:                  54	30.29
11:29:                  24	30.28
11:29:                  54	30.28
11:30:                  24	30.29
11:30:                  54	30.29
11:31:                  24	30.30
11:31:                  54	30.29
11:32:                  24	30.29
11:32:                  54	30.28
11:33:                  24	30.29
11:33:                  54	30.29
11:34:                  24	30.28
11:34:                  54	30.28
11:35:                  24	30.28
11:35:                  54	30.28
11:36:                  24	30.30
11:36:                  54	30.30
11:37:                  24	30.32
11:37:                  54	30.32
11:38:                  24	30.32
11:38:                  54	30.32
11:39:                  24	30.30
11:39:                  54	30.29
11:40:                  24	30.30
11:40:                  54	30.29
11:41:                  24	30.30
11:41:                  54	30.30
11:42:                  24	30.31
11:42:                  54	30.32
11:43:                  24	30.30
11:43:                  54	30.30
11:44:                  24	30.32
11:44:                  54	30.33
11:45:                  24	30.32
11:45:                  54	30.31
11:46:                  24	30.32
11:46:                  54	30.32
11:47:                  24	30.30
11:47:                  55	30.33
11:48:                  25	30.33
11:48:                  55	30.35
11:49:                  25	30.37
11:49:                  55	30.37
11:50:                  25	30.39
11:50:                  55	30.41
11:51:                  25	30.40
11:51:                  55	30.39
11:52:                  25	30.40
11:52:                  55	30.38
11:53:                  25	30.39
11:53:                  55	30.41
11:54:                  25	30.40
11:54:                  55	30.40
11:55:                  25	30.40
11:55:                  55	30.40
11:56:                  25	30.40
11:56:                  55	30.40
11:57:                  25	30.40
11:57:                  55	30.43
11:58:                  25	30.42
11:58:                  55	30.41
11:59:                  25	30.40
11:59:                  55	30.40
12:00:                  25	30.39
12:00:                  55	30.41
12:01:                  25	30.41
12:01:                  55	30.44
12:02:                  25	30.48
12:02:                  55	30.48
12:03:                  25	30.49
12:03:                  55	30.48
12:04:                  25	30.49
12:04:                  55	30.49
12:05:                  25	30.50
12:05:                  55	30.49
12:06:                  26	30.50
12:06:                  56	30.48
12:07:                  26	30.49
12:07:                  56	30.48
12:08:                  26	30.44
12:08:                  56	30.43
12:09:                  26	30.45
12:09:                  56	30.43
12:10:                  26	30.44
12:10:                  56	30.44
12:11:                  26	30.44
12:11:                  56	30.47
12:12:                  26	30.50
12:12:                  56	30.47
12:13:                  26	30.46
12:13:                  56	30.47
12:14:                  26	30.47
12:14:                  56	30.48
12:15:                  26	30.49
12:15:                  56	30.51
12:16:                  26	30.52
12:16:                  56	30.50
12:17:                  26	30.53
12:17:                  56	30.52
12:18:                  26	30.52
12:18:                  56	30.53
12:19:                  26	30.52
12:19:                  56	30.52
12:20:                  26	30.52
12:20:                  56	30.51
12:21:                  26	30.50
12:21:                  56	30.50
12:22:                  26	30.49
12:22:                  57	30.48
12:23:                  27	30.49
12:23:                  57	30.48
12:24:                  27	30.49
12:24:                  57	30.49
12:25:                  27	30.49
12:25:                  57	30.50
12:26:                  27	30.50
12:26:                  57	30.52
12:27:                  27	30.52
12:27:                  57	30.52
12:28:                  27	30.53
12:28:                  57	30.52
12:29:                  27	30.50
12:29:                  57	30.50
12:30:                  27	30.50
12:30:                  57	30.49
12:31:                  27	30.51
12:31:                  57	30.51
12:32:                  27	30.50
12:32:                  57	30.50
12:33:                  27	30.51
12:33:                  57	30.51
12:34:                  27	30.50
12:34:                  57	30.50
12:35:                  27	30.50
12:35:                  57	30.51
12:36:                  27	30.49
12:36:                  57	30.51
12:37:                  27	30.53
12:37:                  57	30.54
12:38:                  27	30.53
12:38:                  57	30.50
12:39:                  27	30.52
12:39:                  57	30.56
12:40:                  27	30.56
12:40:                  57	30.56
12:41:                  27	30.53
12:41:                  57	30.53
12:42:                  28	30.54
12:42:                  58	30.53
12:43:                  28	30.53
12:43:                  58	30.53
12:44:                  28	30.53
12:44:                  58	30.52
12:45:                  28	30.53
12:45:                  58	30.54
12:46:                  28	30.54
12:46:                  58	30.56
12:47:                  28	30.53
12:47:                  58	30.56
12:48:                  28	30.55
12:48:                  58	30.57
12:49:                  28	30.57
12:49:                  58	30.57
12:50:                  28	30.57
12:50:                  58	30.57
12:51:                  28	30.55
12:51:                  58	30.54
12:52:                  28	30.56
12:52:                  58	30.54
12:53:                  28	30.53
12:53:                  58	30.56
12:54:                  28	30.56
12:54:                  58	30.54
12:55:                  28	30.54
12:55:                  58	30.55
12:56:                  28	30.53
12:56:                  58	30.54
12:57:                  28	30.54
12:57:                  58	30.54
12:58:                  28	30.53
12:58:                  59	30.53
12:59:                  29	30.54
12:59:                  59	30.54
13:00:                  29	30.55
13:00:                  59	30.56
13:01:                  29	30.55
13:01:                  59	30.54
13:02:                  29	30.56
13:02:                  59	30.54
13:03:                  29	30.53
13:03:                  59	30.53
13:04:                  29	30.53
13:04:                  59	30.54
13:05:                  29	30.56
13:05:                  59	30.55
13:06:                  29	30.54
13:06:                  59	30.54
13:07:                  29	30.54
13:07:                  59	30.54
13:08:                  29	30.54
13:08:                  59	30.54
13:09:                  29	30.56
13:09:                  59	30.57
13:10:                  29	30.54
13:10:                  59	30.56
13:11:                  29	30.56
13:11:                  59	30.57
13:12:                  29	30.58
13:12:                  59	30.56
13:13:                  29	30.57
13:13:                  59	30.57
13:14:                  29	30.56
13:14:                  59	30.57
13:15:                  30	30.58
13:16:                   0	30.58
13:16:                  30	30.58
13:17:                   0	30.58
13:17:                  30	30.56
13:18:                   0	30.56
13:18:                  30	30.56
13:19:                   0	30.56
13:19:                  30	30.56
13:20:                   0	30.56
13:20:                  30	30.56
13:21:                   0	30.58
13:21:                  30	30.57
13:22:                   0	30.57
13:22:                  30	30.56
13:23:                   0	30.57
13:23:                  30	30.56
13:24:                   0	30.56
13:24:                  30	30.57
13:25:                   0	30.57
13:25:                  30	30.58
13:26:                   0	30.59
13:26:                  30	30.59
13:27:                   0	30.58
13:27:                  30	30.59
13:28:                   0	30.59
13:28:                  30	30.59
13:29:                   0	30.59
13:29:                  30	30.61
13:30:                   0	30.59
13:30:                  30	30.58
13:31:                   0	30.59
13:31:                  30	30.60
13:32:                   0	30.60
13:32:                  30	30.62
13:33:                   0	30.60
13:33:                  30	30.60
13:34:                   0	30.59
13:34:                  30	30.60
13:35:                   0	30.60
13:35:                  30	30.60
13:36:                   0	30.61
13:36:                  30	30.61
13:37:                   0	30.60
13:37:                  30	30.61
13:38:                   1	30.60
13:38:                  31	30.61
13:39:                   1	30.61
13:39:                  31	30.62
13:40:                   1	30.62
13:40:                  31	30.63
13:41:                   1	30.64
13:41:                  31	30.63
13:42:                   1	30.63
13:42:                  31	30.63
13:43:                   1	30.62
13:43:                  31	30.63
13:44:                   1	30.63
13:44:                  31	30.64
13:45:                   1	30.64
13:45:                  31	30.64
13:46:                   1	30.64
13:46:                  31	30.64
13:47:                   1	30.65
13:47:                  31	30.63
13:48:                   1	30.63
13:48:                  31	30.63
13:49:                   1	30.65
13:49:                  31	30.65
13:50:                   1	30.65
13:50:                  31	30.65
13:51:                   1	30.64
13:51:                  31	30.65
13:52:                   1	30.65
13:52:                  31	30.65
13:53:                   1	30.65
13:53:                  31	30.65
13:54:                   1	30.65
13:54:                  31	30.64
13:55:                   1	30.65
13:55:                  31	30.65
13:56:                   1	30.66
13:56:                  31	30.66
13:57:                   1	30.68
13:57:                  31	30.67
13:58:                   1	30.66
13:58:                  31	30.68
13:59:                   1	30.67
13:59:                  31	30.68
14:00:                   1	30.67
14:00:                  31	30.67
14:01:                   2	30.66
14:01:                  32	30.68
14:02:                   2	30.68
14:02:                  32	30.69
14:03:                   2	30.69
14:03:                  32	30.69
14:04:                   2	30.67
14:04:                  32	30.67
14:05:                   2	30.66
14:05:                  32	30.68
14:06:                   2	30.67
14:06:                  32	30.68
14:07:                   2	30.68
14:07:                  32	30.68
14:08:                   2	30.67
14:08:                  32	30.68
14:09:                   2	30.69
14:09:                  32	30.69
14:10:                   2	30.70
14:10:                  32	30.69
14:11:                   2	30.70
14:11:                  32	30.69
14:12:                   2	30.69
14:12:                  32	30.69
14:13:                   2	30.68
14:13:                  32	30.68
14:14:                   2	30.68
14:14:                  32	30.69
14:15:                   2	30.69
14:15:                  32	30.70
14:16:                   2	30.70
14:16:                  32	30.70
14:17:                   2	30.71
14:17:                  32	30.70
14:18:                   2	30.70
14:18:                  32	30.71
14:19:                   2	30.70
14:19:                  32	30.70
14:20:                   3	30.71
14:20:                  33	30.71
14:21:                   3	30.71
14:21:                  33	30.73
14:22:                   3	30.72
14:22:                  33	30.71
14:23:                   3	30.73
14:23:                  33	30.73
14:24:                   3	30.72
14:24:                  33	30.73
14:25:                   3	30.72
14:25:                  33	30.73
14:26:                   3	30.73
14:26:                  33	30.72
14:27:                   3	30.73
14:27:                  33	30.74
14:28:                   3	30.74
14:28:                  33	30.75
14:29:                   3	30.74
14:29:                  33	30.76
14:30:                   3	30.77
14:30:                  33	30.75
14:31:                   3	30.75
14:31:                  33	30.76
14:32:                   3	30.76
14:32:                  33	30.76
14:33:                   3	30.75
14:33:                  33	30.75
14:34:                   3	30.75
14:34:                  33	30.76
14:35:                   3	30.74
14:35:                  33	30.74
14:36:                   3	30.75
14:36:                  33	30.74
14:37:                   3	30.75
14:37:                  33	30.74
14:38:                   3	30.74
14:38:                  33	30.75
14:39:                   3	30.74
14:39:                  33	30.74
14:40:                   3	30.73
14:40:                  34	30.73
14:41:                   4	30.72
14:41:                  34	30.72
14:42:                   4	30.72
14:42:                  34	30.73
14:43:                   4	30.73
14:43:                  34	30.74
14:44:                   4	30.75
14:44:                  34	30.76
14:45:                   4	30.74
14:45:                  34	30.75
14:46:                   4	30.75
14:46:                  34	30.74
14:47:                   4	30.75
14:47:                  34	30.74
14:48:                   4	30.75
14:48:                  34	30.75
14:49:                   4	30.74
14:49:                  34	30.74
14:50:                   4	30.75
14:50:                  34	30.76
14:51:                   4	30.76
14:51:                  34	30.76
14:52:                   4	30.75
14:52:                  34	30.73
14:53:                   4	30.75
14:53:                  34	30.75
14:54:                   4	30.75
14:54:                  34	30.75
14:55:                   4	30.74
14:55:                  34	30.75
14:56:                   4	30.75
14:56:                  34	30.76
14:57:                   4	30.76
14:57:                  34	30.75
14:58:                   4	30.76
14:58:                  34	30.75
14:59:                   4	30.77
14:59:                  34	30.76
15:00:                   4	30.76
15:00:                  34	30.76
15:01:                   4	30.74
15:01:                  34	30.75
15:02:                   4	30.74
15:02:                  35	30.75
15:03:                   5	30.75
15:03:                  35	30.74
15:04:                   5	30.73
15:04:                  35	30.73
15:05:                   5	30.75
15:05:                  35	30.74
15:06:                   5	30.74
15:06:                  35	30.74
15:07:                   5	30.74
15:07:                  35	30.73
15:08:                   5	30.73
15:08:                  35	30.74
15:09:                   5	30.73
15:09:                  35	30.74
15:10:                   5	30.74
15:10:                  35	30.75
15:11:                   5	30.75
15:11:                  35	30.74
15:12:                   5	30.74
15:12:                  35	30.75
15:13:                   5	30.75
15:13:                  35	30.76
15:14:                   5	30.76
15:14:                  35	30.76
15:15:                   5	30.76
15:15:                  35	30.75
15:16:                   5	30.76
15:16:                  35	30.75
15:17:                   5	30.75
15:17:                  35	30.75
15:18:                   5	30.75
15:18:                  35	30.76
15:19:                   5	30.76
15:19:                  35	30.76
15:20:                   5	30.75
15:20:                  35	30.75
15:21:                   5	30.75
15:21:                  35	30.75
15:22:                   5	30.75
15:22:                  35	30.74
15:23:                   5	30.75
15:23:                  35	30.74
15:24:                   5	30.75
15:24:                  35	30.76
15:25:                   5	30.76
15:25:                  36	30.76
15:26:                   6	30.75
15:26:                  36	30.75
15:27:                   6	30.76
15:27:                  36	30.75
15:28:                   6	30.76
15:28:                  36	30.75
15:29:                   6	30.76
15:29:                  36	30.76
15:30:                   6	30.75
15:30:                  36	30.75
15:31:                   6	30.74
15:31:                  36	30.75
15:32:                   6	30.77
15:32:                  36	30.76
15:33:                   6	30.76
15:33:                  36	30.76
15:34:                   6	30.75
15:34:                  36	30.75
15:35:                   6	30.75
15:35:                  36	30.75
15:36:                   6	30.75
15:36:                  36	30.74
15:37:                   6	30.76
15:37:                  36	30.75
15:38:                   6	30.74
15:38:                  36	30.73
15:39:                   6	30.72
15:39:                  36	30.73
15:40:                   6	30.73
15:40:                  36	30.72
15:41:                   6	30.72
15:41:                  36	30.72
15:42:                   7	30.73
15:42:                  37	30.73
15:43:                   7	30.74
15:43:                  37	30.73
15:44:                   7	30.75
15:44:                  37	30.73
15:45:                   7	30.76
15:45:                  37	30.77
15:46:                   7	30.76
15:46:                  37	30.76
15:47:                   7	30.76
15:47:                  37	30.76
15:48:                   7	30.76
15:48:                  37	30.76
15:49:                   7	30.75
15:49:                  37	30.74
15:50:                   7	30.74
15:50:                  37	30.74
15:51:                   7	30.73
15:51:                  37	30.73
15:52:                   7	30.74
15:52:                  37	30.74
15:53:                   7	30.73
15:53:                  37	30.73
15:54:                   7	30.73
15:54:                  37	30.74
15:55:                   7	30.72
15:55:                  37	30.72
15:56:                   7	30.72
15:56:                  37	30.73
15:57:                   7	30.72
15:57:                  37	30.72
15:58:                   7	30.72
15:58:                  37	30.74
15:59:                   7	30.75
15:59:                  37	30.75
16:00:                   7	30.74
16:00:                  37	30.74
16:01:                   7	30.76
16:01:                  37	30.77
16:02:                   7	30.76
16:02:                  37	30.77
16:03:                   7	30.76
16:03:                  37	30.77
16:04:                   7	30.77
16:04:                  37	30.77
16:05:                   7	30.77
16:05:                  37	30.76
16:06:                   7	30.76
16:06:                  37	30.75
16:07:                   7	30.75
16:07:                  37	30.75
16:08:                   7	30.74
16:08:                  37	30.74
16:09:                   7	30.74
16:09:                  37	30.73
16:10:                   7	30.72
16:10:                  38	30.70
16:11:                   8	30.72
16:11:                  38	30.74
16:12:                   8	30.73
16:12:                  38	30.75
16:13:                   8	30.76
16:13:                  38	30.75
16:14:                   8	30.76
16:14:                  38	30.77
16:15:                   8	30.76
16:15:                  38	30.76
16:16:                   8	30.75
16:16:                  38	30.76
16:17:                   8	30.76
16:17:                  38	30.75
16:18:                   8	30.75
16:18:                  38	30.76
16:19:                   8	30.75
16:19:                  38	30.75
16:20:                   8	30.74
16:20:                  38	30.75
16:21:                   8	30.74
16:21:                  38	30.75
16:22:                   8	30.74
16:22:                  38	30.77
16:23:                   8	30.77
16:23:                  38	30.76
16:24:                   8	30.77
16:24:                  38	30.77
16:25:                   8	30.78
16:25:                  38	30.78
16:26:                   8	30.77
16:26:                  38	30.79
16:27:                   9	30.80
16:27:                  39	30.79
16:28:                   9	30.78
16:28:                  39	30.79
16:29:                   9	30.78
16:29:                  39	30.77
16:30:                   9	30.77
16:30:                  39	30.76
16:31:                   9	30.76
16:31:                  39	30.77
16:32:                   9	30.75
16:32:                  39	30.74
16:33:                   9	30.76
16:33:                  39	30.76
16:34:                   9	30.76
16:34:                  39	30.76
16:35:                   9	30.77
16:35:                  39	30.75
16:36:                   9	30.74
16:36:                  39	30.74
16:37:                   9	30.74
16:37:                  39	30.73
16:38:                   9	30.72
16:38:                  39	30.72
16:39:                   9	30.72
16:39:                  39	30.74
16:40:                   9	30.73
16:40:                  39	30.73
16:41:                   9	30.74
16:41:                  39	30.72
16:42:                   9	30.73
16:42:                  39	30.73
16:43:                   9	30.74
16:43:                  39	30.73
16:44:                   9	30.74
16:44:                  39	30.77
16:45:                   9	30.80
16:45:                  39	30.78
16:46:                   9	30.76
16:46:                  39	30.74
16:47:                  10	30.74
16:47:                  40	30.74
16:48:                  10	30.75
16:48:                  40	30.75
16:49:                  10	30.78
16:49:                  40	30.77
16:50:                  10	30.78
16:50:                  40	30.79
16:51:                  10	30.78
16:51:                  40	30.78
16:52:                  10	30.77
16:52:                  40	30.78
16:53:                  10	30.77
16:53:                  40	30.76
16:54:                  10	30.77
16:54:                  40	30.76
16:55:                  10	30.77
16:55:                  40	30.77
16:56:                  10	30.76
16:56:                  40	30.75
16:57:                  10	30.76
16:57:                  40	30.77
16:58:                  10	30.76
16:58:                  40	30.76
16:59:                  10	30.77
16:59:                  40	30.77
17:00:                  10	30.75
17:00:                  40	30.76
17:01:                  10	30.77
17:01:                  40	30.75
17:02:                  10	30.75
17:02:                  40	30.74
17:03:                  10	30.74
17:03:                  41	30.74
17:04:                  11	30.75
17:04:                  41	30.74
17:05:                  11	30.75
17:05:                  41	30.77
17:06:                  11	30.78
17:06:                  41	30.79
17:07:                  11	30.79
17:07:                  41	30.79
17:08:                  11	30.78
17:08:                  41	30.79
17:09:                  11	30.77
17:09:                  41	30.78
17:10:                  11	30.77
17:10:                  41	30.75
17:11:                  11	30.75
17:11:                  41	30.76
17:12:                  11	30.75
17:12:                  41	30.73
17:13:                  11	30.75
17:13:                  41	30.73
17:14:                  11	30.73
17:14:                  41	30.72
17:15:                  11	30.73
17:15:                  41	30.72
17:16:                  11	30.71
17:16:                  41	30.71
17:17:                  11	30.72
17:17:                  41	30.73
17:18:                  11	30.73
17:18:                  41	30.73
17:19:                  11	30.74
17:19:                  41	30.75
17:20:                  11	30.76
17:20:                  41	30.77
17:21:                  11	30.76
17:21:                  41	30.77
17:22:                  11	30.76
17:22:                  41	30.76
17:23:                  11	30.76
17:23:                  42	30.74
17:24:                  12	30.75
17:24:                  42	30.75
17:25:                  12	30.76
17:25:                  42	30.76
17:26:                  12	30.77
17:26:                  42	30.77
17:27:                  12	30.76
17:27:                  42	30.77
17:28:                  12	30.77
17:28:                  42	30.76
17:29:                  12	30.78
17:29:                  42	30.77
17:30:                  12	30.78
17:30:                  42	30.78
17:31:                  12	30.79
17:31:                  42	30.78
17:32:                  12	30.79
17:32:                  42	30.78
17:33:                  12	30.79
17:33:                  42	30.79
17:34:                  12	30.78
17:34:                  42	30.78
17:35:                  12	30.78
17:35:                  42	30.78
17:36:                  12	30.79
17:36:                  42	30.77
17:37:                  12	30.76
17:37:                  42	30.77
17:38:                  12	30.76
17:38:                  42	30.75
17:39:                  12	30.74
17:39:                  42	30.74
17:40:                  12	30.75
17:40:                  42	30.73
17:41:                  12	30.74
17:41:                  42	30.74
17:42:                  12	30.74
17:42:                  43	30.76
17:43:                  13	30.76
17:43:                  43	30.75
17:44:                  13	30.74
17:44:                  43	30.73
17:45:                  13	30.74
17:45:                  43	30.75
17:46:                  13	30.74
17:46:                  43	30.74
17:47:                  13	30.74
17:47:                  43	30.76
17:48:                  13	30.76
17:48:                  43	30.77
17:49:                  13	30.77
17:49:                  43	30.76
17:50:                  13	30.78
17:50:                  43	30.78
17:51:                  13	30.78
17:51:                  43	30.78
17:52:                  13	30.77
17:52:                  43	30.78
17:53:                  13	30.78
17:53:                  43	30.79
17:54:                  13	30.80
17:54:                  43	30.81
17:55:                  13	30.80
17:55:                  43	30.80
17:56:                  13	30.78
17:56:                  43	30.77
17:57:                  13	30.76
17:57:                  43	30.75
17:58:                  13	30.74
17:58:                  43	30.75
17:59:                  13	30.75
17:59:                  43	30.77
18:00:                  13	30.75
18:00:                  44	30.75
18:01:                  14	30.75
18:01:                  44	30.75
18:02:                  14	30.75
18:02:                  44	30.75
18:03:                  14	30.74
18:03:                  44	30.75
18:04:                  14	30.77
18:04:                  44	30.77
18:05:                  14	30.76
18:05:                  44	30.74
18:06:                  14	30.75
18:06:                  44	30.74
18:07:                  14	30.73
18:07:                  44	30.71
18:08:                  14	30.71
18:08:                  44	30.70
18:09:                  14	30.70
18:09:                  44	30.70
18:10:                  14	30.71
18:10:                  44	30.71
18:11:                  14	30.72
18:11:                  44	30.72
18:12:                  14	30.73
18:12:                  44	30.72
18:13:                  14	30.73
18:13:                  44	30.73
18:14:                  14	30.74
18:14:                  44	30.75
18:15:                  14	30.78
18:15:                  44	30.80
18:16:                  14	30.82
18:16:                  44	30.83
18:17:                  14	30.83
18:17:                  44	30.87
18:18:                  14	30.91
18:18:                  44	30.88
18:19:                  14	30.86
18:19:                  44	30.84
18:20:                  14	30.83
18:20:                  44	30.82
18:21:                  15	30.82
18:21:                  45	30.80
18:22:                  15	30.78
18:22:                  45	30.77
18:23:                  15	30.76
18:23:                  45	30.74
18:24:                  15	30.74
18:24:                  45	30.74
18:25:                  15	30.73
18:25:                  45	30.73
18:26:                  15	30.75
18:26:                  45	30.76
18:27:                  15	30.78
18:27:                  45	30.79
18:28:                  15	30.76
18:28:                  45	30.76
18:29:                  15	30.78
18:29:                  45	30.76
18:30:                  15	30.77
18:30:                  45	30.77
18:31:                  15	30.77
18:31:                  45	30.76
18:32:                  15	30.77
18:32:                  45	30.78
18:33:                  15	30.78
18:33:                  45	30.77
18:34:                  15	30.80
18:34:                  45	30.79
18:35:                  15	30.79
18:35:                  45	30.78
18:36:                  15	30.78
18:36:                  45	30.77
18:37:                  15	30.78
18:37:                  45	30.76
18:38:                  15	30.76
18:38:                  45	30.77
18:39:                  15	30.77
18:39:                  45	30.78
18:40:                  15	30.77
18:40:                  45	30.77
18:41:                  15	30.76
18:41:                  45	30.74
18:42:                  15	30.76
18:42:                  45	30.75
18:43:                  15	30.74
18:43:                  45	30.74
18:44:                  15	30.73
18:44:                  45	30.72
18:45:                  15	30.72
18:45:                  45	30.73
18:46:                  15	30.74
18:46:                  46	30.72
18:47:                  16	30.73
18:47:                  46	30.74
18:48:                  16	30.75
18:48:                  46	30.76
18:49:                  16	30.75
18:49:                  46	30.76
18:50:                  16	30.75
18:50:                  46	30.75
18:51:                  16	30.75
18:51:                  46	30.75
18:52:                  16	30.76
18:52:                  46	30.76
18:53:                  16	30.77
18:53:                  46	30.76
18:54:                  16	30.76
18:54:                  46	30.77
18:55:                  16	30.76
18:55:                  46	30.74
18:56:                  16	30.75
18:56:                  46	30.73
18:57:                  16	30.74
18:57:                  46	30.75
18:58:                  16	30.74
18:58:                  46	30.76
18:59:                  16	30.75
18:59:                  46	30.75
19:00:                  16	30.75
19:00:                  46	30.74
19:01:                  16	30.73
19:01:                  46	30.75
19:02:                  16	30.76
19:02:                  46	30.75
19:03:                  16	30.75
19:03:                  46	30.76
19:04:                  16	30.76
19:04:                  46	30.75
19:05:                  16	30.75
19:05:                  46	30.76
19:06:                  16	30.74
19:06:                  46	30.76
19:07:                  16	30.76
19:07:                  46	30.76
19:08:                  16	30.75
19:08:                  46	30.76
19:09:                  16	30.76
19:09:                  47	30.76
19:10:                  17	30.75
19:10:                  47	30.74
19:11:                  17	30.74
19:11:                  47	30.75
19:12:                  17	30.74
19:12:                  47	30.74
19:13:                  17	30.74
19:13:                  47	30.73
19:14:                  17	30.73
19:14:                  47	30.73
19:15:                  17	30.73
19:15:                  47	30.72
19:16:                  17	30.74
19:16:                  47	30.74
19:17:                  17	30.75
19:17:                  47	30.77
19:18:                  17	30.74
19:18:                  47	30.75
19:19:                  17	30.75
19:19:                  47	30.75
19:20:                  17	30.75
19:20:                  47	30.74
19:21:                  17	30.74
19:21:                  47	30.75
19:22:                  17	30.73
19:22:                  47	30.73
19:23:                  17	30.75
19:23:                  47	30.75
19:24:                  17	30.74
19:24:                  47	30.74
19:25:                  17	30.73
19:25:                  47	30.74
19:26:                  17	30.73
19:26:                  48	30.74
19:27:                  18	30.75
19:27:                  48	30.76
19:28:                  18	30.75
19:28:                  48	30.75
19:29:                  18	30.75
19:29:                  48	30.74
19:30:                  18	30.75
19:30:                  48	30.74
19:31:                  18	30.74
19:31:                  48	30.74
19:32:                  18	30.75
19:32:                  48	30.76
19:33:                  18	30.75
19:33:                  48	30.75
19:34:                  18	30.74
19:34:                  48	30.74
19:35:                  18	30.74
19:35:                  48	30.74
19:36:                  18	30.74
19:36:                  48	30.73
19:37:                  18	30.74
19:37:                  48	30.73
19:38:                  18	30.75
19:38:                  48	30.76
19:39:                  18	30.76
19:39:                  48	30.76
19:40:                  18	30.76
19:40:                  48	30.76
19:41:                  18	30.76
19:41:                  48	30.75
19:42:                  18	30.76
19:42:                  48	30.76
19:43:                  19	30.75
19:43:                  49	30.76
19:44:                  19	30.75
19:44:                  49	30.75
19:45:                  19	30.73
19:45:                  49	30.74
19:46:                  19	30.74
19:46:                  49	30.73
19:47:                  19	30.74
19:47:                  49	30.75
19:48:                  19	30.75
19:48:                  49	30.75
19:49:                  19	30.76
19:49:                  49	30.75
19:50:                  19	30.74
19:50:                  49	30.74
19:51:                  19	30.74
19:51:                  49	30.74
19:52:                  19	30.73
19:52:                  49	30.74
19:53:                  19	30.74
19:53:                  49	30.73
19:54:                  19	30.72
19:54:                  49	30.73
19:55:                  19	30.73
19:55:                  49	30.72
19:56:                  19	30.73
19:56:                  49	30.72
19:57:                  19	30.74
19:57:                  49	30.73
19:58:                  19	30.73
19:58:                  49	30.74
19:59:                  19	30.75
19:59:                  49	30.75
20:00:                  19	30.75
20:00:                  49	30.74
20:01:                  19	30.74
20:01:                  49	30.74
20:02:                  20	30.73
20:02:                  50	30.73
20:03:                  20	30.73
20:03:                  50	30.73
20:04:                  20	30.72
20:04:                  50	30.72
20:05:                  20	30.72
20:05:                  50	30.72
20:06:                  20	30.72
20:06:                  50	30.71
20:07:                  20	30.73
20:07:                  50	30.72
20:08:                  20	30.72
20:08:                  50	30.72
20:09:                  20	30.71
20:09:                  50	30.72
20:10:                  20	30.74
20:10:                  50	30.73
20:11:                  20	30.73
20:11:                  50	30.72
20:12:                  20	30.73
20:12:                  50	30.73
20:13:                  20	30.74
20:13:                  50	30.75
20:14:                  20	30.76
20:14:                  50	30.76
20:15:                  20	30.76
20:15:                  50	30.76
20:16:                  20	30.75
20:16:                  50	30.75
20:17:                  20	30.75
20:17:                  50	30.74
20:18:                  20	30.74
20:18:                  50	30.74
20:19:                  20	30.74
20:19:                  50	30.74
20:20:                  20	30.74
20:20:                  50	30.72
20:21:                  20	30.74
20:21:                  50	30.75
20:22:                  20	30.75
20:22:                  50	30.74
20:23:                  20	30.75
20:23:                  51	30.76
20:24:                  21	30.77
20:24:                  51	30.77
20:25:                  21	30.78
20:25:                  51	30.77
20:26:                  21	30.77
20:26:                  51	30.75
20:27:                  21	30.75
20:27:                  51	30.76
20:28:                  21	30.74
20:28:                  51	30.75
20:29:                  21	30.76
20:29:                  51	30.77
20:30:                  21	30.77
20:30:                  51	30.76
20:31:                  21	30.76
20:31:                  51	30.76
20:32:                  21	30.76
20:32:                  51	30.76
20:33:                  21	30.76
20:33:                  51	30.75
20:34:                  21	30.75
20:34:                  51	30.76
20:35:                  21	30.76
20:35:                  51	30.74
20:36:                  21	30.74
20:36:                  51	30.74
20:37:                  21	30.73
20:37:                  51	30.73
20:38:                  21	30.73
20:38:                  51	30.74
20:39:                  21	30.74
20:39:                  51	30.74
20:40:                  21	30.72
20:40:                  51	30.74
20:41:                  21	30.74
20:41:                  51	30.74
20:42:                  21	30.76
20:42:                  51	30.74
20:43:                  21	30.74
20:43:                  52	30.74
20:44:                  22	30.75
20:44:                  52	30.75
20:45:                  22	30.74
20:45:                  52	30.75
20:46:                  22	30.75
20:46:                  52	30.74
20:47:                  22	30.74
20:47:                  52	30.73
20:48:                  22	30.73
20:48:                  52	30.74
20:49:                  22	30.73
20:49:                  52	30.74
20:50:                  22	30.74
20:50:                  52	30.73
20:51:                  22	30.74
20:51:                  52	30.74
20:52:                  22	30.75
20:52:                  52	30.73
20:53:                  22	30.73
20:53:                  52	30.75
20:54:                  22	30.74
20:54:                  52	30.74
20:55:                  22	30.74
20:55:                  52	30.74
20:56:                  22	30.74
20:56:                  52	30.76
20:57:                  22	30.76
20:57:                  52	30.75
20:58:                  22	30.75
20:58:                  52	30.75
20:59:                  22	30.75
20:59:                  52	30.76
21:00:                  22	30.77
21:00:                  52	30.76
21:01:                  22	30.75
21:01:                  52	30.75
21:02:                  22	30.74
21:02:                  52	30.75
21:03:                  22	30.74
21:03:                  53	30.74
21:04:                  23	30.74
21:04:                  53	30.74
21:05:                  23	30.74
21:05:                  53	30.73
21:06:                  23	30.73
21:06:                  53	30.73
21:07:                  23	30.74
21:07:                  53	30.75
21:08:                  23	30.74
21:08:                  53	30.73
21:09:                  23	30.74
21:09:                  53	30.75
21:10:                  23	30.76
21:10:                  53	30.76
21:11:                  23	30.75
21:11:                  53	30.76
21:12:                  23	30.75
21:12:                  53	30.75
21:13:                  23	30.75
21:13:                  53	30.75
21:14:                  23	30.75
21:14:                  53	30.75
21:15:                  23	30.73
21:15:                  53	30.74
21:16:                  23	30.75
21:16:                  53	30.75
21:17:                  23	30.75
21:17:                  53	30.76
21:18:                  23	30.75
21:18:                  53	30.74
21:19:                  23	30.74
21:19:                  53	30.74
21:20:                  23	30.75
21:20:                  53	30.75
21:21:                  23	30.75
21:21:                  53	30.76
21:22:                  23	30.77
21:22:                  53	30.76
21:23:                  24	30.75
21:23:                  54	30.76
21:24:                  24	30.76
21:24:                  54	30.77
21:25:                  24	30.76
21:25:                  54	30.76
21:26:                  24	30.74
21:26:                  54	30.75
21:27:                  24	30.74
21:27:                  54	30.75
21:28:                  24	30.76
21:28:                  54	30.78
21:29:                  24	30.79
21:29:                  54	30.78
21:30:                  24	30.78
21:30:                  54	30.78
21:31:                  24	30.79
21:31:                  54	30.79
21:32:                  24	30.78
21:32:                  54	30.79
21:33:                  24	30.80
21:33:                  54	30.78
21:34:                  24	30.77
21:34:                  54	30.78
21:35:                  24	30.79
21:35:                  54	30.77
21:36:                  24	30.77
21:36:                  54	30.77
21:37:                  24	30.78
21:37:                  54	30.79
21:38:                  24	30.78
21:38:                  54	30.77
21:39:                  24	30.74
21:39:                  54	30.75
21:40:                  24	30.76
21:40:                  54	30.76
21:41:                  24	30.76
21:41:                  55	30.77
21:42:                  25	30.76
21:42:                  55	30.78
21:43:                  25	30.77
21:43:                  55	30.78
21:44:                  25	30.77
21:44:                  55	30.78
21:45:                  25	30.79
21:45:                  55	30.78
21:46:                  25	30.78
21:46:                  55	30.78
21:47:                  25	30.78
21:47:                  55	30.78
21:48:                  25	30.77
21:48:                  55	30.76
21:49:                  25	30.77
21:49:                  55	30.76
21:50:                  25	30.76
21:50:                  55	30.78
21:51:                  25	30.76
21:51:                  55	30.77
21:52:                  25	30.75
21:52:                  55	30.78
21:53:                  25	30.78
21:53:                  55	30.78
21:54:                  25	30.78
21:54:                  55	30.77
21:55:                  25	30.77
21:55:                  55	30.77
21:56:                  25	30.76
21:56:                  55	30.77
21:57:                  25	30.78
21:57:                  55	30.78
21:58:                  25	30.78
21:58:                  55	30.78
21:59:                  25	30.78
21:59:                  56	30.78
22:00:                  26	30.78
22:00:                  56	30.78
22:01:                  26	30.77
22:01:                  56	30.76
22:02:                  26	30.76
22:02:                  56	30.77
22:03:                  26	30.77
22:03:                  56	30.78
22:04:                  26	30.76
22:04:                  56	30.76
22:05:                  26	30.77
22:05:                  56	30.76
22:06:                  26	30.77
22:06:                  56	30.78
22:07:                  26	30.78
22:07:                  56	30.77
22:08:                  26	30.76
22:08:                  56	30.77
22:09:                  26	30.77
22:09:                  56	30.77
22:10:                  26	30.78
22:10:                  56	30.78
22:11:                  26	30.78
22:11:                  56	30.76
22:12:                  26	30.78
22:12:                  56	30.76
22:13:                  26	30.76
22:13:                  56	30.77
22:14:                  26	30.78
22:14:                  56	30.77
22:15:                  26	30.78
22:15:                  56	30.78
22:16:                  26	30.77
22:16:                  56	30.77
22:17:                  26	30.77
22:17:                  56	30.76
22:18:                  26	30.76
22:18:                  57	30.76
22:19:                  27	30.75
22:19:                  57	30.75
22:20:                  27	30.76
22:20:                  57	30.76
22:21:                  27	30.77
22:21:                  57	30.78
22:22:                  27	30.78
22:22:                  57	30.78
22:23:                  27	30.78
22:23:                  57	30.78
22:24:                  27	30.77
22:24:                  57	30.78
22:25:                  27	30.76
22:25:                  57	30.76
22:26:                  27	30.78
22:26:                  57	30.78
22:27:                  27	30.78
22:27:                  57	30.76
22:28:                  27	30.78
22:28:                  57	30.78
22:29:                  27	30.78
22:29:                  57	30.78
22:30:                  27	30.76
22:30:                  57	30.77
22:31:                  27	30.78
22:31:                  57	30.76
22:32:                  27	30.76
22:32:                  57	30.76
22:33:                  27	30.76
22:33:                  57	30.77
22:34:                  27	30.76
22:34:                  57	30.78
22:35:                  28	30.78
22:35:                  58	30.78
22:36:                  28	30.78
22:36:                  58	30.78
22:37:                  28	30.78
22:37:                  58	30.78
22:38:                  28	30.78
22:38:                  58	30.78
22:39:                  28	30.77
22:39:                  58	30.79
22:40:                  28	30.79
22:40:                  58	30.79
22:41:                  28	30.79
22:41:                  58	30.79
22:42:                  28	30.77
22:42:                  58	30.78
22:43:                  28	30.77
22:43:                  58	30.78
22:44:                  28	30.78
22:44:                  58	30.78
22:45:                  28	30.78
22:45:                  58	30.78
22:46:                  28	30.78
22:46:                  58	30.78
22:47:                  28	30.80
22:47:                  58	30.79
22:48:                  28	30.78
22:48:                  58	30.80
22:49:                  28	30.80
22:49:                  58	30.79
22:50:                  28	30.80
22:50:                  58	30.79
22:51:                  28	30.79
22:51:                  58	30.78
22:52:                  28	30.78
22:52:                  58	30.79
22:53:                  28	30.80
22:53:                  58	30.80
22:54:                  28	30.80
22:54:                  58	30.80
22:55:                  29	30.81
22:55:                  59	30.80
22:56:                  29	30.79
22:56:                  59	30.80
22:57:                  29	30.80
22:57:                  59	30.79
22:58:                  29	30.80
22:58:                  59	30.79
22:59:                  29	30.79
22:59:                  59	30.80
23:00:                  29	30.79
23:00:                  59	30.80
23:01:                  29	30.81
23:01:                  59	30.82
23:02:                  29	30.81
23:02:                  59	30.81
23:03:                  29	30.81
23:03:                  59	30.79
23:04:                  29	30.80
23:04:                  59	30.80
23:05:                  29	30.81
23:05:                  59	30.80
23:06:                  29	30.80
23:06:                  59	30.80
23:07:                  29	30.80
23:07:                  59	30.79
23:08:                  29	30.79
23:08:                  59	30.79
23:09:                  29	30.80
23:09:                  59	30.79
23:10:                  29	30.80
23:10:                  59	30.80
23:11:                  29	30.79
23:11:                  59	30.79
23:12:                  29	30.79
23:12:                  59	30.78
23:13:                  29	30.78
23:13:                  59	30.78
23:14:                  29	30.78
23:14:                  59	30.78
23:15:                  29	30.79
23:15:                  59	30.78
23:16:                  29	30.79
23:16:                  59	30.79
23:17:                  29	30.79
23:17:                  59	30.80
23:18:                  29	30.81
23:18:                  59	30.80
23:19:                  29	30.80
23:20:                   0	30.81
23:20:                  30	30.80
23:21:                   0	30.80
23:21:                  30	30.80
23:22:                   0	30.79
23:22:                  30	30.79
23:23:                   0	30.79
23:23:                  30	30.79
23:24:                   0	30.80
23:24:                  30	30.80
23:25:                   0	30.79
23:25:                  30	30.80
23:26:                   0	30.80
23:26:                  30	30.83
23:27:                   0	30.82
23:27:                  30	30.81
23:28:                   0	30.82
23:28:                  30	30.82
23:29:                   0	30.82
23:29:                  30	30.82
23:30:                   0	30.82
23:30:                  30	30.81
23:31:                   0	30.81
23:31:                  30	30.80
23:32:                   0	30.82
23:32:                  30	30.82
23:33:                   0	30.81
23:33:                  30	30.81
23:34:                   0	30.82
23:34:                  30	30.82
23:35:                   0	30.81
23:35:                  30	30.82
23:36:                   0	30.80
23:36:                  30	30.80
23:37:                   0	30.82
23:37:                  30	30.83
23:38:                   0	30.85
23:38:                  30	30.84
23:39:                   0	30.85
23:39:                  30	30.83
23:40:                   0	30.84
23:40:                  30	30.83
23:41:                   1	30.83
23:41:                  31	30.82
23:42:                   1	30.82
23:42:                  31	30.82
23:43:                   1	30.81
23:43:                  31	30.83
23:44:                   1	30.83
23:44:                  31	30.82
23:45:                   1	30.82
23:45:                  31	30.83
23:46:                   1	30.82
23:46:                  31	30.83
23:47:                   1	30.82
23:47:                  31	30.82
23:48:                   1	30.83
23:48:                  31	30.83
23:49:                   1	30.83
23:49:                  31	30.82
23:50:                   1	30.83
23:50:                  31	30.82
23:51:                   1	30.83
23:51:                  31	30.83
23:52:                   1	30.82
23:52:                  31	30.82
23:53:                   1	30.83
23:53:                  31	30.82
23:54:                   1	30.82
23:54:                  31	30.82
23:55:                   1	30.81
23:55:                  31	30.81
23:56:                   1	30.82
23:56:                  31	30.82
23:57:                   1	30.82
23:57:                  31	30.82
23:58:                   1	30.82
23:58:                  31	30.82
23:59:                   1	30.81
23:59:                  31	30.81
