0:00:                   2	30.83
0:00:                  32	30.83
0:01:                   2	30.82
0:01:                  32	30.86
0:02:                   2	30.86
0:02:                  32	30.87
0:03:                   2	30.86
0:03:                  32	30.86
0:04:                   2	30.86
0:04:                  32	30.86
0:05:                   2	30.85
0:05:                  32	30.86
0:06:                   2	30.85
0:06:                  32	30.86
0:07:                   2	30.88
0:07:                  32	30.87
0:08:                   2	30.87
0:08:                  32	30.86
0:09:                   2	30.84
0:09:                  32	30.84
0:10:                   2	30.84
0:10:                  32	30.83
0:11:                   2	30.83
0:11:                  32	30.84
0:12:                   2	30.83
0:12:                  32	30.84
0:13:                   2	30.85
0:13:                  32	30.85
0:14:                   2	30.85
0:14:                  32	30.85
0:15:                   2	30.84
0:15:                  32	30.83
0:16:                   2	30.83
0:16:                  33	30.85
0:17:                   3	30.84
0:17:                  33	30.84
0:18:                   3	30.84
0:18:                  33	30.86
0:19:                   3	30.85
0:19:                  33	30.86
0:20:                   3	30.85
0:20:                  33	30.86
0:21:                   3	30.84
0:21:                  33	30.83
0:22:                   3	30.82
0:22:                  33	30.82
0:23:                   3	30.82
0:23:                  33	30.82
0:24:                   3	30.81
0:24:                  33	30.82
0:25:                   3	30.82
0:25:                  33	30.82
0:26:                   3	30.82
0:26:                  33	30.82
0:27:                   3	30.84
0:27:                  33	30.84
0:28:                   3	30.84
0:28:                  33	30.83
0:29:                   3	30.84
0:29:                  33	30.83
0:30:                   3	30.85
0:30:                  33	30.84
0:31:                   3	30.85
0:31:                  33	30.84
0:32:                   3	30.83
0:32:                  33	30.83
0:33:                   3	30.84
0:33:                  33	30.84
0:34:                   3	30.85
0:34:                  33	30.84
0:35:                   3	30.85
0:35:                  34	30.84
0:36:                   4	30.86
0:36:                  34	30.86
0:37:                   4	30.85
0:37:                  34	30.86
0:38:                   4	30.86
0:38:                  34	30.87
0:39:                   4	30.86
0:39:                  34	30.86
0:40:                   4	30.84
0:40:                  34	30.88
0:41:                   4	30.90
0:41:                  34	30.89
0:42:                   4	30.88
0:42:                  34	30.88
0:43:                   4	30.87
0:43:                  34	30.88
0:44:                   4	30.87
0:44:                  34	30.86
0:45:                   4	30.88
0:45:                  34	30.86
0:46:                   4	30.85
0:46:                  34	30.84
0:47:                   4	30.85
0:47:                  34	30.85
0:48:                   4	30.85
0:48:                  34	30.85
0:49:                   4	30.85
0:49:                  34	30.86
0:50:                   4	30.86
0:50:                  34	30.86
0:51:                   4	30.86
0:51:                  34	30.84
0:52:                   4	30.86
0:52:                  34	30.86
0:53:                   4	30.85
0:53:                  34	30.85
0:54:                   4	30.85
0:54:                  34	30.84
0:55:                   5	30.84
0:55:                  35	30.84
0:56:                   5	30.85
0:56:                  35	30.86
0:57:                   5	30.86
0:57:                  35	30.86
0:58:                   5	30.84
0:58:                  35	30.85
0:59:                   5	30.86
0:59:                  35	30.84
1:00:                   5	30.86
1:00:                  35	30.89
1:01:                   5	30.86
1:01:                  35	30.88
1:02:                   5	30.89
1:02:                  35	30.86
1:03:                   5	30.88
1:03:                  35	30.88
1:04:                   5	30.87
1:04:                  35	30.86
1:05:                   5	30.84
1:05:                  35	30.83
1:06:                   5	30.85
1:06:                  35	30.85
1:07:                   5	30.85
1:07:                  35	30.86
1:08:                   5	30.85
1:08:                  35	30.84
1:09:                   5	30.84
1:09:                  35	30.85
1:10:                   5	30.86
1:10:                  35	30.85
1:11:                   5	30.85
1:11:                  36	30.86
1:12:                   6	30.86
1:12:                  36	30.86
1:13:                   6	30.85
1:13:                  36	30.86
1:14:                   6	30.85
1:14:                  36	30.87
1:15:                   6	30.86
1:15:                  36	30.89
1:16:                   6	30.89
1:16:                  36	30.89
1:17:                   6	30.89
1:17:                  36	30.90
1:18:                   6	30.89
1:18:                  36	30.88
1:19:                   6	30.88
1:19:                  36	30.87
1:20:                   6	30.85
1:20:                  36	30.84
1:21:                   6	30.86
1:21:                  36	30.86
1:22:                   6	30.86
1:22:                  36	30.86
1:23:                   6	30.89
1:23:                  36	30.89
1:24:                   6	30.89
1:24:                  36	30.89
1:25:                   6	30.87
1:25:                  36	30.86
1:26:                   6	30.86
1:26:                  36	30.85
1:27:                   6	30.85
1:27:                  36	30.85
1:28:                   6	30.84
1:28:                  36	30.86
1:29:                   6	30.85
1:29:                  36	30.83
1:30:                   6	30.84
1:30:                  36	30.84
1:31:                   6	30.85
1:31:                  36	30.87
1:32:                   6	30.86
1:32:                  36	30.86
1:33:                   7	30.86
1:33:                  37	30.86
1:34:                   7	30.86
1:34:                  37	30.86
1:35:                   7	30.84
1:35:                  37	30.85
1:36:                   7	30.85
1:36:                  37	30.86
1:37:                   7	30.86
1:37:                  37	30.88
1:38:                   7	30.88
1:38:                  37	30.86
1:39:                   7	30.85
1:39:                  37	30.85
1:40:                   7	30.86
1:40:                  37	30.85
1:41:                   7	30.84
1:41:                  37	30.84
1:42:                   7	30.83
1:42:                  37	30.85
1:43:                   7	30.84
1:43:                  37	30.84
1:44:                   7	30.84
1:44:                  37	30.83
1:45:                   7	30.84
1:45:                  37	30.84
1:46:                   7	30.83
1:46:                  37	30.85
1:47:                   7	30.84
1:47:                  37	30.85
1:48:                   7	30.86
1:48:                  37	30.85
1:49:                   7	30.85
1:49:                  37	30.88
1:50:                   7	30.86
1:50:                  37	30.86
1:51:                   7	30.88
1:51:                  37	30.88
1:52:                   7	30.86
1:52:                  38	30.86
1:53:                   8	30.85
1:53:                  38	30.86
1:54:                   8	30.86
1:54:                  38	30.87
1:55:                   8	30.88
1:55:                  38	30.88
1:56:                   8	30.88
1:56:                  38	30.86
1:57:                   8	30.85
1:57:                  38	30.86
1:58:                   8	30.86
1:58:                  38	30.86
1:59:                   8	30.86
1:59:                  38	30.86
2:00:                   8	30.85
2:00:                  38	30.86
2:01:                   8	30.85
2:01:                  38	30.84
2:02:                   8	30.85
2:02:                  38	30.86
2:03:                   8	30.86
2:03:                  38	30.85
2:04:                   8	30.86
2:04:                  38	30.85
2:05:                   8	30.86
2:05:                  38	30.86
2:06:                   8	30.85
2:06:                  38	30.87
2:07:                   8	30.88
2:07:                  38	30.89
2:08:                   8	30.89
2:08:                  38	30.89
2:09:                   9	30.90
2:09:                  39	30.89
2:10:                   9	30.88
2:10:                  39	30.89
2:11:                   9	30.87
2:11:                  39	30.89
2:12:                   9	30.90
2:12:                  39	30.90
2:13:                   9	30.90
2:13:                  39	30.91
2:14:                   9	30.91
2:14:                  39	30.91
2:15:                   9	30.92
2:15:                  39	30.91
2:16:                   9	30.91
2:16:                  39	30.89
2:17:                   9	30.90
2:17:                  39	30.90
2:18:                   9	30.93
2:18:                  39	30.93
2:19:                   9	30.93
2:19:                  39	30.91
2:20:                   9	30.90
2:20:                  39	30.89
2:21:                   9	30.90
2:21:                  39	30.90
2:22:                   9	30.88
2:22:                  39	30.87
2:23:                   9	30.90
2:23:                  39	30.90
2:24:                   9	30.90
2:24:                  39	30.89
2:25:                   9	30.91
2:25:                  40	30.91
2:26:                  10	30.90
2:26:                  40	30.89
2:27:                  10	30.89
2:27:                  40	30.89
2:28:                  10	30.88
2:28:                  40	30.89
2:29:                  10	30.90
2:29:                  40	30.91
2:30:                  10	30.90
2:30:                  40	30.88
2:31:                  10	30.89
2:31:                  40	30.89
2:32:                  10	30.86
2:32:                  40	30.88
2:33:                  10	30.88
2:33:                  40	30.91
2:34:                  10	30.91
2:34:                  40	30.91
2:35:                  10	30.92
2:35:                  40	30.92
2:36:                  10	30.92
2:36:                  40	30.92
2:37:                  10	30.92
2:37:                  40	30.91
2:38:                  10	30.91
2:38:                  40	30.92
2:39:                  10	30.93
2:39:                  40	30.92
2:40:                  10	30.92
2:40:                  40	30.91
2:41:                  10	30.91
2:41:                  40	30.92
2:42:                  10	30.92
2:42:                  40	30.90
2:43:                  10	30.91
2:43:                  40	30.91
2:44:                  10	30.92
2:44:                  40	30.92
2:45:                  10	30.91
2:45:                  41	30.89
2:46:                  11	30.88
2:46:                  41	30.90
2:47:                  11	30.91
2:47:                  41	30.90
2:48:                  11	30.90
2:48:                  41	30.91
2:49:                  11	30.92
2:49:                  41	30.92
2:50:                  11	30.92
2:50:                  41	30.91
2:51:                  11	30.90
2:51:                  41	30.86
2:52:                  11	30.85
2:52:                  41	30.85
2:53:                  11	30.85
2:53:                  41	30.87
2:54:                  11	30.87
2:54:                  41	30.84
2:55:                  11	30.86
2:55:                  41	30.86
2:56:                  11	30.89
2:56:                  41	30.89
2:57:                  11	30.89
2:57:                  41	30.89
2:58:                  11	30.90
2:58:                  41	30.89
2:59:                  11	30.91
2:59:                  41	30.91
3:00:                  11	30.90
3:00:                  41	30.89
3:01:                  11	30.89
3:01:                  41	30.88
3:02:                  12	30.90
3:02:                  42	30.87
3:03:                  12	30.87
3:03:                  42	30.90
3:04:                  12	30.90
3:04:                  42	30.88
3:05:                  12	30.86
3:05:                  42	30.86
3:06:                  12	30.86
3:06:                  42	30.88
3:07:                  12	30.86
3:07:                  42	30.87
3:08:                  12	30.86
3:08:                  42	30.88
3:09:                  12	30.88
3:09:                  42	30.86
3:10:                  12	30.84
3:10:                  42	30.85
3:11:                  12	30.84
3:11:                  42	30.84
3:12:                  12	30.83
3:12:                  42	30.83
3:13:                  12	30.83
3:13:                  42	30.84
3:14:                  12	30.84
3:14:                  42	30.84
3:15:                  12	30.84
3:15:                  42	30.84
3:16:                  12	30.85
3:16:                  42	30.85
3:17:                  12	30.86
3:17:                  42	30.87
3:18:                  12	30.89
3:18:                  42	30.88
3:19:                  12	30.86
3:19:                  42	30.85
3:20:                  12	30.85
3:20:                  42	30.86
3:21:                  12	30.85
3:21:                  42	30.84
3:22:                  12	30.85
3:22:                  42	30.86
3:23:                  12	30.86
3:23:                  42	30.87
3:24:                  12	30.85
3:24:                  42	30.87
3:25:                  13	30.87
3:25:                  43	30.87
3:26:                  13	30.89
3:26:                  43	30.87
3:27:                  13	30.85
3:27:                  43	30.85
3:28:                  13	30.84
3:28:                  43	30.83
3:29:                  13	30.85
3:29:                  43	30.84
3:30:                  13	30.83
3:30:                  43	30.83
3:31:                  13	30.83
3:31:                  43	30.82
3:32:                  13	30.84
3:32:                  43	30.86
3:33:                  13	30.86
3:33:                  43	30.87
3:34:                  13	30.86
3:34:                  43	30.85
3:35:                  13	30.89
3:35:                  43	30.88
3:36:                  13	30.88
3:36:                  43	30.88
3:37:                  13	30.86
3:37:                  43	30.86
3:38:                  13	30.85
3:38:                  43	30.88
3:39:                  13	30.86
3:39:                  43	30.83
3:40:                  13	30.84
3:40:                  43	30.85
3:41:                  13	30.85
3:41:                  44	30.88
3:42:                  14	30.86
3:42:                  44	30.88
3:43:                  14	30.85
3:43:                  44	30.87
3:44:                  14	30.87
3:44:                  44	30.86
3:45:                  14	30.86
3:45:                  44	30.86
3:46:                  14	30.85
3:46:                  44	30.85
3:47:                  14	30.85
3:47:                  44	30.83
3:48:                  14	30.80
3:48:                  44	30.81
3:49:                  14	30.81
3:49:                  44	30.81
3:50:                  14	30.83
3:50:                  44	30.83
3:51:                  14	30.83
3:51:                  44	30.82
3:52:                  14	30.83
3:52:                  44	30.83
3:53:                  14	30.81
3:53:                  44	30.83
3:54:                  14	30.83
3:54:                  44	30.80
3:55:                  14	30.80
3:55:                  44	30.80
3:56:                  14	30.83
3:56:                  44	30.83
3:57:                  14	30.87
3:57:                  44	30.87
3:58:                  14	30.88
3:58:                  44	30.88
3:59:                  14	30.86
3:59:                  44	30.84
4:00:                  14	30.85
4:00:                  44	30.86
4:01:                  14	30.87
4:01:                  45	30.85
4:02:                  15	30.88
4:02:                  45	30.87
4:03:                  15	30.89
4:03:                  45	30.86
4:04:                  15	30.86
4:04:                  45	30.86
4:05:                  15	30.86
4:05:                  45	30.88
4:06:                  15	30.87
4:06:                  45	30.85
4:07:                  15	30.85
4:07:                  45	30.85
4:08:                  15	30.84
4:08:                  45	30.84
4:09:                  15	30.82
4:09:                  45	30.83
4:10:                  15	30.81
4:10:                  45	30.83
4:11:                  15	30.85
4:11:                  45	30.84
4:12:                  15	30.84
4:12:                  45	30.84
4:13:                  15	30.84
4:13:                  45	30.84
4:14:                  15	30.82
4:14:                  45	30.83
4:15:                  15	30.82
4:15:                  45	30.84
4:16:                  15	30.86
4:16:                  45	30.86
4:17:                  15	30.88
4:17:                  45	30.88
4:18:                  15	30.88
4:18:                  45	30.86
4:19:                  15	30.85
4:19:                  45	30.85
4:20:                  15	30.83
4:20:                  45	30.83
4:21:                  16	30.80
4:21:                  46	30.82
4:22:                  16	30.82
4:22:                  46	30.82
4:23:                  16	30.83
4:23:                  46	30.84
4:24:                  16	30.84
4:24:                  46	30.84
4:25:                  16	30.86
4:25:                  46	30.85
4:26:                  16	30.87
4:26:                  46	30.89
4:27:                  16	30.86
4:27:                  46	30.87
4:28:                  16	30.88
4:28:                  46	30.86
4:29:                  16	30.84
4:29:                  46	30.84
4:30:                  16	30.84
4:30:                  46	30.83
4:31:                  16	30.81
4:31:                  46	30.84
4:32:                  16	30.83
4:32:                  46	30.82
4:33:                  16	30.81
4:33:                  46	30.82
4:34:                  16	30.82
4:34:                  46	30.83
4:35:                  16	30.85
4:35:                  46	30.84
4:36:                  16	30.82
4:36:                  46	30.81
4:37:                  16	30.81
4:37:                  46	30.81
4:38:                  16	30.81
4:38:                  46	30.82
4:39:                  16	30.82
4:39:                  46	30.81
4:40:                  16	30.82
4:40:                  47	30.81
4:41:                  17	30.82
4:41:                  47	30.82
4:42:                  17	30.81
4:42:                  47	30.83
4:43:                  17	30.81
4:43:                  47	30.82
4:44:                  17	30.82
4:44:                  47	30.83
4:45:                  17	30.85
4:45:                  47	30.84
4:46:                  17	30.87
4:46:                  47	30.84
4:47:                  17	30.85
4:47:                  47	30.86
4:48:                  17	30.86
4:48:                  47	30.87
4:49:                  17	30.88
4:49:                  47	30.88
4:50:                  17	30.86
4:50:                  47	30.85
4:51:                  17	30.83
4:51:                  47	30.85
4:52:                  17	30.85
4:52:                  47	30.84
4:53:                  17	30.84
4:53:                  47	30.83
4:54:                  17	30.85
4:54:                  47	30.84
4:55:                  17	30.84
4:55:                  47	30.83
4:56:                  17	30.85
4:56:                  47	30.85
4:57:                  18	30.83
4:57:                  48	30.83
4:58:                  18	30.86
4:58:                  48	30.86
4:59:                  18	30.87
4:59:                  48	30.87
5:00:                  18	30.86
5:00:                  48	30.84
5:01:                  18	30.86
5:01:                  48	30.85
5:02:                  18	30.85
5:02:                  48	30.85
5:03:                  18	30.84
5:03:                  48	30.85
5:04:                  18	30.86
5:04:                  48	30.85
5:05:                  18	30.88
5:05:                  48	30.88
5:06:                  18	30.87
5:06:                  48	30.86
5:07:                  18	30.85
5:07:                  48	30.86
5:08:                  18	30.87
5:08:                  48	30.86
5:09:                  18	30.85
5:09:                  48	30.83
5:10:                  18	30.81
5:10:                  48	30.80
5:11:                  18	30.81
5:11:                  48	30.81
5:12:                  18	30.82
5:12:                  48	30.83
5:13:                  18	30.84
5:13:                  49	30.82
5:14:                  19	30.82
5:14:                  49	30.85
5:15:                  19	30.85
5:15:                  49	30.87
5:16:                  19	30.86
5:16:                  49	30.85
5:17:                  19	30.85
5:17:                  49	30.86
5:18:                  19	30.85
5:18:                  49	30.87
5:19:                  19	30.86
5:19:                  49	30.85
5:20:                  19	30.84
5:20:                  49	30.84
5:21:                  19	30.83
5:21:                  49	30.83
5:22:                  19	30.83
5:22:                  49	30.83
5:23:                  19	30.84
5:23:                  49	30.85
5:24:                  19	30.83
5:24:                  49	30.84
5:25:                  19	30.84
5:25:                  49	30.84
5:26:                  19	30.84
5:26:                  49	30.82
5:27:                  19	30.84
5:27:                  49	30.84
5:28:                  19	30.85
5:28:                  49	30.83
5:29:                  19	30.85
5:29:                  49	30.85
5:30:                  19	30.84
5:30:                  49	30.84
5:31:                  19	30.83
5:31:                  49	30.83
5:32:                  19	30.83
5:32:                  49	30.83
5:33:                  19	30.82
5:33:                  49	30.80
5:34:                  20	30.79
5:34:                  50	30.80
5:35:                  20	30.82
5:35:                  50	30.82
5:36:                  20	30.81
5:36:                  50	30.81
5:37:                  20	30.82
5:37:                  50	30.80
5:38:                  20	30.79
5:38:                  50	30.79
5:39:                  20	30.80
5:39:                  50	30.80
5:40:                  20	30.80
5:40:                  50	30.78
5:41:                  20	30.81
5:41:                  50	30.81
5:42:                  20	30.82
5:42:                  50	30.84
5:43:                  20	30.83
5:43:                  50	30.82
5:44:                  20	30.81
5:44:                  50	30.81
5:45:                  20	30.84
5:45:                  50	30.83
5:46:                  20	30.82
5:46:                  50	30.81
5:47:                  20	30.79
5:47:                  50	30.79
5:48:                  20	30.81
5:48:                  50	30.83
5:49:                  20	30.84
5:49:                  50	30.85
5:50:                  20	30.86
5:50:                  50	30.88
5:51:                  20	30.85
5:51:                  50	30.86
5:52:                  20	30.86
5:52:                  50	30.86
5:53:                  20	30.86
5:53:                  50	30.88
5:54:                  20	30.88
5:54:                  50	30.86
5:55:                  20	30.89
5:55:                  51	30.87
5:56:                  21	30.86
5:56:                  51	30.86
5:57:                  21	30.86
5:57:                  51	30.84
5:58:                  21	30.84
5:58:                  51	30.83
5:59:                  21	30.82
5:59:                  51	30.83
6:00:                  21	30.83
6:00:                  51	30.82
6:01:                  21	30.82
6:01:                  51	30.83
6:02:                  21	30.82
6:02:                  51	30.82
6:03:                  21	30.82
6:03:                  51	30.82
6:04:                  21	30.82
6:04:                  51	30.82
6:05:                  21	30.81
6:05:                  51	30.81
6:06:                  21	30.80
6:06:                  51	30.79
6:07:                  21	30.80
6:07:                  51	30.79
6:08:                  21	30.78
6:08:                  51	30.80
6:09:                  21	30.80
6:09:                  51	30.78
6:10:                  21	30.74
6:10:                  51	30.76
6:11:                  21	30.76
6:11:                  51	30.77
6:12:                  21	30.79
6:12:                  51	30.77
6:13:                  21	30.78
6:13:                  51	30.78
6:14:                  21	30.77
6:14:                  52	30.76
6:15:                  22	30.75
6:15:                  52	30.75
6:16:                  22	30.74
6:16:                  52	30.74
6:17:                  22	30.76
6:17:                  52	30.75
6:18:                  22	30.76
6:18:                  52	30.78
6:19:                  22	30.78
6:19:                  52	30.80
6:20:                  22	30.79
6:20:                  52	30.76
6:21:                  22	30.79
6:21:                  52	30.79
6:22:                  22	30.79
6:22:                  52	30.78
6:23:                  22	30.79
6:23:                  52	30.78
6:24:                  22	30.78
6:24:                  52	30.79
6:25:                  22	30.77
6:25:                  52	30.78
6:26:                  22	30.77
6:26:                  52	30.79
6:27:                  22	30.79
6:27:                  52	30.78
6:28:                  22	30.76
6:28:                  52	30.77
6:29:                  22	30.77
6:29:                  52	30.76
6:30:                  22	30.76
6:30:                  52	30.75
6:31:                  22	30.76
6:31:                  52	30.76
6:32:                  23	30.77
6:32:                  53	30.78
6:33:                  23	30.77
6:33:                  53	30.75
6:34:                  23	30.75
6:34:                  53	30.75
6:35:                  23	30.76
6:35:                  53	30.75
6:36:                  23	30.75
6:36:                  53	30.76
6:37:                  23	30.76
6:37:                  53	30.75
6:38:                  23	30.75
6:38:                  53	30.75
6:39:                  23	30.75
6:39:                  53	30.75
6:40:                  23	30.73
6:40:                  53	30.75
6:41:                  23	30.75
6:41:                  53	30.74
6:42:                  23	30.74
6:42:                  53	30.74
6:43:                  23	30.76
6:43:                  53	30.75
6:44:                  23	30.75
6:44:                  53	30.75
6:45:                  23	30.73
6:45:                  53	30.75
6:46:                  23	30.74
6:46:                  53	30.73
6:47:                  23	30.72
6:47:                  53	30.73
6:48:                  23	30.73
6:48:                  53	30.71
6:49:                  23	30.72
6:49:                  53	30.71
6:50:                  23	30.70
6:50:                  53	30.71
6:51:                  24	30.70
6:51:                  54	30.69
6:52:                  24	30.68
6:52:                  54	30.70
6:53:                  24	30.70
6:53:                  54	30.71
6:54:                  24	30.70
6:54:                  54	30.71
6:55:                  24	30.72
6:55:                  54	30.70
6:56:                  24	30.73
6:56:                  54	30.72
6:57:                  24	30.71
6:57:                  54	30.71
6:58:                  24	30.71
6:58:                  54	30.72
6:59:                  24	30.71
6:59:                  54	30.71
7:00:                  24	30.72
7:00:                  54	30.72
7:01:                  24	30.73
7:01:                  54	30.74
7:02:                  24	30.74
7:02:                  54	30.74
7:03:                  24	30.75
7:03:                  54	30.76
7:04:                  24	30.76
7:04:                  54	30.77
7:05:                  24	30.76
7:05:                  54	30.76
7:06:                  24	30.74
7:06:                  54	30.74
7:07:                  25	30.74
7:07:                  55	30.75
7:08:                  25	30.72
7:08:                  55	30.72
7:09:                  25	30.73
7:09:                  55	30.74
7:10:                  25	30.74
7:10:                  55	30.75
7:11:                  25	30.76
7:11:                  55	30.76
7:12:                  25	30.75
7:12:                  55	30.76
7:13:                  25	30.76
7:13:                  55	30.76
7:14:                  25	30.74
7:14:                  55	30.75
7:15:                  25	30.75
7:15:                  55	30.75
7:16:                  25	30.74
7:16:                  55	30.75
7:17:                  25	30.73
7:17:                  55	30.72
7:18:                  25	30.73
7:18:                  55	30.72
7:19:                  25	30.73
7:19:                  55	30.73
7:20:                  25	30.71
7:20:                  55	30.72
7:21:                  25	30.71
7:21:                  55	30.71
7:22:                  25	30.72
7:22:                  55	30.72
7:23:                  25	30.71
7:23:                  55	30.70
7:24:                  25	30.71
7:24:                  55	30.69
7:25:                  25	30.69
7:25:                  55	30.69
7:26:                  25	30.69
7:26:                  56	30.69
7:27:                  26	30.69
7:27:                  56	30.68
7:28:                  26	30.68
7:28:                  56	30.68
7:29:                  26	30.68
7:29:                  56	30.68
7:30:                  26	30.69
7:30:                  56	30.67
7:31:                  26	30.68
7:31:                  56	30.66
7:32:                  26	30.67
7:32:                  56	30.67
7:33:                  26	30.68
7:33:                  56	30.69
7:34:                  26	30.68
7:34:                  56	30.68
7:35:                  26	30.66
7:35:                  56	30.67
7:36:                  26	30.67
7:36:                  56	30.66
7:37:                  26	30.66
7:37:                  56	30.66
7:38:                  26	30.64
7:38:                  56	30.65
7:39:                  26	30.65
7:39:                  56	30.66
7:40:                  26	30.65
7:40:                  56	30.66
7:41:                  26	30.67
7:41:                  56	30.68
7:42:                  27	30.67
7:42:                  57	30.68
7:43:                  27	30.67
7:43:                  57	30.69
7:44:                  27	30.68
7:44:                  57	30.68
7:45:                  27	30.67
7:45:                  57	30.68
7:46:                  27	30.68
7:46:                  57	30.65
7:47:                  27	30.67
7:47:                  57	30.67
7:48:                  27	30.68
7:48:                  57	30.67
7:49:                  27	30.66
7:49:                  57	30.66
7:50:                  27	30.65
7:50:                  57	30.66
7:51:                  27	30.64
7:51:                  57	30.65
7:52:                  27	30.65
7:52:                  57	30.65
7:53:                  27	30.68
7:53:                  57	30.67
7:54:                  27	30.66
7:54:                  57	30.65
7:55:                  27	30.66
7:55:                  57	30.66
7:56:                  27	30.67
7:56:                  57	30.65
7:57:                  27	30.65
7:57:                  57	30.64
7:58:                  27	30.66
7:58:                  58	30.66
7:59:                  28	30.68
7:59:                  58	30.67
8:00:                  28	30.67
8:00:                  58	30.67
8:01:                  28	30.67
8:01:                  58	30.67
8:02:                  28	30.69
8:02:                  58	30.67
8:03:                  28	30.66
8:03:                  58	30.67
8:04:                  28	30.69
8:04:                  58	30.68
8:05:                  28	30.65
8:05:                  58	30.66
8:06:                  28	30.66
8:06:                  58	30.66
8:07:                  28	30.67
8:07:                  58	30.67
8:08:                  28	30.68
8:08:                  58	30.68
8:09:                  28	30.68
8:09:                  58	30.67
8:10:                  28	30.67
8:10:                  58	30.68
8:11:                  28	30.67
8:11:                  58	30.67
8:12:                  28	30.67
8:12:                  58	30.66
8:13:                  28	30.67
8:13:                  58	30.66
8:14:                  28	30.66
8:14:                  58	30.67
8:15:                  29	30.68
8:15:                  59	30.68
8:16:                  29	30.68
8:16:                  59	30.68
8:17:                  29	30.69
8:17:                  59	30.69
8:18:                  29	30.68
8:18:                  59	30.67
8:19:                  29	30.66
8:19:                  59	30.65
8:20:                  29	30.64
8:20:                  59	30.64
8:21:                  29	30.65
8:21:                  59	30.64
8:22:                  29	30.64
8:22:                  59	30.63
8:23:                  29	30.63
8:23:                  59	30.64
8:24:                  29	30.66
8:24:                  59	30.66
8:25:                  29	30.66
8:25:                  59	30.67
8:26:                  29	30.67
8:26:                  59	30.65
8:27:                  29	30.67
8:27:                  59	30.67
8:28:                  29	30.66
8:28:                  59	30.66
8:29:                  29	30.66
8:29:                  59	30.65
8:30:                  29	30.66
8:30:                  59	30.65
8:31:                  29	30.66
8:31:                  59	30.66
8:32:                  29	30.67
8:32:                  59	30.67
8:33:                  29	30.68
8:33:                  59	30.68
8:34:                  30	30.67
8:35:                   0	30.67
8:35:                  30	30.68
8:36:                   0	30.67
8:36:                  30	30.67
8:37:                   0	30.67
8:37:                  30	30.68
8:38:                   0	30.68
8:38:                  30	30.68
8:39:                   0	30.68
8:39:                  30	30.67
8:40:                   0	30.68
8:40:                  30	30.68
8:41:                   0	30.69
8:41:                  30	30.70
8:42:                   0	30.71
8:42:                  30	30.69
8:43:                   0	30.70
8:43:                  30	30.69
8:44:                   0	30.69
8:44:                  30	30.67
8:45:                   0	30.67
8:45:                  30	30.67
8:46:                   0	30.66
8:46:                  30	30.66
8:47:                   0	30.66
8:47:                  30	30.67
8:48:                   0	30.67
8:48:                  30	30.67
8:49:                   0	30.66
8:49:                  30	30.66
8:50:                   0	30.67
8:50:                  30	30.67
8:51:                   1	30.67
8:51:                  31	30.67
8:52:                   1	30.67
8:52:                  31	30.65
8:53:                   1	30.67
8:53:                  31	30.65
8:54:                   1	30.66
8:54:                  31	30.65
8:55:                   1	30.66
8:55:                  31	30.66
8:56:                   1	30.66
8:56:                  31	30.66
8:57:                   1	30.65
8:57:                  31	30.64
8:58:                   1	30.65
8:58:                  31	30.64
8:59:                   1	30.64
8:59:                  31	30.64
9:00:                   1	30.65
9:00:                  31	30.64
9:01:                   1	30.65
9:01:                  31	30.65
9:02:                   1	30.65
9:02:                  31	30.62
9:03:                   1	30.63
9:03:                  31	30.65
9:04:                   1	30.66
9:04:                  31	30.66
9:05:                   1	30.66
9:05:                  31	30.64
9:06:                   1	30.64
9:06:                  31	30.67
9:07:                   1	30.69
9:07:                  31	30.67
9:08:                   2	30.67
9:08:                  32	30.69
9:09:                   2	30.70
9:09:                  32	30.69
9:10:                   2	30.70
9:10:                  32	30.71
9:11:                   2	30.71
9:11:                  32	30.72
9:12:                   2	30.72
9:12:                  32	30.74
9:13:                   2	30.74
9:13:                  32	30.73
9:14:                   2	30.72
9:14:                  32	30.72
9:15:                   2	30.73
9:15:                  32	30.71
9:16:                   2	30.72
9:16:                  32	30.74
9:17:                   2	30.74
9:17:                  32	30.76
9:18:                   2	30.74
9:18:                  32	30.74
9:19:                   2	30.73
9:19:                  32	30.73
9:20:                   2	30.73
9:20:                  32	30.72
9:21:                   2	30.72
9:21:                  32	30.73
9:22:                   2	30.72
9:22:                  32	30.71
9:23:                   2	30.72
9:23:                  32	30.71
9:24:                   2	30.71
9:24:                  32	30.71
9:25:                   2	30.71
9:25:                  32	30.70
9:26:                   2	30.70
9:26:                  32	30.70
9:27:                   2	30.70
9:27:                  32	30.70
9:28:                   2	30.73
9:28:                  32	30.73
9:29:                   3	30.73
9:29:                  33	30.74
9:30:                   3	30.73
9:30:                  33	30.72
9:31:                   3	30.71
9:31:                  33	30.72
9:32:                   3	30.71
9:32:                  33	30.72
9:33:                   3	30.73
9:33:                  33	30.74
9:34:                   3	30.73
9:34:                  33	30.74
9:35:                   3	30.73
9:35:                  33	30.73
9:36:                   3	30.72
9:36:                  33	30.73
9:37:                   3	30.73
9:37:                  33	30.75
9:38:                   3	30.74
9:38:                  33	30.72
9:39:                   3	30.72
9:39:                  33	30.73
9:40:                   3	30.75
9:40:                  33	30.75
9:41:                   3	30.75
9:41:                  33	30.74
9:42:                   3	30.75
9:42:                  33	30.75
9:43:                   3	30.75
9:43:                  33	30.75
9:44:                   3	30.76
9:44:                  33	30.75
9:45:                   3	30.72
9:45:                  33	30.72
9:46:                   3	30.72
9:46:                  33	30.69
9:47:                   3	30.67
9:47:                  33	30.67
9:48:                   3	30.67
9:48:                  33	30.67
9:49:                   4	30.65
9:49:                  34	30.65
9:50:                   4	30.64
9:50:                  34	30.64
9:51:                   4	30.65
9:51:                  34	30.65
9:52:                   4	30.67
9:52:                  34	30.67
9:53:                   4	30.67
9:53:                  34	30.66
9:54:                   4	30.69
9:54:                  34	30.70
9:55:                   4	30.70
9:55:                  34	30.72
9:56:                   4	30.73
9:56:                  34	30.71
9:57:                   4	30.71
9:57:                  34	30.71
9:58:                   4	30.72
9:58:                  34	30.71
9:59:                   4	30.71
9:59:                  34	30.72
10:00:                   4	30.72
10:00:                  34	30.73
10:01:                   4	30.75
10:01:                  34	30.72
10:02:                   4	30.71
10:02:                  34	30.72
10:03:                   4	30.72
10:03:                  34	30.71
10:04:                   4	30.72
10:04:                  34	30.71
10:05:                   4	30.70
10:05:                  35	30.68
10:06:                   5	30.69
10:06:                  35	30.69
10:07:                   5	30.70
10:07:                  35	30.70
10:08:                   5	30.71
10:08:                  35	30.73
10:09:                   5	30.71
10:09:                  35	30.71
10:10:                   5	30.74
10:10:                  35	30.74
10:11:                   5	30.73
10:11:                  35	30.73
10:12:                   5	30.74
10:12:                  35	30.73
10:13:                   5	30.72
10:13:                  35	30.73
10:14:                   5	30.72
10:14:                  35	30.71
10:15:                   5	30.71
10:15:                  35	30.71
10:16:                   5	30.73
10:16:                  35	30.74
10:17:                   5	30.74
10:17:                  35	30.74
10:18:                   5	30.74
10:18:                  35	30.73
10:19:                   5	30.73
10:19:                  35	30.72
10:20:                   5	30.70
10:20:                  35	30.71
10:21:                   5	30.71
10:21:                  35	30.72
10:22:                   6	30.71
10:22:                  36	30.69
10:23:                   6	30.68
10:23:                  36	30.67
10:24:                   6	30.68
10:24:                  36	30.70
10:25:                   6	30.72
10:25:                  36	30.72
10:26:                   6	30.73
10:26:                  36	30.72
10:27:                   6	30.73
10:27:                  36	30.73
10:28:                   6	30.70
10:28:                  36	30.71
10:29:                   6	30.73
10:29:                  36	30.74
10:30:                   6	30.75
10:30:                  36	30.76
10:31:                   6	30.76
10:31:                  36	30.75
10:32:                   6	30.76
10:32:                  36	30.77
10:33:                   6	30.78
10:33:                  36	30.76
10:34:                   6	30.77
10:34:                  36	30.77
10:35:                   6	30.74
10:35:                  36	30.75
10:36:                   6	30.73
10:36:                  36	30.70
10:37:                   6	30.72
10:37:                  36	30.70
10:38:                   6	30.69
10:38:                  36	30.69
10:39:                   6	30.71
10:39:                  36	30.72
10:40:                   6	30.73
10:40:                  36	30.72
10:41:                   6	30.75
10:41:                  36	30.75
10:42:                   7	30.78
10:42:                  37	30.77
10:43:                   7	30.76
10:43:                  37	30.75
10:44:                   7	30.74
10:44:                  37	30.74
10:45:                   7	30.74
10:45:                  37	30.73
10:46:                   7	30.72
10:46:                  37	30.72
10:47:                   7	30.72
10:47:                  37	30.73
10:48:                   7	30.72
10:48:                  37	30.71
10:49:                   7	30.70
10:49:                  37	30.72
10:50:                   7	30.73
10:50:                  37	30.72
10:51:                   7	30.73
10:51:                  37	30.74
10:52:                   7	30.74
10:52:                  37	30.76
10:53:                   7	30.76
10:53:                  37	30.78
10:54:                   7	30.77
10:54:                  37	30.80
10:55:                   7	30.80
10:55:                  37	30.79
10:56:                   7	30.79
10:56:                  37	30.79
10:57:                   7	30.79
10:57:                  37	30.78
10:58:                   7	30.78
10:58:                  38	30.79
10:59:                   8	30.78
10:59:                  38	30.76
11:00:                   8	30.77
11:00:                  38	30.77
11:01:                   8	30.77
11:01:                  38	30.76
11:02:                   8	30.77
11:02:                  38	30.74
11:03:                   8	30.73
11:03:                  38	30.74
11:04:                   8	30.75
11:04:                  38	30.74
11:05:                   8	30.74
11:05:                  38	30.76
11:06:                   8	30.78
11:06:                  38	30.78
11:07:                   8	30.79
11:07:                  38	30.79
11:08:                   8	30.78
11:08:                  38	30.79
11:09:                   8	30.79
11:09:                  38	30.78
11:10:                   8	30.75
11:10:                  38	30.73
11:11:                   8	30.74
11:11:                  38	30.76
11:12:                   8	30.76
11:12:                  38	30.78
11:13:                   8	30.80
11:13:                  38	30.80
11:14:                   8	30.78
11:14:                  38	30.76
11:15:                   9	30.77
11:15:                  39	30.75
11:16:                   9	30.76
11:16:                  39	30.78
11:17:                   9	30.80
11:17:                  39	30.79
11:18:                   9	30.79
11:18:                  39	30.75
11:19:                   9	30.74
11:19:                  39	30.75
11:20:                   9	30.75
11:20:                  39	30.75
11:21:                   9	30.73
11:21:                  39	30.73
11:22:                   9	30.74
11:22:                  39	30.74
11:23:                   9	30.74
11:23:                  39	30.74
11:24:                   9	30.76
11:24:                  39	30.75
11:25:                   9	30.74
11:25:                  39	30.75
11:26:                   9	30.73
11:26:                  39	30.72
11:27:                   9	30.74
11:27:                  39	30.76
11:28:                   9	30.74
11:28:                  39	30.75
11:29:                   9	30.76
11:29:                  39	30.76
11:30:                   9	30.76
11:30:                  39	30.75
11:31:                   9	30.76
11:31:                  39	30.76
11:32:                   9	30.76
11:32:                  39	30.75
11:33:                   9	30.77
11:33:                  39	30.78
11:34:                   9	30.76
11:34:                  39	30.76
11:35:                  10	30.76
11:35:                  40	30.76
11:36:                  10	30.74
11:36:                  40	30.74
11:37:                  10	30.77
11:37:                  40	30.79
11:38:                  10	30.79
11:38:                  40	30.78
11:39:                  10	30.78
11:39:                  40	30.80
11:40:                  10	30.81
11:40:                  40	30.80
11:41:                  10	30.81
11:41:                  40	30.82
11:42:                  10	30.82
11:42:                  40	30.82
11:43:                  10	30.81
11:43:                  40	30.81
11:44:                  10	30.82
11:44:                  40	30.83
11:45:                  10	30.84
11:45:                  40	30.84
11:46:                  10	30.84
11:46:                  40	30.83
11:47:                  10	30.83
11:47:                  40	30.82
11:48:                  10	30.81
11:48:                  40	30.82
11:49:                  10	30.83
11:49:                  40	30.83
11:50:                  10	30.84
11:50:                  40	30.84
11:51:                  10	30.83
11:51:                  41	30.83
11:52:                  11	30.83
11:52:                  41	30.83
11:53:                  11	30.83
11:53:                  41	30.84
11:54:                  11	30.84
11:54:                  41	30.84
11:55:                  11	30.83
11:55:                  41	30.84
11:56:                  11	30.84
11:56:                  41	30.84
11:57:                  11	30.84
11:57:                  41	30.85
11:58:                  11	30.83
11:58:                  41	30.82
11:59:                  11	30.81
11:59:                  41	30.81
12:00:                  11	30.83
12:00:                  41	30.82
12:01:                  11	30.82
12:01:                  41	30.81
12:02:                  11	30.81
12:02:                  41	30.83
12:03:                  11	30.84
12:03:                  41	30.84
12:04:                  11	30.84
12:04:                  41	30.83
12:05:                  11	30.84
12:05:                  41	30.83
12:06:                  11	30.84
12:06:                  41	30.82
12:07:                  11	30.82
12:07:                  41	30.80
12:08:                  11	30.78
12:08:                  41	30.76
12:09:                  11	30.79
12:09:                  41	30.79
12:10:                  11	30.80
12:10:                  41	30.81
12:11:                  11	30.82
12:11:                  42	30.81
12:12:                  12	30.82
12:12:                  42	30.83
12:13:                  12	30.84
12:13:                  42	30.84
12:14:                  12	30.84
12:14:                  42	30.84
12:15:                  12	30.84
12:15:                  42	30.85
12:16:                  12	30.85
12:16:                  42	30.85
12:17:                  12	30.84
12:17:                  42	30.86
12:18:                  12	30.86
12:18:                  42	30.88
12:19:                  12	30.88
12:19:                  42	30.89
12:20:                  12	30.89
12:20:                  42	30.89
12:21:                  12	30.86
12:21:                  42	30.86
12:22:                  12	30.85
12:22:                  42	30.86
12:23:                  12	30.88
12:23:                  42	30.86
12:24:                  12	30.86
12:24:                  42	30.85
12:25:                  12	30.88
12:25:                  42	30.86
12:26:                  12	30.86
12:26:                  42	30.86
12:27:                  12	30.86
12:27:                  42	30.87
12:28:                  12	30.86
12:28:                  42	30.86
12:29:                  12	30.89
12:29:                  42	30.88
12:30:                  12	30.89
12:30:                  42	30.89
12:31:                  12	30.88
12:31:                  42	30.86
12:32:                  12	30.85
12:32:                  42	30.86
12:33:                  12	30.86
12:33:                  42	30.86
12:34:                  12	30.86
12:34:                  43	30.85
12:35:                  13	30.85
12:35:                  43	30.86
12:36:                  13	30.85
12:36:                  43	30.86
12:37:                  13	30.86
12:37:                  43	30.88
12:38:                  13	30.89
12:38:                  43	30.86
12:39:                  13	30.88
12:39:                  43	30.89
12:40:                  13	30.90
12:40:                  43	30.89
12:41:                  13	30.89
12:41:                  43	30.89
12:42:                  13	30.87
12:42:                  43	30.85
12:43:                  13	30.84
12:43:                  43	30.84
12:44:                  13	30.83
12:44:                  43	30.85
12:45:                  13	30.86
12:45:                  43	30.89
12:46:                  13	30.89
12:46:                  43	30.89
12:47:                  13	30.90
12:47:                  43	30.89
12:48:                  13	30.89
12:48:                  43	30.90
12:49:                  13	30.91
12:49:                  43	30.91
12:50:                  13	30.91
12:50:                  43	30.91
12:51:                  13	30.90
12:51:                  43	30.89
12:52:                  13	30.89
12:52:                  43	30.91
12:53:                  13	30.92
12:53:                  43	30.92
12:54:                  13	30.92
12:54:                  44	30.92
12:55:                  14	30.91
12:55:                  44	30.90
12:56:                  14	30.91
12:56:                  44	30.91
12:57:                  14	30.91
12:57:                  44	30.92
12:58:                  14	30.92
12:58:                  44	30.92
12:59:                  14	30.90
12:59:                  44	30.91
13:00:                  14	30.90
13:00:                  44	30.91
13:01:                  14	30.91
13:01:                  44	30.89
13:02:                  14	30.90
13:02:                  44	30.90
13:03:                  14	30.89
13:03:                  44	30.90
13:04:                  14	30.91
13:04:                  44	30.90
13:05:                  14	30.92
13:05:                  44	30.93
13:06:                  14	30.93
13:06:                  44	30.93
13:07:                  14	30.93
13:07:                  44	30.93
13:08:                  14	30.92
13:08:                  44	30.92
13:09:                  14	30.93
13:09:                  44	30.93
13:10:                  14	30.93
13:10:                  44	30.92
13:11:                  14	30.93
13:11:                  44	30.92
13:12:                  14	30.93
13:12:                  44	30.93
13:13:                  14	30.91
13:13:                  44	30.93
13:14:                  14	30.94
13:14:                  44	30.94
13:15:                  14	30.93
13:15:                  44	30.93
13:16:                  14	30.93
13:16:                  45	30.93
13:17:                  15	30.93
13:17:                  45	30.92
13:18:                  15	30.92
13:18:                  45	30.91
13:19:                  15	30.91
13:19:                  45	30.93
13:20:                  15	30.92
13:20:                  45	30.95
13:21:                  15	30.93
13:21:                  45	30.93
13:22:                  15	30.93
13:22:                  45	30.94
13:23:                  15	30.95
13:23:                  45	30.94
13:24:                  15	30.94
13:24:                  45	30.95
13:25:                  15	30.93
13:25:                  45	30.93
13:26:                  15	30.93
13:26:                  45	30.93
13:27:                  15	30.92
13:27:                  45	30.94
13:28:                  15	30.92
13:28:                  45	30.90
13:29:                  15	30.92
13:29:                  45	30.92
13:30:                  15	30.93
13:30:                  45	30.93
13:31:                  15	30.92
13:31:                  45	30.92
13:32:                  15	30.92
13:32:                  45	30.92
13:33:                  15	30.91
13:33:                  45	30.93
13:34:                  15	30.93
13:34:                  45	30.94
13:35:                  15	30.95
13:35:                  45	30.95
13:36:                  15	30.92
13:36:                  46	30.94
13:37:                  16	30.95
13:37:                  46	30.95
13:38:                  16	30.95
13:38:                  46	30.96
13:39:                  16	30.95
13:39:                  46	30.95
13:40:                  16	30.95
13:40:                  46	30.96
13:41:                  16	30.95
13:41:                  46	30.95
13:42:                  16	30.95
13:42:                  46	30.96
13:43:                  16	30.95
13:43:                  46	30.93
13:44:                  16	30.95
13:44:                  46	30.95
13:45:                  16	30.94
13:45:                  46	30.94
13:46:                  16	30.95
13:46:                  46	30.95
13:47:                  16	30.93
13:47:                  46	30.93
13:48:                  16	30.93
13:48:                  46	30.91
13:49:                  16	30.91
13:49:                  46	30.91
13:50:                  16	30.91
13:50:                  46	30.91
13:51:                  16	30.93
13:51:                  46	30.91
13:52:                  16	30.92
13:52:                  46	30.92
13:53:                  16	30.91
13:53:                  46	30.90
13:54:                  16	30.89
13:54:                  46	30.89
13:55:                  16	30.87
13:55:                  46	30.86
13:56:                  17	30.87
13:56:                  47	30.88
13:57:                  17	30.89
13:57:                  47	30.87
13:58:                  17	30.89
13:58:                  47	30.91
13:59:                  17	30.90
13:59:                  47	30.90
14:00:                  17	30.91
14:00:                  47	30.91
14:01:                  17	30.91
14:01:                  47	30.91
14:02:                  17	30.91
14:02:                  47	30.91
14:03:                  17	30.92
14:03:                  47	30.93
14:04:                  17	30.93
14:04:                  47	30.91
14:05:                  17	30.92
14:05:                  47	30.94
14:06:                  17	30.92
14:06:                  47	30.91
14:07:                  17	30.90
14:07:                  47	30.90
14:08:                  17	30.90
14:08:                  47	30.90
14:09:                  17	30.90
14:09:                  47	30.91
14:10:                  17	30.90
14:10:                  47	30.88
14:11:                  17	30.87
14:11:                  47	30.86
14:12:                  17	30.85
14:12:                  47	30.86
14:13:                  18	30.85
14:13:                  48	30.85
14:14:                  18	30.86
14:14:                  48	30.88
14:15:                  18	30.88
14:15:                  48	30.86
14:16:                  18	30.88
14:16:                  48	30.86
14:17:                  18	30.86
14:17:                  48	30.86
14:18:                  18	30.87
14:18:                  48	30.85
14:19:                  18	30.86
14:19:                  48	30.85
14:20:                  18	30.86
14:20:                  48	30.86
14:21:                  18	30.85
14:21:                  48	30.85
14:22:                  18	30.85
14:22:                  48	30.84
14:23:                  18	30.84
14:23:                  48	30.84
14:24:                  18	30.83
14:24:                  48	30.85
14:25:                  18	30.84
14:25:                  48	30.84
14:26:                  18	30.84
14:26:                  48	30.85
14:27:                  18	30.84
14:27:                  48	30.83
14:28:                  18	30.84
14:28:                  48	30.86
14:29:                  18	30.84
14:29:                  48	30.84
14:30:                  18	30.83
14:30:                  48	30.84
14:31:                  18	30.85
14:31:                  48	30.85
14:32:                  18	30.85
14:32:                  49	30.84
14:33:                  19	30.84
14:33:                  49	30.85
14:34:                  19	30.86
14:34:                  49	30.86
14:35:                  19	30.86
14:35:                  49	30.89
14:36:                  19	30.86
14:36:                  49	30.85
14:37:                  19	30.84
14:37:                  49	30.85
14:38:                  19	30.84
14:38:                  49	30.84
14:39:                  19	30.84
14:39:                  49	30.86
14:40:                  19	30.86
14:40:                  49	30.86
14:41:                  19	30.85
14:41:                  49	30.86
14:42:                  19	30.85
14:42:                  49	30.84
14:43:                  19	30.85
14:43:                  49	30.84
14:44:                  19	30.85
14:44:                  49	30.85
14:45:                  19	30.86
14:45:                  49	30.86
14:46:                  19	30.86
14:46:                  49	30.86
14:47:                  19	30.86
14:47:                  49	30.86
14:48:                  19	30.88
14:48:                  49	30.85
14:49:                  19	30.84
14:49:                  49	30.85
14:50:                  19	30.86
14:50:                  49	30.85
14:51:                  19	30.85
14:51:                  49	30.85
14:52:                  19	30.84
14:52:                  49	30.84
14:53:                  20	30.85
14:53:                  50	30.86
14:54:                  20	30.86
14:54:                  50	30.86
14:55:                  20	30.86
14:55:                  50	30.85
14:56:                  20	30.85
14:56:                  50	30.88
14:57:                  20	30.85
14:57:                  50	30.85
14:58:                  20	30.87
14:58:                  50	30.87
14:59:                  20	30.86
14:59:                  50	30.86
15:00:                  20	30.86
15:00:                  50	30.86
15:01:                  20	30.85
15:01:                  50	30.85
15:02:                  20	30.85
15:02:                  50	30.85
15:03:                  20	30.86
15:03:                  50	30.85
15:04:                  20	30.87
15:04:                  50	30.86
15:05:                  20	30.86
15:05:                  50	30.85
15:06:                  20	30.86
15:06:                  50	30.87
15:07:                  20	30.85
15:07:                  50	30.86
15:08:                  20	30.86
15:08:                  50	30.86
15:09:                  20	30.85
15:09:                  50	30.85
15:10:                  20	30.86
15:10:                  50	30.85
15:11:                  20	30.86
15:11:                  50	30.86
15:12:                  20	30.88
15:12:                  50	30.87
15:13:                  20	30.86
15:13:                  50	30.88
15:14:                  21	30.87
15:14:                  51	30.88
15:15:                  21	30.87
15:15:                  51	30.87
15:16:                  21	30.86
15:16:                  51	30.88
15:17:                  21	30.88
15:17:                  51	30.88
15:18:                  21	30.89
15:18:                  51	30.88
15:19:                  21	30.88
15:19:                  51	30.88
15:20:                  21	30.89
15:20:                  51	30.88
15:21:                  21	30.88
15:21:                  51	30.88
15:22:                  21	30.87
15:22:                  51	30.85
15:23:                  21	30.85
15:23:                  51	30.87
15:24:                  21	30.88
15:24:                  51	30.89
15:25:                  21	30.89
15:25:                  51	30.89
15:26:                  21	30.88
15:26:                  51	30.88
15:27:                  21	30.89
15:27:                  51	30.90
15:28:                  21	30.89
15:28:                  51	30.90
15:29:                  21	30.90
15:29:                  51	30.89
15:30:                  21	30.90
15:30:                  51	30.90
15:31:                  21	30.91
15:31:                  51	30.91
15:32:                  21	30.91
15:32:                  51	30.90
15:33:                  21	30.90
15:33:                  51	30.90
15:34:                  21	30.89
15:34:                  51	30.89
15:35:                  21	30.89
15:35:                  52	30.90
15:36:                  22	30.88
15:36:                  52	30.90
15:37:                  22	30.89
15:37:                  52	30.89
15:38:                  22	30.91
15:38:                  52	30.91
15:39:                  22	30.90
15:39:                  52	30.90
15:40:                  22	30.88
15:40:                  52	30.90
15:41:                  22	30.89
15:41:                  52	30.89
15:42:                  22	30.90
15:42:                  52	30.90
15:43:                  22	30.90
15:43:                  52	30.89
15:44:                  22	30.90
15:44:                  52	30.89
15:45:                  22	30.90
15:45:                  52	30.90
15:46:                  22	30.89
15:46:                  52	30.89
15:47:                  22	30.90
15:47:                  52	30.91
15:48:                  22	30.92
15:48:                  52	30.91
15:49:                  22	30.91
15:49:                  52	30.91
15:50:                  22	30.91
15:50:                  52	30.91
15:51:                  22	30.90
15:51:                  52	30.91
15:52:                  22	30.90
15:52:                  52	30.90
15:53:                  22	30.90
15:53:                  52	30.91
15:54:                  22	30.91
15:54:                  52	30.90
15:55:                  22	30.90
15:55:                  52	30.90
15:56:                  22	30.91
15:56:                  52	30.90
15:57:                  22	30.91
15:57:                  52	30.92
15:58:                  22	30.92
15:58:                  52	30.91
15:59:                  22	30.91
15:59:                  52	30.90
16:00:                  23	30.91
16:00:                  53	30.92
16:01:                  23	30.92
16:01:                  53	30.91
16:02:                  23	30.91
16:02:                  53	30.90
16:03:                  23	30.91
16:03:                  53	30.92
16:04:                  23	30.92
16:04:                  53	30.93
16:05:                  23	30.92
16:05:                  53	30.91
16:06:                  23	30.92
16:06:                  53	30.91
16:07:                  23	30.92
16:07:                  53	30.91
16:08:                  23	30.91
16:08:                  53	30.93
16:09:                  23	30.92
16:09:                  53	30.93
16:10:                  23	30.91
16:10:                  53	30.90
16:11:                  23	30.90
16:11:                  53	30.90
16:12:                  23	30.92
16:12:                  53	30.92
16:13:                  23	30.91
16:13:                  53	30.92
16:14:                  23	30.91
16:14:                  53	30.91
16:15:                  23	30.91
16:15:                  53	30.91
16:16:                  23	30.89
16:16:                  54	30.90
16:17:                  24	30.90
16:17:                  54	30.91
16:18:                  24	30.92
16:18:                  54	30.91
16:19:                  24	30.93
16:19:                  54	30.95
16:20:                  24	30.95
16:20:                  54	30.95
16:21:                  24	30.95
16:21:                  54	30.93
16:22:                  24	30.93
16:22:                  54	30.93
16:23:                  24	30.92
16:23:                  54	30.92
16:24:                  24	30.93
16:24:                  54	30.92
16:25:                  24	30.93
16:25:                  54	30.93
16:26:                  24	30.92
16:26:                  54	30.93
16:27:                  24	30.93
16:27:                  54	30.93
16:28:                  24	30.93
16:28:                  54	30.93
16:29:                  24	30.92
16:29:                  54	30.92
16:30:                  24	30.93
16:30:                  54	30.93
16:31:                  24	30.92
16:31:                  54	30.94
16:32:                  24	30.93
16:32:                  54	30.93
16:33:                  24	30.92
16:33:                  54	30.93
16:34:                  24	30.94
16:34:                  54	30.93
16:35:                  24	30.92
16:35:                  54	30.92
16:36:                  24	30.92
16:36:                  55	30.92
16:37:                  25	30.92
16:37:                  55	30.91
16:38:                  25	30.92
16:38:                  55	30.92
16:39:                  25	30.92
16:39:                  55	30.93
16:40:                  25	30.95
16:40:                  55	30.95
16:41:                  25	30.96
16:41:                  55	30.96
16:42:                  25	30.95
16:42:                  55	30.96
16:43:                  25	30.96
16:43:                  55	30.93
16:44:                  25	30.94
16:44:                  55	30.93
16:45:                  25	30.93
16:45:                  55	30.94
16:46:                  25	30.93
16:46:                  55	30.95
16:47:                  25	30.93
16:47:                  55	30.93
16:48:                  25	30.95
16:48:                  55	30.95
16:49:                  25	30.93
16:49:                  55	30.93
16:50:                  25	30.94
16:50:                  55	30.95
16:51:                  25	30.95
16:51:                  55	30.93
16:52:                  25	30.93
16:52:                  55	30.94
16:53:                  25	30.93
16:53:                  55	30.93
16:54:                  25	30.92
16:54:                  55	30.93
16:55:                  25	30.93
16:55:                  55	30.95
16:56:                  26	30.95
16:56:                  56	30.96
16:57:                  26	30.95
16:57:                  56	30.95
16:58:                  26	30.96
16:58:                  56	30.96
16:59:                  26	30.96
16:59:                  56	30.96
17:00:                  26	30.95
17:00:                  56	30.94
17:01:                  26	30.95
17:01:                  56	30.93
17:02:                  26	30.95
17:02:                  56	30.94
17:03:                  26	30.95
17:03:                  56	30.95
17:04:                  26	30.94
17:04:                  56	30.95
17:05:                  26	30.95
17:05:                  56	30.94
17:06:                  26	30.94
17:06:                  56	30.93
17:07:                  26	30.94
17:07:                  56	30.94
17:08:                  26	30.94
17:08:                  56	30.93
17:09:                  26	30.94
17:09:                  56	30.95
17:10:                  26	30.96
17:10:                  56	30.95
17:11:                  26	30.95
17:11:                  56	30.95
17:12:                  26	30.95
17:12:                  57	30.95
17:13:                  27	30.96
17:13:                  57	30.97
17:14:                  27	30.96
17:14:                  57	30.97
17:15:                  27	30.95
17:15:                  57	30.95
17:16:                  27	30.96
17:16:                  57	30.95
17:17:                  27	30.96
17:17:                  57	30.97
17:18:                  27	30.96
17:18:                  57	30.96
17:19:                  27	30.96
17:19:                  57	30.96
17:20:                  27	30.96
17:20:                  57	30.96
17:21:                  27	30.95
17:21:                  57	30.95
17:22:                  27	30.95
17:22:                  57	30.95
17:23:                  27	30.96
17:23:                  57	30.97
17:24:                  27	30.96
17:24:                  57	30.96
17:25:                  27	30.96
17:25:                  57	30.95
17:26:                  27	30.95
17:26:                  57	30.95
17:27:                  27	30.94
17:27:                  57	30.95
17:28:                  27	30.96
17:28:                  57	30.95
17:29:                  27	30.94
17:29:                  57	30.93
17:30:                  27	30.95
17:30:                  58	30.95
17:31:                  28	30.95
17:31:                  58	30.96
17:32:                  28	30.96
17:32:                  58	30.95
17:33:                  28	30.95
17:33:                  58	30.95
17:34:                  28	30.94
17:34:                  58	30.94
17:35:                  28	30.95
17:35:                  58	30.95
17:36:                  28	30.95
17:36:                  58	30.95
17:37:                  28	30.95
17:37:                  58	30.97
17:38:                  28	30.96
17:38:                  58	30.95
17:39:                  28	30.96
17:39:                  58	30.96
17:40:                  28	30.96
17:40:                  58	30.95
17:41:                  28	30.95
17:41:                  58	30.95
17:42:                  28	30.95
17:42:                  58	30.95
17:43:                  28	30.93
17:43:                  58	30.94
17:44:                  28	30.94
17:44:                  58	30.95
17:45:                  28	30.95
17:45:                  58	30.95
17:46:                  28	30.97
17:46:                  58	30.97
17:47:                  28	30.97
17:47:                  58	30.98
17:48:                  28	30.98
17:48:                  58	30.97
17:49:                  28	30.97
17:49:                  58	30.97
17:50:                  29	30.98
17:50:                  59	30.98
17:51:                  29	30.97
17:51:                  59	30.98
17:52:                  29	30.97
17:52:                  59	30.96
17:53:                  29	30.95
17:53:                  59	30.95
17:54:                  29	30.96
17:54:                  59	30.97
17:55:                  29	30.98
17:55:                  59	30.99
17:56:                  29	30.99
17:56:                  59	30.98
17:57:                  29	30.98
17:57:                  59	30.99
17:58:                  29	30.98
17:58:                  59	30.97
17:59:                  29	30.96
17:59:                  59	30.98
18:00:                  29	30.98
18:00:                  59	30.98
18:01:                  29	30.98
18:01:                  59	30.98
18:02:                  29	30.98
18:02:                  59	30.98
18:03:                  29	30.97
18:03:                  59	30.98
18:04:                  29	30.96
18:04:                  59	30.97
18:05:                  29	30.96
18:05:                  59	30.96
18:06:                  29	30.97
18:07:                   0	30.97
18:07:                  30	30.98
18:08:                   0	30.96
18:08:                  30	30.97
18:09:                   0	30.98
18:09:                  30	30.97
18:10:                   0	30.99
18:10:                  30	30.99
18:11:                   0	30.99
18:11:                  30	30.99
18:12:                   0	30.99
18:12:                  30	30.99
18:13:                   0	30.97
18:13:                  30	30.98
18:14:                   0	30.96
18:14:                  30	30.97
18:15:                   0	30.97
18:15:                  30	30.98
18:16:                   0	30.99
18:16:                  30	30.98
18:17:                   0	30.98
18:17:                  30	31.00
18:18:                   0	30.98
18:18:                  30	30.98
18:19:                   0	30.99
18:19:                  30	30.97
18:20:                   0	30.97
18:20:                  30	30.98
18:21:                   0	30.98
18:21:                  30	30.98
18:22:                   0	30.98
18:22:                  30	30.98
18:23:                   0	30.99
18:23:                  30	30.99
18:24:                   1	30.99
18:24:                  31	30.99
18:25:                   1	30.99
18:25:                  31	30.99
18:26:                   1	31.00
18:26:                  31	31.00
18:27:                   1	30.99
18:27:                  31	30.99
18:28:                   1	30.98
18:28:                  31	30.98
18:29:                   1	30.98
18:29:                  31	30.97
18:30:                   1	30.98
18:30:                  31	30.98
18:31:                   1	30.98
18:31:                  31	30.98
18:32:                   1	30.98
18:32:                  31	30.99
18:33:                   1	30.99
18:33:                  31	30.99
18:34:                   1	31.00
18:34:                  31	30.99
18:35:                   1	30.99
18:35:                  31	30.99
18:36:                   1	30.98
18:36:                  31	30.98
18:37:                   1	30.99
18:37:                  31	31.01
18:38:                   1	31.01
18:38:                  31	31.01
18:39:                   1	31.00
18:39:                  31	31.00
18:40:                   1	31.00
18:40:                  31	31.00
18:41:                   1	31.01
18:41:                  31	31.00
18:42:                   1	31.00
18:42:                  31	30.99
18:43:                   1	30.99
18:43:                  31	31.00
18:44:                   2	31.00
18:44:                  32	30.99
18:45:                   2	30.99
18:45:                  32	30.98
18:46:                   2	30.98
18:46:                  32	30.99
18:47:                   2	30.98
18:47:                  32	30.98
18:48:                   2	30.98
18:48:                  32	30.98
18:49:                   2	30.98
18:49:                  32	30.99
18:50:                   2	30.98
18:50:                  32	30.99
18:51:                   2	30.99
18:51:                  32	31.00
18:52:                   2	30.99
18:52:                  32	31.00
18:53:                   2	31.00
18:53:                  32	30.99
18:54:                   2	30.99
18:54:                  32	31.00
18:55:                   2	30.98
18:55:                  32	30.99
18:56:                   2	30.99
18:56:                  32	30.99
18:57:                   2	31.00
18:57:                  32	30.98
18:58:                   2	31.00
18:58:                  32	31.00
18:59:                   2	31.00
18:59:                  32	31.00
19:00:                   2	31.00
19:00:                  32	31.00
19:01:                   2	31.00
19:01:                  32	31.01
19:02:                   2	31.01
19:02:                  32	31.00
19:03:                   2	31.00
19:03:                  32	30.99
19:04:                   3	30.99
19:04:                  33	30.99
19:05:                   3	30.99
19:05:                  33	30.99
19:06:                   3	30.99
19:06:                  33	31.00
19:07:                   3	31.01
19:07:                  33	31.00
19:08:                   3	31.00
19:08:                  33	30.99
19:09:                   3	30.99
19:09:                  33	30.99
19:10:                   3	31.00
19:10:                  33	30.99
19:11:                   3	30.99
19:11:                  33	30.99
19:12:                   3	31.00
19:12:                  33	30.99
19:13:                   3	30.98
19:13:                  33	30.98
19:14:                   3	30.98
19:14:                  33	31.00
19:15:                   3	30.99
19:15:                  33	30.99
19:16:                   3	31.00
19:16:                  33	31.00
19:17:                   3	31.00
19:17:                  33	30.99
19:18:                   3	31.00
19:18:                  33	30.99
19:19:                   3	30.99
19:19:                  33	30.99
19:20:                   3	31.00
19:20:                  34	31.00
19:21:                   4	31.00
19:21:                  34	31.00
19:22:                   4	30.99
19:22:                  34	31.00
19:23:                   4	31.00
19:23:                  34	31.00
19:24:                   4	31.01
19:24:                  34	30.99
19:25:                   4	31.00
19:25:                  34	31.01
19:26:                   4	31.00
19:26:                  34	31.00
19:27:                   4	30.99
19:27:                  34	30.98
19:28:                   4	31.00
19:28:                  34	31.01
19:29:                   4	30.99
19:29:                  34	31.01
19:30:                   4	30.99
19:30:                  34	31.00
19:31:                   4	30.99
19:31:                  34	30.99
19:32:                   4	30.98
19:32:                  34	31.00
19:33:                   4	30.99
19:33:                  34	30.99
19:34:                   4	31.00
19:34:                  34	31.01
19:35:                   4	31.02
19:35:                  34	31.01
19:36:                   4	31.01
19:36:                  34	31.01
19:37:                   4	31.02
19:37:                  34	31.01
19:38:                   4	31.02
19:38:                  34	31.01
19:39:                   4	31.00
19:39:                  34	31.01
19:40:                   4	31.00
19:40:                  35	31.00
19:41:                   5	31.01
19:41:                  35	31.01
19:42:                   5	31.01
19:42:                  35	31.00
19:43:                   5	31.00
19:43:                  35	31.00
19:44:                   5	31.01
19:44:                  35	31.01
19:45:                   5	31.01
19:45:                  35	31.01
19:46:                   5	31.01
19:46:                  35	31.02
19:47:                   5	31.01
19:47:                  35	31.02
19:48:                   5	31.01
19:48:                  35	31.01
19:49:                   5	31.01
19:49:                  35	31.01
19:50:                   5	31.01
19:50:                  35	31.01
19:51:                   5	31.01
19:51:                  35	31.01
19:52:                   5	31.01
19:52:                  35	31.01
19:53:                   5	31.00
19:53:                  35	31.00
19:54:                   5	31.00
19:54:                  35	31.01
19:55:                   5	31.01
19:55:                  35	31.01
19:56:                   5	31.01
19:56:                  35	31.02
19:57:                   5	31.01
19:57:                  35	31.02
19:58:                   5	31.01
19:58:                  35	31.00
19:59:                   5	31.01
19:59:                  35	31.00
20:00:                   5	30.99
20:00:                  36	30.99
20:01:                   6	31.00
20:01:                  36	30.99
20:02:                   6	30.99
20:02:                  36	31.00
20:03:                   6	31.01
20:03:                  36	31.01
20:04:                   6	31.03
20:04:                  36	31.01
20:05:                   6	31.02
20:05:                  36	31.02
20:06:                   6	31.02
20:06:                  36	31.02
20:07:                   6	31.02
20:07:                  36	31.02
20:08:                   6	31.00
20:08:                  36	31.01
20:09:                   6	31.01
20:09:                  36	31.01
20:10:                   6	31.00
20:10:                  36	31.00
20:11:                   6	31.00
20:11:                  36	31.01
20:12:                   6	31.00
20:12:                  36	31.00
20:13:                   6	31.00
20:13:                  36	31.01
20:14:                   6	31.02
20:14:                  36	31.01
20:15:                   6	31.00
20:15:                  36	31.01
20:16:                   6	31.02
20:16:                  36	31.01
20:17:                   7	31.00
20:17:                  37	31.02
20:18:                   7	31.03
20:18:                  37	31.02
20:19:                   7	31.01
20:19:                  37	31.01
20:20:                   7	31.02
20:20:                  37	31.03
20:21:                   7	31.02
20:21:                  37	31.03
20:22:                   7	31.02
20:22:                  37	31.02
20:23:                   7	31.03
20:23:                  37	31.01
20:24:                   7	31.02
20:24:                  37	31.03
20:25:                   7	31.03
20:25:                  37	31.04
20:26:                   7	31.03
20:26:                  37	31.03
20:27:                   7	31.02
20:27:                  37	31.01
20:28:                   7	31.01
20:28:                  37	31.01
20:29:                   7	31.01
20:29:                  37	31.01
20:30:                   7	31.00
20:30:                  37	31.00
20:31:                   7	31.01
20:31:                  37	31.01
20:32:                   7	31.01
20:32:                  37	31.01
20:33:                   7	30.99
20:33:                  38	31.00
20:34:                   8	31.00
20:34:                  38	31.00
20:35:                   8	31.00
20:35:                  38	31.00
20:36:                   8	31.01
20:36:                  38	31.01
20:37:                   8	31.01
20:37:                  38	31.01
20:38:                   8	31.01
20:38:                  38	31.00
20:39:                   8	31.01
20:39:                  38	31.01
20:40:                   8	31.01
20:40:                  38	31.01
20:41:                   8	31.01
20:41:                  38	31.01
20:42:                   8	31.00
20:42:                  38	30.99
20:43:                   8	31.00
20:43:                  38	30.98
20:44:                   8	31.00
20:44:                  38	30.99
20:45:                   8	31.00
20:45:                  38	31.00
20:46:                   8	30.98
20:46:                  38	30.99
20:47:                   8	31.00
20:47:                  38	30.99
20:48:                   8	31.00
20:48:                  38	31.00
20:49:                   8	31.00
20:49:                  38	30.98
20:50:                   8	30.98
20:50:                  38	30.98
20:51:                   8	30.98
20:51:                  38	31.00
20:52:                   8	31.00
20:52:                  38	30.99
20:53:                   9	31.01
20:53:                  39	31.00
20:54:                   9	31.00
20:54:                  39	31.00
20:55:                   9	31.00
20:55:                  39	31.00
20:56:                   9	30.99
20:56:                  39	30.98
20:57:                   9	31.00
20:57:                  39	30.99
20:58:                   9	31.00
20:58:                  39	31.00
20:59:                   9	31.00
20:59:                  39	30.99
21:00:                   9	31.00
21:00:                  39	31.00
21:01:                   9	30.99
21:01:                  39	30.99
21:02:                   9	31.00
21:02:                  39	30.99
21:03:                   9	31.00
21:03:                  39	31.00
21:04:                   9	31.00
21:04:                  39	31.00
21:05:                   9	31.01
21:05:                  39	31.00
21:06:                   9	31.00
21:06:                  39	31.00
21:07:                   9	31.00
21:07:                  39	30.98
21:08:                   9	30.99
21:08:                  39	31.00
21:09:                   9	30.99
21:09:                  39	30.99
21:10:                   9	31.00
21:10:                  39	31.00
21:11:                   9	31.00
21:11:                  39	31.00
21:12:                   9	31.00
21:12:                  40	31.00
21:13:                  10	30.99
21:13:                  40	30.98
21:14:                  10	30.99
21:14:                  40	31.00
21:15:                  10	30.99
21:15:                  40	30.99
21:16:                  10	30.98
21:16:                  40	30.98
21:17:                  10	30.99
21:17:                  40	30.99
21:18:                  10	30.99
21:18:                  40	30.99
21:19:                  10	30.99
21:19:                  40	31.00
21:20:                  10	31.00
21:20:                  40	30.99
21:21:                  10	31.00
21:21:                  40	30.99
21:22:                  10	30.99
21:22:                  40	30.99
21:23:                  10	30.98
21:23:                  40	30.98
21:24:                  10	30.98
21:24:                  40	30.97
21:25:                  10	30.98
21:25:                  40	31.00
21:26:                  10	30.99
21:26:                  40	31.00
21:27:                  10	31.00
21:27:                  40	31.01
21:28:                  10	31.00
21:28:                  40	31.00
21:29:                  11	30.98
21:29:                  41	31.00
21:30:                  11	31.00
21:30:                  41	31.00
21:31:                  11	30.99
21:31:                  41	30.99
21:32:                  11	31.00
21:32:                  41	31.01
21:33:                  11	31.02
21:33:                  41	31.01
21:34:                  11	31.01
21:34:                  41	31.00
21:35:                  11	31.01
21:35:                  41	31.00
21:36:                  11	31.00
21:36:                  41	31.00
21:37:                  11	31.00
21:37:                  41	30.99
21:38:                  11	31.00
21:38:                  41	31.00
21:39:                  11	31.00
21:39:                  41	31.00
21:40:                  11	31.01
21:40:                  41	31.00
21:41:                  11	31.01
21:41:                  41	31.01
21:42:                  11	31.01
21:42:                  41	31.01
21:43:                  11	31.01
21:43:                  41	31.00
21:44:                  11	31.00
21:44:                  41	30.98
21:45:                  11	31.00
21:45:                  41	31.01
21:46:                  11	31.01
21:46:                  41	31.01
21:47:                  11	31.01
21:47:                  41	31.00
21:48:                  11	30.99
21:48:                  42	31.02
21:49:                  12	31.02
21:49:                  42	31.01
21:50:                  12	31.01
21:50:                  42	31.00
21:51:                  12	30.99
21:51:                  42	31.01
21:52:                  12	31.03
21:52:                  42	31.03
21:53:                  12	31.03
21:53:                  42	31.02
21:54:                  12	31.02
21:54:                  42	31.01
21:55:                  12	31.00
21:55:                  42	31.01
21:56:                  12	31.00
21:56:                  42	30.99
21:57:                  12	30.99
21:57:                  42	30.99
21:58:                  12	31.00
21:58:                  42	30.99
21:59:                  12	31.00
21:59:                  42	30.99
22:00:                  12	31.00
22:00:                  42	31.01
22:01:                  12	31.02
22:01:                  42	31.03
22:02:                  12	31.05
22:02:                  42	31.06
22:03:                  12	31.07
22:03:                  42	31.06
22:04:                  12	31.04
22:04:                  42	31.04
22:05:                  12	31.04
22:05:                  42	31.04
22:06:                  12	31.04
22:06:                  42	31.03
22:07:                  13	31.01
22:07:                  43	31.02
22:08:                  13	31.02
22:08:                  43	31.02
22:09:                  13	31.02
22:09:                  43	31.00
22:10:                  13	31.01
22:10:                  43	31.01
22:11:                  13	31.00
22:11:                  43	31.02
22:12:                  13	31.01
22:12:                  43	31.02
22:13:                  13	31.03
22:13:                  43	31.05
22:14:                  13	31.05
22:14:                  43	31.04
22:15:                  13	31.03
22:15:                  43	31.03
22:16:                  13	31.03
22:16:                  43	31.03
22:17:                  13	31.02
22:17:                  43	31.01
22:18:                  13	31.01
22:18:                  43	31.03
22:19:                  13	31.04
22:19:                  43	31.03
22:20:                  13	31.01
22:20:                  43	31.02
22:21:                  13	31.01
22:21:                  43	31.02
22:22:                  13	31.02
22:22:                  43	31.02
22:23:                  13	31.02
22:23:                  43	31.01
22:24:                  13	31.01
22:24:                  43	31.01
22:25:                  14	31.00
22:25:                  44	31.01
22:26:                  14	31.00
22:26:                  44	31.01
22:27:                  14	31.01
22:27:                  44	31.00
22:28:                  14	31.01
22:28:                  44	31.02
22:29:                  14	31.03
22:29:                  44	31.03
22:30:                  14	31.04
22:30:                  44	31.05
22:31:                  14	31.05
22:31:                  44	31.04
22:32:                  14	31.05
22:32:                  44	31.05
22:33:                  14	31.04
22:33:                  44	31.05
22:34:                  14	31.04
22:34:                  44	31.03
22:35:                  14	31.04
22:35:                  44	31.03
22:36:                  14	31.03
22:36:                  44	31.03
22:37:                  14	31.02
22:37:                  44	31.03
22:38:                  14	31.04
22:38:                  44	31.04
22:39:                  14	31.04
22:39:                  44	31.03
22:40:                  14	31.03
22:40:                  44	31.05
22:41:                  14	31.04
22:41:                  44	31.04
22:42:                  14	31.04
22:42:                  44	31.03
22:43:                  14	31.04
22:43:                  44	31.05
22:44:                  14	31.05
22:44:                  44	31.04
22:45:                  15	31.03
22:45:                  45	31.04
22:46:                  15	31.02
22:46:                  45	31.03
22:47:                  15	31.03
22:47:                  45	31.02
22:48:                  15	31.04
22:48:                  45	31.02
22:49:                  15	31.03
22:49:                  45	31.02
22:50:                  15	31.01
22:50:                  45	31.01
22:51:                  15	31.02
22:51:                  45	31.02
22:52:                  15	31.02
22:52:                  45	31.04
22:53:                  15	31.03
22:53:                  45	31.04
22:54:                  15	31.05
22:54:                  45	31.03
22:55:                  15	31.03
22:55:                  45	31.04
22:56:                  15	31.04
22:56:                  45	31.04
22:57:                  15	31.06
22:57:                  45	31.06
22:58:                  15	31.06
22:58:                  45	31.05
22:59:                  15	31.06
22:59:                  45	31.05
23:00:                  15	31.04
23:00:                  45	31.05
23:01:                  16	31.04
23:01:                  46	31.04
23:02:                  16	31.02
23:02:                  46	31.03
23:03:                  16	31.03
23:03:                  46	31.02
23:04:                  16	31.02
23:04:                  46	31.04
23:05:                  16	31.05
23:05:                  46	31.05
23:06:                  16	31.05
23:06:                  46	31.05
23:07:                  16	31.05
23:07:                  46	31.07
23:08:                  16	31.06
23:08:                  46	31.06
23:09:                  16	31.06
23:09:                  46	31.06
23:10:                  16	31.07
23:10:                  46	31.06
23:11:                  16	31.08
23:11:                  46	31.05
23:12:                  16	31.06
23:12:                  46	31.07
23:13:                  16	31.08
23:13:                  46	31.07
23:14:                  16	31.08
23:14:                  46	31.06
23:15:                  16	31.07
23:15:                  46	31.06
23:16:                  16	31.06
23:16:                  46	31.07
23:17:                  16	31.08
23:17:                  47	31.08
23:18:                  17	31.08
23:18:                  47	31.07
23:19:                  17	31.08
23:19:                  47	31.07
23:20:                  17	31.07
23:20:                  47	31.07
23:21:                  17	31.07
23:21:                  47	31.06
23:22:                  17	31.06
23:22:                  47	31.06
23:23:                  17	31.06
23:23:                  47	31.04
23:24:                  17	31.05
23:24:                  47	31.03
23:25:                  17	31.04
23:25:                  47	31.05
23:26:                  17	31.05
23:26:                  47	31.06
23:27:                  17	31.04
23:27:                  47	31.06
23:28:                  17	31.05
23:28:                  47	31.05
23:29:                  17	31.06
23:29:                  47	31.05
23:30:                  17	31.03
23:30:                  47	31.05
23:31:                  17	31.04
23:31:                  47	31.04
23:32:                  17	31.04
23:32:                  47	31.05
23:33:                  17	31.06
23:33:                  47	31.05
23:34:                  18	31.04
23:34:                  48	31.05
23:35:                  18	31.05
23:35:                  48	31.05
23:36:                  18	31.07
23:36:                  48	31.06
23:37:                  18	31.06
23:37:                  48	31.07
23:38:                  18	31.07
23:38:                  48	31.05
23:39:                  18	31.05
23:39:                  48	31.04
23:40:                  18	31.05
23:40:                  48	31.05
23:41:                  18	31.08
23:41:                  48	31.08
23:42:                  18	31.06
23:42:                  48	31.06
23:43:                  18	31.08
23:43:                  48	31.06
23:44:                  18	31.07
23:44:                  48	31.08
23:45:                  18	31.08
23:45:                  48	31.06
23:46:                  18	31.06
23:46:                  48	31.07
23:47:                  18	31.05
23:47:                  48	31.04
23:48:                  18	31.04
23:48:                  48	31.04
23:49:                  18	31.06
23:49:                  48	31.07
23:50:                  19	31.06
23:50:                  49	31.05
23:51:                  19	31.05
23:51:                  49	31.06
23:52:                  19	31.07
23:52:                  49	31.06
23:53:                  19	31.08
23:53:                  49	31.08
23:54:                  19	31.07
23:54:                  49	31.05
23:55:                  19	31.05
23:55:                  49	31.06
23:56:                  19	31.07
23:56:                  49	31.06
23:57:                  19	31.07
23:57:                  49	31.07
23:58:                  19	31.08
23:58:                  49	31.07
23:59:                  19	31.09
23:59:                  49	31.10
