0:00:                  19	32.78
0:00:                  49	32.78
0:01:                  19	32.77
0:01:                  50	32.76
0:02:                  20	32.78
0:02:                  50	32.78
0:03:                  20	32.77
0:03:                  50	32.78
0:04:                  20	32.78
0:04:                  50	32.78
0:05:                  20	32.77
0:05:                  50	32.78
0:06:                  20	32.79
0:06:                  50	32.81
0:07:                  20	32.80
0:07:                  50	32.77
0:08:                  20	32.78
0:08:                  50	32.78
0:09:                  20	32.79
0:09:                  50	32.78
0:10:                  20	32.76
0:10:                  50	32.76
0:11:                  20	32.77
0:11:                  50	32.76
0:12:                  20	32.77
0:12:                  50	32.77
0:13:                  20	32.75
0:13:                  50	32.78
0:14:                  20	32.78
0:14:                  50	32.77
0:15:                  20	32.78
0:15:                  50	32.77
0:16:                  20	32.74
0:16:                  50	32.76
0:17:                  20	32.75
0:17:                  50	32.75
0:18:                  21	32.74
0:18:                  51	32.74
0:19:                  21	32.74
0:19:                  51	32.73
0:20:                  21	32.74
0:20:                  51	32.74
0:21:                  21	32.75
0:21:                  51	32.76
0:22:                  21	32.75
0:22:                  51	32.75
0:23:                  21	32.75
0:23:                  51	32.77
0:24:                  21	32.74
0:24:                  51	32.74
0:25:                  21	32.74
0:25:                  51	32.73
0:26:                  21	32.72
0:26:                  51	32.73
0:27:                  21	32.74
0:27:                  51	32.73
0:28:                  21	32.73
0:28:                  51	32.73
0:29:                  21	32.73
0:29:                  51	32.72
0:30:                  21	32.73
0:30:                  51	32.72
0:31:                  21	32.73
0:31:                  51	32.75
0:32:                  21	32.74
0:32:                  51	32.74
0:33:                  21	32.75
0:33:                  51	32.77
0:34:                  21	32.77
0:34:                  52	32.75
0:35:                  22	32.75
0:35:                  52	32.77
0:36:                  22	32.77
0:36:                  52	32.77
0:37:                  22	32.78
0:37:                  52	32.81
0:38:                  22	32.81
0:38:                  52	32.79
0:39:                  22	32.81
0:39:                  52	32.80
0:40:                  22	32.80
0:40:                  52	32.78
0:41:                  22	32.76
0:41:                  52	32.77
0:42:                  22	32.79
0:42:                  52	32.77
0:43:                  22	32.78
0:43:                  52	32.79
0:44:                  22	32.77
0:44:                  52	32.78
0:45:                  22	32.77
0:45:                  52	32.78
0:46:                  22	32.77
0:46:                  52	32.74
0:47:                  22	32.75
0:47:                  52	32.77
0:48:                  22	32.77
0:48:                  52	32.77
0:49:                  22	32.78
0:49:                  52	32.76
0:50:                  22	32.78
0:50:                  52	32.79
0:51:                  22	32.79
0:51:                  52	32.80
0:52:                  22	32.80
0:52:                  52	32.80
0:53:                  23	32.79
0:53:                  53	32.80
0:54:                  23	32.79
0:54:                  53	32.78
0:55:                  23	32.78
0:55:                  53	32.79
0:56:                  23	32.79
0:56:                  53	32.78
0:57:                  23	32.78
0:57:                  53	32.79
0:58:                  23	32.79
0:58:                  53	32.79
0:59:                  23	32.79
0:59:                  53	32.79
1:00:                  23	32.78
1:00:                  53	32.79
1:01:                  23	32.82
1:01:                  53	32.80
1:02:                  23	32.80
1:02:                  53	32.81
1:03:                  23	32.79
1:03:                  53	32.80
1:04:                  23	32.79
1:04:                  53	32.79
1:05:                  23	32.77
1:05:                  53	32.77
1:06:                  23	32.77
1:06:                  53	32.76
1:07:                  23	32.79
1:07:                  53	32.77
1:08:                  23	32.77
1:08:                  53	32.78
1:09:                  23	32.79
1:09:                  53	32.81
1:10:                  23	32.81
1:10:                  53	32.80
1:11:                  23	32.81
1:11:                  53	32.80
1:12:                  23	32.80
1:12:                  53	32.81
1:13:                  24	32.80
1:13:                  54	32.80
1:14:                  24	32.80
1:14:                  54	32.81
1:15:                  24	32.83
1:15:                  54	32.83
1:16:                  24	32.83
1:16:                  54	32.81
1:17:                  24	32.83
1:17:                  54	32.82
1:18:                  24	32.84
1:18:                  54	32.84
1:19:                  24	32.82
1:19:                  54	32.81
1:20:                  24	32.79
1:20:                  54	32.81
1:21:                  24	32.80
1:21:                  54	32.79
1:22:                  24	32.79
1:22:                  54	32.82
1:23:                  24	32.82
1:23:                  54	32.82
1:24:                  24	32.80
1:24:                  54	32.82
1:25:                  24	32.80
1:25:                  54	32.80
1:26:                  24	32.80
1:26:                  54	32.80
1:27:                  24	32.81
1:27:                  54	32.80
1:28:                  24	32.80
1:28:                  54	32.79
1:29:                  24	32.79
1:29:                  55	32.78
1:30:                  25	32.78
1:30:                  55	32.79
1:31:                  25	32.81
1:31:                  55	32.81
1:32:                  25	32.83
1:32:                  55	32.83
1:33:                  25	32.81
1:33:                  55	32.80
1:34:                  25	32.79
1:34:                  55	32.79
1:35:                  25	32.79
1:35:                  55	32.80
1:36:                  25	32.76
1:36:                  55	32.79
1:37:                  25	32.79
1:37:                  55	32.78
1:38:                  25	32.77
1:38:                  55	32.78
1:39:                  25	32.79
1:39:                  55	32.78
1:40:                  25	32.77
1:40:                  55	32.78
1:41:                  25	32.78
1:41:                  55	32.79
1:42:                  25	32.77
1:42:                  55	32.75
1:43:                  25	32.76
1:43:                  55	32.77
1:44:                  25	32.78
1:44:                  55	32.75
1:45:                  25	32.77
1:45:                  55	32.78
1:46:                  25	32.78
1:46:                  56	32.78
1:47:                  26	32.76
1:47:                  56	32.75
1:48:                  26	32.76
1:48:                  56	32.77
1:49:                  26	32.76
1:49:                  56	32.74
1:50:                  26	32.75
1:50:                  56	32.74
1:51:                  26	32.73
1:51:                  56	32.72
1:52:                  26	32.72
1:52:                  56	32.74
1:53:                  26	32.73
1:53:                  56	32.74
1:54:                  26	32.73
1:54:                  56	32.72
1:55:                  26	32.75
1:55:                  56	32.78
1:56:                  26	32.75
1:56:                  56	32.75
1:57:                  26	32.77
1:57:                  56	32.75
1:58:                  26	32.74
1:58:                  56	32.75
1:59:                  26	32.74
1:59:                  56	32.74
2:00:                  26	32.76
2:00:                  56	32.77
2:01:                  26	32.78
2:01:                  56	32.79
2:02:                  26	32.77
2:02:                  56	32.76
2:03:                  26	32.75
2:03:                  56	32.77
2:04:                  26	32.77
2:04:                  56	32.77
2:05:                  26	32.78
2:05:                  56	32.75
2:06:                  27	32.73
2:06:                  57	32.72
2:07:                  27	32.72
2:07:                  57	32.72
2:08:                  27	32.72
2:08:                  57	32.72
2:09:                  27	32.72
2:09:                  57	32.73
2:10:                  27	32.72
2:10:                  57	32.72
2:11:                  27	32.73
2:11:                  57	32.74
2:12:                  27	32.74
2:12:                  57	32.73
2:13:                  27	32.72
2:13:                  57	32.71
2:14:                  27	32.74
2:14:                  57	32.73
2:15:                  27	32.72
2:15:                  57	32.73
2:16:                  27	32.73
2:16:                  57	32.72
2:17:                  27	32.74
2:17:                  57	32.75
2:18:                  27	32.77
2:18:                  57	32.78
2:19:                  27	32.79
2:19:                  57	32.77
2:20:                  27	32.76
2:20:                  57	32.78
2:21:                  27	32.78
2:21:                  57	32.81
2:22:                  27	32.80
2:22:                  57	32.80
2:23:                  27	32.79
2:23:                  57	32.77
2:24:                  27	32.77
2:24:                  57	32.79
2:25:                  27	32.79
2:25:                  57	32.79
2:26:                  27	32.76
2:26:                  57	32.78
2:27:                  27	32.78
2:27:                  57	32.81
2:28:                  27	32.84
2:28:                  58	32.83
2:29:                  28	32.81
2:29:                  58	32.79
2:30:                  28	32.79
2:30:                  58	32.77
2:31:                  28	32.75
2:31:                  58	32.77
2:32:                  28	32.77
2:32:                  58	32.77
2:33:                  28	32.77
2:33:                  58	32.78
2:34:                  28	32.77
2:34:                  58	32.80
2:35:                  28	32.80
2:35:                  58	32.79
2:36:                  28	32.79
2:36:                  58	32.79
2:37:                  28	32.78
2:37:                  58	32.78
2:38:                  28	32.77
2:38:                  58	32.78
2:39:                  28	32.77
2:39:                  58	32.75
2:40:                  28	32.77
2:40:                  58	32.77
2:41:                  28	32.74
2:41:                  58	32.74
2:42:                  28	32.75
2:42:                  58	32.74
2:43:                  28	32.75
2:43:                  58	32.75
2:44:                  28	32.75
2:44:                  58	32.73
2:45:                  28	32.74
2:45:                  58	32.73
2:46:                  28	32.73
2:46:                  58	32.72
2:47:                  29	32.72
2:47:                  59	32.73
2:48:                  29	32.77
2:48:                  59	32.73
2:49:                  29	32.73
2:49:                  59	32.75
2:50:                  29	32.77
2:50:                  59	32.76
2:51:                  29	32.77
2:51:                  59	32.78
2:52:                  29	32.78
2:52:                  59	32.75
2:53:                  29	32.74
2:53:                  59	32.73
2:54:                  29	32.73
2:54:                  59	32.73
2:55:                  29	32.72
2:55:                  59	32.74
2:56:                  29	32.74
2:56:                  59	32.74
2:57:                  29	32.76
2:57:                  59	32.77
2:58:                  29	32.74
2:58:                  59	32.72
2:59:                  29	32.74
2:59:                  59	32.75
3:00:                  29	32.73
3:00:                  59	32.74
3:01:                  29	32.75
3:01:                  59	32.75
3:02:                  29	32.75
3:02:                  59	32.75
3:03:                  29	32.75
3:04:                   0	32.76
3:04:                  30	32.75
3:05:                   0	32.76
3:05:                  30	32.74
3:06:                   0	32.74
3:06:                  30	32.78
3:07:                   0	32.79
3:07:                  30	32.78
3:08:                   0	32.77
3:08:                  30	32.78
3:09:                   0	32.77
3:09:                  30	32.78
3:10:                   0	32.77
3:10:                  30	32.77
3:11:                   0	32.75
3:11:                  30	32.78
3:12:                   0	32.78
3:12:                  30	32.75
3:13:                   0	32.74
3:13:                  30	32.73
3:14:                   0	32.72
3:14:                  30	32.70
3:15:                   0	32.68
3:15:                  30	32.70
3:16:                   0	32.71
3:16:                  30	32.68
3:17:                   0	32.68
3:17:                  30	32.68
3:18:                   0	32.67
3:18:                  30	32.69
3:19:                   0	32.70
3:19:                  30	32.68
3:20:                   0	32.67
3:20:                  30	32.69
3:21:                   0	32.70
3:21:                  30	32.70
3:22:                   0	32.69
3:22:                  30	32.68
3:23:                   0	32.68
3:23:                  30	32.69
3:24:                   0	32.69
3:24:                  30	32.69
3:25:                   1	32.67
3:25:                  31	32.67
3:26:                   1	32.67
3:26:                  31	32.66
3:27:                   1	32.66
3:27:                  31	32.64
3:28:                   1	32.63
3:28:                  31	32.64
3:29:                   1	32.63
3:29:                  31	32.61
3:30:                   1	32.63
3:30:                  31	32.62
3:31:                   1	32.61
3:31:                  31	32.62
3:32:                   1	32.59
3:32:                  31	32.59
3:33:                   1	32.58
3:33:                  31	32.58
3:34:                   1	32.58
3:34:                  31	32.60
3:35:                   1	32.60
3:35:                  31	32.60
3:36:                   1	32.57
3:36:                  31	32.58
3:37:                   1	32.57
3:37:                  31	32.56
3:38:                   1	32.57
3:38:                  31	32.57
3:39:                   1	32.58
3:39:                  31	32.58
3:40:                   1	32.56
3:40:                  31	32.58
3:41:                   1	32.56
3:41:                  31	32.54
3:42:                   1	32.57
3:42:                  31	32.57
3:43:                   1	32.57
3:43:                  31	32.57
3:44:                   1	32.56
3:44:                  31	32.56
3:45:                   1	32.55
3:45:                  31	32.57
3:46:                   1	32.58
3:46:                  32	32.57
3:47:                   2	32.55
3:47:                  32	32.54
3:48:                   2	32.50
3:48:                  32	32.50
3:49:                   2	32.50
3:49:                  32	32.48
3:50:                   2	32.49
3:50:                  32	32.48
3:51:                   2	32.47
3:51:                  32	32.49
3:52:                   2	32.49
3:52:                  32	32.47
3:53:                   2	32.49
3:53:                  32	32.49
3:54:                   2	32.48
3:54:                  32	32.47
3:55:                   2	32.47
3:55:                  32	32.45
3:56:                   2	32.43
3:56:                  32	32.44
3:57:                   2	32.44
3:57:                  32	32.44
3:58:                   2	32.41
3:58:                  32	32.42
3:59:                   2	32.46
3:59:                  32	32.47
4:00:                   2	32.48
4:00:                  32	32.46
4:01:                   2	32.46
4:01:                  32	32.46
4:02:                   2	32.46
4:02:                  32	32.45
4:03:                   2	32.47
4:03:                  33	32.46
4:04:                   3	32.43
4:04:                  33	32.45
4:05:                   3	32.42
4:05:                  33	32.43
4:06:                   3	32.46
4:06:                  33	32.46
4:07:                   3	32.45
4:07:                  33	32.44
4:08:                   3	32.43
4:08:                  33	32.42
4:09:                   3	32.42
4:09:                  33	32.44
4:10:                   3	32.41
4:10:                  33	32.39
4:11:                   3	32.41
4:11:                  33	32.40
4:12:                   3	32.40
4:12:                  33	32.40
4:13:                   3	32.41
4:13:                  33	32.41
4:14:                   3	32.40
4:14:                  33	32.39
4:15:                   3	32.39
4:15:                  33	32.40
4:16:                   3	32.39
4:16:                  33	32.38
4:17:                   3	32.37
4:17:                  33	32.35
4:18:                   3	32.34
4:18:                  33	32.33
4:19:                   3	32.31
4:19:                  33	32.29
4:20:                   4	32.29
4:20:                  34	32.29
4:21:                   4	32.28
4:21:                  34	32.30
4:22:                   4	32.28
4:22:                  34	32.29
4:23:                   4	32.31
4:23:                  34	32.29
4:24:                   4	32.28
4:24:                  34	32.29
4:25:                   4	32.27
4:25:                  34	32.26
4:26:                   4	32.25
4:26:                  34	32.24
4:27:                   4	32.26
4:27:                  34	32.26
4:28:                   4	32.26
4:28:                  34	32.25
4:29:                   4	32.24
4:29:                  34	32.23
4:30:                   4	32.24
4:30:                  34	32.24
4:31:                   4	32.22
4:31:                  34	32.22
4:32:                   4	32.21
4:32:                  34	32.21
4:33:                   4	32.21
4:33:                  34	32.22
4:34:                   4	32.22
4:34:                  34	32.20
4:35:                   4	32.19
4:35:                  34	32.19
4:36:                   4	32.18
4:36:                  34	32.17
4:37:                   4	32.17
4:37:                  34	32.18
4:38:                   4	32.20
4:38:                  35	32.18
4:39:                   5	32.20
4:39:                  35	32.19
4:40:                   5	32.18
4:40:                  35	32.17
4:41:                   5	32.15
4:41:                  35	32.14
4:42:                   5	32.12
4:42:                  35	32.12
4:43:                   5	32.10
4:43:                  35	32.10
4:44:                   5	32.09
4:44:                  35	32.08
4:45:                   5	32.09
4:45:                  35	32.09
4:46:                   5	32.08
4:46:                  35	32.07
4:47:                   5	32.08
4:47:                  35	32.07
4:48:                   5	32.08
4:48:                  35	32.09
4:49:                   5	32.08
4:49:                  35	32.07
4:50:                   5	32.06
4:50:                  35	32.05
4:51:                   5	32.05
4:51:                  35	32.05
4:52:                   5	32.04
4:52:                  35	32.04
4:53:                   5	32.05
4:53:                  35	32.05
4:54:                   5	32.05
4:54:                  35	32.06
4:55:                   5	32.06
4:55:                  35	32.06
4:56:                   5	32.07
4:56:                  35	32.08
4:57:                   5	32.08
4:57:                  35	32.07
4:58:                   6	32.05
4:58:                  36	32.04
4:59:                   6	32.05
4:59:                  36	32.05
5:00:                   6	32.04
5:00:                  36	32.04
5:01:                   6	32.04
5:01:                  36	32.06
5:02:                   6	32.08
5:02:                  36	32.07
5:03:                   6	32.05
5:03:                  36	32.04
5:04:                   6	32.02
5:04:                  36	32.00
5:05:                   6	32.01
5:05:                  36	32.00
5:06:                   6	31.99
5:06:                  36	31.98
5:07:                   6	31.99
5:07:                  36	31.98
5:08:                   6	31.97
5:08:                  36	31.96
5:09:                   6	31.96
5:09:                  36	31.96
5:10:                   6	31.95
5:10:                  36	31.95
5:11:                   6	31.95
5:11:                  36	31.94
5:12:                   6	31.96
5:12:                  36	31.95
5:13:                   6	31.94
5:13:                  36	31.96
5:14:                   6	31.94
5:14:                  36	31.93
5:15:                   6	31.93
5:15:                  36	31.93
5:16:                   6	31.93
5:16:                  36	31.95
5:17:                   6	31.94
5:17:                  36	31.96
5:18:                   6	31.95
5:18:                  37	31.94
5:19:                   7	31.93
5:19:                  37	31.95
5:20:                   7	31.96
5:20:                  37	31.99
5:21:                   7	31.99
5:21:                  37	31.98
5:22:                   7	31.98
5:22:                  37	31.98
5:23:                   7	31.98
5:23:                  37	31.99
5:24:                   7	31.98
5:24:                  37	31.98
5:25:                   7	31.98
5:25:                  37	31.96
5:26:                   7	31.97
5:26:                  37	31.95
5:27:                   7	31.94
5:27:                  37	31.93
5:28:                   7	31.93
5:28:                  37	31.92
5:29:                   7	31.91
5:29:                  37	31.93
5:30:                   7	31.92
5:30:                  37	31.92
5:31:                   7	31.93
5:31:                  37	31.92
5:32:                   7	31.93
5:32:                  37	31.94
5:33:                   7	31.94
5:33:                  37	31.95
5:34:                   7	31.96
5:34:                  37	31.95
5:35:                   7	31.96
5:35:                  37	31.96
5:36:                   7	31.98
5:36:                  37	31.98
5:37:                   7	31.98
5:37:                  37	31.97
5:38:                   7	31.98
5:38:                  37	31.99
5:39:                   7	31.97
5:39:                  37	31.98
5:40:                   7	31.99
5:40:                  37	31.99
5:41:                   7	32.00
5:41:                  37	32.00
5:42:                   7	32.00
5:42:                  37	31.99
5:43:                   7	31.99
5:43:                  37	31.99
5:44:                   7	31.98
5:44:                  37	31.97
5:45:                   8	31.97
5:45:                  38	32.00
5:46:                   8	31.98
5:46:                  38	31.98
5:47:                   8	31.97
5:47:                  38	31.98
5:48:                   8	31.98
5:48:                  38	31.99
5:49:                   8	31.98
5:49:                  38	31.99
5:50:                   8	32.00
5:50:                  38	32.02
5:51:                   8	32.01
5:51:                  38	32.04
5:52:                   8	32.03
5:52:                  38	31.99
5:53:                   8	31.99
5:53:                  38	31.98
5:54:                   8	31.98
5:54:                  38	31.98
5:55:                   8	31.97
5:55:                  38	31.98
5:56:                   8	31.98
5:56:                  38	31.97
5:57:                   8	31.98
5:57:                  38	31.99
5:58:                   8	31.98
5:58:                  38	31.98
5:59:                   8	31.98
5:59:                  38	31.97
6:00:                   8	31.98
6:00:                  38	31.96
6:01:                   8	31.96
6:01:                  39	31.95
6:02:                   9	31.95
6:02:                  39	31.95
6:03:                   9	31.93
6:03:                  39	31.92
6:04:                   9	31.92
6:04:                  39	31.93
6:05:                   9	31.91
6:05:                  39	31.92
6:06:                   9	31.92
6:06:                  39	31.91
6:07:                   9	31.90
6:07:                  39	31.91
6:08:                   9	31.91
6:08:                  39	31.93
6:09:                   9	31.92
6:09:                  39	31.91
6:10:                   9	31.90
6:10:                  39	31.88
6:11:                   9	31.87
6:11:                  39	31.86
6:12:                   9	31.86
6:12:                  39	31.86
6:13:                   9	31.86
6:13:                  39	31.86
6:14:                   9	31.85
6:14:                  39	31.86
6:15:                   9	31.86
6:15:                  39	31.86
6:16:                   9	31.86
6:16:                  39	31.87
6:17:                   9	31.85
6:17:                  39	31.85
6:18:                   9	31.85
6:18:                  40	31.85
6:19:                  10	31.84
6:19:                  40	31.83
6:20:                  10	31.84
6:20:                  40	31.82
6:21:                  10	31.80
6:21:                  40	31.82
6:22:                  10	31.81
6:22:                  40	31.81
6:23:                  10	31.81
6:23:                  40	31.80
6:24:                  10	31.79
6:24:                  40	31.79
6:25:                  10	31.79
6:25:                  40	31.79
6:26:                  10	31.77
6:26:                  40	31.78
6:27:                  10	31.78
6:27:                  40	31.79
6:28:                  10	31.77
6:28:                  40	31.78
6:29:                  10	31.76
6:29:                  40	31.76
6:30:                  10	31.76
6:30:                  40	31.75
6:31:                  10	31.74
6:31:                  40	31.73
6:32:                  10	31.73
6:32:                  40	31.74
6:33:                  10	31.75
6:33:                  40	31.73
6:34:                  10	31.73
6:34:                  40	31.74
6:35:                  10	31.73
6:35:                  40	31.73
6:36:                  10	31.74
6:36:                  40	31.76
6:37:                  10	31.75
6:37:                  40	31.77
6:38:                  10	31.77
6:38:                  40	31.77
6:39:                  10	31.77
6:39:                  40	31.76
6:40:                  10	31.77
6:40:                  40	31.77
6:41:                  10	31.77
6:41:                  41	31.76
6:42:                  11	31.77
6:42:                  41	31.76
6:43:                  11	31.76
6:43:                  41	31.75
6:44:                  11	31.74
6:44:                  41	31.72
6:45:                  11	31.73
6:45:                  41	31.70
6:46:                  11	31.72
6:46:                  41	31.71
6:47:                  11	31.68
6:47:                  41	31.68
6:48:                  11	31.70
6:48:                  41	31.68
6:49:                  11	31.68
6:49:                  41	31.67
6:50:                  11	31.66
6:50:                  41	31.66
6:51:                  11	31.66
6:51:                  41	31.68
6:52:                  11	31.67
6:52:                  41	31.67
6:53:                  11	31.66
6:53:                  41	31.66
6:54:                  11	31.66
6:54:                  41	31.67
6:55:                  11	31.66
6:55:                  41	31.69
6:56:                  11	31.68
6:56:                  41	31.68
6:57:                  11	31.66
6:57:                  41	31.66
6:58:                  11	31.65
6:58:                  41	31.64
6:59:                  11	31.63
6:59:                  41	31.63
7:00:                  12	31.64
7:00:                  42	31.63
7:01:                  12	31.61
7:01:                  42	31.61
7:02:                  12	31.61
7:02:                  42	31.61
7:03:                  12	31.60
7:03:                  42	31.57
7:04:                  12	31.58
7:04:                  42	31.56
7:05:                  12	31.57
7:05:                  42	31.55
7:06:                  12	31.55
7:06:                  42	31.56
7:07:                  12	31.56
7:07:                  42	31.56
7:08:                  12	31.57
7:08:                  42	31.56
7:09:                  12	31.55
7:09:                  42	31.56
7:10:                  12	31.55
7:10:                  42	31.54
7:11:                  12	31.54
7:11:                  42	31.54
7:12:                  12	31.54
7:12:                  42	31.53
7:13:                  12	31.52
7:13:                  42	31.52
7:14:                  12	31.52
7:14:                  42	31.51
7:15:                  12	31.52
7:15:                  42	31.50
7:16:                  12	31.52
7:16:                  42	31.51
7:17:                  12	31.52
7:17:                  42	31.53
7:18:                  12	31.53
7:18:                  42	31.53
7:19:                  12	31.54
7:19:                  43	31.54
7:20:                  13	31.54
7:20:                  43	31.54
7:21:                  13	31.55
7:21:                  43	31.55
7:22:                  13	31.58
7:22:                  43	31.57
7:23:                  13	31.56
7:23:                  43	31.55
7:24:                  13	31.56
7:24:                  43	31.54
7:25:                  13	31.57
7:25:                  43	31.56
7:26:                  13	31.58
7:26:                  43	31.58
7:27:                  13	31.59
7:27:                  43	31.59
7:28:                  13	31.58
7:28:                  43	31.57
7:29:                  13	31.59
7:29:                  43	31.58
7:30:                  13	31.58
7:30:                  43	31.58
7:31:                  13	31.57
7:31:                  43	31.56
7:32:                  13	31.57
7:32:                  43	31.56
7:33:                  13	31.57
7:33:                  43	31.58
7:34:                  13	31.60
7:34:                  43	31.60
7:35:                  13	31.62
7:35:                  43	31.61
7:36:                  13	31.62
7:36:                  43	31.65
7:37:                  13	31.67
7:37:                  43	31.66
7:38:                  13	31.66
7:38:                  43	31.63
7:39:                  14	31.62
7:39:                  44	31.62
7:40:                  14	31.62
7:40:                  44	31.62
7:41:                  14	31.59
7:41:                  44	31.54
7:42:                  14	31.53
7:42:                  44	31.51
7:43:                  14	31.49
7:43:                  44	31.46
7:44:                  14	31.43
7:44:                  44	31.40
7:45:                  14	31.36
7:45:                  44	31.33
7:46:                  14	31.30
7:46:                  44	31.28
7:47:                  14	31.28
7:47:                  44	31.25
7:48:                  14	31.22
7:48:                  44	31.19
7:49:                  14	31.17
7:49:                  44	31.16
7:50:                  14	31.16
7:50:                  44	31.16
7:51:                  14	31.19
7:51:                  44	31.15
7:52:                  14	31.14
7:52:                  44	31.13
7:53:                  14	31.14
7:53:                  44	31.12
7:54:                  14	31.12
7:54:                  44	31.13
7:55:                  14	31.16
7:55:                  44	31.15
7:56:                  14	31.15
7:56:                  44	31.16
7:57:                  14	31.16
7:57:                  44	31.15
7:58:                  14	31.16
7:58:                  45	31.17
7:59:                  15	31.15
7:59:                  45	31.15
8:00:                  15	31.14
8:00:                  45	31.15
8:01:                  15	31.15
8:01:                  45	31.13
8:02:                  15	31.11
8:02:                  45	31.10
8:03:                  15	31.11
8:03:                  45	31.12
8:04:                  15	31.11
8:04:                  45	31.10
8:05:                  15	31.11
8:05:                  45	31.12
8:06:                  15	31.12
8:06:                  45	31.11
8:07:                  15	31.12
8:07:                  45	31.09
8:08:                  15	31.08
8:08:                  45	31.08
8:09:                  15	31.07
8:09:                  45	31.06
8:10:                  15	31.04
8:10:                  45	31.05
8:11:                  15	31.04
8:11:                  45	31.02
8:12:                  15	31.04
8:12:                  45	31.04
8:13:                  15	31.04
8:13:                  45	31.06
8:14:                  15	31.05
8:14:                  45	31.04
8:15:                  16	31.04
8:15:                  46	31.03
8:16:                  16	31.04
8:16:                  46	31.04
8:17:                  16	31.03
8:17:                  46	31.02
8:18:                  16	31.03
8:18:                  46	31.01
8:19:                  16	31.02
8:19:                  46	31.01
8:20:                  16	31.01
8:20:                  46	31.00
8:21:                  16	30.98
8:21:                  46	30.97
8:22:                  16	30.96
8:22:                  46	30.97
8:23:                  16	30.96
8:23:                  46	30.95
8:24:                  16	30.95
8:24:                  46	30.95
8:25:                  16	30.94
8:25:                  46	30.96
8:26:                  16	30.95
8:26:                  46	30.92
8:27:                  16	30.92
8:27:                  46	30.92
8:28:                  16	30.93
8:28:                  46	30.92
8:29:                  16	30.93
8:29:                  46	30.95
8:30:                  16	30.95
8:30:                  46	30.96
8:31:                  16	30.95
8:31:                  46	30.98
8:32:                  17	30.96
8:32:                  47	30.95
8:33:                  17	30.95
8:33:                  47	30.95
8:34:                  17	30.93
8:34:                  47	30.95
8:35:                  17	30.96
8:35:                  47	30.94
8:36:                  17	30.95
8:36:                  47	30.95
8:37:                  17	30.95
8:37:                  47	30.95
8:38:                  17	30.96
8:38:                  47	30.96
8:39:                  17	30.96
8:39:                  47	30.96
8:40:                  17	30.95
8:40:                  47	30.96
8:41:                  17	30.96
8:41:                  47	30.96
8:42:                  17	30.96
8:42:                  47	30.96
8:43:                  17	30.97
8:43:                  47	30.97
8:44:                  17	30.97
8:44:                  47	30.96
8:45:                  17	30.97
8:45:                  47	30.98
8:46:                  17	30.97
8:46:                  47	30.96
8:47:                  17	30.97
8:47:                  47	30.97
8:48:                  17	30.97
8:48:                  48	30.97
8:49:                  18	30.97
8:49:                  48	30.97
8:50:                  18	30.98
8:50:                  48	30.97
8:51:                  18	30.98
8:51:                  48	30.99
8:52:                  18	31.00
8:52:                  48	31.01
8:53:                  18	31.00
8:53:                  48	31.01
8:54:                  18	31.01
8:54:                  48	31.00
8:55:                  18	31.00
8:55:                  48	31.00
8:56:                  18	31.01
8:56:                  48	31.01
8:57:                  18	31.01
8:57:                  48	31.01
8:58:                  18	31.01
8:58:                  48	31.01
8:59:                  18	31.02
8:59:                  48	31.03
9:00:                  18	31.03
9:00:                  48	31.02
9:01:                  18	31.03
9:01:                  48	31.04
9:02:                  18	31.03
9:02:                  48	31.04
9:03:                  18	31.04
9:03:                  48	31.06
9:04:                  18	31.05
9:04:                  48	31.05
9:05:                  18	31.05
9:05:                  48	31.05
9:06:                  18	31.05
9:06:                  48	31.06
9:07:                  18	31.06
9:07:                  48	31.05
9:08:                  19	31.06
9:08:                  49	31.07
9:09:                  19	31.08
9:09:                  49	31.07
9:10:                  19	31.09
9:10:                  49	31.08
9:11:                  19	31.08
9:11:                  49	31.08
9:12:                  19	31.08
9:12:                  49	31.07
9:13:                  19	31.07
9:13:                  49	31.05
9:14:                  19	31.08
9:14:                  49	31.07
9:15:                  19	31.07
9:15:                  49	31.07
9:16:                  19	31.06
9:16:                  49	31.08
9:17:                  19	31.07
9:17:                  49	31.07
9:18:                  19	31.08
9:18:                  49	31.07
9:19:                  19	31.08
9:19:                  49	31.06
9:20:                  19	31.06
9:20:                  49	31.08
9:21:                  19	31.09
9:21:                  49	31.09
9:22:                  19	31.08
9:22:                  49	31.10
9:23:                  19	31.10
9:23:                  49	31.09
9:24:                  19	31.08
9:24:                  49	31.09
9:25:                  20	31.09
9:25:                  50	31.08
9:26:                  20	31.10
9:26:                  50	31.10
9:27:                  20	31.10
9:27:                  50	31.10
9:28:                  20	31.10
9:28:                  50	31.10
9:29:                  20	31.11
9:29:                  50	31.12
9:30:                  20	31.12
9:30:                  50	31.12
9:31:                  20	31.11
9:31:                  50	31.10
9:32:                  20	31.11
9:32:                  50	31.10
9:33:                  20	31.11
9:33:                  50	31.11
9:34:                  20	31.11
9:34:                  50	31.09
9:35:                  20	31.11
9:35:                  50	31.11
9:36:                  20	31.11
9:36:                  50	31.11
9:37:                  20	31.11
9:37:                  50	31.12
9:38:                  20	31.11
9:38:                  50	31.11
9:39:                  20	31.13
9:39:                  50	31.12
9:40:                  20	31.13
9:40:                  50	31.12
9:41:                  20	31.13
9:41:                  50	31.12
9:42:                  20	31.13
9:42:                  50	31.13
9:43:                  20	31.12
9:43:                  50	31.13
9:44:                  21	31.12
9:44:                  51	31.11
9:45:                  21	31.11
9:45:                  51	31.12
9:46:                  21	31.13
9:46:                  51	31.14
9:47:                  21	31.14
9:47:                  51	31.13
9:48:                  21	31.12
9:48:                  51	31.12
9:49:                  21	31.12
9:49:                  51	31.12
9:50:                  21	31.12
9:50:                  51	31.13
9:51:                  21	31.13
9:51:                  51	31.13
9:52:                  21	31.12
9:52:                  51	31.12
9:53:                  21	31.12
9:53:                  51	31.13
9:54:                  21	31.13
9:54:                  51	31.13
9:55:                  21	31.13
9:55:                  51	31.14
9:56:                  21	31.14
9:56:                  51	31.15
9:57:                  21	31.15
9:57:                  51	31.15
9:58:                  21	31.15
9:58:                  51	31.14
9:59:                  21	31.13
9:59:                  51	31.13
10:00:                  22	31.13
10:00:                  52	31.14
10:01:                  22	31.14
10:01:                  52	31.14
10:02:                  22	31.14
10:02:                  52	31.14
10:03:                  22	31.15
10:03:                  52	31.16
10:04:                  22	31.15
10:04:                  52	31.14
10:05:                  22	31.14
10:05:                  52	31.15
10:06:                  22	31.15
10:06:                  52	31.13
10:07:                  22	31.14
10:07:                  52	31.15
10:08:                  22	31.15
10:08:                  52	31.15
10:09:                  22	31.15
10:09:                  52	31.13
10:10:                  22	31.15
10:10:                  52	31.13
10:11:                  22	31.14
10:11:                  52	31.15
10:12:                  22	31.16
10:12:                  52	31.16
10:13:                  22	31.14
10:13:                  52	31.16
10:14:                  22	31.15
10:14:                  52	31.14
10:15:                  22	31.16
10:15:                  52	31.15
10:16:                  22	31.16
10:16:                  53	31.16
10:17:                  23	31.16
10:17:                  53	31.16
10:18:                  23	31.16
10:18:                  53	31.16
10:19:                  23	31.16
10:19:                  53	31.17
10:20:                  23	31.17
10:20:                  53	31.17
10:21:                  23	31.17
10:21:                  53	31.17
10:22:                  23	31.17
10:22:                  53	31.17
10:23:                  23	31.17
10:23:                  53	31.18
10:24:                  23	31.17
10:24:                  53	31.16
10:25:                  23	31.17
10:25:                  53	31.15
10:26:                  23	31.15
10:26:                  53	31.16
10:27:                  23	31.15
10:27:                  53	31.16
10:28:                  23	31.16
10:28:                  53	31.17
10:29:                  23	31.17
10:29:                  53	31.19
10:30:                  23	31.17
10:30:                  53	31.16
10:31:                  23	31.15
10:31:                  53	31.17
10:32:                  23	31.16
10:32:                  53	31.16
10:33:                  24	31.16
10:33:                  54	31.16
10:34:                  24	31.18
10:34:                  54	31.20
10:35:                  24	31.22
10:35:                  54	31.21
10:36:                  24	31.20
10:36:                  54	31.21
10:37:                  24	31.19
10:37:                  54	31.19
10:38:                  24	31.19
10:38:                  54	31.19
10:39:                  24	31.17
10:39:                  54	31.18
10:40:                  24	31.20
10:40:                  54	31.20
10:41:                  24	31.19
10:41:                  54	31.20
10:42:                  24	31.21
10:42:                  54	31.20
10:43:                  24	31.19
10:43:                  54	31.20
10:44:                  24	31.21
10:44:                  54	31.20
10:45:                  24	31.21
10:45:                  54	31.22
10:46:                  24	31.20
10:46:                  54	31.21
10:47:                  24	31.21
10:47:                  54	31.20
10:48:                  24	31.19
10:48:                  54	31.21
10:49:                  24	31.21
10:49:                  54	31.20
10:50:                  24	31.22
10:50:                  55	31.21
10:51:                  25	31.22
10:51:                  55	31.23
10:52:                  25	31.24
10:52:                  55	31.22
10:53:                  25	31.23
10:53:                  55	31.23
10:54:                  25	31.22
10:54:                  55	31.24
10:55:                  25	31.22
10:55:                  55	31.25
10:56:                  25	31.23
10:56:                  55	31.23
10:57:                  25	31.23
10:57:                  55	31.23
10:58:                  25	31.24
10:58:                  55	31.24
10:59:                  25	31.23
10:59:                  55	31.23
11:00:                  25	31.24
11:00:                  55	31.25
11:01:                  25	31.25
11:01:                  55	31.25
11:02:                  25	31.24
11:02:                  55	31.24
11:03:                  25	31.25
11:03:                  55	31.25
11:04:                  25	31.23
11:04:                  55	31.25
11:05:                  25	31.25
11:05:                  55	31.24
11:06:                  25	31.24
11:06:                  55	31.25
11:07:                  25	31.25
11:07:                  55	31.25
11:08:                  25	31.26
11:08:                  55	31.25
11:09:                  26	31.26
11:09:                  56	31.25
11:10:                  26	31.24
11:10:                  56	31.25
11:11:                  26	31.25
11:11:                  56	31.25
11:12:                  26	31.25
11:12:                  56	31.24
11:13:                  26	31.25
11:13:                  56	31.26
11:14:                  26	31.24
11:14:                  56	31.24
11:15:                  26	31.24
11:15:                  56	31.25
11:16:                  26	31.26
11:16:                  56	31.26
11:17:                  26	31.26
11:17:                  56	31.27
11:18:                  26	31.27
11:18:                  56	31.27
11:19:                  26	31.26
11:19:                  56	31.27
11:20:                  26	31.27
11:20:                  56	31.26
11:21:                  26	31.27
11:21:                  56	31.27
11:22:                  26	31.27
11:22:                  56	31.27
11:23:                  26	31.28
11:23:                  56	31.27
11:24:                  26	31.28
11:24:                  56	31.29
11:25:                  26	31.28
11:25:                  56	31.29
11:26:                  26	31.30
11:26:                  56	31.29
11:27:                  26	31.28
11:27:                  56	31.28
11:28:                  26	31.28
11:28:                  56	31.28
11:29:                  26	31.31
11:29:                  56	31.30
11:30:                  26	31.30
11:30:                  57	31.29
11:31:                  27	31.30
11:31:                  57	31.31
11:32:                  27	31.30
11:32:                  57	31.29
11:33:                  27	31.30
11:33:                  57	31.31
11:34:                  27	31.32
11:34:                  57	31.31
11:35:                  27	31.31
11:35:                  57	31.32
11:36:                  27	31.32
11:36:                  57	31.32
11:37:                  27	31.31
11:37:                  57	31.31
11:38:                  27	31.30
11:38:                  57	31.30
11:39:                  27	31.31
11:39:                  57	31.33
11:40:                  27	31.33
11:40:                  57	31.32
11:41:                  27	31.31
11:41:                  57	31.31
11:42:                  27	31.31
11:42:                  57	31.32
11:43:                  27	31.31
11:43:                  57	31.32
11:44:                  27	31.32
11:44:                  57	31.33
11:45:                  27	31.31
11:45:                  57	31.32
11:46:                  27	31.33
11:46:                  57	31.33
11:47:                  28	31.33
11:47:                  58	31.33
11:48:                  28	31.33
11:48:                  58	31.32
11:49:                  28	31.33
11:49:                  58	31.33
11:50:                  28	31.33
11:50:                  58	31.34
11:51:                  28	31.34
11:51:                  58	31.35
11:52:                  28	31.35
11:52:                  58	31.36
11:53:                  28	31.37
11:53:                  58	31.36
11:54:                  28	31.36
11:54:                  58	31.38
11:55:                  28	31.38
11:55:                  58	31.38
11:56:                  28	31.38
11:56:                  58	31.39
11:57:                  28	31.39
11:57:                  58	31.36
11:58:                  28	31.37
11:58:                  58	31.38
11:59:                  28	31.37
11:59:                  58	31.38
12:00:                  28	31.39
12:00:                  58	31.40
12:01:                  28	31.40
12:01:                  58	31.41
12:02:                  28	31.43
12:02:                  58	31.41
12:03:                  28	31.39
12:03:                  58	31.39
12:04:                  28	31.41
12:04:                  58	31.42
12:05:                  28	31.44
12:05:                  58	31.42
12:06:                  28	31.44
12:06:                  58	31.41
12:07:                  29	31.42
12:07:                  59	31.42
12:08:                  29	31.41
12:08:                  59	31.41
12:09:                  29	31.41
12:09:                  59	31.42
12:10:                  29	31.43
12:10:                  59	31.42
12:11:                  29	31.42
12:11:                  59	31.45
12:12:                  29	31.46
12:12:                  59	31.44
12:13:                  29	31.43
12:13:                  59	31.43
12:14:                  29	31.43
12:14:                  59	31.44
12:15:                  29	31.44
12:15:                  59	31.43
12:16:                  29	31.43
12:16:                  59	31.42
12:17:                  29	31.42
12:17:                  59	31.42
12:18:                  29	31.43
12:18:                  59	31.43
12:19:                  29	31.43
12:19:                  59	31.44
12:20:                  29	31.46
12:20:                  59	31.45
12:21:                  29	31.47
12:21:                  59	31.45
12:22:                  29	31.44
12:22:                  59	31.45
12:23:                  29	31.44
12:23:                  59	31.45
12:24:                  29	31.46
12:24:                  59	31.46
12:25:                  29	31.46
12:25:                  59	31.44
12:26:                  29	31.45
12:26:                  59	31.45
12:27:                  29	31.46
12:27:                  59	31.46
12:28:                  29	31.46
12:28:                  59	31.46
12:29:                  29	31.45
12:29:                  59	31.48
12:30:                  29	31.48
12:30:                  59	31.47
12:31:                  29	31.46
12:31:                  59	31.47
12:32:                  29	31.48
12:33:                   0	31.51
12:33:                  30	31.51
12:34:                   0	31.51
12:34:                  30	31.51
12:35:                   0	31.49
12:35:                  30	31.49
12:36:                   0	31.49
12:36:                  30	31.51
12:37:                   0	31.51
12:37:                  30	31.48
12:38:                   0	31.48
12:38:                  30	31.48
12:39:                   0	31.49
12:39:                  30	31.49
12:40:                   0	31.49
12:40:                  30	31.48
12:41:                   0	31.49
12:41:                  30	31.48
12:42:                   0	31.49
12:42:                  30	31.49
12:43:                   0	31.51
12:43:                  30	31.52
12:44:                   0	31.52
12:44:                  30	31.51
12:45:                   0	31.49
12:45:                  30	31.49
12:46:                   0	31.49
12:46:                  30	31.50
12:47:                   0	31.52
12:47:                  30	31.51
12:48:                   0	31.51
12:48:                  30	31.53
12:49:                   0	31.53
12:49:                  30	31.54
12:50:                   0	31.55
12:50:                  30	31.53
12:51:                   0	31.52
12:51:                  30	31.53
12:52:                   0	31.53
12:52:                  30	31.53
12:53:                   0	31.52
12:53:                  31	31.52
12:54:                   1	31.50
12:54:                  31	31.50
12:55:                   1	31.51
12:55:                  31	31.52
12:56:                   1	31.51
12:56:                  31	31.53
12:57:                   1	31.52
12:57:                  31	31.52
12:58:                   1	31.53
12:58:                  31	31.55
12:59:                   1	31.56
12:59:                  31	31.54
13:00:                   1	31.53
13:00:                  31	31.56
13:01:                   1	31.54
13:01:                  31	31.55
13:02:                   1	31.56
13:02:                  31	31.57
13:03:                   1	31.56
13:03:                  31	31.55
13:04:                   1	31.56
13:04:                  31	31.57
13:05:                   1	31.55
13:05:                  31	31.56
13:06:                   1	31.55
13:06:                  31	31.55
13:07:                   1	31.56
13:07:                  31	31.56
13:08:                   1	31.55
13:08:                  31	31.55
13:09:                   1	31.57
13:09:                  31	31.58
13:10:                   2	31.58
13:10:                  32	31.57
13:11:                   2	31.59
13:11:                  32	31.59
13:12:                   2	31.58
13:12:                  32	31.59
13:13:                   2	31.58
13:13:                  32	31.59
13:14:                   2	31.59
13:14:                  32	31.58
13:15:                   2	31.58
13:15:                  32	31.58
13:16:                   2	31.60
13:16:                  32	31.60
13:17:                   2	31.63
13:17:                  32	31.62
13:18:                   2	31.61
13:18:                  32	31.62
13:19:                   2	31.62
13:19:                  32	31.61
13:20:                   2	31.64
13:20:                  32	31.64
13:21:                   2	31.65
13:21:                  32	31.63
13:22:                   2	31.64
13:22:                  32	31.64
13:23:                   2	31.66
13:23:                  32	31.68
13:24:                   2	31.68
13:24:                  32	31.68
13:25:                   2	31.66
13:25:                  32	31.64
13:26:                   2	31.61
13:26:                  32	31.61
13:27:                   2	31.62
13:27:                  32	31.63
13:28:                   2	31.64
13:28:                  32	31.65
13:29:                   2	31.65
13:29:                  33	31.65
13:30:                   3	31.65
13:30:                  33	31.66
13:31:                   3	31.67
13:31:                  33	31.66
13:32:                   3	31.67
13:32:                  33	31.68
13:33:                   3	31.66
13:33:                  33	31.65
13:34:                   3	31.66
13:34:                  33	31.68
13:35:                   3	31.70
13:35:                  33	31.69
13:36:                   3	31.68
13:36:                  33	31.69
13:37:                   3	31.72
13:37:                  33	31.70
13:38:                   3	31.69
13:38:                  33	31.69
13:39:                   3	31.69
13:39:                  33	31.70
13:40:                   3	31.73
13:40:                  33	31.72
13:41:                   3	31.74
13:41:                  33	31.73
13:42:                   3	31.71
13:42:                  33	31.70
13:43:                   3	31.71
13:43:                  33	31.73
13:44:                   3	31.73
13:44:                  33	31.72
13:45:                   3	31.72
13:45:                  33	31.71
13:46:                   4	31.72
13:46:                  34	31.72
13:47:                   4	31.71
13:47:                  34	31.71
13:48:                   4	31.71
13:48:                  34	31.71
13:49:                   4	31.70
13:49:                  34	31.69
13:50:                   4	31.71
13:50:                  34	31.70
13:51:                   4	31.71
13:51:                  34	31.72
13:52:                   4	31.74
13:52:                  34	31.74
13:53:                   4	31.73
13:53:                  34	31.75
13:54:                   4	31.75
13:54:                  34	31.76
13:55:                   4	31.76
13:55:                  34	31.76
13:56:                   4	31.77
13:56:                  34	31.76
13:57:                   4	31.76
13:57:                  34	31.75
13:58:                   4	31.76
13:58:                  34	31.77
13:59:                   4	31.77
13:59:                  34	31.75
14:00:                   4	31.76
14:00:                  34	31.75
14:01:                   4	31.75
14:01:                  34	31.74
14:02:                   4	31.76
14:02:                  35	31.79
14:03:                   5	31.76
14:03:                  35	31.76
14:04:                   5	31.77
14:04:                  35	31.77
14:05:                   5	31.76
14:05:                  35	31.76
14:06:                   5	31.77
14:06:                  35	31.76
14:07:                   5	31.74
14:07:                  35	31.76
14:08:                   5	31.79
14:08:                  35	31.76
14:09:                   5	31.74
14:09:                  35	31.76
14:10:                   5	31.75
14:10:                  35	31.76
14:11:                   5	31.74
14:11:                  35	31.74
14:12:                   5	31.74
14:12:                  35	31.75
14:13:                   5	31.76
14:13:                  35	31.76
14:14:                   5	31.79
14:14:                  35	31.78
14:15:                   5	31.78
14:15:                  35	31.77
14:16:                   5	31.76
14:16:                  35	31.76
14:17:                   5	31.77
14:17:                  35	31.78
14:18:                   5	31.79
14:18:                  35	31.76
14:19:                   6	31.78
14:19:                  36	31.78
14:20:                   6	31.81
14:20:                  36	31.79
14:21:                   6	31.79
14:21:                  36	31.81
14:22:                   6	31.81
14:22:                  36	31.79
14:23:                   6	31.79
14:23:                  36	31.78
14:24:                   6	31.78
14:24:                  36	31.79
14:25:                   6	31.79
14:25:                  36	31.78
14:26:                   6	31.78
14:26:                  36	31.78
14:27:                   6	31.77
14:27:                  36	31.79
14:28:                   6	31.78
14:28:                  36	31.78
14:29:                   6	31.78
14:29:                  36	31.77
14:30:                   6	31.79
14:30:                  36	31.84
14:31:                   6	31.82
14:31:                  36	31.81
14:32:                   6	31.83
14:32:                  36	31.80
14:33:                   6	31.78
14:33:                  36	31.79
14:34:                   6	31.80
14:34:                  36	31.80
14:35:                   6	31.79
14:35:                  36	31.79
14:36:                   7	31.81
14:36:                  37	31.79
14:37:                   7	31.81
14:37:                  37	31.79
14:38:                   7	31.78
14:38:                  37	31.79
14:39:                   7	31.82
14:39:                  37	31.83
14:40:                   7	31.82
14:40:                  37	31.83
14:41:                   7	31.85
14:41:                  37	31.84
14:42:                   7	31.83
14:42:                  37	31.83
14:43:                   7	31.83
14:43:                  37	31.82
14:44:                   7	31.82
14:44:                  37	31.81
14:45:                   7	31.80
14:45:                  37	31.81
14:46:                   7	31.79
14:46:                  37	31.81
14:47:                   7	31.82
14:47:                  37	31.81
14:48:                   7	31.81
14:48:                  37	31.82
14:49:                   7	31.83
14:49:                  37	31.84
14:50:                   7	31.82
14:50:                  37	31.81
14:51:                   7	31.81
14:51:                  37	31.79
14:52:                   7	31.82
14:52:                  37	31.79
14:53:                   7	31.79
14:53:                  37	31.82
14:54:                   7	31.79
14:54:                  37	31.79
14:55:                   7	31.78
14:55:                  37	31.78
14:56:                   7	31.77
14:56:                  37	31.77
14:57:                   7	31.77
14:57:                  37	31.77
14:58:                   7	31.78
14:58:                  38	31.79
14:59:                   8	31.77
14:59:                  38	31.78
15:00:                   8	31.78
15:00:                  38	31.78
15:01:                   8	31.79
15:01:                  38	31.79
15:02:                   8	31.79
15:02:                  38	31.79
15:03:                   8	31.79
15:03:                  38	31.79
15:04:                   8	31.79
15:04:                  38	31.79
15:05:                   8	31.78
15:05:                  38	31.79
15:06:                   8	31.77
15:06:                  38	31.76
15:07:                   8	31.79
15:07:                  38	31.79
15:08:                   8	31.79
15:08:                  38	31.79
15:09:                   8	31.80
15:09:                  38	31.79
15:10:                   8	31.79
15:10:                  38	31.79
15:11:                   8	31.80
15:11:                  38	31.79
15:12:                   8	31.77
15:12:                  38	31.79
15:13:                   8	31.78
15:13:                  38	31.79
15:14:                   8	31.83
15:14:                  38	31.84
15:15:                   8	31.83
15:15:                  38	31.82
15:16:                   8	31.81
15:16:                  38	31.81
15:17:                   8	31.82
15:17:                  38	31.82
15:18:                   8	31.83
15:18:                  38	31.81
15:19:                   8	31.81
15:19:                  38	31.80
15:20:                   9	31.81
15:20:                  39	31.83
15:21:                   9	31.83
15:21:                  39	31.85
15:22:                   9	31.83
15:22:                  39	31.83
15:23:                   9	31.83
15:23:                  39	31.82
15:24:                   9	31.82
15:24:                  39	31.79
15:25:                   9	31.82
15:25:                  39	31.81
15:26:                   9	31.81
15:26:                  39	31.79
15:27:                   9	31.83
15:27:                  39	31.83
15:28:                   9	31.82
15:28:                  39	31.83
15:29:                   9	31.85
15:29:                  39	31.81
15:30:                   9	31.81
15:30:                  39	31.81
15:31:                   9	31.79
15:31:                  39	31.81
15:32:                   9	31.83
15:32:                  39	31.79
15:33:                   9	31.79
15:33:                  39	31.80
15:34:                   9	31.79
15:34:                  39	31.81
15:35:                   9	31.82
15:35:                  39	31.82
15:36:                   9	31.83
15:36:                  40	31.81
15:37:                  10	31.79
15:37:                  40	31.81
15:38:                  10	31.82
15:38:                  40	31.85
15:39:                  10	31.84
15:39:                  40	31.84
15:40:                  10	31.85
15:40:                  40	31.88
15:41:                  10	31.87
15:41:                  40	31.87
15:42:                  10	31.87
15:42:                  40	31.90
15:43:                  10	31.90
15:43:                  40	31.89
15:44:                  10	31.88
15:44:                  40	31.87
15:45:                  10	31.87
15:45:                  40	31.86
15:46:                  10	31.85
15:46:                  40	31.86
15:47:                  10	31.85
15:47:                  40	31.85
15:48:                  10	31.84
15:48:                  40	31.84
15:49:                  10	31.86
15:49:                  40	31.85
15:50:                  10	31.85
15:50:                  40	31.85
15:51:                  10	31.87
15:51:                  40	31.86
15:52:                  10	31.86
15:52:                  40	31.86
15:53:                  10	31.88
15:53:                  40	31.89
15:54:                  10	31.87
15:54:                  40	31.87
15:55:                  10	31.88
15:55:                  40	31.86
15:56:                  10	31.87
15:56:                  40	31.86
15:57:                  10	31.86
15:57:                  40	31.85
15:58:                  10	31.85
15:58:                  40	31.85
15:59:                  10	31.85
15:59:                  40	31.86
16:00:                  11	31.86
16:00:                  41	31.85
16:01:                  11	31.84
16:01:                  41	31.84
16:02:                  11	31.83
16:02:                  41	31.84
16:03:                  11	31.84
16:03:                  41	31.86
16:04:                  11	31.85
16:04:                  41	31.86
16:05:                  11	31.89
16:05:                  41	31.89
16:06:                  11	31.88
16:06:                  41	31.89
16:07:                  11	31.89
16:07:                  41	31.90
16:08:                  11	31.88
16:08:                  41	31.89
16:09:                  11	31.90
16:09:                  41	31.89
16:10:                  11	31.88
16:10:                  41	31.89
16:11:                  11	31.89
16:11:                  41	31.89
16:12:                  11	31.91
16:12:                  41	31.89
16:13:                  11	31.89
16:13:                  41	31.88
16:14:                  11	31.89
16:14:                  41	31.89
16:15:                  11	31.89
16:15:                  41	31.87
16:16:                  11	31.88
16:16:                  42	31.88
16:17:                  12	31.88
16:17:                  42	31.88
16:18:                  12	31.88
16:18:                  42	31.87
16:19:                  12	31.88
16:19:                  42	31.86
16:20:                  12	31.86
16:20:                  42	31.86
16:21:                  12	31.86
16:21:                  42	31.87
16:22:                  12	31.88
16:22:                  42	31.89
16:23:                  12	31.89
16:23:                  42	31.90
16:24:                  12	31.91
16:24:                  42	31.90
16:25:                  12	31.92
16:25:                  42	31.90
16:26:                  12	31.91
16:26:                  42	31.90
16:27:                  12	31.90
16:27:                  42	31.88
16:28:                  12	31.88
16:28:                  42	31.87
16:29:                  12	31.86
16:29:                  42	31.85
16:30:                  12	31.84
16:30:                  42	31.83
16:31:                  12	31.82
16:31:                  42	31.83
16:32:                  12	31.85
16:32:                  42	31.85
16:33:                  12	31.86
16:33:                  42	31.83
16:34:                  12	31.84
16:34:                  42	31.83
16:35:                  12	31.82
16:35:                  42	31.84
16:36:                  13	31.82
16:36:                  43	31.80
16:37:                  13	31.79
16:37:                  43	31.79
16:38:                  13	31.79
16:38:                  43	31.79
16:39:                  13	31.80
16:39:                  43	31.81
16:40:                  13	31.79
16:40:                  43	31.81
16:41:                  13	31.83
16:41:                  43	31.84
16:42:                  13	31.83
16:42:                  43	31.81
16:43:                  13	31.81
16:43:                  43	31.80
16:44:                  13	31.79
16:44:                  43	31.79
16:45:                  13	31.81
16:45:                  43	31.82
16:46:                  13	31.79
16:46:                  43	31.81
16:47:                  13	31.82
16:47:                  43	31.82
16:48:                  13	31.83
16:48:                  43	31.81
16:49:                  13	31.82
16:49:                  43	31.80
16:50:                  13	31.81
16:50:                  43	31.79
16:51:                  13	31.79
16:51:                  43	31.79
16:52:                  13	31.79
16:52:                  44	31.80
16:53:                  14	31.78
16:53:                  44	31.77
16:54:                  14	31.76
16:54:                  44	31.77
16:55:                  14	31.78
16:55:                  44	31.82
16:56:                  14	31.79
16:56:                  44	31.79
16:57:                  14	31.77
16:57:                  44	31.78
16:58:                  14	31.78
16:58:                  44	31.77
16:59:                  14	31.78
16:59:                  44	31.79
17:00:                  14	31.79
17:00:                  44	31.79
17:01:                  14	31.78
17:01:                  44	31.78
17:02:                  14	31.78
17:02:                  44	31.76
17:03:                  14	31.75
17:03:                  44	31.74
17:04:                  14	31.74
17:04:                  44	31.75
17:05:                  14	31.75
17:05:                  44	31.76
17:06:                  14	31.76
17:06:                  44	31.76
17:07:                  14	31.75
17:07:                  44	31.73
17:08:                  14	31.74
17:08:                  44	31.76
17:09:                  15	31.75
17:09:                  45	31.74
17:10:                  15	31.75
17:10:                  45	31.76
17:11:                  15	31.76
17:11:                  45	31.79
17:12:                  15	31.78
17:12:                  45	31.77
17:13:                  15	31.77
17:13:                  45	31.78
17:14:                  15	31.78
17:14:                  45	31.76
17:15:                  15	31.77
17:15:                  45	31.75
17:16:                  15	31.76
17:16:                  45	31.76
17:17:                  15	31.76
17:17:                  45	31.76
17:18:                  15	31.75
17:18:                  45	31.74
17:19:                  15	31.75
17:19:                  45	31.76
17:20:                  15	31.77
17:20:                  45	31.76
17:21:                  15	31.76
17:21:                  45	31.76
17:22:                  15	31.77
17:22:                  45	31.77
17:23:                  15	31.79
17:23:                  45	31.76
17:24:                  15	31.76
17:24:                  45	31.76
17:25:                  15	31.77
17:25:                  45	31.77
17:26:                  15	31.76
17:26:                  45	31.75
17:27:                  15	31.74
17:27:                  45	31.75
17:28:                  15	31.74
17:28:                  46	31.73
17:29:                  16	31.73
17:29:                  46	31.73
17:30:                  16	31.72
17:30:                  46	31.73
17:31:                  16	31.73
17:31:                  46	31.73
17:32:                  16	31.73
17:32:                  46	31.73
17:33:                  16	31.73
17:33:                  46	31.74
17:34:                  16	31.73
17:34:                  46	31.72
17:35:                  16	31.73
17:35:                  46	31.74
17:36:                  16	31.73
17:36:                  46	31.74
17:37:                  16	31.75
17:37:                  46	31.75
17:38:                  16	31.75
17:38:                  46	31.77
17:39:                  16	31.75
17:39:                  46	31.75
17:40:                  16	31.74
17:40:                  46	31.74
17:41:                  16	31.72
17:41:                  46	31.74
17:42:                  16	31.75
17:42:                  46	31.74
17:43:                  16	31.74
17:43:                  46	31.73
17:44:                  16	31.73
17:44:                  46	31.74
17:45:                  17	31.73
17:45:                  47	31.73
17:46:                  17	31.74
17:46:                  47	31.73
17:47:                  17	31.74
17:47:                  47	31.75
17:48:                  17	31.74
17:48:                  47	31.74
17:49:                  17	31.72
17:49:                  47	31.72
17:50:                  17	31.72
17:50:                  47	31.73
17:51:                  17	31.73
17:51:                  47	31.73
17:52:                  17	31.74
17:52:                  47	31.73
17:53:                  17	31.73
17:53:                  47	31.71
17:54:                  17	31.73
17:54:                  47	31.76
17:55:                  17	31.73
17:55:                  47	31.75
17:56:                  17	31.74
17:56:                  47	31.74
17:57:                  17	31.73
17:57:                  47	31.72
17:58:                  17	31.71
17:58:                  47	31.71
17:59:                  17	31.71
17:59:                  47	31.72
18:00:                  17	31.72
18:00:                  47	31.73
18:01:                  17	31.72
18:01:                  47	31.72
18:02:                  17	31.72
18:02:                  47	31.72
18:03:                  17	31.71
18:03:                  47	31.70
18:04:                  18	31.69
18:04:                  48	31.69
18:05:                  18	31.68
18:05:                  48	31.69
18:06:                  18	31.71
18:06:                  48	31.70
18:07:                  18	31.73
18:07:                  48	31.73
18:08:                  18	31.72
18:08:                  48	31.72
18:09:                  18	31.72
18:09:                  48	31.73
18:10:                  18	31.72
18:10:                  48	31.72
18:11:                  18	31.71
18:11:                  48	31.71
18:12:                  18	31.71
18:12:                  48	31.72
18:13:                  18	31.72
18:13:                  48	31.72
18:14:                  18	31.72
18:14:                  48	31.71
18:15:                  18	31.72
18:15:                  48	31.74
18:16:                  18	31.71
18:16:                  48	31.70
18:17:                  18	31.71
18:17:                  48	31.72
18:18:                  18	31.69
18:18:                  48	31.68
18:19:                  18	31.70
18:19:                  48	31.70
18:20:                  18	31.71
18:20:                  48	31.69
18:21:                  18	31.69
18:21:                  48	31.69
18:22:                  18	31.68
18:22:                  48	31.67
18:23:                  18	31.66
18:23:                  48	31.67
18:24:                  18	31.66
18:24:                  48	31.65
18:25:                  18	31.65
18:25:                  49	31.65
18:26:                  19	31.65
18:26:                  49	31.67
18:27:                  19	31.67
18:27:                  49	31.65
18:28:                  19	31.63
18:28:                  49	31.63
18:29:                  19	31.64
18:29:                  49	31.63
18:30:                  19	31.63
18:30:                  49	31.64
18:31:                  19	31.63
18:31:                  49	31.62
18:32:                  19	31.61
18:32:                  49	31.61
18:33:                  19	31.59
18:33:                  49	31.56
18:34:                  19	31.57
18:34:                  49	31.57
18:35:                  19	31.57
18:35:                  49	31.58
18:36:                  19	31.59
18:36:                  49	31.58
18:37:                  19	31.58
18:37:                  49	31.58
18:38:                  19	31.59
18:38:                  49	31.60
18:39:                  19	31.60
18:39:                  49	31.58
18:40:                  19	31.57
18:40:                  49	31.57
18:41:                  19	31.56
18:41:                  49	31.59
18:42:                  19	31.58
18:42:                  49	31.58
18:43:                  19	31.58
18:43:                  49	31.59
18:44:                  19	31.60
18:44:                  49	31.61
18:45:                  19	31.63
18:45:                  50	31.62
18:46:                  20	31.63
18:46:                  50	31.62
18:47:                  20	31.60
18:47:                  50	31.57
18:48:                  20	31.57
18:48:                  50	31.55
18:49:                  20	31.55
18:49:                  50	31.57
18:50:                  20	31.61
18:50:                  50	31.60
18:51:                  20	31.57
18:51:                  50	31.55
18:52:                  20	31.56
18:52:                  50	31.56
18:53:                  20	31.57
18:53:                  50	31.57
18:54:                  20	31.57
18:54:                  50	31.58
18:55:                  20	31.57
18:55:                  50	31.58
18:56:                  20	31.56
18:56:                  50	31.55
18:57:                  20	31.56
18:57:                  50	31.55
18:58:                  20	31.57
18:58:                  50	31.59
18:59:                  20	31.57
18:59:                  50	31.57
19:00:                  20	31.56
19:00:                  50	31.54
19:01:                  20	31.53
19:01:                  50	31.53
19:02:                  20	31.49
19:02:                  51	31.52
19:03:                  21	31.53
19:03:                  51	31.53
19:04:                  21	31.52
19:04:                  51	31.52
19:05:                  21	31.50
19:05:                  51	31.49
19:06:                  21	31.51
19:06:                  51	31.50
19:07:                  21	31.48
19:07:                  51	31.48
19:08:                  21	31.47
19:08:                  51	31.50
19:09:                  21	31.48
19:09:                  51	31.49
19:10:                  21	31.47
19:10:                  51	31.48
19:11:                  21	31.48
19:11:                  51	31.49
19:12:                  21	31.53
19:12:                  51	31.53
19:13:                  21	31.49
19:13:                  51	31.48
19:14:                  21	31.46
19:14:                  51	31.46
19:15:                  21	31.44
19:15:                  51	31.43
19:16:                  21	31.45
19:16:                  51	31.46
19:17:                  21	31.47
19:17:                  51	31.46
19:18:                  21	31.44
19:18:                  51	31.42
19:19:                  21	31.41
19:19:                  51	31.41
19:20:                  21	31.40
19:20:                  51	31.40
19:21:                  21	31.39
19:21:                  51	31.36
19:22:                  21	31.39
19:22:                  52	31.40
19:23:                  22	31.42
19:23:                  52	31.41
19:24:                  22	31.40
19:24:                  52	31.40
19:25:                  22	31.40
19:25:                  52	31.40
19:26:                  22	31.39
19:26:                  52	31.41
19:27:                  22	31.39
19:27:                  52	31.42
19:28:                  22	31.40
19:28:                  52	31.39
19:29:                  22	31.38
19:29:                  52	31.37
19:30:                  22	31.37
19:30:                  52	31.41
19:31:                  22	31.42
19:31:                  52	31.39
19:32:                  22	31.38
19:32:                  52	31.38
19:33:                  22	31.37
19:33:                  52	31.37
19:34:                  22	31.34
19:34:                  52	31.33
19:35:                  22	31.35
19:35:                  52	31.33
19:36:                  22	31.32
19:36:                  52	31.33
19:37:                  22	31.32
19:37:                  52	31.31
19:38:                  22	31.31
19:38:                  52	31.31
19:39:                  23	31.29
19:39:                  53	31.28
19:40:                  23	31.28
19:40:                  53	31.28
19:41:                  23	31.28
19:41:                  53	31.29
19:42:                  23	31.27
19:42:                  53	31.27
19:43:                  23	31.27
19:43:                  53	31.27
19:44:                  23	31.27
19:44:                  53	31.28
19:45:                  23	31.28
19:45:                  53	31.28
19:46:                  23	31.31
19:46:                  53	31.29
19:47:                  23	31.29
19:47:                  53	31.28
19:48:                  23	31.28
19:48:                  53	31.27
19:49:                  23	31.26
19:49:                  53	31.27
19:50:                  23	31.28
19:50:                  53	31.25
19:51:                  23	31.25
19:51:                  53	31.26
19:52:                  23	31.25
19:52:                  53	31.26
19:53:                  23	31.30
19:53:                  53	31.27
19:54:                  23	31.27
19:54:                  53	31.31
19:55:                  23	31.30
19:55:                  54	31.29
19:56:                  24	31.33
19:56:                  54	31.31
19:57:                  24	31.29
19:57:                  54	31.27
19:58:                  24	31.27
19:58:                  54	31.24
19:59:                  24	31.24
19:59:                  54	31.24
20:00:                  24	31.22
20:00:                  54	31.21
20:01:                  24	31.21
20:01:                  54	31.19
20:02:                  24	31.21
20:02:                  54	31.21
20:03:                  24	31.22
20:03:                  54	31.21
20:04:                  24	31.20
20:04:                  54	31.19
20:05:                  24	31.17
20:05:                  54	31.16
20:06:                  24	31.15
20:06:                  54	31.16
20:07:                  24	31.15
20:07:                  54	31.16
20:08:                  24	31.16
20:08:                  54	31.14
20:09:                  24	31.14
20:09:                  54	31.13
20:10:                  24	31.13
20:10:                  54	31.14
20:11:                  24	31.13
20:11:                  54	31.15
20:12:                  24	31.16
20:12:                  55	31.17
20:13:                  25	31.16
20:13:                  55	31.14
20:14:                  25	31.15
20:14:                  55	31.14
20:15:                  25	31.13
20:15:                  55	31.11
20:16:                  25	31.13
20:16:                  55	31.18
20:17:                  25	31.15
20:17:                  55	31.15
20:18:                  25	31.14
20:18:                  55	31.13
20:19:                  25	31.12
20:19:                  55	31.08
20:20:                  25	31.11
20:20:                  55	31.11
20:21:                  25	31.09
20:21:                  55	31.10
20:22:                  25	31.10
20:22:                  55	31.10
20:23:                  25	31.09
20:23:                  55	31.11
20:24:                  25	31.11
20:24:                  55	31.13
20:25:                  25	31.12
20:25:                  55	31.13
20:26:                  25	31.12
20:26:                  55	31.10
20:27:                  25	31.10
20:27:                  55	31.12
20:28:                  25	31.15
20:28:                  55	31.14
20:29:                  25	31.12
20:29:                  55	31.09
20:30:                  25	31.11
20:30:                  55	31.10
20:31:                  25	31.11
20:31:                  56	31.10
20:32:                  26	31.08
20:32:                  56	31.08
20:33:                  26	31.10
20:33:                  56	31.10
20:34:                  26	31.10
20:34:                  56	31.08
20:35:                  26	31.10
20:35:                  56	31.10
20:36:                  26	31.11
20:36:                  56	31.14
20:37:                  26	31.11
20:37:                  56	31.11
20:38:                  26	31.11
20:38:                  56	31.12
20:39:                  26	31.10
20:39:                  56	31.09
20:40:                  26	31.08
20:40:                  56	31.08
20:41:                  26	31.08
20:41:                  56	31.07
20:42:                  26	31.07
20:42:                  56	31.09
20:43:                  26	31.11
20:43:                  56	31.10
20:44:                  26	31.10
20:44:                  56	31.12
20:45:                  26	31.10
20:45:                  56	31.10
20:46:                  26	31.08
20:46:                  56	31.07
20:47:                  26	31.06
20:47:                  56	31.04
20:48:                  27	31.05
20:48:                  57	31.04
20:49:                  27	31.03
20:49:                  57	31.04
20:50:                  27	31.03
20:50:                  57	31.03
20:51:                  27	31.04
20:51:                  57	31.03
20:52:                  27	31.07
20:52:                  57	31.05
20:53:                  27	31.04
20:53:                  57	31.03
20:54:                  27	31.04
20:54:                  57	31.04
20:55:                  27	31.04
20:55:                  57	31.04
20:56:                  27	31.05
20:56:                  57	31.05
20:57:                  27	31.03
20:57:                  57	31.03
20:58:                  27	31.03
20:58:                  57	31.03
20:59:                  27	31.05
20:59:                  57	31.06
21:00:                  27	31.06
21:00:                  57	31.03
21:01:                  27	31.05
21:01:                  57	31.03
21:02:                  27	31.01
21:02:                  57	31.02
21:03:                  27	31.02
21:03:                  57	31.02
21:04:                  27	31.01
21:04:                  57	31.01
21:05:                  27	31.04
21:05:                  57	31.04
21:06:                  27	31.03
21:06:                  57	31.04
21:07:                  27	31.03
21:07:                  58	31.02
21:08:                  28	31.01
21:08:                  58	31.01
21:09:                  28	31.01
21:09:                  58	31.01
21:10:                  28	31.02
21:10:                  58	31.02
21:11:                  28	31.01
21:11:                  58	31.01
21:12:                  28	31.01
21:12:                  58	31.01
21:13:                  28	31.03
21:13:                  58	31.04
21:14:                  28	31.02
21:14:                  58	31.04
21:15:                  28	31.05
21:15:                  58	31.03
21:16:                  28	31.02
21:16:                  58	31.00
21:17:                  28	30.99
21:17:                  58	30.99
21:18:                  28	31.00
21:18:                  58	31.00
21:19:                  28	30.97
21:19:                  58	30.98
21:20:                  28	30.98
21:20:                  58	31.00
21:21:                  28	31.03
21:21:                  58	31.02
21:22:                  28	31.01
21:22:                  58	31.00
21:23:                  28	30.99
21:23:                  58	30.97
21:24:                  28	30.98
21:24:                  58	30.95
21:25:                  28	30.97
21:25:                  58	30.96
21:26:                  28	30.94
21:26:                  58	30.93
21:27:                  28	30.95
21:27:                  58	30.94
21:28:                  28	30.95
21:28:                  58	30.96
21:29:                  28	30.97
21:29:                  58	30.97
21:30:                  28	30.95
21:30:                  59	30.96
21:31:                  29	30.96
21:31:                  59	30.97
21:32:                  29	30.96
21:32:                  59	30.96
21:33:                  29	30.97
21:33:                  59	30.97
21:34:                  29	30.96
21:34:                  59	30.99
21:35:                  29	31.00
21:35:                  59	30.98
21:36:                  29	30.99
21:36:                  59	31.01
21:37:                  29	31.00
21:37:                  59	30.97
21:38:                  29	30.97
21:38:                  59	30.96
21:39:                  29	30.96
21:39:                  59	30.94
21:40:                  29	30.98
21:40:                  59	30.98
21:41:                  29	30.97
21:41:                  59	30.96
21:42:                  29	30.96
21:42:                  59	30.96
21:43:                  29	30.94
21:43:                  59	30.95
21:44:                  29	30.96
21:44:                  59	30.97
21:45:                  29	30.96
21:45:                  59	30.97
21:46:                  29	30.96
21:46:                  59	30.96
21:47:                  29	30.95
21:47:                  59	30.95
21:48:                  29	30.96
21:48:                  59	30.96
21:49:                  29	30.96
21:49:                  59	30.96
21:50:                  30	30.96
21:51:                   0	30.98
21:51:                  30	30.99
21:52:                   0	30.99
21:52:                  30	30.97
21:53:                   0	30.97
21:53:                  30	30.96
21:54:                   0	30.96
21:54:                  30	30.95
21:55:                   0	30.96
21:55:                  30	30.98
21:56:                   0	30.99
21:56:                  30	30.98
21:57:                   0	30.97
21:57:                  30	30.96
21:58:                   0	30.98
21:58:                  30	30.97
21:59:                   0	30.97
21:59:                  30	31.00
22:00:                   0	30.98
22:00:                  30	30.98
22:01:                   0	30.97
22:01:                  30	30.96
22:02:                   0	30.95
22:02:                  30	30.95
22:03:                   0	30.93
22:03:                  30	30.93
22:04:                   0	30.97
22:04:                  30	30.97
22:05:                   0	30.98
22:05:                  30	30.97
22:06:                   0	30.97
22:06:                  30	30.97
22:07:                   1	30.95
22:07:                  31	30.93
22:08:                   1	30.92
22:08:                  31	30.92
22:09:                   1	30.92
22:09:                  31	30.93
22:10:                   1	30.92
22:10:                  31	30.96
22:11:                   1	30.96
22:11:                  31	30.97
22:12:                   1	30.96
22:12:                  31	30.96
22:13:                   1	30.96
22:13:                  31	30.93
22:14:                   1	30.93
22:14:                  31	30.92
22:15:                   1	30.92
22:15:                  31	30.93
22:16:                   1	30.93
22:16:                  31	30.93
22:17:                   1	30.94
22:17:                  31	30.95
22:18:                   1	30.95
22:18:                  31	30.98
22:19:                   1	30.97
22:19:                  31	30.96
22:20:                   1	30.97
22:20:                  31	30.96
22:21:                   1	30.97
22:21:                  31	30.97
22:22:                   1	30.99
22:22:                  31	30.98
22:23:                   1	30.96
22:23:                  31	30.95
22:24:                   1	30.95
22:24:                  31	30.96
22:25:                   1	30.97
22:25:                  31	30.95
22:26:                   1	30.97
22:26:                  31	30.97
22:27:                   2	30.97
22:27:                  32	30.95
22:28:                   2	30.93
22:28:                  32	30.93
22:29:                   2	30.93
22:29:                  32	30.94
22:30:                   2	30.93
22:30:                  32	30.94
22:31:                   2	30.93
22:31:                  32	30.95
22:32:                   2	30.98
22:32:                  32	30.99
22:33:                   2	30.97
22:33:                  32	30.97
22:34:                   2	30.95
22:34:                  32	30.95
22:35:                   2	30.96
22:35:                  32	30.95
22:36:                   2	30.95
22:36:                  32	30.93
22:37:                   2	30.92
22:37:                  32	30.92
22:38:                   2	30.96
22:38:                  32	30.98
22:39:                   2	30.97
22:39:                  32	30.95
22:40:                   2	30.96
22:40:                  32	30.96
22:41:                   2	30.97
22:41:                  32	30.96
22:42:                   2	30.97
22:42:                  32	30.95
22:43:                   2	30.93
22:43:                  33	30.93
22:44:                   3	30.93
22:44:                  33	30.93
22:45:                   3	30.93
22:45:                  33	30.94
22:46:                   3	30.94
22:46:                  33	30.93
22:47:                   3	30.92
22:47:                  33	30.93
22:48:                   3	30.92
22:48:                  33	30.93
22:49:                   3	30.94
22:49:                  33	30.94
22:50:                   3	30.96
22:50:                  33	30.96
22:51:                   3	30.96
22:51:                  33	30.96
22:52:                   3	30.97
22:52:                  33	30.97
22:53:                   3	30.95
22:53:                  33	30.96
22:54:                   3	30.95
22:54:                  33	30.94
22:55:                   3	30.97
22:55:                  33	30.97
22:56:                   3	30.95
22:56:                  33	30.95
22:57:                   3	30.96
22:57:                  33	30.96
22:58:                   3	30.98
22:58:                  33	30.99
22:59:                   3	30.98
22:59:                  33	31.01
23:00:                   4	31.03
23:00:                  34	31.01
23:01:                   4	31.00
23:01:                  34	30.98
23:02:                   4	30.98
23:02:                  34	30.95
23:03:                   4	30.96
23:03:                  34	30.95
23:04:                   4	30.96
23:04:                  34	30.95
23:05:                   4	30.99
23:05:                  34	30.99
23:06:                   4	30.98
23:06:                  34	30.98
23:07:                   4	30.97
23:07:                  34	30.96
23:08:                   4	30.97
23:08:                  34	30.98
23:09:                   4	31.01
23:09:                  34	30.99
23:10:                   4	30.97
23:10:                  34	30.97
23:11:                   4	30.95
23:11:                  34	30.95
23:12:                   4	31.00
23:12:                  34	31.02
23:13:                   4	31.04
23:13:                  34	31.04
23:14:                   4	31.03
23:14:                  34	31.04
23:15:                   4	31.07
23:15:                  34	31.09
23:16:                   4	31.06
23:16:                  34	31.08
23:17:                   4	31.07
23:17:                  34	31.09
23:18:                   4	31.12
23:18:                  34	31.13
23:19:                   4	31.11
23:19:                  35	31.10
23:20:                   5	31.10
23:20:                  35	31.12
23:21:                   5	31.12
23:21:                  35	31.14
23:22:                   5	31.14
23:22:                  35	31.17
23:23:                   5	31.15
23:23:                  35	31.12
23:24:                   5	31.10
23:24:                  35	31.11
23:25:                   5	31.11
23:25:                  35	31.13
23:26:                   5	31.13
23:26:                  35	31.14
23:27:                   5	31.14
23:27:                  35	31.15
23:28:                   5	31.19
23:28:                  35	31.20
23:29:                   5	31.21
23:29:                  35	31.19
23:30:                   5	31.17
23:30:                  35	31.17
23:31:                   5	31.16
23:31:                  35	31.15
23:32:                   5	31.19
23:32:                  35	31.19
23:33:                   5	31.21
23:33:                  35	31.21
23:34:                   5	31.19
23:34:                  35	31.18
23:35:                   5	31.17
23:35:                  35	31.17
23:36:                   5	31.20
23:36:                  35	31.18
23:37:                   5	31.17
23:37:                  35	31.18
23:38:                   5	31.20
23:38:                  36	31.21
23:39:                   6	31.20
23:39:                  36	31.24
23:40:                   6	31.23
23:40:                  36	31.22
23:41:                   6	31.23
23:41:                  36	31.23
23:42:                   6	31.21
23:42:                  36	31.22
23:43:                   6	31.22
23:43:                  36	31.21
23:44:                   6	31.23
23:44:                  36	31.26
23:45:                   6	31.26
23:45:                  36	31.27
23:46:                   6	31.28
23:46:                  36	31.28
23:47:                   6	31.26
23:47:                  36	31.27
23:48:                   6	31.27
23:48:                  36	31.28
23:49:                   6	31.29
23:49:                  36	31.30
23:50:                   6	31.29
23:50:                  36	31.28
23:51:                   6	31.29
23:51:                  36	31.33
23:52:                   6	31.32
23:52:                  36	31.33
23:53:                   6	31.32
23:53:                  36	31.31
23:54:                   6	31.31
23:54:                  36	31.29
23:55:                   6	31.28
23:55:                  36	31.28
23:56:                   6	31.29
23:56:                  36	31.27
23:57:                   6	31.28
23:57:                  36	31.27
23:58:                   7	31.27
23:58:                  37	31.28
23:59:                   7	31.30
23:59:                  37	31.31
