0:00:                   9	32.15
0:00:                  39	32.15
0:01:                   9	32.15
0:01:                  39	32.17
0:02:                   9	32.19
0:02:                  39	32.20
0:03:                   9	32.21
0:03:                  39	32.21
0:04:                   9	32.20
0:04:                  39	32.19
0:05:                   9	32.18
0:05:                  39	32.18
0:06:                   9	32.17
0:06:                  39	32.18
0:07:                   9	32.17
0:07:                  40	32.15
0:08:                  10	32.15
0:08:                  40	32.15
0:09:                  10	32.12
0:09:                  40	32.12
0:10:                  10	32.10
0:10:                  40	32.10
0:11:                  10	32.10
0:11:                  40	32.10
0:12:                  10	32.14
0:12:                  40	32.16
0:13:                  10	32.16
0:13:                  40	32.16
0:14:                  10	32.15
0:14:                  40	32.15
0:15:                  10	32.15
0:15:                  40	32.15
0:16:                  10	32.14
0:16:                  40	32.11
0:17:                  10	32.11
0:17:                  40	32.10
0:18:                  10	32.11
0:18:                  40	32.09
0:19:                  10	32.09
0:19:                  40	32.08
0:20:                  10	32.08
0:20:                  40	32.07
0:21:                  10	32.07
0:21:                  40	32.07
0:22:                  10	32.08
0:22:                  40	32.10
0:23:                  10	32.11
0:23:                  40	32.12
0:24:                  10	32.11
0:24:                  40	32.11
0:25:                  10	32.11
0:25:                  40	32.11
0:26:                  10	32.11
0:26:                  40	32.10
0:27:                  10	32.10
0:27:                  40	32.08
0:28:                  10	32.07
0:28:                  40	32.07
0:29:                  10	32.07
0:29:                  40	32.05
0:30:                  10	32.05
0:30:                  40	32.05
0:31:                  10	32.05
0:31:                  40	32.04
0:32:                  10	32.04
0:32:                  40	32.05
0:33:                  10	32.07
0:33:                  40	32.08
0:34:                  10	32.08
0:34:                  40	32.07
0:35:                  10	32.07
0:35:                  40	32.07
0:36:                  10	32.06
0:36:                  40	32.06
0:37:                  10	32.05
0:37:                  40	32.05
0:38:                  10	32.05
0:38:                  40	32.04
0:39:                  10	32.02
0:39:                  40	32.03
0:40:                  10	32.02
0:40:                  40	32.00
0:41:                  10	32.01
0:41:                  40	32.00
0:42:                  10	31.99
0:42:                  40	31.99
0:43:                  11	32.03
0:43:                  41	32.02
0:44:                  11	32.04
0:44:                  41	32.05
0:45:                  11	32.04
0:45:                  41	32.04
0:46:                  11	32.04
0:46:                  41	32.03
0:47:                  11	32.04
0:47:                  41	32.04
0:48:                  11	32.01
0:48:                  41	32.01
0:49:                  11	32.01
0:49:                  41	32.00
0:50:                  11	31.99
0:50:                  41	31.99
0:51:                  11	31.98
0:51:                  41	31.97
0:52:                  11	31.97
0:52:                  41	31.97
0:53:                  11	31.98
0:53:                  41	31.99
0:54:                  11	32.01
0:54:                  41	32.03
0:55:                  11	32.02
0:55:                  41	32.02
0:56:                  11	32.01
0:56:                  41	32.01
0:57:                  11	32.01
0:57:                  41	32.00
0:58:                  11	31.98
0:58:                  41	31.98
0:59:                  11	31.97
0:59:                  41	31.97
1:00:                  11	31.96
1:00:                  41	31.95
1:01:                  11	31.95
1:01:                  41	31.94
1:02:                  11	31.93
1:02:                  41	31.92
1:03:                  11	31.92
1:03:                  41	31.94
1:04:                  11	31.96
1:04:                  41	31.97
1:05:                  11	31.97
1:05:                  41	31.97
1:06:                  11	31.97
1:06:                  42	31.97
1:07:                  12	31.96
1:07:                  42	31.97
1:08:                  12	31.95
1:08:                  42	31.95
1:09:                  12	31.95
1:09:                  42	31.94
1:10:                  12	31.93
1:10:                  42	31.92
1:11:                  12	31.93
1:11:                  42	31.92
1:12:                  12	31.91
1:12:                  42	31.91
1:13:                  12	31.91
1:13:                  42	31.91
1:14:                  12	31.93
1:14:                  42	31.95
1:15:                  12	31.96
1:15:                  42	31.97
1:16:                  12	31.98
1:16:                  42	31.98
1:17:                  12	31.96
1:17:                  42	31.96
1:18:                  12	31.95
1:18:                  42	31.93
1:19:                  12	31.94
1:19:                  42	31.93
1:20:                  12	31.92
1:20:                  42	31.92
1:21:                  12	31.90
1:21:                  42	31.90
1:22:                  12	31.91
1:22:                  42	31.90
1:23:                  12	31.89
1:23:                  42	31.89
1:24:                  12	31.89
1:24:                  42	31.92
1:25:                  12	31.93
1:25:                  42	31.92
1:26:                  12	31.93
1:26:                  42	31.91
1:27:                  12	31.92
1:27:                  42	31.92
1:28:                  12	31.91
1:28:                  42	31.90
1:29:                  12	31.90
1:29:                  42	31.89
1:30:                  12	31.88
1:30:                  42	31.88
1:31:                  12	31.87
1:31:                  42	31.86
1:32:                  12	31.86
1:32:                  42	31.85
1:33:                  12	31.85
1:33:                  42	31.85
1:34:                  12	31.85
1:34:                  42	31.87
1:35:                  13	31.89
1:35:                  43	31.90
1:36:                  13	31.90
1:36:                  43	31.90
1:37:                  13	31.91
1:37:                  43	31.90
1:38:                  13	31.90
1:38:                  43	31.89
1:39:                  13	31.88
1:39:                  43	31.88
1:40:                  13	31.88
1:40:                  43	31.86
1:41:                  13	31.85
1:41:                  43	31.85
1:42:                  13	31.84
1:42:                  43	31.84
1:43:                  13	31.84
1:43:                  43	31.84
1:44:                  13	31.82
1:44:                  43	31.83
1:45:                  13	31.85
1:45:                  43	31.86
1:46:                  13	31.88
1:46:                  43	31.89
1:47:                  13	31.89
1:47:                  43	31.88
1:48:                  13	31.88
1:48:                  43	31.87
1:49:                  13	31.87
1:49:                  43	31.85
1:50:                  13	31.84
1:50:                  43	31.85
1:51:                  13	31.85
1:51:                  43	31.85
1:52:                  13	31.83
1:52:                  43	31.84
1:53:                  13	31.83
1:53:                  43	31.81
1:54:                  13	31.82
1:54:                  43	31.83
1:55:                  13	31.83
1:55:                  43	31.84
1:56:                  13	31.86
1:56:                  43	31.87
1:57:                  13	31.88
1:57:                  43	31.86
1:58:                  13	31.87
1:58:                  43	31.86
1:59:                  13	31.84
1:59:                  43	31.85
2:00:                  13	31.84
2:00:                  43	31.83
2:01:                  13	31.84
2:01:                  43	31.83
2:02:                  14	31.83
2:02:                  44	31.82
2:03:                  14	31.81
2:03:                  44	31.81
2:04:                  14	31.79
2:04:                  44	31.79
2:05:                  14	31.79
2:05:                  44	31.80
2:06:                  14	31.82
2:06:                  44	31.83
2:07:                  14	31.83
2:07:                  44	31.84
2:08:                  14	31.84
2:08:                  44	31.84
2:09:                  14	31.83
2:09:                  44	31.82
2:10:                  14	31.82
2:10:                  44	31.81
2:11:                  14	31.81
2:11:                  44	31.81
2:12:                  14	31.79
2:12:                  44	31.79
2:13:                  14	31.79
2:13:                  44	31.78
2:14:                  14	31.78
2:14:                  44	31.77
2:15:                  14	31.77
2:15:                  44	31.78
2:16:                  14	31.79
2:16:                  44	31.81
2:17:                  14	31.82
2:17:                  44	31.82
2:18:                  14	31.82
2:18:                  44	31.81
2:19:                  14	31.81
2:19:                  44	31.81
2:20:                  14	31.80
2:20:                  44	31.79
2:21:                  14	31.79
2:21:                  44	31.79
2:22:                  14	31.77
2:22:                  44	31.77
2:23:                  14	31.77
2:23:                  44	31.76
2:24:                  14	31.76
2:24:                  44	31.75
2:25:                  14	31.75
2:25:                  44	31.74
2:26:                  15	31.76
2:26:                  45	31.79
2:27:                  15	31.79
2:27:                  45	31.81
2:28:                  15	31.79
2:28:                  45	31.79
2:29:                  15	31.78
2:29:                  45	31.79
2:30:                  15	31.78
2:30:                  45	31.79
2:31:                  15	31.78
2:31:                  45	31.77
2:32:                  15	31.76
2:32:                  45	31.76
2:33:                  15	31.75
2:33:                  45	31.75
2:34:                  15	31.75
2:34:                  45	31.73
2:35:                  15	31.73
2:35:                  45	31.73
2:36:                  15	31.72
2:36:                  45	31.75
2:37:                  15	31.77
2:37:                  45	31.79
2:38:                  15	31.77
2:38:                  45	31.78
2:39:                  15	31.77
2:39:                  45	31.77
2:40:                  15	31.76
2:40:                  45	31.77
2:41:                  15	31.77
2:41:                  45	31.76
2:42:                  15	31.76
2:42:                  45	31.75
2:43:                  15	31.75
2:43:                  45	31.73
2:44:                  15	31.73
2:44:                  45	31.72
2:45:                  15	31.72
2:45:                  45	31.71
2:46:                  15	31.71
2:46:                  45	31.71
2:47:                  15	31.73
2:47:                  45	31.76
2:48:                  15	31.76
2:48:                  45	31.76
2:49:                  15	31.77
2:49:                  45	31.76
2:50:                  15	31.75
2:50:                  45	31.75
2:51:                  15	31.74
2:51:                  45	31.74
2:52:                  15	31.74
2:52:                  45	31.72
2:53:                  15	31.72
2:53:                  45	31.72
2:54:                  15	31.71
2:54:                  45	31.70
2:55:                  15	31.69
2:55:                  45	31.70
2:56:                  15	31.68
2:56:                  46	31.67
2:57:                  16	31.68
2:57:                  46	31.70
2:58:                  16	31.72
2:58:                  46	31.73
2:59:                  16	31.73
2:59:                  46	31.73
3:00:                  16	31.72
3:00:                  46	31.72
3:01:                  16	31.71
3:01:                  46	31.71
3:02:                  16	31.71
3:02:                  46	31.70
3:03:                  16	31.71
3:03:                  46	31.69
3:04:                  16	31.69
3:04:                  46	31.68
3:05:                  16	31.67
3:05:                  46	31.68
3:06:                  16	31.68
3:06:                  46	31.66
3:07:                  16	31.66
3:07:                  46	31.68
3:08:                  16	31.69
3:08:                  46	31.70
3:09:                  16	31.70
3:09:                  46	31.72
3:10:                  16	31.70
3:10:                  46	31.71
3:11:                  16	31.71
3:11:                  46	31.70
3:12:                  16	31.70
3:12:                  46	31.70
3:13:                  16	31.69
3:13:                  46	31.68
3:14:                  16	31.68
3:14:                  46	31.68
3:15:                  16	31.66
3:15:                  46	31.67
3:16:                  16	31.66
3:16:                  46	31.65
3:17:                  16	31.64
3:17:                  46	31.65
3:18:                  16	31.67
3:18:                  46	31.69
3:19:                  16	31.69
3:19:                  46	31.71
3:20:                  16	31.70
3:20:                  46	31.69
3:21:                  16	31.69
3:21:                  46	31.69
3:22:                  16	31.69
3:22:                  46	31.67
3:23:                  16	31.67
3:23:                  46	31.66
3:24:                  16	31.67
3:24:                  46	31.65
3:25:                  16	31.65
3:25:                  46	31.66
3:26:                  16	31.65
3:26:                  46	31.63
3:27:                  16	31.63
3:27:                  46	31.63
3:28:                  16	31.64
3:28:                  46	31.66
3:29:                  16	31.68
3:29:                  46	31.68
3:30:                  16	31.68
3:30:                  46	31.69
3:31:                  16	31.68
3:31:                  46	31.67
3:32:                  16	31.66
3:32:                  46	31.67
3:33:                  16	31.67
3:33:                  46	31.65
3:34:                  16	31.64
3:34:                  46	31.65
3:35:                  16	31.64
3:35:                  46	31.63
3:36:                  17	31.62
3:36:                  47	31.62
3:37:                  17	31.62
3:37:                  47	31.62
3:38:                  17	31.61
3:38:                  47	31.63
3:39:                  17	31.64
3:39:                  47	31.66
3:40:                  17	31.66
3:40:                  47	31.66
3:41:                  17	31.68
3:41:                  47	31.66
3:42:                  17	31.66
3:42:                  47	31.65
3:43:                  17	31.66
3:43:                  47	31.65
3:44:                  17	31.65
3:44:                  47	31.64
3:45:                  17	31.62
3:45:                  47	31.63
3:46:                  17	31.62
3:46:                  47	31.61
3:47:                  17	31.60
3:47:                  47	31.59
3:48:                  17	31.60
3:48:                  47	31.60
3:49:                  17	31.62
3:49:                  47	31.64
3:50:                  17	31.64
3:50:                  47	31.65
3:51:                  17	31.65
3:51:                  47	31.66
3:52:                  17	31.65
3:52:                  47	31.64
3:53:                  17	31.63
3:53:                  47	31.63
3:54:                  17	31.63
3:54:                  47	31.61
3:55:                  17	31.60
3:55:                  47	31.59
3:56:                  17	31.59
3:56:                  47	31.60
3:57:                  17	31.60
3:57:                  47	31.59
3:58:                  17	31.58
3:58:                  47	31.57
3:59:                  17	31.58
3:59:                  47	31.61
4:00:                  17	31.61
4:00:                  47	31.63
4:01:                  17	31.63
4:01:                  47	31.63
4:02:                  17	31.62
4:02:                  47	31.62
4:03:                  17	31.61
4:03:                  47	31.61
4:04:                  17	31.61
4:04:                  47	31.61
4:05:                  17	31.60
4:05:                  47	31.59
4:06:                  17	31.58
4:06:                  47	31.57
4:07:                  17	31.57
4:07:                  48	31.57
4:08:                  18	31.56
4:08:                  48	31.55
4:09:                  18	31.55
4:09:                  48	31.58
4:10:                  18	31.60
4:10:                  48	31.61
4:11:                  18	31.62
4:11:                  48	31.62
4:12:                  18	31.61
4:12:                  48	31.62
4:13:                  18	31.61
4:13:                  48	31.60
4:14:                  18	31.60
4:14:                  48	31.59
4:15:                  18	31.59
4:15:                  48	31.59
4:16:                  18	31.58
4:16:                  48	31.58
4:17:                  18	31.57
4:17:                  48	31.56
4:18:                  18	31.55
4:18:                  48	31.54
4:19:                  18	31.54
4:19:                  48	31.53
4:20:                  18	31.55
4:20:                  48	31.58
4:21:                  18	31.59
4:21:                  48	31.59
4:22:                  18	31.60
4:22:                  48	31.59
4:23:                  18	31.59
4:23:                  48	31.58
4:24:                  18	31.58
4:24:                  48	31.57
4:25:                  18	31.57
4:25:                  48	31.55
4:26:                  18	31.55
4:26:                  48	31.54
4:27:                  18	31.54
4:27:                  48	31.53
4:28:                  18	31.53
4:28:                  48	31.52
4:29:                  18	31.52
4:29:                  48	31.52
4:30:                  18	31.52
4:30:                  48	31.54
4:31:                  18	31.56
4:31:                  48	31.58
4:32:                  18	31.57
4:32:                  48	31.58
4:33:                  18	31.57
4:33:                  48	31.57
4:34:                  18	31.57
4:34:                  48	31.55
4:35:                  18	31.55
4:35:                  49	31.55
4:36:                  19	31.55
4:36:                  49	31.54
4:37:                  19	31.53
4:37:                  49	31.53
4:38:                  19	31.53
4:38:                  49	31.52
4:39:                  19	31.51
4:39:                  49	31.50
4:40:                  19	31.52
4:40:                  49	31.53
4:41:                  19	31.55
4:41:                  49	31.56
4:42:                  19	31.57
4:42:                  49	31.57
4:43:                  19	31.56
4:43:                  49	31.56
4:44:                  19	31.56
4:44:                  49	31.55
4:45:                  19	31.54
4:45:                  49	31.54
4:46:                  19	31.53
4:46:                  49	31.53
4:47:                  19	31.52
4:47:                  49	31.51
4:48:                  19	31.51
4:48:                  49	31.50
4:49:                  19	31.51
4:49:                  49	31.51
4:50:                  19	31.49
4:50:                  49	31.49
4:51:                  19	31.52
4:51:                  49	31.53
4:52:                  19	31.55
4:52:                  49	31.54
4:53:                  19	31.55
4:53:                  49	31.55
4:54:                  19	31.54
4:54:                  49	31.54
4:55:                  19	31.54
4:55:                  49	31.53
4:56:                  19	31.53
4:56:                  49	31.52
4:57:                  19	31.51
4:57:                  49	31.51
4:58:                  19	31.50
4:58:                  49	31.48
4:59:                  19	31.48
4:59:                  49	31.48
5:00:                  19	31.48
5:00:                  49	31.47
5:01:                  19	31.48
5:01:                  49	31.51
5:02:                  19	31.53
5:02:                  49	31.53
5:03:                  19	31.54
5:03:                  49	31.53
5:04:                  19	31.53
5:04:                  49	31.52
5:05:                  19	31.52
5:05:                  49	31.52
5:06:                  19	31.50
5:06:                  49	31.49
5:07:                  19	31.49
5:07:                  49	31.48
5:08:                  19	31.48
5:08:                  49	31.47
5:09:                  19	31.46
5:09:                  49	31.46
5:10:                  19	31.46
5:10:                  49	31.45
5:11:                  19	31.45
5:11:                  49	31.45
5:12:                  19	31.48
5:12:                  49	31.49
5:13:                  19	31.52
5:13:                  49	31.51
5:14:                  19	31.50
5:14:                  49	31.50
5:15:                  19	31.50
5:15:                  49	31.48
5:16:                  19	31.48
5:16:                  49	31.48
5:17:                  19	31.48
5:17:                  49	31.47
5:18:                  19	31.46
5:18:                  50	31.45
5:19:                  20	31.46
5:19:                  50	31.46
5:20:                  20	31.45
5:20:                  50	31.45
5:21:                  20	31.43
5:21:                  50	31.44
5:22:                  20	31.45
5:22:                  50	31.48
5:23:                  20	31.48
5:23:                  50	31.49
5:24:                  20	31.49
5:24:                  50	31.49
5:25:                  20	31.48
5:25:                  50	31.49
5:26:                  20	31.48
5:26:                  50	31.48
5:27:                  20	31.46
5:27:                  50	31.45
5:28:                  20	31.46
5:28:                  50	31.45
5:29:                  20	31.45
5:29:                  50	31.44
5:30:                  20	31.44
5:30:                  50	31.43
5:31:                  20	31.43
5:31:                  50	31.42
5:32:                  20	31.42
5:32:                  50	31.46
5:33:                  20	31.47
5:33:                  50	31.47
5:34:                  20	31.47
5:34:                  50	31.48
5:35:                  20	31.48
5:35:                  50	31.47
5:36:                  20	31.46
5:36:                  50	31.46
5:37:                  20	31.45
5:37:                  50	31.44
5:38:                  20	31.44
5:38:                  50	31.44
5:39:                  20	31.43
5:39:                  50	31.43
5:40:                  20	31.42
5:40:                  50	31.42
5:41:                  20	31.42
5:41:                  50	31.41
5:42:                  20	31.41
5:42:                  50	31.43
5:43:                  21	31.44
5:43:                  51	31.46
5:44:                  21	31.46
5:44:                  51	31.47
5:45:                  21	31.47
5:45:                  51	31.46
5:46:                  21	31.46
5:46:                  51	31.45
5:47:                  21	31.44
5:47:                  51	31.44
5:48:                  21	31.44
5:48:                  51	31.44
5:49:                  21	31.41
5:49:                  51	31.42
5:50:                  21	31.42
5:50:                  51	31.41
5:51:                  21	31.41
5:51:                  51	31.40
5:52:                  21	31.40
5:52:                  51	31.39
5:53:                  21	31.42
5:53:                  51	31.43
5:54:                  21	31.44
5:54:                  51	31.45
5:55:                  21	31.45
5:55:                  51	31.45
5:56:                  21	31.44
5:56:                  51	31.44
5:57:                  21	31.44
5:57:                  51	31.44
5:58:                  21	31.42
5:58:                  51	31.41
5:59:                  21	31.42
5:59:                  51	31.41
6:00:                  21	31.40
6:00:                  51	31.39
6:01:                  21	31.39
6:01:                  51	31.39
6:02:                  21	31.39
6:02:                  51	31.38
6:03:                  21	31.38
6:03:                  51	31.41
6:04:                  22	31.43
6:04:                  52	31.44
6:05:                  22	31.43
6:05:                  52	31.43
6:06:                  22	31.43
6:06:                  52	31.43
6:07:                  22	31.43
6:07:                  52	31.42
6:08:                  22	31.41
6:08:                  52	31.40
6:09:                  22	31.41
6:09:                  52	31.39
6:10:                  22	31.39
6:10:                  52	31.39
6:11:                  22	31.38
6:11:                  52	31.38
6:12:                  22	31.37
6:12:                  52	31.37
6:13:                  22	31.36
6:13:                  52	31.38
6:14:                  22	31.40
6:14:                  52	31.41
6:15:                  22	31.42
6:15:                  52	31.41
6:16:                  22	31.43
6:16:                  52	31.42
6:17:                  22	31.40
6:17:                  52	31.41
6:18:                  22	31.40
6:18:                  52	31.40
6:19:                  22	31.40
6:19:                  52	31.39
6:20:                  22	31.38
6:20:                  52	31.38
6:21:                  22	31.38
6:21:                  52	31.36
6:22:                  22	31.36
6:22:                  52	31.36
6:23:                  22	31.35
6:23:                  52	31.34
6:24:                  22	31.36
6:24:                  52	31.39
6:25:                  22	31.40
6:25:                  52	31.41
6:26:                  22	31.42
6:26:                  52	31.41
6:27:                  23	31.42
6:27:                  53	31.42
6:28:                  23	31.41
6:28:                  53	31.41
6:29:                  23	31.40
6:29:                  53	31.39
6:30:                  23	31.38
6:30:                  53	31.39
6:31:                  23	31.37
6:31:                  53	31.35
6:32:                  23	31.35
6:32:                  53	31.34
6:33:                  23	31.33
6:33:                  53	31.32
6:34:                  23	31.34
6:34:                  53	31.36
6:35:                  23	31.38
6:35:                  53	31.39
6:36:                  23	31.39
6:36:                  53	31.40
6:37:                  23	31.39
6:37:                  53	31.39
6:38:                  23	31.39
6:38:                  53	31.39
6:39:                  23	31.37
6:39:                  53	31.38
6:40:                  23	31.38
6:40:                  53	31.38
6:41:                  23	31.35
6:41:                  53	31.35
6:42:                  23	31.35
6:42:                  53	31.35
6:43:                  23	31.34
6:43:                  53	31.33
6:44:                  23	31.33
6:44:                  53	31.34
6:45:                  23	31.36
6:45:                  53	31.38
6:46:                  23	31.39
6:46:                  53	31.38
6:47:                  23	31.37
6:47:                  53	31.38
6:48:                  23	31.37
6:48:                  53	31.36
6:49:                  23	31.36
6:49:                  53	31.36
6:50:                  23	31.35
6:50:                  53	31.34
6:51:                  23	31.34
6:51:                  53	31.33
6:52:                  23	31.32
6:52:                  53	31.32
6:53:                  23	31.31
6:53:                  53	31.31
6:54:                  23	31.30
6:54:                  53	31.29
6:55:                  23	31.32
6:55:                  53	31.34
6:56:                  23	31.34
6:56:                  53	31.35
6:57:                  23	31.35
6:57:                  53	31.35
6:58:                  23	31.34
6:58:                  53	31.35
6:59:                  23	31.34
6:59:                  53	31.34
7:00:                  23	31.33
7:00:                  53	31.32
7:01:                  23	31.32
7:01:                  53	31.31
7:02:                  23	31.31
7:02:                  53	31.31
7:03:                  23	31.30
7:03:                  53	31.29
7:04:                  23	31.29
7:04:                  53	31.29
7:05:                  23	31.29
7:05:                  53	31.31
7:06:                  23	31.33
7:06:                  54	31.34
7:07:                  24	31.34
7:07:                  54	31.34
7:08:                  24	31.35
7:08:                  54	31.34
7:09:                  24	31.33
7:09:                  54	31.33
7:10:                  24	31.33
7:10:                  54	31.33
7:11:                  24	31.32
7:11:                  54	31.30
7:12:                  24	31.30
7:12:                  54	31.30
7:13:                  24	31.29
7:13:                  54	31.28
7:14:                  24	31.27
7:14:                  54	31.28
7:15:                  24	31.27
7:15:                  54	31.30
7:16:                  24	31.30
7:16:                  54	31.32
7:17:                  24	31.33
7:17:                  54	31.33
7:18:                  24	31.33
7:18:                  54	31.33
7:19:                  24	31.32
7:19:                  54	31.32
7:20:                  24	31.32
7:20:                  54	31.30
7:21:                  24	31.30
7:21:                  54	31.29
7:22:                  24	31.30
7:22:                  54	31.29
7:23:                  24	31.29
7:23:                  54	31.29
7:24:                  24	31.27
7:24:                  54	31.28
7:25:                  24	31.27
7:25:                  54	31.27
7:26:                  24	31.29
7:26:                  54	31.31
7:27:                  24	31.33
7:27:                  54	31.33
7:28:                  24	31.34
7:28:                  54	31.32
7:29:                  24	31.32
7:29:                  54	31.32
7:30:                  24	31.30
7:30:                  54	31.30
7:31:                  24	31.29
7:31:                  54	31.22
7:32:                  24	31.24
7:32:                  54	31.24
7:33:                  24	31.24
7:33:                  54	31.25
7:34:                  24	31.24
7:34:                  54	31.24
7:35:                  24	31.24
7:35:                  54	31.23
7:36:                  24	31.24
7:36:                  54	31.26
7:37:                  24	31.27
7:37:                  54	31.29
7:38:                  24	31.29
7:38:                  54	31.29
7:39:                  24	31.29
7:39:                  54	31.30
7:40:                  24	31.30
7:40:                  54	31.29
7:41:                  24	31.29
7:41:                  55	31.29
7:42:                  25	31.29
7:42:                  55	31.29
7:43:                  25	31.27
7:43:                  55	31.27
7:44:                  25	31.27
7:44:                  55	31.27
7:45:                  25	31.26
7:45:                  55	31.26
7:46:                  25	31.25
7:46:                  55	31.26
7:47:                  25	31.28
7:47:                  55	31.30
7:48:                  25	31.30
7:48:                  55	31.31
7:49:                  25	31.32
7:49:                  55	31.32
7:50:                  25	31.31
7:50:                  55	31.31
7:51:                  25	31.31
7:51:                  55	31.31
7:52:                  25	31.30
7:52:                  55	31.30
7:53:                  25	31.29
7:53:                  55	31.28
7:54:                  25	31.29
7:54:                  55	31.27
7:55:                  25	31.27
7:55:                  55	31.26
7:56:                  25	31.27
7:56:                  55	31.26
7:57:                  25	31.27
7:57:                  55	31.29
7:58:                  25	31.30
7:58:                  55	31.31
7:59:                  25	31.30
7:59:                  55	31.30
8:00:                  25	31.30
8:00:                  55	31.30
8:01:                  25	31.29
8:01:                  55	31.29
8:02:                  25	31.29
8:02:                  55	31.27
8:03:                  25	31.27
8:03:                  55	31.26
8:04:                  25	31.26
8:04:                  55	31.25
8:05:                  25	31.24
8:05:                  55	31.25
8:06:                  25	31.24
8:06:                  55	31.23
8:07:                  25	31.22
8:07:                  55	31.25
8:08:                  25	31.27
8:08:                  55	31.27
8:09:                  25	31.28
8:09:                  55	31.28
8:10:                  25	31.28
8:10:                  55	31.28
8:11:                  25	31.27
8:11:                  55	31.27
8:12:                  25	31.27
8:12:                  55	31.27
8:13:                  25	31.26
8:13:                  55	31.25
8:14:                  25	31.24
8:14:                  55	31.24
8:15:                  25	31.23
8:15:                  55	31.22
8:16:                  25	31.22
8:16:                  55	31.21
8:17:                  25	31.20
8:17:                  55	31.21
8:18:                  25	31.24
8:18:                  55	31.26
8:19:                  25	31.27
8:19:                  55	31.27
8:20:                  25	31.27
8:20:                  55	31.27
8:21:                  25	31.25
8:21:                  55	31.26
8:22:                  25	31.26
8:22:                  55	31.25
8:23:                  25	31.26
8:23:                  55	31.24
8:24:                  25	31.23
8:24:                  55	31.23
8:25:                  25	31.22
8:25:                  55	31.22
8:26:                  26	31.21
8:26:                  56	31.20
8:27:                  26	31.20
8:27:                  56	31.19
8:28:                  26	31.21
8:28:                  56	31.22
8:29:                  26	31.24
8:29:                  56	31.24
8:30:                  26	31.25
8:30:                  56	31.25
8:31:                  26	31.24
8:31:                  56	31.24
8:32:                  26	31.24
8:32:                  56	31.23
8:33:                  26	31.22
8:33:                  56	31.21
8:34:                  26	31.21
8:34:                  56	31.20
8:35:                  26	31.20
8:35:                  56	31.18
8:36:                  26	31.19
8:36:                  56	31.19
8:37:                  26	31.19
8:37:                  56	31.18
8:38:                  26	31.19
8:38:                  56	31.21
8:39:                  26	31.22
8:39:                  56	31.23
8:40:                  26	31.24
8:40:                  56	31.24
8:41:                  26	31.23
8:41:                  56	31.24
8:42:                  26	31.22
8:42:                  56	31.22
8:43:                  26	31.21
8:43:                  56	31.21
8:44:                  26	31.22
8:44:                  56	31.21
8:45:                  26	31.20
8:45:                  56	31.19
8:46:                  26	31.19
8:46:                  56	31.18
8:47:                  26	31.17
8:47:                  56	31.17
8:48:                  26	31.16
8:48:                  56	31.16
8:49:                  26	31.21
8:49:                  56	31.22
8:50:                  26	31.23
8:50:                  56	31.24
8:51:                  26	31.24
8:51:                  56	31.25
8:52:                  26	31.25
8:52:                  56	31.26
8:53:                  26	31.25
8:53:                  56	31.25
8:54:                  26	31.25
8:54:                  56	31.25
8:55:                  26	31.26
8:55:                  56	31.27
8:56:                  26	31.26
8:56:                  56	31.27
8:57:                  26	31.26
8:57:                  56	31.27
8:58:                  26	31.27
8:58:                  56	31.27
8:59:                  26	31.28
8:59:                  56	31.30
9:00:                  26	31.32
9:00:                  56	31.33
9:01:                  26	31.34
9:01:                  56	31.34
9:02:                  26	31.35
9:02:                  56	31.35
9:03:                  26	31.35
9:03:                  56	31.34
9:04:                  26	31.35
9:04:                  56	31.35
9:05:                  26	31.33
9:05:                  56	31.33
9:06:                  26	31.35
9:06:                  56	31.36
9:07:                  26	31.36
9:07:                  56	31.38
9:08:                  26	31.39
9:08:                  56	31.39
9:09:                  27	31.39
9:09:                  57	31.43
9:10:                  27	31.47
9:10:                  57	31.49
9:11:                  27	31.52
9:11:                  57	31.53
9:12:                  27	31.56
9:12:                  57	31.57
9:13:                  27	31.58
9:13:                  57	31.60
9:14:                  27	31.62
9:14:                  57	31.63
9:15:                  27	31.65
9:15:                  57	31.67
9:16:                  27	31.68
9:16:                  57	31.72
9:17:                  27	31.72
9:17:                  57	31.75
9:18:                  27	31.79
9:18:                  57	31.81
9:19:                  27	31.83
9:19:                  57	31.88
9:20:                  27	31.93
9:20:                  57	31.99
9:21:                  27	32.04
9:21:                  57	32.08
9:22:                  27	32.12
9:22:                  57	32.15
9:23:                  27	32.17
9:23:                  57	32.20
9:24:                  27	32.25
9:24:                  57	32.28
9:25:                  27	32.31
9:25:                  57	32.34
9:26:                  27	32.37
9:26:                  57	32.40
9:27:                  27	32.44
9:27:                  57	32.50
9:28:                  27	32.52
9:28:                  57	32.55
9:29:                  27	32.60
9:29:                  57	32.63
9:30:                  27	32.68
9:30:                  57	32.75
9:31:                  27	32.80
9:31:                  57	32.84
9:32:                  27	32.87
9:32:                  57	32.91
9:33:                  27	32.93
9:33:                  57	32.98
9:34:                  27	33.00
9:34:                  57	33.05
9:35:                  27	33.08
9:35:                  57	33.09
9:36:                  27	33.10
9:36:                  57	33.13
9:37:                  27	33.18
9:37:                  57	33.21
9:38:                  27	33.23
9:38:                  57	33.28
9:39:                  27	33.32
9:39:                  57	33.34
9:40:                  27	33.38
9:40:                  57	33.42
9:41:                  27	33.48
9:41:                  57	33.51
9:42:                  27	33.57
9:42:                  57	33.61
9:43:                  27	33.61
9:43:                  57	33.61
9:44:                  27	33.65
9:44:                  57	33.65
9:45:                  27	33.72
9:45:                  57	33.76
9:46:                  27	33.78
9:46:                  57	33.78
9:47:                  27	33.80
9:47:                  57	33.85
9:48:                  27	33.89
9:48:                  57	33.92
9:49:                  27	33.97
9:49:                  57	33.97
9:50:                  27	33.96
9:50:                  57	34.04
9:51:                  27	34.11
9:51:                  57	34.15
9:52:                  27	34.22
9:52:                  57	34.25
9:53:                  27	34.28
9:53:                  57	34.29
9:54:                  27	34.30
9:54:                  58	34.30
9:55:                  28	34.33
9:55:                  58	34.37
9:56:                  28	34.38
9:56:                  58	34.47
9:57:                  28	34.50
9:57:                  58	34.56
9:58:                  28	34.57
9:58:                  58	34.58
9:59:                  28	34.63
9:59:                  58	34.67
10:00:                  28	34.66
10:00:                  58	34.71
10:01:                  28	34.76
10:01:                  58	34.83
10:02:                  28	34.88
10:02:                  58	34.91
10:03:                  28	34.95
10:03:                  58	34.99
10:04:                  28	35.02
10:04:                  58	35.04
10:05:                  28	35.07
10:05:                  58	35.07
10:06:                  28	35.11
10:06:                  58	35.15
10:07:                  28	35.19
10:07:                  58	35.19
10:08:                  28	35.24
10:08:                  58	35.29
10:09:                  28	35.30
10:09:                  58	35.33
10:10:                  28	35.36
10:10:                  58	35.39
10:11:                  28	35.41
10:11:                  58	35.43
10:12:                  28	35.51
10:12:                  58	35.53
10:13:                  28	35.60
10:13:                  58	35.65
10:14:                  28	35.64
10:14:                  58	35.68
10:15:                  28	35.73
10:15:                  58	35.75
10:16:                  28	35.76
10:16:                  58	35.79
10:17:                  28	35.78
10:17:                  58	35.79
10:18:                  29	35.83
10:18:                  59	35.86
10:19:                  29	35.86
10:19:                  59	35.87
10:20:                  29	35.88
10:20:                  59	35.86
10:21:                  29	35.92
10:21:                  59	35.94
10:22:                  29	35.98
10:22:                  59	36.00
10:23:                  29	36.03
10:23:                  59	36.05
10:24:                  29	36.11
10:24:                  59	36.10
10:25:                  29	36.10
10:25:                  59	36.11
10:26:                  29	36.11
10:26:                  59	36.15
10:27:                  29	36.18
10:27:                  59	36.19
10:28:                  29	36.22
10:28:                  59	36.21
10:29:                  29	36.28
10:29:                  59	36.27
10:30:                  29	36.34
10:30:                  59	36.36
10:31:                  29	36.32
10:31:                  59	36.34
10:32:                  29	36.38
10:32:                  59	36.46
10:33:                  29	36.48
10:33:                  59	36.53
10:34:                  29	36.57
10:34:                  59	36.61
10:35:                  29	36.62
10:35:                  59	36.60
10:36:                  29	36.62
10:36:                  59	36.62
10:37:                  29	36.65
10:37:                  59	36.66
10:38:                  29	36.65
10:39:                   0	36.69
10:39:                  30	36.70
10:40:                   0	36.73
10:40:                  30	36.73
10:41:                   0	36.75
10:41:                  30	36.76
10:42:                   0	36.73
10:42:                  30	36.76
10:43:                   0	36.82
10:43:                  30	36.86
10:44:                   0	36.91
10:44:                  30	36.92
10:45:                   0	36.91
10:45:                  30	36.92
10:46:                   0	36.93
10:46:                  30	36.95
10:47:                   0	36.97
10:47:                  30	36.99
10:48:                   0	36.99
10:48:                  30	37.01
10:49:                   0	37.00
10:49:                  30	37.00
10:50:                   0	37.03
10:50:                  30	37.03
10:51:                   0	37.01
10:51:                  30	37.01
10:52:                   0	37.04
10:52:                  30	37.04
10:53:                   0	37.06
10:53:                  30	37.09
10:54:                   0	37.14
10:54:                  30	37.20
10:55:                   0	37.21
10:55:                  30	37.19
10:56:                   0	37.20
10:56:                  30	37.24
10:57:                   0	37.26
10:57:                  30	37.28
10:58:                   0	37.30
10:58:                  30	37.25
10:59:                   0	37.27
10:59:                  30	37.24
11:00:                   0	37.26
11:00:                  30	37.27
11:01:                   0	37.31
11:01:                  30	37.27
11:02:                   0	37.27
11:02:                  30	37.24
11:03:                   0	37.28
11:03:                  31	37.31
11:04:                   1	37.34
11:04:                  31	37.35
11:05:                   1	37.36
11:05:                  31	37.40
11:06:                   1	37.40
11:06:                  31	37.42
11:07:                   1	37.43
11:07:                  31	37.43
11:08:                   1	37.41
11:08:                  31	37.41
11:09:                   1	37.44
11:09:                  31	37.44
11:10:                   1	37.48
11:10:                  31	37.47
11:11:                   1	37.48
11:11:                  31	37.50
11:12:                   1	37.51
11:12:                  31	37.53
11:13:                   1	37.52
11:13:                  31	37.58
11:14:                   1	37.59
11:14:                  31	37.58
11:15:                   1	37.62
11:15:                  31	37.65
11:16:                   1	37.67
11:16:                  31	37.68
11:17:                   1	37.68
11:17:                  31	37.69
11:18:                   1	37.71
11:18:                  31	37.73
11:19:                   1	37.72
11:19:                  31	37.74
11:20:                   1	37.71
11:20:                  31	37.73
11:21:                   1	37.78
11:21:                  31	37.82
11:22:                   1	37.80
11:22:                  31	37.78
11:23:                   1	37.78
11:23:                  31	37.81
11:24:                   1	37.84
11:24:                  31	37.87
11:25:                   1	37.88
11:25:                  31	37.89
11:26:                   1	37.90
11:26:                  32	37.93
11:27:                   2	37.90
11:27:                  32	37.93
11:28:                   2	37.93
11:28:                  32	37.94
11:29:                   2	37.96
11:29:                  32	37.98
11:30:                   2	37.96
11:30:                  32	38.01
11:31:                   2	38.00
11:31:                  32	38.01
11:32:                   2	38.02
11:32:                  32	38.02
11:33:                   2	38.02
11:33:                  32	38.07
11:34:                   2	38.09
11:34:                  32	38.10
11:35:                   2	38.13
11:35:                  32	38.13
11:36:                   2	38.21
11:36:                  32	38.24
11:37:                   2	38.25
11:37:                  32	38.22
11:38:                   2	38.22
11:38:                  32	38.23
11:39:                   2	38.25
11:39:                  32	38.28
11:40:                   2	38.26
11:40:                  32	38.26
11:41:                   2	38.26
11:41:                  32	38.28
11:42:                   2	38.27
11:42:                  32	38.27
11:43:                   2	38.29
11:43:                  32	38.27
11:44:                   2	38.28
11:44:                  32	38.30
11:45:                   2	38.34
11:45:                  32	38.36
11:46:                   2	38.39
11:46:                  32	38.39
11:47:                   2	38.37
11:47:                  32	38.38
11:48:                   2	38.38
11:48:                  32	38.39
11:49:                   2	38.37
11:49:                  32	38.35
11:50:                   2	38.39
11:50:                  32	38.37
11:51:                   2	38.39
11:51:                  32	38.39
11:52:                   3	38.39
11:52:                  33	38.39
11:53:                   3	38.37
11:53:                  33	38.38
11:54:                   3	38.38
11:54:                  33	38.35
11:55:                   3	38.34
11:55:                  33	38.42
11:56:                   3	38.45
11:56:                  33	38.45
11:57:                   3	38.45
11:57:                  33	38.44
11:58:                   3	38.43
11:58:                  33	38.45
11:59:                   3	38.45
11:59:                  33	38.45
12:00:                   3	38.50
12:00:                  33	38.46
12:01:                   3	38.48
12:01:                  33	38.49
12:02:                   3	38.52
12:02:                  33	38.52
12:03:                   3	38.53
12:03:                  33	38.54
12:04:                   3	38.54
12:04:                  33	38.55
12:05:                   3	38.57
12:05:                  33	38.58
12:06:                   3	38.62
12:06:                  33	38.63
12:07:                   3	38.61
12:07:                  33	38.63
12:08:                   3	38.64
12:08:                  33	38.66
12:09:                   3	38.64
12:09:                  33	38.64
12:10:                   3	38.66
12:10:                  33	38.67
12:11:                   3	38.69
12:11:                  33	38.68
12:12:                   3	38.68
12:12:                  33	38.68
12:13:                   3	38.69
12:13:                  33	38.71
12:14:                   3	38.72
12:14:                  33	38.74
12:15:                   3	38.77
12:15:                  33	38.77
12:16:                   3	38.75
12:16:                  34	38.80
12:17:                   4	38.81
12:17:                  34	38.85
12:18:                   4	38.85
12:18:                  34	38.84
12:19:                   4	38.86
12:19:                  34	38.86
12:20:                   4	38.88
12:20:                  34	38.89
12:21:                   4	38.88
12:21:                  34	38.88
12:22:                   4	38.93
12:22:                  34	38.95
12:23:                   4	38.92
12:23:                  34	38.94
12:24:                   4	38.95
12:24:                  34	38.98
12:25:                   4	38.95
12:25:                  34	38.97
12:26:                   4	38.99
12:26:                  34	39.04
12:27:                   4	39.09
12:27:                  34	39.06
12:28:                   4	39.09
12:28:                  34	39.10
12:29:                   4	39.11
12:29:                  34	39.11
12:30:                   4	39.09
12:30:                  34	39.08
12:31:                   4	39.09
12:31:                  34	39.11
12:32:                   4	39.13
12:32:                  34	39.11
12:33:                   5	39.13
12:33:                  35	39.13
12:34:                   5	39.13
12:34:                  35	39.14
12:35:                   5	39.15
12:35:                  35	39.17
12:36:                   5	39.20
12:36:                  35	39.18
12:37:                   5	39.21
12:37:                  35	39.26
12:38:                   5	39.27
12:38:                  35	39.25
12:39:                   5	39.28
12:39:                  35	39.30
12:40:                   5	39.32
12:40:                  35	39.34
12:41:                   5	39.33
12:41:                  35	39.33
12:42:                   5	39.37
12:42:                  35	39.33
12:43:                   5	39.33
12:43:                  35	39.33
12:44:                   5	39.32
12:44:                  35	39.33
12:45:                   5	39.32
12:45:                  35	39.36
12:46:                   5	39.35
12:46:                  35	39.36
12:47:                   5	39.35
12:47:                  35	39.40
12:48:                   5	39.44
12:48:                  35	39.44
12:49:                   5	39.43
12:49:                  35	39.47
12:50:                   5	39.47
12:50:                  35	39.49
12:51:                   5	39.48
12:51:                  35	39.47
12:52:                   5	39.48
12:52:                  35	39.48
12:53:                   5	39.49
12:53:                  35	39.45
12:54:                   5	39.46
12:54:                  35	39.46
12:55:                   5	39.46
12:55:                  35	39.50
12:56:                   5	39.51
12:56:                  35	39.45
12:57:                   5	39.48
12:57:                  35	39.49
12:58:                   5	39.52
12:58:                  35	39.55
12:59:                   5	39.55
12:59:                  35	39.56
13:00:                   5	39.54
13:00:                  35	39.53
13:01:                   5	39.55
13:01:                  35	39.54
13:02:                   5	39.54
13:02:                  35	39.55
13:03:                   5	39.55
13:03:                  35	39.55
13:04:                   5	39.58
13:04:                  35	39.58
13:05:                   5	39.57
13:05:                  35	39.57
13:06:                   5	39.59
13:06:                  36	39.58
13:07:                   6	39.57
13:07:                  36	39.55
13:08:                   6	39.58
13:08:                  36	39.63
13:09:                   6	39.65
13:09:                  36	39.64
13:10:                   6	39.67
13:10:                  36	39.64
13:11:                   6	39.64
13:11:                  36	39.62
13:12:                   6	39.63
13:12:                  36	39.58
13:13:                   6	39.58
13:13:                  36	39.59
13:14:                   6	39.57
13:14:                  36	39.56
13:15:                   6	39.53
13:15:                  36	39.52
13:16:                   6	39.49
13:16:                  36	39.45
13:17:                   6	39.41
13:17:                  36	39.39
13:18:                   6	39.39
13:18:                  36	39.39
13:19:                   6	39.44
13:19:                  36	39.46
13:20:                   6	39.45
13:20:                  36	39.46
13:21:                   6	39.46
13:21:                  36	39.47
13:22:                   6	39.50
13:22:                  36	39.49
13:23:                   6	39.49
13:23:                  36	39.48
13:24:                   6	39.48
13:24:                  36	39.49
13:25:                   6	39.49
13:25:                  36	39.50
13:26:                   6	39.49
13:26:                  36	39.49
13:27:                   6	39.50
13:27:                  36	39.48
13:28:                   6	39.48
13:28:                  36	39.51
13:29:                   6	39.55
13:29:                  36	39.58
13:30:                   7	39.57
13:30:                  37	39.56
13:31:                   7	39.57
13:31:                  37	39.55
13:32:                   7	39.53
13:32:                  37	39.53
13:33:                   7	39.51
13:33:                  37	39.51
13:34:                   7	39.47
13:34:                  37	39.44
13:35:                   7	39.44
13:35:                  37	39.44
13:36:                   7	39.44
13:36:                  37	39.41
13:37:                   7	39.37
13:37:                  37	39.36
13:38:                   7	39.32
13:38:                  37	39.32
13:39:                   7	39.32
13:39:                  37	39.34
13:40:                   7	39.40
13:40:                  37	39.36
13:41:                   7	39.33
13:41:                  37	39.32
13:42:                   7	39.33
13:42:                  37	39.31
13:43:                   7	39.28
13:43:                  37	39.26
13:44:                   7	39.25
13:44:                  37	39.26
13:45:                   7	39.21
13:45:                  37	39.17
13:46:                   7	39.17
13:46:                  38	39.15
13:47:                   8	39.12
13:47:                  38	39.11
13:48:                   8	39.12
13:48:                  38	39.06
13:49:                   8	39.06
13:49:                  38	39.05
13:50:                   8	39.00
13:50:                  38	38.99
13:51:                   8	38.96
13:51:                  38	38.96
13:52:                   8	38.94
13:52:                  38	38.90
13:53:                   8	38.85
13:53:                  38	38.86
13:54:                   8	38.83
13:54:                  38	38.81
13:55:                   8	38.80
13:55:                  38	38.75
13:56:                   8	38.73
13:56:                  38	38.67
13:57:                   8	38.63
13:57:                  38	38.56
13:58:                   8	38.54
13:58:                  38	38.52
13:59:                   8	38.51
13:59:                  38	38.49
14:00:                   8	38.47
14:00:                  38	38.45
14:01:                   8	38.43
14:01:                  38	38.41
14:02:                   8	38.41
14:02:                  39	38.37
14:03:                   9	38.33
14:03:                  39	38.31
14:04:                   9	38.28
14:04:                  39	38.27
14:05:                   9	38.22
14:05:                  39	38.22
14:06:                   9	38.20
14:06:                  39	38.17
14:07:                   9	38.15
14:07:                  39	38.13
14:08:                   9	38.11
14:08:                  39	38.07
14:09:                   9	38.05
14:09:                  39	38.05
14:10:                   9	38.06
14:10:                  39	38.05
14:11:                   9	38.04
14:11:                  39	38.01
14:12:                   9	37.99
14:12:                  39	37.96
14:13:                   9	37.92
14:13:                  39	37.88
14:14:                   9	37.81
14:14:                  39	37.76
14:15:                   9	37.71
14:15:                  39	37.61
14:16:                   9	37.53
14:16:                  39	37.49
14:17:                   9	37.47
14:17:                  39	37.42
14:18:                   9	37.38
14:18:                  40	37.37
14:19:                  10	37.37
14:19:                  40	37.35
14:20:                  10	37.35
14:20:                  40	37.35
14:21:                  10	37.36
14:21:                  40	37.30
14:22:                  10	37.29
14:22:                  40	37.26
14:23:                  10	37.25
14:23:                  40	37.24
14:24:                  10	37.22
14:24:                  40	37.16
14:25:                  10	37.15
14:25:                  40	37.12
14:26:                  10	37.08
14:26:                  40	37.05
14:27:                  10	37.01
14:27:                  40	36.99
14:28:                  10	36.98
14:28:                  40	36.96
14:29:                  10	36.94
14:29:                  40	36.90
14:30:                  10	36.86
14:30:                  40	36.86
14:31:                  10	36.86
14:31:                  40	36.88
14:32:                  10	36.85
14:32:                  40	36.82
14:33:                  10	36.81
14:33:                  40	36.77
14:34:                  11	36.75
14:34:                  41	36.72
14:35:                  11	36.69
14:35:                  41	36.67
14:36:                  11	36.65
14:36:                  41	36.63
14:37:                  11	36.61
14:37:                  41	36.57
14:38:                  11	36.55
14:38:                  41	36.51
14:39:                  11	36.51
14:39:                  41	36.47
14:40:                  11	36.46
14:40:                  41	36.46
14:41:                  11	36.46
14:41:                  41	36.45
14:42:                  11	36.45
14:42:                  41	36.44
14:43:                  11	36.42
14:43:                  41	36.37
14:44:                  11	36.33
14:44:                  41	36.32
14:45:                  11	36.31
14:45:                  41	36.29
14:46:                  11	36.26
14:46:                  41	36.23
14:47:                  11	36.20
14:47:                  41	36.20
14:48:                  11	36.19
14:48:                  41	36.17
14:49:                  11	36.14
14:49:                  41	36.12
14:50:                  11	36.10
14:50:                  42	36.09
14:51:                  12	36.08
14:51:                  42	36.12
14:52:                  12	36.12
14:52:                  42	36.08
14:53:                  12	36.05
14:53:                  42	36.03
14:54:                  12	36.03
14:54:                  42	36.00
14:55:                  12	36.00
14:55:                  42	35.99
14:56:                  12	35.99
14:56:                  42	35.98
14:57:                  12	35.94
14:57:                  42	35.94
14:58:                  12	35.92
14:58:                  42	35.90
14:59:                  12	35.88
14:59:                  42	35.86
15:00:                  12	35.84
15:00:                  42	35.83
15:01:                  12	35.78
15:01:                  42	35.82
15:02:                  12	35.82
15:02:                  42	35.82
15:03:                  12	35.80
15:03:                  42	35.80
15:04:                  12	35.79
15:04:                  42	35.76
15:05:                  12	35.77
15:05:                  42	35.75
15:06:                  12	35.74
15:06:                  42	35.70
15:07:                  13	35.69
15:07:                  43	35.68
15:08:                  13	35.64
15:08:                  43	35.65
15:09:                  13	35.62
15:09:                  43	35.62
15:10:                  13	35.62
15:10:                  43	35.61
15:11:                  13	35.59
15:11:                  43	35.58
15:12:                  13	35.59
15:12:                  43	35.58
15:13:                  13	35.58
15:13:                  43	35.57
15:14:                  13	35.59
15:14:                  43	35.57
15:15:                  13	35.54
15:15:                  43	35.52
15:16:                  13	35.52
15:16:                  43	35.49
15:17:                  13	35.49
15:17:                  43	35.47
15:18:                  13	35.47
15:18:                  43	35.47
15:19:                  13	35.45
15:19:                  43	35.43
15:20:                  13	35.43
15:20:                  43	35.41
15:21:                  13	35.38
15:21:                  43	35.35
15:22:                  13	35.36
15:22:                  43	35.37
15:23:                  14	35.38
15:23:                  44	35.40
15:24:                  14	35.40
15:24:                  44	35.40
15:25:                  14	35.38
15:25:                  44	35.37
15:26:                  14	35.35
15:26:                  44	35.34
15:27:                  14	35.32
15:27:                  44	35.32
15:28:                  14	35.29
15:28:                  44	35.26
15:29:                  14	35.23
15:29:                  44	35.23
15:30:                  14	35.21
15:30:                  44	35.19
15:31:                  14	35.17
15:31:                  44	35.16
15:32:                  14	35.12
15:32:                  44	35.16
15:33:                  14	35.17
15:33:                  44	35.20
15:34:                  14	35.17
15:34:                  44	35.16
15:35:                  14	35.16
15:35:                  44	35.12
15:36:                  14	35.15
15:36:                  44	35.13
15:37:                  14	35.12
15:37:                  44	35.10
15:38:                  14	35.09
15:38:                  44	35.05
15:39:                  14	35.05
15:39:                  45	35.04
15:40:                  15	35.01
15:40:                  45	35.00
15:41:                  15	35.01
15:41:                  45	34.99
15:42:                  15	35.00
15:42:                  45	34.99
15:43:                  15	34.99
15:43:                  45	34.98
15:44:                  15	34.99
15:44:                  45	34.99
15:45:                  15	34.98
15:45:                  45	34.97
15:46:                  15	34.96
15:46:                  45	34.93
15:47:                  15	34.95
15:47:                  45	34.92
15:48:                  15	34.90
15:48:                  45	34.90
15:49:                  15	34.89
15:49:                  45	34.88
15:50:                  15	34.86
15:50:                  45	34.85
15:51:                  15	34.83
15:51:                  45	34.83
15:52:                  15	34.82
15:52:                  45	34.81
15:53:                  15	34.81
15:53:                  45	34.84
15:54:                  15	34.84
15:54:                  45	34.87
15:55:                  15	34.85
15:55:                  46	34.83
15:56:                  16	34.84
15:56:                  46	34.84
15:57:                  16	34.82
15:57:                  46	34.78
15:58:                  16	34.76
15:58:                  46	34.75
15:59:                  16	34.73
15:59:                  46	34.72
16:00:                  16	34.72
16:00:                  46	34.72
16:01:                  16	34.71
16:01:                  46	34.69
16:02:                  16	34.68
16:02:                  46	34.67
16:03:                  16	34.66
16:03:                  46	34.70
16:04:                  16	34.70
16:04:                  46	34.72
16:05:                  16	34.70
16:05:                  46	34.69
16:06:                  16	34.68
16:06:                  46	34.68
16:07:                  16	34.69
16:07:                  46	34.69
16:08:                  16	34.66
16:08:                  46	34.63
16:09:                  16	34.61
16:09:                  46	34.62
16:10:                  16	34.62
16:10:                  46	34.61
16:11:                  16	34.59
16:11:                  47	34.57
16:12:                  17	34.53
16:12:                  47	34.52
16:13:                  17	34.53
16:13:                  47	34.52
16:14:                  17	34.53
16:14:                  47	34.53
16:15:                  17	34.53
16:15:                  47	34.51
16:16:                  17	34.50
16:16:                  47	34.50
16:17:                  17	34.48
16:17:                  47	34.46
16:18:                  17	34.45
16:18:                  47	34.42
16:19:                  17	34.43
16:19:                  47	34.40
16:20:                  17	34.38
16:20:                  47	34.36
16:21:                  17	34.34
16:21:                  47	34.35
16:22:                  17	34.33
16:22:                  47	34.31
16:23:                  17	34.29
16:23:                  47	34.28
16:24:                  17	34.28
16:24:                  47	34.30
16:25:                  17	34.31
16:25:                  47	34.31
16:26:                  17	34.31
16:26:                  47	34.33
16:27:                  17	34.31
16:27:                  48	34.30
16:28:                  18	34.28
16:28:                  48	34.27
16:29:                  18	34.26
16:29:                  48	34.24
16:30:                  18	34.24
16:30:                  48	34.22
16:31:                  18	34.20
16:31:                  48	34.17
16:32:                  18	34.15
16:32:                  48	34.15
16:33:                  18	34.14
16:33:                  48	34.13
16:34:                  18	34.11
16:34:                  48	34.11
16:35:                  18	34.12
16:35:                  48	34.14
16:36:                  18	34.15
16:36:                  48	34.14
16:37:                  18	34.12
16:37:                  48	34.11
16:38:                  18	34.10
16:38:                  48	34.09
16:39:                  18	34.08
16:39:                  48	34.07
16:40:                  18	34.06
16:40:                  48	34.06
16:41:                  18	34.05
16:41:                  48	34.05
16:42:                  18	34.04
16:42:                  48	34.03
16:43:                  18	34.01
16:43:                  48	33.99
16:44:                  19	33.97
16:44:                  49	33.98
16:45:                  19	33.99
16:45:                  49	33.99
16:46:                  19	34.00
16:46:                  49	34.01
16:47:                  19	34.00
16:47:                  49	34.00
16:48:                  19	33.99
16:48:                  49	33.98
16:49:                  19	33.98
16:49:                  49	33.97
16:50:                  19	33.95
16:50:                  49	33.93
16:51:                  19	33.93
16:51:                  49	33.93
16:52:                  19	33.90
16:52:                  49	33.89
16:53:                  19	33.87
16:53:                  49	33.86
16:54:                  19	33.87
16:54:                  49	33.85
16:55:                  19	33.85
16:55:                  49	33.86
16:56:                  19	33.88
16:56:                  49	33.89
16:57:                  19	33.87
16:57:                  49	33.87
16:58:                  19	33.86
16:58:                  49	33.86
16:59:                  19	33.85
16:59:                  49	33.85
17:00:                  20	33.82
17:00:                  50	33.81
17:01:                  20	33.81
17:01:                  50	33.81
17:02:                  20	33.79
17:02:                  50	33.78
17:03:                  20	33.77
17:03:                  50	33.75
17:04:                  20	33.75
17:04:                  50	33.75
17:05:                  20	33.73
17:05:                  50	33.74
17:06:                  20	33.76
17:06:                  50	33.75
17:07:                  20	33.76
17:07:                  50	33.75
17:08:                  20	33.74
17:08:                  50	33.72
17:09:                  20	33.71
17:09:                  50	33.68
17:10:                  20	33.68
17:10:                  50	33.66
17:11:                  20	33.64
17:11:                  50	33.62
17:12:                  20	33.61
17:12:                  50	33.60
17:13:                  20	33.59
17:13:                  50	33.58
17:14:                  20	33.57
17:14:                  50	33.55
17:15:                  20	33.54
17:15:                  50	33.53
17:16:                  20	33.55
17:16:                  50	33.55
17:17:                  20	33.57
17:17:                  50	33.56
17:18:                  20	33.56
17:18:                  50	33.54
17:19:                  21	33.52
17:19:                  51	33.52
17:20:                  21	33.51
17:20:                  51	33.50
17:21:                  21	33.48
17:21:                  51	33.47
17:22:                  21	33.46
17:22:                  51	33.44
17:23:                  21	33.40
17:23:                  51	33.40
17:24:                  21	33.39
17:24:                  51	33.37
17:25:                  21	33.36
17:25:                  51	33.35
17:26:                  21	33.35
17:26:                  51	33.37
17:27:                  21	33.38
17:27:                  51	33.37
17:28:                  21	33.37
17:28:                  51	33.35
17:29:                  21	33.35
17:29:                  51	33.31
17:30:                  21	33.27
17:30:                  51	33.25
17:31:                  21	33.24
17:31:                  51	33.23
17:32:                  21	33.18
17:32:                  51	33.17
17:33:                  21	33.16
17:33:                  51	33.14
17:34:                  21	33.12
17:34:                  51	33.09
17:35:                  21	33.09
17:35:                  51	33.04
17:36:                  21	33.03
17:36:                  51	33.03
17:37:                  21	33.05
17:37:                  51	33.07
17:38:                  21	33.05
17:38:                  52	33.05
17:39:                  22	33.03
17:39:                  52	33.00
17:40:                  22	32.99
17:40:                  52	33.00
17:41:                  22	32.99
17:41:                  52	32.98
17:42:                  22	32.98
17:42:                  52	32.98
17:43:                  22	32.95
17:43:                  52	32.95
17:44:                  22	32.95
17:44:                  52	32.93
17:45:                  22	32.93
17:45:                  52	32.91
17:46:                  22	32.91
17:46:                  52	32.91
17:47:                  22	32.92
17:47:                  52	32.92
17:48:                  22	32.93
17:48:                  52	32.92
17:49:                  22	32.94
17:49:                  52	32.92
17:50:                  22	32.91
17:50:                  52	32.93
17:51:                  22	32.93
17:51:                  52	32.92
17:52:                  22	32.92
17:52:                  52	32.90
17:53:                  22	32.91
17:53:                  52	32.89
17:54:                  22	32.89
17:54:                  52	32.90
17:55:                  22	32.89
17:55:                  52	32.88
17:56:                  22	32.88
17:56:                  52	32.85
17:57:                  22	32.85
17:57:                  52	32.88
17:58:                  22	32.90
17:58:                  52	32.90
17:59:                  22	32.92
17:59:                  52	32.92
18:00:                  22	32.91
18:00:                  52	32.91
18:01:                  22	32.91
18:01:                  52	32.92
18:02:                  22	32.91
18:02:                  52	32.90
18:03:                  22	32.91
18:03:                  52	32.89
18:04:                  22	32.89
18:04:                  52	32.89
18:05:                  22	32.88
18:05:                  53	32.87
18:06:                  23	32.86
18:06:                  53	32.84
18:07:                  23	32.83
18:07:                  53	32.84
18:08:                  23	32.88
18:08:                  53	32.88
18:09:                  23	32.89
18:09:                  53	32.90
18:10:                  23	32.90
18:10:                  53	32.90
18:11:                  23	32.91
18:11:                  53	32.88
18:12:                  23	32.89
18:12:                  53	32.88
18:13:                  23	32.88
18:13:                  53	32.88
18:14:                  23	32.88
18:14:                  53	32.87
18:15:                  23	32.87
18:15:                  53	32.87
18:16:                  23	32.86
18:16:                  53	32.85
18:17:                  23	32.85
18:17:                  53	32.83
18:18:                  23	32.85
18:18:                  53	32.88
18:19:                  23	32.89
18:19:                  53	32.88
18:20:                  23	32.87
18:20:                  53	32.86
18:21:                  23	32.87
18:21:                  53	32.86
18:22:                  23	32.85
18:22:                  53	32.84
18:23:                  23	32.83
18:23:                  53	32.83
18:24:                  23	32.83
18:24:                  53	32.82
18:25:                  23	32.81
18:25:                  53	32.80
18:26:                  23	32.80
18:26:                  53	32.78
18:27:                  23	32.77
18:27:                  53	32.77
18:28:                  23	32.78
18:28:                  53	32.79
18:29:                  23	32.80
18:29:                  53	32.81
18:30:                  23	32.80
18:30:                  53	32.80
18:31:                  23	32.78
18:31:                  54	32.77
18:32:                  24	32.75
18:32:                  54	32.75
18:33:                  24	32.74
18:33:                  54	32.74
18:34:                  24	32.73
18:34:                  54	32.71
18:35:                  24	32.72
18:35:                  54	32.71
18:36:                  24	32.69
18:36:                  54	32.69
18:37:                  24	32.68
18:37:                  54	32.67
18:38:                  24	32.65
18:38:                  54	32.66
18:39:                  24	32.69
18:39:                  54	32.70
18:40:                  24	32.69
18:40:                  54	32.67
18:41:                  24	32.67
18:41:                  54	32.66
18:42:                  24	32.64
18:42:                  54	32.64
18:43:                  24	32.63
18:43:                  54	32.63
18:44:                  24	32.60
18:44:                  54	32.59
18:45:                  24	32.59
18:45:                  54	32.57
18:46:                  24	32.57
18:46:                  54	32.56
18:47:                  24	32.55
18:47:                  54	32.54
18:48:                  24	32.55
18:48:                  54	32.54
18:49:                  24	32.54
18:49:                  54	32.56
18:50:                  24	32.57
18:50:                  54	32.57
18:51:                  24	32.59
18:51:                  54	32.57
18:52:                  24	32.57
18:52:                  54	32.58
18:53:                  25	32.57
18:53:                  55	32.57
18:54:                  25	32.56
18:54:                  55	32.56
18:55:                  25	32.55
18:55:                  55	32.55
18:56:                  25	32.54
18:56:                  55	32.53
18:57:                  25	32.52
18:57:                  55	32.51
18:58:                  25	32.51
18:58:                  55	32.51
18:59:                  25	32.51
18:59:                  55	32.53
19:00:                  25	32.55
19:00:                  55	32.55
19:01:                  25	32.54
19:01:                  55	32.56
19:02:                  25	32.54
19:02:                  55	32.55
19:03:                  25	32.55
19:03:                  55	32.54
19:04:                  25	32.54
19:04:                  55	32.53
19:05:                  25	32.53
19:05:                  55	32.53
19:06:                  25	32.52
19:06:                  55	32.50
19:07:                  25	32.49
19:07:                  55	32.48
19:08:                  25	32.47
19:08:                  55	32.46
19:09:                  25	32.46
19:09:                  55	32.46
19:10:                  25	32.47
19:10:                  55	32.49
19:11:                  25	32.50
19:11:                  55	32.50
19:12:                  25	32.49
19:12:                  55	32.49
19:13:                  25	32.49
19:13:                  55	32.48
19:14:                  25	32.48
19:14:                  55	32.46
19:15:                  25	32.44
19:15:                  56	32.44
19:16:                  26	32.45
19:16:                  56	32.44
19:17:                  26	32.44
19:17:                  56	32.44
19:18:                  26	32.42
19:18:                  56	32.41
19:19:                  26	32.41
19:19:                  56	32.38
19:20:                  26	32.40
19:20:                  56	32.42
19:21:                  26	32.44
19:21:                  56	32.45
19:22:                  26	32.44
19:22:                  56	32.44
19:23:                  26	32.43
19:23:                  56	32.39
19:24:                  26	32.40
19:24:                  56	32.39
19:25:                  26	32.38
19:25:                  56	32.37
19:26:                  26	32.36
19:26:                  56	32.36
19:27:                  26	32.33
19:27:                  56	32.31
19:28:                  26	32.32
19:28:                  56	32.31
19:29:                  26	32.30
19:29:                  56	32.30
19:30:                  26	32.30
19:30:                  56	32.31
19:31:                  26	32.33
19:31:                  56	32.33
19:32:                  26	32.34
19:32:                  56	32.33
19:33:                  26	32.34
19:33:                  56	32.33
19:34:                  26	32.32
19:34:                  56	32.32
19:35:                  27	32.31
19:35:                  57	32.30
19:36:                  27	32.29
19:36:                  57	32.28
19:37:                  27	32.27
19:37:                  57	32.27
19:38:                  27	32.25
19:38:                  57	32.25
19:39:                  27	32.23
19:39:                  57	32.23
19:40:                  27	32.22
19:40:                  57	32.21
19:41:                  27	32.24
19:41:                  57	32.24
19:42:                  27	32.25
19:42:                  57	32.25
19:43:                  27	32.25
19:43:                  57	32.24
19:44:                  27	32.22
19:44:                  57	32.22
19:45:                  27	32.22
19:45:                  57	32.21
19:46:                  27	32.20
19:46:                  57	32.17
19:47:                  27	32.18
19:47:                  57	32.15
19:48:                  27	32.12
19:48:                  57	32.12
19:49:                  27	32.12
19:49:                  57	32.10
19:50:                  27	32.09
19:50:                  57	32.08
19:51:                  27	32.11
19:51:                  57	32.12
19:52:                  27	32.14
19:52:                  57	32.15
19:53:                  27	32.15
19:53:                  57	32.15
19:54:                  27	32.13
19:54:                  57	32.12
19:55:                  27	32.12
19:55:                  57	32.11
19:56:                  27	32.09
19:56:                  57	32.08
19:57:                  27	32.08
19:57:                  57	32.07
19:58:                  27	32.06
19:58:                  57	32.07
19:59:                  27	32.06
19:59:                  57	32.05
20:00:                  27	32.05
20:00:                  57	32.05
20:01:                  28	32.03
20:01:                  58	32.03
20:02:                  28	31.98
20:02:                  58	32.01
20:03:                  28	32.01
20:03:                  58	32.03
20:04:                  28	32.04
20:04:                  58	32.03
20:05:                  28	32.02
20:05:                  58	32.01
20:06:                  28	32.00
20:06:                  58	31.99
20:07:                  28	32.00
20:07:                  58	31.99
20:08:                  28	31.99
20:08:                  58	31.98
20:09:                  28	31.98
20:09:                  58	31.98
20:10:                  28	31.97
20:10:                  58	31.97
20:11:                  28	31.95
20:11:                  58	31.96
20:12:                  28	31.99
20:12:                  58	32.02
20:13:                  28	32.02
20:13:                  58	32.04
20:14:                  28	32.03
20:14:                  58	32.01
20:15:                  28	32.01
20:15:                  58	32.02
20:16:                  28	32.00
20:16:                  58	32.01
20:17:                  28	32.00
20:17:                  58	31.99
20:18:                  28	31.99
20:18:                  58	31.99
20:19:                  28	31.98
20:19:                  58	31.97
20:20:                  28	31.97
20:20:                  58	31.96
20:21:                  28	31.96
20:21:                  58	31.95
20:22:                  28	31.95
20:22:                  58	31.98
20:23:                  28	32.00
20:23:                  58	32.00
20:24:                  28	31.99
20:24:                  58	31.99
20:25:                  28	32.00
20:25:                  58	31.98
20:26:                  28	31.96
20:26:                  59	31.95
20:27:                  29	31.88
20:27:                  59	31.87
20:28:                  29	31.87
20:28:                  59	31.88
20:29:                  29	31.89
20:29:                  59	31.88
20:30:                  29	31.87
20:30:                  59	31.87
20:31:                  29	31.86
20:31:                  59	31.86
20:32:                  29	31.85
20:32:                  59	31.87
20:33:                  29	31.88
20:33:                  59	31.90
20:34:                  29	31.92
20:34:                  59	31.90
20:35:                  29	31.90
20:35:                  59	31.89
20:36:                  29	31.90
20:36:                  59	31.89
20:37:                  29	31.88
20:37:                  59	31.87
20:38:                  29	31.87
20:38:                  59	31.87
20:39:                  29	31.87
20:39:                  59	31.83
20:40:                  29	31.79
20:40:                  59	31.81
20:41:                  29	31.81
20:41:                  59	31.79
20:42:                  29	31.79
20:42:                  59	31.79
20:43:                  30	31.83
20:44:                   0	31.83
20:44:                  30	31.86
20:45:                   0	31.88
20:45:                  30	31.88
20:46:                   0	31.89
20:46:                  30	31.90
20:47:                   0	31.89
20:47:                  30	31.88
20:48:                   0	31.87
20:48:                  30	31.88
20:49:                   0	31.86
20:49:                  30	31.86
20:50:                   0	31.86
20:50:                  30	31.85
20:51:                   0	31.85
20:51:                  30	31.83
20:52:                   0	31.83
20:52:                  30	31.83
20:53:                   0	31.82
20:53:                  30	31.83
20:54:                   0	31.85
20:54:                  30	31.86
20:55:                   0	31.86
20:55:                  30	31.87
20:56:                   0	31.86
20:56:                  30	31.86
20:57:                   0	31.84
20:57:                  30	31.78
20:58:                   0	31.79
20:58:                  30	31.79
20:59:                   0	31.79
20:59:                  30	31.79
21:00:                   0	31.78
21:00:                  30	31.77
21:01:                   0	31.76
21:01:                  30	31.75
21:02:                   0	31.74
21:02:                  30	31.73
21:03:                   0	31.72
21:03:                  31	31.72
21:04:                   1	31.73
21:04:                  31	31.75
21:05:                   1	31.76
21:05:                  31	31.76
21:06:                   1	31.76
21:06:                  31	31.75
21:07:                   1	31.62
21:07:                  31	31.65
21:08:                   1	31.68
21:08:                  31	31.64
21:09:                   1	31.59
21:09:                  31	31.57
21:10:                   1	31.53
21:10:                  31	31.57
21:11:                   1	31.54
21:11:                  31	31.54
21:12:                   1	31.57
21:12:                  31	31.59
21:13:                   1	31.60
21:13:                  31	31.64
21:14:                   1	31.66
21:14:                  31	31.70
21:15:                   1	31.77
21:15:                  31	31.81
21:16:                   1	31.84
21:16:                  31	31.86
21:17:                   1	31.87
21:17:                  31	31.85
21:18:                   1	31.85
21:18:                  31	31.89
21:19:                   1	31.90
21:19:                  31	31.91
21:20:                   1	31.97
21:20:                  31	31.98
21:21:                   1	31.98
21:21:                  31	31.98
21:22:                   2	32.01
21:22:                  32	32.02
21:23:                   2	32.01
21:23:                  32	32.02
21:24:                   2	32.06
21:24:                  32	32.08
21:25:                   2	32.14
21:25:                  32	32.15
21:26:                   2	32.17
21:26:                  32	32.19
21:27:                   2	32.18
21:27:                  32	32.18
21:28:                   2	32.19
21:28:                  32	32.22
21:29:                   2	32.19
21:29:                  32	32.23
21:30:                   2	32.23
21:30:                  32	32.27
21:31:                   2	32.27
21:31:                  32	32.26
21:32:                   2	32.26
21:32:                  32	32.31
21:33:                   2	32.31
21:33:                  32	32.29
21:34:                   2	32.30
21:34:                  32	32.31
21:35:                   2	32.32
21:35:                  32	32.34
21:36:                   2	32.38
21:36:                  32	32.38
21:37:                   2	32.37
21:37:                  32	32.38
21:38:                   2	32.38
21:38:                  33	32.40
21:39:                   3	32.41
21:39:                  33	32.41
21:40:                   3	32.40
21:40:                  33	32.40
21:41:                   3	32.40
21:41:                  33	32.42
21:42:                   3	32.43
21:42:                  33	32.44
21:43:                   3	32.46
21:43:                  33	32.48
21:44:                   3	32.50
21:44:                  33	32.49
21:45:                   3	32.50
21:45:                  33	32.51
21:46:                   3	32.55
21:46:                  33	32.57
21:47:                   3	32.57
21:47:                  33	32.59
21:48:                   3	32.58
21:48:                  33	32.58
21:49:                   3	32.57
21:49:                  33	32.59
21:50:                   3	32.56
21:50:                  33	32.56
21:51:                   3	32.54
21:51:                  33	32.54
21:52:                   3	32.53
21:52:                  33	32.52
21:53:                   3	32.52
21:53:                  33	32.53
21:54:                   3	32.53
21:54:                  34	32.51
21:55:                   4	32.50
21:55:                  34	32.51
21:56:                   4	32.53
21:56:                  34	32.55
21:57:                   4	32.54
21:57:                  34	32.55
21:58:                   4	32.54
21:58:                  34	32.54
21:59:                   4	32.54
21:59:                  34	32.53
22:00:                   4	32.46
22:00:                  34	32.47
22:01:                   4	32.46
22:01:                  34	32.40
22:02:                   4	32.41
22:02:                  34	32.38
22:03:                   4	32.35
22:03:                  34	32.32
22:04:                   4	32.32
22:04:                  34	32.32
22:05:                   4	32.32
22:05:                  34	32.32
22:06:                   4	32.31
22:06:                  34	32.31
22:07:                   4	32.34
22:07:                  34	32.32
22:08:                   4	32.35
22:08:                  34	32.34
22:09:                   4	32.32
22:09:                  34	32.25
22:10:                   5	32.27
22:10:                  35	32.26
22:11:                   5	32.25
22:11:                  35	32.26
22:12:                   5	32.25
22:12:                  35	32.24
22:13:                   5	32.22
22:13:                  35	32.22
22:14:                   5	32.22
22:14:                  35	32.20
22:15:                   5	32.18
22:15:                  35	32.18
22:16:                   5	32.18
22:16:                  35	32.19
22:17:                   5	32.20
22:17:                  35	32.20
22:18:                   5	32.21
22:18:                  35	32.21
22:19:                   5	32.20
22:19:                  35	32.20
22:20:                   5	32.19
22:20:                  35	32.17
22:21:                   5	32.16
22:21:                  35	32.15
22:22:                   5	32.13
22:22:                  35	32.12
22:23:                   5	32.11
22:23:                  35	32.11
22:24:                   5	32.10
22:24:                  35	32.09
22:25:                   5	32.08
22:25:                  35	32.07
22:26:                   5	32.07
22:26:                  36	32.08
22:27:                   6	32.11
22:27:                  36	32.12
22:28:                   6	32.14
22:28:                  36	32.11
22:29:                   6	32.11
22:29:                  36	32.11
22:30:                   6	32.11
22:30:                  36	32.09
22:31:                   6	32.09
22:31:                  36	32.09
22:32:                   6	32.07
22:32:                  36	32.08
22:33:                   6	32.06
22:33:                  36	32.06
22:34:                   6	32.05
22:34:                  36	32.06
22:35:                   6	32.05
22:35:                  36	32.03
22:36:                   6	32.02
22:36:                  36	32.00
22:37:                   6	32.05
22:37:                  36	32.05
22:38:                   6	32.07
22:38:                  36	32.08
22:39:                   6	32.08
22:39:                  36	32.07
22:40:                   6	32.07
22:40:                  36	32.07
22:41:                   6	32.05
22:41:                  36	32.05
22:42:                   7	32.04
22:42:                  37	32.03
22:43:                   7	32.01
22:43:                  37	32.02
22:44:                   7	32.02
22:44:                  37	31.99
22:45:                   7	31.78
22:45:                  37	31.77
22:46:                   7	31.76
22:46:                  37	31.79
22:47:                   7	31.74
22:47:                  37	31.81
22:48:                   7	31.81
22:48:                  37	31.84
22:49:                   7	31.84
22:49:                  37	31.89
22:50:                   7	31.89
22:50:                  37	31.95
22:51:                   7	31.98
22:51:                  37	32.02
22:52:                   7	32.03
22:52:                  37	32.05
22:53:                   7	32.07
22:53:                  37	32.08
22:54:                   7	32.09
22:54:                  37	32.10
22:55:                   7	32.12
22:55:                  37	32.12
22:56:                   7	32.13
22:56:                  37	32.14
22:57:                   7	32.14
22:57:                  37	32.15
22:58:                   8	32.18
22:58:                  38	32.21
22:59:                   8	32.23
22:59:                  38	32.23
23:00:                   8	32.21
23:00:                  38	32.20
23:01:                   8	32.21
23:01:                  38	32.21
23:02:                   8	32.21
23:02:                  38	32.20
23:03:                   8	32.20
23:03:                  38	32.19
23:04:                   8	32.20
23:04:                  38	32.19
23:05:                   8	32.19
23:05:                  38	32.17
23:06:                   8	32.20
23:06:                  38	32.19
23:07:                   8	32.20
23:07:                  38	32.19
23:08:                   8	32.23
23:08:                  38	32.24
23:09:                   8	32.28
23:09:                  38	32.30
23:10:                   8	32.30
23:10:                  38	32.31
23:11:                   8	32.31
23:11:                  38	32.31
23:12:                   8	32.32
23:12:                  38	32.32
23:13:                   8	32.31
23:13:                  38	32.32
23:14:                   9	32.32
23:14:                  39	32.32
23:15:                   9	32.31
23:15:                  39	32.32
23:16:                   9	32.31
23:16:                  39	32.31
23:17:                   9	32.30
23:17:                  39	32.31
23:18:                   9	32.31
23:18:                  39	32.32
23:19:                   9	32.34
23:19:                  39	32.36
23:20:                   9	32.37
23:20:                  39	32.36
23:21:                   9	32.35
23:21:                  39	32.34
23:22:                   9	32.35
23:22:                  39	32.34
23:23:                   9	32.34
23:23:                  39	32.32
23:24:                   9	32.31
23:24:                  39	32.31
23:25:                   9	32.30
23:25:                  39	32.30
23:26:                   9	32.30
23:26:                  39	32.29
23:27:                   9	32.30
23:27:                  39	32.29
23:28:                   9	32.28
23:28:                  39	32.29
23:29:                   9	32.31
23:29:                  39	32.32
23:30:                  10	32.34
23:30:                  40	32.33
23:31:                  10	32.34
23:31:                  40	32.33
23:32:                  10	32.33
23:32:                  40	32.33
23:33:                  10	32.32
23:33:                  40	32.33
23:34:                  10	32.32
23:34:                  40	32.32
23:35:                  10	32.31
23:35:                  40	32.31
23:36:                  10	32.31
23:36:                  40	32.30
23:37:                  10	32.29
23:37:                  40	32.29
23:38:                  10	32.30
23:38:                  40	32.29
23:39:                  10	32.31
23:39:                  40	32.31
23:40:                  10	32.34
23:40:                  40	32.34
23:41:                  10	32.34
23:41:                  40	32.35
23:42:                  10	32.35
23:42:                  40	32.34
23:43:                  10	32.34
23:43:                  40	32.33
23:44:                  10	32.33
23:44:                  40	32.32
23:45:                  10	32.32
23:45:                  40	32.32
23:46:                  10	32.31
23:46:                  41	32.31
23:47:                  11	32.30
23:47:                  41	32.30
23:48:                  11	32.30
23:48:                  41	32.30
23:49:                  11	32.30
23:49:                  41	32.31
23:50:                  11	32.33
23:50:                  41	32.34
23:51:                  11	32.35
23:51:                  41	32.34
23:52:                  11	32.35
23:52:                  41	32.35
23:53:                  11	32.34
23:53:                  41	32.33
23:54:                  11	32.33
23:54:                  41	32.33
23:55:                  11	32.33
23:55:                  41	32.31
23:56:                  11	32.29
23:56:                  41	32.29
23:57:                  11	32.30
23:57:                  41	32.28
23:58:                  11	32.27
23:58:                  41	32.28
23:59:                  11	32.27
23:59:                  41	32.28
