0:00:                  21	30.11
0:00:                  51	30.10
0:01:                  21	30.11
0:01:                  51	30.12
0:02:                  21	30.14
0:02:                  51	30.13
0:03:                  21	30.14
0:03:                  51	30.14
0:04:                  21	30.17
0:04:                  51	30.19
0:05:                  21	30.18
0:05:                  51	30.19
0:06:                  21	30.16
0:06:                  51	30.18
0:07:                  21	30.21
0:07:                  51	30.19
0:08:                  21	30.17
0:08:                  51	30.15
0:09:                  21	30.15
0:09:                  51	30.14
0:10:                  21	30.15
0:10:                  51	30.16
0:11:                  21	30.10
0:11:                  51	30.15
0:12:                  21	30.18
0:12:                  51	30.16
0:13:                  21	30.19
0:13:                  51	30.20
0:14:                  21	30.21
0:14:                  51	30.22
0:15:                  21	30.20
0:15:                  51	30.20
0:16:                  21	30.19
0:16:                  51	30.21
0:17:                  21	30.20
0:17:                  51	30.17
0:18:                  21	30.14
0:18:                  52	30.20
0:19:                  22	30.15
0:19:                  52	30.15
0:20:                  22	30.19
0:20:                  52	30.18
0:21:                  22	30.18
0:21:                  52	30.13
0:22:                  22	30.15
0:22:                  52	30.18
0:23:                  22	30.20
0:23:                  52	30.18
0:24:                  22	30.18
0:24:                  52	30.15
0:25:                  22	30.17
0:25:                  52	30.17
0:26:                  22	30.17
0:26:                  52	30.20
0:27:                  22	30.20
0:27:                  52	30.22
0:28:                  22	30.20
0:28:                  52	30.20
0:29:                  22	30.19
0:29:                  52	30.19
0:30:                  22	30.15
0:30:                  52	30.20
0:31:                  22	30.20
0:31:                  52	30.19
0:32:                  22	30.18
0:32:                  52	30.15
0:33:                  22	30.16
0:33:                  52	30.16
0:34:                  22	30.19
0:34:                  52	30.20
0:35:                  22	30.20
0:35:                  52	30.19
0:36:                  22	30.17
0:36:                  52	30.19
0:37:                  22	30.17
0:37:                  52	30.17
0:38:                  23	30.18
0:38:                  53	30.16
0:39:                  23	30.15
0:39:                  53	30.16
0:40:                  23	30.17
0:40:                  53	30.16
0:41:                  23	30.20
0:41:                  53	30.18
0:42:                  23	30.17
0:42:                  53	30.21
0:43:                  23	30.20
0:43:                  53	30.21
0:44:                  23	30.20
0:44:                  53	30.20
0:45:                  23	30.20
0:45:                  53	30.21
0:46:                  23	30.17
0:46:                  53	30.20
0:47:                  23	30.20
0:47:                  53	30.19
0:48:                  23	30.20
0:48:                  53	30.17
0:49:                  23	30.19
0:49:                  53	30.20
0:50:                  23	30.21
0:50:                  53	30.20
0:51:                  23	30.19
0:51:                  53	30.20
0:52:                  23	30.23
0:52:                  53	30.22
0:53:                  23	30.21
0:53:                  53	30.19
0:54:                  23	30.18
0:54:                  53	30.19
0:55:                  23	30.19
0:55:                  53	30.19
0:56:                  23	30.16
0:56:                  53	30.19
0:57:                  23	30.18
0:57:                  53	30.19
0:58:                  23	30.20
0:58:                  54	30.14
0:59:                  24	30.18
0:59:                  54	30.16
1:00:                  24	30.16
1:00:                  54	30.17
1:01:                  24	30.15
1:01:                  54	30.19
1:02:                  24	30.19
1:02:                  54	30.19
1:03:                  24	30.17
1:03:                  54	30.19
1:04:                  24	30.19
1:04:                  54	30.18
1:05:                  24	30.17
1:05:                  54	30.20
1:06:                  24	30.21
1:06:                  54	30.22
1:07:                  24	30.19
1:07:                  54	30.20
1:08:                  24	30.22
1:08:                  54	30.23
1:09:                  24	30.25
1:09:                  54	30.23
1:10:                  24	30.23
1:10:                  54	30.24
1:11:                  24	30.22
1:11:                  54	30.22
1:12:                  24	30.24
1:12:                  54	30.22
1:13:                  24	30.20
1:13:                  54	30.18
1:14:                  24	30.19
1:14:                  54	30.20
1:15:                  24	30.22
1:15:                  54	30.16
1:16:                  24	30.18
1:16:                  54	30.17
1:17:                  24	30.19
1:17:                  54	30.19
1:18:                  25	30.18
1:18:                  55	30.18
1:19:                  25	30.17
1:19:                  55	30.14
1:20:                  25	30.21
1:20:                  55	30.20
1:21:                  25	30.18
1:21:                  55	30.16
1:22:                  25	30.16
1:22:                  55	30.16
1:23:                  25	30.18
1:23:                  55	30.16
1:24:                  25	30.14
1:24:                  55	30.16
1:25:                  25	30.10
1:25:                  55	30.12
1:26:                  25	30.14
1:26:                  55	30.16
1:27:                  25	30.14
1:27:                  55	30.17
1:28:                  25	30.20
1:28:                  55	30.18
1:29:                  25	30.18
1:29:                  55	30.19
1:30:                  25	30.19
1:30:                  55	30.17
1:31:                  25	30.16
1:31:                  55	30.18
1:32:                  25	30.21
1:32:                  55	30.18
1:33:                  25	30.21
1:33:                  55	30.19
1:34:                  26	30.20
1:34:                  56	30.20
1:35:                  26	30.20
1:35:                  56	30.18
1:36:                  26	30.18
1:36:                  56	30.18
1:37:                  26	30.18
1:37:                  56	30.19
1:38:                  26	30.16
1:38:                  56	30.17
1:39:                  26	30.18
1:39:                  56	30.15
1:40:                  26	30.15
1:40:                  56	30.15
1:41:                  26	30.18
1:41:                  56	30.19
1:42:                  26	30.17
1:42:                  56	30.19
1:43:                  26	30.20
1:43:                  56	30.20
1:44:                  26	30.18
1:44:                  56	30.19
1:45:                  26	30.17
1:45:                  56	30.17
1:46:                  26	30.17
1:46:                  56	30.19
1:47:                  26	30.19
1:47:                  56	30.20
1:48:                  26	30.21
1:48:                  56	30.22
1:49:                  26	30.18
1:49:                  56	30.17
1:50:                  26	30.21
1:50:                  57	30.22
1:51:                  27	30.19
1:51:                  57	30.22
1:52:                  27	30.20
1:52:                  57	30.22
1:53:                  27	30.19
1:53:                  57	30.21
1:54:                  27	30.20
1:54:                  57	30.19
1:55:                  27	30.18
1:55:                  57	30.18
1:56:                  27	30.17
1:56:                  57	30.18
1:57:                  27	30.18
1:57:                  57	30.20
1:58:                  27	30.19
1:58:                  57	30.17
1:59:                  27	30.19
1:59:                  57	30.16
2:00:                  27	30.18
2:00:                  57	30.17
2:01:                  27	30.16
2:01:                  57	30.17
2:02:                  27	30.20
2:02:                  57	30.19
2:03:                  27	30.21
2:03:                  57	30.20
2:04:                  27	30.20
2:04:                  57	30.20
2:05:                  27	30.19
2:05:                  57	30.18
2:06:                  27	30.19
2:06:                  57	30.20
2:07:                  27	30.19
2:07:                  57	30.20
2:08:                  27	30.22
2:08:                  57	30.19
2:09:                  27	30.20
2:09:                  57	30.18
2:10:                  27	30.17
2:10:                  57	30.19
2:11:                  27	30.19
2:11:                  57	30.19
2:12:                  27	30.16
2:12:                  58	30.19
2:13:                  28	30.18
2:13:                  58	30.18
2:14:                  28	30.22
2:14:                  58	30.19
2:15:                  28	30.19
2:15:                  58	30.15
2:16:                  28	30.19
2:16:                  58	30.16
2:17:                  28	30.18
2:17:                  58	30.15
2:18:                  28	30.16
2:18:                  58	30.19
2:19:                  28	30.17
2:19:                  58	30.18
2:20:                  28	30.20
2:20:                  58	30.18
2:21:                  28	30.20
2:21:                  58	30.19
2:22:                  28	30.18
2:22:                  58	30.17
2:23:                  28	30.18
2:23:                  58	30.19
2:24:                  28	30.15
2:24:                  58	30.15
2:25:                  28	30.17
2:25:                  58	30.18
2:26:                  28	30.19
2:26:                  58	30.19
2:27:                  28	30.16
2:27:                  58	30.19
2:28:                  28	30.17
2:28:                  58	30.16
2:29:                  28	30.15
2:29:                  59	30.15
2:30:                  29	30.13
2:30:                  59	30.16
2:31:                  29	30.17
2:31:                  59	30.19
2:32:                  29	30.19
2:32:                  59	30.18
2:33:                  29	30.21
2:33:                  59	30.14
2:34:                  29	30.18
2:34:                  59	30.19
2:35:                  29	30.19
2:35:                  59	30.18
2:36:                  29	30.18
2:36:                  59	30.17
2:37:                  29	30.18
2:37:                  59	30.20
2:38:                  29	30.20
2:38:                  59	30.18
2:39:                  29	30.17
2:39:                  59	30.17
2:40:                  29	30.17
2:40:                  59	30.15
2:41:                  29	30.17
2:41:                  59	30.18
2:42:                  29	30.18
2:42:                  59	30.15
2:43:                  29	30.18
2:43:                  59	30.17
2:44:                  29	30.20
2:44:                  59	30.21
2:45:                  29	30.20
2:45:                  59	30.18
2:46:                  29	30.20
2:46:                  59	30.23
2:47:                  29	30.18
2:47:                  59	30.18
2:48:                  29	30.18
2:49:                   0	30.20
2:49:                  30	30.19
2:50:                   0	30.19
2:50:                  30	30.20
2:51:                   0	30.19
2:51:                  30	30.18
2:52:                   0	30.21
2:52:                  30	30.20
2:53:                   0	30.20
2:53:                  30	30.20
2:54:                   0	30.18
2:54:                  30	30.17
2:55:                   0	30.20
2:55:                  30	30.17
2:56:                   0	30.17
2:56:                  30	30.17
2:57:                   0	30.18
2:57:                  30	30.19
2:58:                   0	30.19
2:58:                  30	30.18
2:59:                   0	30.17
2:59:                  30	30.19
3:00:                   0	30.20
3:00:                  30	30.21
3:01:                   0	30.19
3:01:                  30	30.19
3:02:                   0	30.17
3:02:                  30	30.19
3:03:                   0	30.16
3:03:                  30	30.18
3:04:                   0	30.18
3:04:                  30	30.18
3:05:                   0	30.19
3:05:                  31	30.19
3:06:                   1	30.14
3:06:                  31	30.15
3:07:                   1	30.17
3:07:                  31	30.15
3:08:                   1	30.14
3:08:                  31	30.18
3:09:                   1	30.19
3:09:                  31	30.18
3:10:                   1	30.19
3:10:                  31	30.20
3:11:                   1	30.19
3:11:                  31	30.19
3:12:                   1	30.17
3:12:                  31	30.17
3:13:                   1	30.16
3:13:                  31	30.16
3:14:                   1	30.17
3:14:                  31	30.16
3:15:                   1	30.20
3:15:                  31	30.18
3:16:                   1	30.18
3:16:                  31	30.18
3:17:                   1	30.19
3:17:                  31	30.14
3:18:                   1	30.16
3:18:                  31	30.18
3:19:                   1	30.18
3:19:                  31	30.14
3:20:                   1	30.12
3:20:                  31	30.16
3:21:                   1	30.17
3:21:                  31	30.17
3:22:                   1	30.18
3:22:                  31	30.16
3:23:                   1	30.18
3:23:                  32	30.17
3:24:                   2	30.16
3:24:                  32	30.18
3:25:                   2	30.17
3:25:                  32	30.18
3:26:                   2	30.15
3:26:                  32	30.18
3:27:                   2	30.17
3:27:                  32	30.16
3:28:                   2	30.14
3:28:                  32	30.16
3:29:                   2	30.17
3:29:                  32	30.16
3:30:                   2	30.16
3:30:                  32	30.16
3:31:                   2	30.16
3:31:                  32	30.15
3:32:                   2	30.16
3:32:                  32	30.15
3:33:                   2	30.15
3:33:                  32	30.15
3:34:                   2	30.17
3:34:                  32	30.18
3:35:                   2	30.17
3:35:                  32	30.14
3:36:                   2	30.17
3:36:                  32	30.14
3:37:                   2	30.15
3:37:                  32	30.13
3:38:                   2	30.15
3:38:                  32	30.18
3:39:                   2	30.16
3:39:                  32	30.15
3:40:                   2	30.15
3:40:                  32	30.15
3:41:                   2	30.16
3:41:                  33	30.15
3:42:                   3	30.13
3:42:                  33	30.11
3:43:                   3	30.11
3:43:                  33	30.13
3:44:                   3	30.15
3:44:                  33	30.15
3:45:                   3	30.14
3:45:                  33	30.15
3:46:                   3	30.14
3:46:                  33	30.15
3:47:                   3	30.15
3:47:                  33	30.13
3:48:                   3	30.14
3:48:                  33	30.13
3:49:                   3	30.12
3:49:                  33	30.13
3:50:                   3	30.11
3:50:                  33	30.13
3:51:                   3	30.15
3:51:                  33	30.13
3:52:                   3	30.15
3:52:                  33	30.15
3:53:                   3	30.16
3:53:                  33	30.12
3:54:                   3	30.14
3:54:                  33	30.17
3:55:                   3	30.14
3:55:                  33	30.14
3:56:                   3	30.16
3:56:                  33	30.15
3:57:                   3	30.15
3:57:                  33	30.14
3:58:                   3	30.17
3:58:                  33	30.16
3:59:                   4	30.14
3:59:                  34	30.17
4:00:                   4	30.15
4:00:                  34	30.14
4:01:                   4	30.13
4:01:                  34	30.14
4:02:                   4	30.15
4:02:                  34	30.14
4:03:                   4	30.11
4:03:                  34	30.13
4:04:                   4	30.13
4:04:                  34	30.15
4:05:                   4	30.13
4:05:                  34	30.16
4:06:                   4	30.18
4:06:                  34	30.16
4:07:                   4	30.16
4:07:                  34	30.15
4:08:                   4	30.15
4:08:                  34	30.16
4:09:                   4	30.15
4:09:                  34	30.14
4:10:                   4	30.15
4:10:                  34	30.15
4:11:                   4	30.13
4:11:                  34	30.16
4:12:                   4	30.15
4:12:                  34	30.15
4:13:                   4	30.13
4:13:                  34	30.17
4:14:                   4	30.14
4:14:                  34	30.14
4:15:                   4	30.15
4:15:                  34	30.18
4:16:                   4	30.15
4:16:                  34	30.13
4:17:                   4	30.15
4:17:                  34	30.14
4:18:                   4	30.15
4:18:                  34	30.16
4:19:                   4	30.14
4:19:                  34	30.16
4:20:                   4	30.14
4:20:                  34	30.14
4:21:                   4	30.16
4:21:                  34	30.13
4:22:                   4	30.16
4:22:                  35	30.15
4:23:                   5	30.16
4:23:                  35	30.17
4:24:                   5	30.15
4:24:                  35	30.15
4:25:                   5	30.11
4:25:                  35	30.13
4:26:                   5	30.11
4:26:                  35	30.14
4:27:                   5	30.14
4:27:                  35	30.14
4:28:                   5	30.16
4:28:                  35	30.19
4:29:                   5	30.14
4:29:                  35	30.15
4:30:                   5	30.12
4:30:                  35	30.13
4:31:                   5	30.13
4:31:                  35	30.15
4:32:                   5	30.18
4:32:                  35	30.16
4:33:                   5	30.19
4:33:                  35	30.17
4:34:                   5	30.17
4:34:                  35	30.16
4:35:                   5	30.17
4:35:                  35	30.14
4:36:                   5	30.14
4:36:                  35	30.15
4:37:                   5	30.13
4:37:                  35	30.15
4:38:                   5	30.14
4:38:                  35	30.14
4:39:                   5	30.17
4:39:                  36	30.14
4:40:                   6	30.10
4:40:                  36	30.09
4:41:                   6	30.14
4:41:                  36	30.14
4:42:                   6	30.14
4:42:                  36	30.14
4:43:                   6	30.13
4:43:                  36	30.12
4:44:                   6	30.13
4:44:                  36	30.10
4:45:                   6	30.13
4:45:                  36	30.14
4:46:                   6	30.14
4:46:                  36	30.16
4:47:                   6	30.15
4:47:                  36	30.17
4:48:                   6	30.18
4:48:                  36	30.16
4:49:                   6	30.16
4:49:                  36	30.18
4:50:                   6	30.16
4:50:                  36	30.17
4:51:                   6	30.16
4:51:                  36	30.15
4:52:                   6	30.14
4:52:                  36	30.17
4:53:                   6	30.15
4:53:                  36	30.12
4:54:                   6	30.13
4:54:                  36	30.17
4:55:                   6	30.18
4:55:                  36	30.14
4:56:                   6	30.16
4:56:                  36	30.14
4:57:                   6	30.13
4:57:                  36	30.13
4:58:                   6	30.17
4:58:                  36	30.10
4:59:                   6	30.12
4:59:                  37	30.13
5:00:                   7	30.14
5:00:                  37	30.15
5:01:                   7	30.14
5:01:                  37	30.15
5:02:                   7	30.16
5:02:                  37	30.17
5:03:                   7	30.15
5:03:                  37	30.16
5:04:                   7	30.18
5:04:                  37	30.17
5:05:                   7	30.17
5:05:                  37	30.17
5:06:                   7	30.14
5:06:                  37	30.12
5:07:                   7	30.12
5:07:                  37	30.11
5:08:                   7	30.15
5:08:                  37	30.13
5:09:                   7	30.13
5:09:                  37	30.13
5:10:                   7	30.15
5:10:                  37	30.11
5:11:                   7	30.12
5:11:                  37	30.14
5:12:                   7	30.14
5:12:                  37	30.17
5:13:                   7	30.15
5:13:                  37	30.15
5:14:                   7	30.16
5:14:                  37	30.19
5:15:                   7	30.14
5:15:                  37	30.14
5:16:                   7	30.16
5:16:                  37	30.15
5:17:                   7	30.14
5:17:                  37	30.12
5:18:                   7	30.14
5:18:                  37	30.15
5:19:                   7	30.17
5:19:                  38	30.15
5:20:                   8	30.14
5:20:                  38	30.15
5:21:                   8	30.14
5:21:                  38	30.16
5:22:                   8	30.15
5:22:                  38	30.16
5:23:                   8	30.15
5:23:                  38	30.18
5:24:                   8	30.15
5:24:                  38	30.13
5:25:                   8	30.16
5:25:                  38	30.14
5:26:                   8	30.16
5:26:                  38	30.20
5:27:                   8	30.15
5:27:                  38	30.12
5:28:                   8	30.16
5:28:                  38	30.16
5:29:                   8	30.18
5:29:                  38	30.18
5:30:                   8	30.16
5:30:                  38	30.17
5:31:                   8	30.19
5:31:                  38	30.18
5:32:                   8	30.18
5:32:                  38	30.19
5:33:                   8	30.18
5:33:                  38	30.17
5:34:                   8	30.17
5:34:                  38	30.15
5:35:                   8	30.20
5:35:                  38	30.17
5:36:                   9	30.15
5:36:                  39	30.18
5:37:                   9	30.17
5:37:                  39	30.15
5:38:                   9	30.18
5:38:                  39	30.16
5:39:                   9	30.18
5:39:                  39	30.19
5:40:                   9	30.16
5:40:                  39	30.13
5:41:                   9	30.12
5:41:                  39	30.14
5:42:                   9	30.10
5:42:                  39	30.15
5:43:                   9	30.12
5:43:                  39	30.09
5:44:                   9	30.12
5:44:                  39	30.12
5:45:                   9	30.11
5:45:                  39	30.15
5:46:                   9	30.16
5:46:                  39	30.13
5:47:                   9	30.12
5:47:                  39	30.13
5:48:                   9	30.16
5:48:                  39	30.15
5:49:                   9	30.15
5:49:                  39	30.15
5:50:                   9	30.12
5:50:                  39	30.14
5:51:                   9	30.15
5:51:                  39	30.15
5:52:                   9	30.13
5:52:                  40	30.15
5:53:                  10	30.15
5:53:                  40	30.12
5:54:                  10	30.13
5:54:                  40	30.11
5:55:                  10	30.12
5:55:                  40	30.15
5:56:                  10	30.12
5:56:                  40	30.10
5:57:                  10	30.10
5:57:                  40	30.10
5:58:                  10	30.15
5:58:                  40	30.16
5:59:                  10	30.14
5:59:                  40	30.16
6:00:                  10	30.13
6:00:                  40	30.15
6:01:                  10	30.11
6:01:                  40	30.09
6:02:                  10	30.11
6:02:                  40	30.14
6:03:                  10	30.09
6:03:                  40	30.07
6:04:                  10	30.09
6:04:                  40	30.09
6:05:                  10	30.10
6:05:                  40	30.14
6:06:                  10	30.10
6:06:                  40	30.11
6:07:                  10	30.12
6:07:                  40	30.13
6:08:                  10	30.15
6:08:                  40	30.12
6:09:                  10	30.13
6:09:                  40	30.14
6:10:                  10	30.15
6:10:                  40	30.12
6:11:                  10	30.15
6:11:                  40	30.14
6:12:                  10	30.16
6:12:                  40	30.13
6:13:                  10	30.12
6:13:                  40	30.10
6:14:                  10	30.09
6:14:                  40	30.11
6:15:                  11	30.09
6:15:                  41	30.15
6:16:                  11	30.14
6:16:                  41	30.12
6:17:                  11	30.15
6:17:                  41	30.13
6:18:                  11	30.15
6:18:                  41	30.15
6:19:                  11	30.17
6:19:                  41	30.13
6:20:                  11	30.15
6:20:                  41	30.13
6:21:                  11	30.15
6:21:                  41	30.14
6:22:                  11	30.11
6:22:                  41	30.11
6:23:                  11	30.12
6:23:                  41	30.09
6:24:                  11	30.09
6:24:                  41	30.08
6:25:                  11	30.07
6:25:                  41	30.09
6:26:                  11	30.12
6:26:                  41	30.10
6:27:                  11	30.08
6:27:                  41	30.11
6:28:                  11	30.08
6:28:                  41	30.09
6:29:                  11	30.09
6:29:                  41	30.09
6:30:                  11	30.08
6:30:                  41	30.10
6:31:                  11	30.11
6:31:                  41	30.09
6:32:                  11	30.08
6:32:                  41	30.08
6:33:                  11	30.06
6:33:                  41	30.08
6:34:                  11	30.08
6:34:                  41	30.07
6:35:                  11	30.07
6:35:                  41	30.06
6:36:                  11	30.05
6:36:                  41	30.06
6:37:                  11	30.08
6:37:                  41	30.04
6:38:                  11	30.05
6:38:                  42	30.06
6:39:                  12	30.05
6:39:                  42	30.09
6:40:                  12	30.07
6:40:                  42	30.07
6:41:                  12	30.11
6:41:                  42	30.13
6:42:                  12	30.14
6:42:                  42	30.10
6:43:                  12	30.09
6:43:                  42	30.07
6:44:                  12	30.07
6:44:                  42	30.05
6:45:                  12	30.08
6:45:                  42	30.09
6:46:                  12	30.07
6:46:                  42	30.05
6:47:                  12	30.06
6:47:                  42	30.06
6:48:                  12	30.04
6:48:                  42	30.06
6:49:                  12	30.08
6:49:                  42	30.08
6:50:                  12	30.07
6:50:                  42	30.08
6:51:                  12	30.06
6:51:                  42	30.09
6:52:                  12	30.09
6:52:                  42	30.09
6:53:                  12	30.07
6:53:                  42	30.08
6:54:                  12	30.08
6:54:                  42	30.07
6:55:                  12	30.08
6:55:                  42	30.10
6:56:                  12	30.09
6:56:                  42	30.08
6:57:                  12	30.06
6:57:                  42	30.08
6:58:                  12	30.03
6:58:                  43	30.05
6:59:                  13	30.06
6:59:                  43	30.02
7:00:                  13	30.01
7:00:                  43	30.07
7:01:                  13	30.03
7:01:                  43	30.04
7:02:                  13	30.04
7:02:                  43	30.04
7:03:                  13	30.03
7:03:                  43	30.05
7:04:                  13	30.03
7:04:                  43	30.03
7:05:                  13	30.05
7:05:                  43	30.02
7:06:                  13	30.03
7:06:                  43	30.03
7:07:                  13	30.05
7:07:                  43	30.04
7:08:                  13	30.07
7:08:                  43	30.05
7:09:                  13	30.03
7:09:                  43	30.06
7:10:                  13	30.04
7:10:                  43	30.02
7:11:                  13	30.00
7:11:                  43	30.00
7:12:                  13	30.01
7:12:                  43	30.01
7:13:                  13	30.03
7:13:                  43	30.02
7:14:                  13	30.03
7:14:                  43	30.01
7:15:                  14	30.01
7:15:                  44	29.97
7:16:                  14	30.00
7:16:                  44	29.98
7:17:                  14	29.98
7:17:                  44	30.00
7:18:                  14	30.00
7:18:                  44	30.01
7:19:                  14	30.02
7:19:                  44	29.99
7:20:                  14	30.00
7:20:                  44	30.00
7:21:                  14	30.00
7:21:                  44	29.98
7:22:                  14	29.98
7:22:                  44	29.97
7:23:                  14	29.99
7:23:                  44	29.98
7:24:                  14	29.98
7:24:                  44	29.97
7:25:                  14	29.99
7:25:                  44	29.99
7:26:                  14	29.99
7:26:                  44	30.02
7:27:                  14	30.01
7:27:                  44	29.99
7:28:                  14	30.01
7:28:                  44	30.01
7:29:                  14	30.03
7:29:                  44	29.99
7:30:                  14	29.99
7:30:                  44	29.99
7:31:                  14	29.98
7:31:                  44	30.04
7:32:                  14	30.02
7:32:                  44	29.98
7:33:                  15	29.99
7:33:                  45	30.02
7:34:                  15	30.01
7:34:                  45	30.01
7:35:                  15	30.03
7:35:                  45	30.03
7:36:                  15	30.04
7:36:                  45	30.03
7:37:                  15	30.05
7:37:                  45	30.01
7:38:                  15	30.03
7:38:                  45	30.02
7:39:                  15	30.03
7:39:                  45	30.00
7:40:                  15	30.00
7:40:                  45	30.02
7:41:                  15	30.01
7:41:                  45	30.01
7:42:                  15	30.02
7:42:                  45	30.00
7:43:                  15	30.03
7:43:                  45	30.01
7:44:                  15	30.01
7:44:                  45	29.98
7:45:                  15	30.03
7:45:                  45	29.98
7:46:                  15	29.98
7:46:                  45	29.98
7:47:                  15	29.99
7:47:                  45	29.98
7:48:                  15	29.96
7:48:                  45	29.95
7:49:                  15	29.93
7:49:                  45	29.94
7:50:                  15	29.99
7:50:                  45	29.95
7:51:                  16	29.92
7:51:                  46	29.93
7:52:                  16	29.92
7:52:                  46	29.95
7:53:                  16	29.95
7:53:                  46	29.95
7:54:                  16	29.97
7:54:                  46	29.93
7:55:                  16	29.90
7:55:                  46	29.79
7:56:                  16	29.82
7:56:                  46	29.84
7:57:                  16	29.83
7:57:                  46	29.74
7:58:                  16	29.76
7:58:                  46	29.74
7:59:                  16	29.69
7:59:                  46	29.71
8:00:                  16	29.60
8:00:                  46	29.45
8:01:                  16	29.44
8:01:                  46	29.46
8:02:                  16	29.46
8:02:                  46	29.41
8:03:                  16	29.35
8:03:                  46	29.44
8:04:                  16	29.42
8:04:                  46	29.35
8:05:                  16	29.47
8:05:                  46	29.48
8:06:                  16	29.43
8:06:                  46	29.46
8:07:                  16	29.46
8:07:                  47	29.48
8:08:                  17	29.56
8:08:                  47	29.52
8:09:                  17	29.46
8:09:                  47	29.57
8:10:                  17	29.54
8:10:                  47	29.47
8:11:                  17	29.56
8:11:                  47	29.51
8:12:                  17	29.45
8:12:                  47	29.35
8:13:                  17	29.34
8:13:                  47	29.37
8:14:                  17	29.42
8:14:                  47	29.48
8:15:                  17	29.57
8:15:                  47	29.46
8:16:                  17	29.43
8:16:                  47	29.35
8:17:                  17	29.26
8:17:                  47	29.32
8:18:                  17	29.40
8:18:                  47	29.39
8:19:                  17	29.31
8:19:                  47	29.23
8:20:                  17	29.18
8:20:                  47	29.19
8:21:                  17	29.25
8:21:                  47	29.22
8:22:                  17	29.26
8:22:                  47	29.40
8:23:                  17	29.43
8:23:                  47	29.40
8:24:                  17	29.30
8:24:                  47	29.20
8:25:                  17	29.20
8:25:                  47	29.28
8:26:                  17	29.42
8:26:                  47	29.37
8:27:                  18	29.19
8:27:                  48	29.16
8:28:                  18	29.23
8:28:                  48	29.27
8:29:                  18	29.22
8:29:                  48	29.18
8:30:                  18	29.14
8:30:                  48	29.14
8:31:                  18	29.13
8:31:                  48	29.12
8:32:                  18	29.09
8:32:                  48	29.13
8:33:                  18	29.15
8:33:                  48	29.22
8:34:                  18	29.15
8:34:                  48	29.10
8:35:                  18	29.08
8:35:                  48	29.06
8:36:                  18	29.03
8:36:                  48	29.19
8:37:                  18	29.15
8:37:                  48	29.20
8:38:                  18	29.17
8:38:                  48	29.17
8:39:                  18	29.27
8:39:                  48	29.19
8:40:                  18	28.99
8:40:                  48	29.09
8:41:                  18	29.22
8:41:                  48	29.17
8:42:                  18	29.08
8:42:                  48	29.20
8:43:                  18	29.11
8:43:                  48	29.08
8:44:                  19	29.09
8:44:                  49	29.06
8:45:                  19	29.05
8:45:                  49	29.01
8:46:                  19	29.05
8:46:                  49	29.05
8:47:                  19	29.07
8:47:                  49	29.01
8:48:                  19	28.99
8:48:                  49	29.00
8:49:                  19	29.01
8:49:                  49	28.97
8:50:                  19	29.01
8:50:                  49	28.96
8:51:                  19	29.01
8:51:                  49	29.02
8:52:                  19	29.01
8:52:                  49	28.97
8:53:                  19	29.05
8:53:                  49	29.06
8:54:                  19	29.01
8:54:                  49	29.03
8:55:                  19	29.03
8:55:                  49	28.96
8:56:                  19	28.93
8:56:                  49	28.95
8:57:                  19	28.97
8:57:                  49	28.95
8:58:                  19	28.98
8:58:                  49	29.06
8:59:                  19	29.02
8:59:                  49	29.04
9:00:                  19	29.07
9:00:                  49	29.01
9:01:                  19	29.00
9:01:                  49	28.96
9:02:                  19	29.00
9:02:                  49	29.01
9:03:                  19	29.00
9:03:                  49	29.00
9:04:                  20	28.97
9:04:                  50	29.00
9:05:                  20	29.01
9:05:                  50	28.97
9:06:                  20	28.89
9:06:                  50	28.80
9:07:                  20	28.80
9:07:                  50	28.88
9:08:                  20	28.81
9:08:                  50	28.79
9:09:                  20	28.76
9:09:                  50	28.75
9:10:                  20	28.74
9:10:                  50	28.62
9:11:                  20	28.63
9:11:                  50	28.78
9:12:                  20	28.83
9:12:                  50	28.90
9:13:                  20	28.86
9:13:                  50	28.75
9:14:                  20	28.72
9:14:                  50	28.81
9:15:                  20	28.82
9:15:                  50	28.81
9:16:                  20	28.78
9:16:                  50	28.80
9:17:                  20	28.86
9:17:                  50	28.81
9:18:                  20	28.81
9:18:                  50	28.69
9:19:                  20	28.75
9:19:                  50	28.72
9:20:                  20	28.72
9:20:                  50	28.76
9:21:                  20	28.73
9:21:                  50	28.63
9:22:                  20	28.65
9:22:                  50	28.69
9:23:                  20	28.68
9:23:                  51	28.69
9:24:                  21	28.64
9:24:                  51	28.65
9:25:                  21	28.63
9:25:                  51	28.62
9:26:                  21	28.70
9:26:                  51	28.69
9:27:                  21	28.67
9:27:                  51	28.65
9:28:                  21	28.64
9:28:                  51	28.64
9:29:                  21	28.69
9:29:                  51	28.69
9:30:                  21	28.69
9:30:                  51	28.65
9:31:                  21	28.66
9:31:                  51	28.70
9:32:                  21	28.66
9:32:                  51	28.71
9:33:                  21	28.67
9:33:                  51	28.67
9:34:                  21	28.64
9:34:                  51	28.62
9:35:                  21	28.60
9:35:                  51	28.61
9:36:                  21	28.64
9:36:                  51	28.65
9:37:                  21	28.65
9:37:                  51	28.70
9:38:                  21	28.71
9:38:                  51	28.68
9:39:                  21	28.70
9:39:                  51	28.72
9:40:                  22	28.71
9:40:                  52	28.71
9:41:                  22	28.71
9:41:                  52	28.72
9:42:                  22	28.72
9:42:                  52	28.71
9:43:                  22	28.70
9:43:                  52	28.71
9:44:                  22	28.69
9:44:                  52	28.70
9:45:                  22	28.69
9:45:                  52	28.72
9:46:                  22	28.69
9:46:                  52	28.71
9:47:                  22	28.69
9:47:                  52	28.73
9:48:                  22	28.75
9:48:                  52	28.78
9:49:                  22	28.77
9:49:                  52	28.80
9:50:                  22	28.78
9:50:                  52	28.75
9:51:                  22	28.73
9:51:                  52	28.72
9:52:                  22	28.74
9:52:                  52	28.78
9:53:                  22	28.73
9:53:                  52	28.75
9:54:                  22	28.74
9:54:                  52	28.76
9:55:                  22	28.76
9:55:                  52	28.81
9:56:                  22	28.82
9:56:                  53	28.83
9:57:                  23	28.89
9:57:                  53	28.88
9:58:                  23	28.88
9:58:                  53	28.83
9:59:                  23	28.81
9:59:                  53	28.81
10:00:                  23	28.81
10:00:                  53	28.83
10:01:                  23	28.86
10:01:                  53	28.87
10:02:                  23	28.84
10:02:                  53	28.81
10:03:                  23	28.85
10:03:                  53	28.86
10:04:                  23	28.85
10:04:                  53	28.84
10:05:                  23	28.86
10:05:                  53	28.81
10:06:                  23	28.86
10:06:                  53	28.83
10:07:                  23	28.82
10:07:                  53	28.87
10:08:                  23	28.83
10:08:                  53	28.82
10:09:                  23	28.88
10:09:                  53	28.86
10:10:                  23	28.85
10:10:                  53	28.81
10:11:                  23	28.87
10:11:                  53	28.88
10:12:                  23	28.88
10:12:                  53	28.86
10:13:                  24	28.84
10:13:                  54	28.89
10:14:                  24	28.90
10:14:                  54	28.91
10:15:                  24	28.82
10:15:                  54	28.83
10:16:                  24	28.87
10:16:                  54	28.88
10:17:                  24	28.89
10:17:                  54	28.90
10:18:                  24	28.93
10:18:                  54	28.91
10:19:                  24	28.84
10:19:                  54	28.89
10:20:                  24	28.91
10:20:                  54	28.89
10:21:                  24	28.91
10:21:                  54	28.91
10:22:                  24	28.92
10:22:                  54	28.91
10:23:                  24	28.89
10:23:                  54	28.93
10:24:                  24	28.92
10:24:                  54	28.90
10:25:                  24	28.89
10:25:                  54	28.91
10:26:                  24	28.94
10:26:                  54	28.93
10:27:                  24	28.92
10:27:                  54	28.91
10:28:                  24	28.94
10:28:                  54	28.90
10:29:                  24	28.91
10:29:                  54	28.92
10:30:                  25	28.91
10:30:                  55	28.93
10:31:                  25	28.94
10:31:                  55	28.92
10:32:                  25	28.91
10:32:                  55	28.94
10:33:                  25	28.92
10:33:                  55	28.93
10:34:                  25	28.93
10:34:                  55	28.92
10:35:                  25	28.91
10:35:                  55	28.90
10:36:                  25	29.00
10:36:                  55	28.99
10:37:                  25	29.00
10:37:                  55	28.94
10:38:                  25	28.91
10:38:                  55	28.95
10:39:                  25	28.89
10:39:                  55	28.89
10:40:                  25	28.87
10:40:                  55	28.87
10:41:                  25	28.86
10:41:                  55	28.87
10:42:                  25	28.90
10:42:                  55	28.86
10:43:                  25	28.86
10:43:                  55	28.84
10:44:                  25	28.86
10:44:                  55	28.90
10:45:                  25	28.86
10:45:                  55	28.82
10:46:                  25	28.82
10:46:                  56	28.89
10:47:                  26	28.75
10:47:                  56	28.81
10:48:                  26	28.90
10:48:                  56	28.88
10:49:                  26	28.91
10:49:                  56	28.89
10:50:                  26	28.92
10:50:                  56	28.89
10:51:                  26	28.92
10:51:                  56	28.93
10:52:                  26	28.92
10:52:                  56	28.89
10:53:                  26	28.90
10:53:                  56	28.86
10:54:                  26	28.88
10:54:                  56	28.83
10:55:                  26	28.79
10:55:                  56	28.80
10:56:                  26	28.78
10:56:                  56	28.89
10:57:                  26	28.84
10:57:                  56	28.86
10:58:                  26	28.91
10:58:                  56	28.92
10:59:                  26	28.96
10:59:                  56	28.96
11:00:                  26	28.95
11:00:                  56	28.96
11:01:                  26	28.99
11:01:                  56	28.96
11:02:                  26	28.95
11:02:                  57	28.94
11:03:                  27	28.90
11:03:                  57	28.95
11:04:                  27	28.92
11:04:                  57	28.93
11:05:                  27	28.92
11:05:                  57	28.89
11:06:                  27	28.92
11:06:                  57	28.90
11:07:                  27	28.89
11:07:                  57	28.92
11:08:                  27	28.91
11:08:                  57	28.95
11:09:                  27	28.93
11:09:                  57	28.92
11:10:                  27	28.96
11:10:                  57	28.92
11:11:                  27	29.04
11:11:                  57	29.06
11:12:                  27	29.04
11:12:                  57	29.03
11:13:                  27	28.96
11:13:                  57	29.01
11:14:                  27	29.01
11:14:                  57	28.97
11:15:                  27	28.91
11:15:                  57	28.94
11:16:                  27	28.92
11:16:                  57	28.92
11:17:                  27	28.92
11:17:                  57	28.96
11:18:                  27	29.05
11:18:                  57	28.99
11:19:                  28	28.95
11:19:                  58	28.96
11:20:                  28	29.02
11:20:                  58	28.91
11:21:                  28	28.88
11:21:                  58	28.90
11:22:                  28	29.03
11:22:                  58	29.10
11:23:                  28	29.15
11:23:                  58	29.19
11:24:                  28	29.26
11:24:                  58	29.24
11:25:                  28	29.22
11:25:                  58	29.14
11:26:                  28	29.20
11:26:                  58	29.27
11:27:                  28	29.14
11:27:                  58	29.10
11:28:                  28	29.12
11:28:                  58	29.20
11:29:                  28	29.19
11:29:                  58	29.24
11:30:                  28	29.24
11:30:                  58	29.16
11:31:                  28	29.16
11:31:                  58	29.20
11:32:                  28	29.26
11:32:                  58	29.31
11:33:                  28	29.30
11:33:                  58	29.32
11:34:                  28	29.36
11:34:                  58	29.35
11:35:                  28	29.39
11:35:                  59	29.38
11:36:                  29	29.45
11:36:                  59	29.44
11:37:                  29	29.42
11:37:                  59	29.45
11:38:                  29	29.47
11:38:                  59	29.49
11:39:                  29	29.47
11:39:                  59	29.52
11:40:                  29	29.59
11:40:                  59	29.56
11:41:                  29	29.54
11:41:                  59	29.54
11:42:                  29	29.59
11:42:                  59	29.60
11:43:                  29	29.59
11:43:                  59	29.65
11:44:                  29	29.75
11:44:                  59	29.71
11:45:                  29	29.69
11:45:                  59	29.74
11:46:                  29	29.79
11:46:                  59	29.73
11:47:                  29	29.70
11:47:                  59	29.71
11:48:                  29	29.74
11:48:                  59	29.64
11:49:                  29	29.63
11:49:                  59	29.63
11:50:                  29	29.63
11:50:                  59	29.69
11:51:                  29	29.74
11:51:                  59	29.71
11:52:                  30	29.64
11:53:                   0	29.68
11:53:                  30	29.68
11:54:                   0	29.72
11:54:                  30	29.78
11:55:                   0	29.79
11:55:                  30	29.75
11:56:                   0	29.80
11:56:                  30	29.81
11:57:                   0	29.76
11:57:                  30	29.74
11:58:                   0	29.68
11:58:                  30	29.70
11:59:                   0	29.68
11:59:                  30	29.72
12:00:                   0	29.72
12:00:                  30	29.74
12:01:                   0	29.74
12:01:                  30	29.74
12:02:                   0	29.76
12:02:                  30	29.75
12:03:                   0	29.78
12:03:                  30	29.81
12:04:                   0	29.90
12:04:                  30	29.98
12:05:                   0	29.91
12:05:                  30	29.83
12:06:                   0	29.84
12:06:                  30	29.93
12:07:                   0	29.98
12:07:                  30	29.88
12:08:                   0	29.94
12:08:                  30	29.99
12:09:                   0	29.94
12:09:                  31	29.87
12:10:                   1	29.92
12:10:                  31	29.89
12:11:                   1	29.86
12:11:                  31	29.94
12:12:                   1	29.96
12:12:                  31	29.93
12:13:                   1	29.95
12:13:                  31	29.90
12:14:                   1	29.89
12:14:                  31	29.92
12:15:                   1	29.98
12:15:                  31	29.93
12:16:                   1	29.92
12:16:                  31	29.99
12:17:                   1	29.99
12:17:                  31	30.02
12:18:                   1	30.00
12:18:                  31	30.04
12:19:                   1	30.10
12:19:                  31	30.13
12:20:                   1	30.00
12:20:                  31	30.02
12:21:                   1	29.94
12:21:                  31	29.96
12:22:                   1	29.97
12:22:                  31	30.00
12:23:                   1	30.10
12:23:                  31	30.10
12:24:                   1	30.13
12:24:                  31	30.07
12:25:                   1	30.03
12:25:                  31	30.07
12:26:                   1	30.13
12:26:                  31	30.09
12:27:                   1	30.10
12:27:                  31	30.05
12:28:                   1	30.13
12:28:                  31	30.12
12:29:                   2	30.16
12:29:                  32	30.18
12:30:                   2	30.08
12:30:                  32	30.12
12:31:                   2	30.11
12:31:                  32	30.07
12:32:                   2	30.07
12:32:                  32	30.10
12:33:                   2	30.03
12:33:                  32	30.03
12:34:                   2	30.01
12:34:                  32	29.98
12:35:                   2	29.98
12:35:                  32	30.01
12:36:                   2	30.00
12:36:                  32	29.94
12:37:                   2	29.98
12:37:                  32	30.04
12:38:                   2	30.14
12:38:                  32	30.12
12:39:                   2	30.14
12:39:                  32	30.21
12:40:                   2	30.15
12:40:                  32	30.11
12:41:                   2	30.09
12:41:                  32	30.06
12:42:                   2	30.06
12:42:                  32	30.12
12:43:                   2	30.10
12:43:                  32	30.06
12:44:                   2	30.06
12:44:                  32	30.03
12:45:                   2	29.96
12:45:                  33	29.95
12:46:                   3	30.02
12:46:                  33	30.07
12:47:                   3	30.04
12:47:                  33	30.08
12:48:                   3	30.05
12:48:                  33	30.02
12:49:                   3	29.93
12:49:                  33	29.88
12:50:                   3	29.83
12:50:                  33	29.96
12:51:                   3	30.07
12:51:                  33	30.17
12:52:                   3	30.17
12:52:                  33	30.17
12:53:                   3	30.01
12:53:                  33	30.03
12:54:                   3	30.09
12:54:                  33	29.99
12:55:                   3	30.12
12:55:                  33	30.20
12:56:                   3	30.20
12:56:                  33	30.12
12:57:                   3	30.09
12:57:                  33	30.04
12:58:                   3	29.98
12:58:                  33	29.99
12:59:                   3	30.01
12:59:                  33	30.08
13:00:                   3	30.05
13:00:                  33	30.10
13:01:                   3	30.10
13:01:                  33	30.08
13:02:                   3	30.15
13:02:                  33	30.12
13:03:                   3	30.15
13:03:                  33	30.35
13:04:                   3	30.39
13:04:                  33	30.39
13:05:                   4	30.26
13:05:                  34	30.26
13:06:                   4	30.25
13:06:                  34	30.19
13:07:                   4	30.19
13:07:                  34	30.37
13:08:                   4	30.50
13:08:                  34	30.56
13:09:                   4	30.60
13:09:                  34	30.56
13:10:                   4	30.65
13:10:                  34	30.66
13:11:                   4	30.67
13:11:                  34	30.65
13:12:                   4	30.69
13:12:                  34	30.70
13:13:                   4	30.81
13:13:                  34	30.89
13:14:                   4	30.86
13:14:                  34	30.89
13:15:                   4	30.96
13:15:                  34	30.92
13:16:                   4	30.97
13:16:                  34	30.98
13:17:                   4	31.11
13:17:                  34	31.12
13:18:                   4	31.10
13:18:                  34	31.15
13:19:                   4	31.23
13:19:                  34	31.13
13:20:                   4	31.19
13:20:                  34	31.22
13:21:                   4	31.14
13:21:                  35	31.00
13:22:                   5	31.08
13:22:                  35	30.95
13:23:                   5	30.75
13:23:                  35	30.72
13:24:                   5	30.73
13:24:                  35	30.65
13:25:                   5	30.71
13:25:                  35	30.77
13:26:                   5	30.80
13:26:                  35	30.88
13:27:                   5	30.89
13:27:                  35	30.92
13:28:                   5	30.92
13:28:                  35	31.02
13:29:                   5	31.02
13:29:                  35	31.02
13:30:                   5	31.09
13:30:                  35	31.03
13:31:                   5	31.04
13:31:                  35	30.91
13:32:                   5	31.05
13:32:                  35	31.02
13:33:                   5	31.01
13:33:                  35	30.96
13:34:                   5	30.95
13:34:                  35	30.87
13:35:                   5	30.83
13:35:                  35	30.85
13:36:                   5	30.89
13:36:                  35	30.82
13:37:                   5	30.82
13:37:                  35	30.77
13:38:                   6	30.75
13:38:                  36	30.74
13:39:                   6	30.67
13:39:                  36	30.59
13:40:                   6	30.54
13:40:                  36	30.50
13:41:                   6	30.52
13:41:                  36	30.46
13:42:                   6	30.52
13:42:                  36	30.46
13:43:                   6	30.44
13:43:                  36	30.36
13:44:                   6	30.37
13:44:                  36	30.32
13:45:                   6	30.30
13:45:                  36	30.29
13:46:                   6	30.28
13:46:                  36	30.27
13:47:                   6	30.30
13:47:                  36	30.19
13:48:                   6	30.23
13:48:                  36	30.22
13:49:                   6	30.24
13:49:                  36	30.26
13:50:                   6	30.19
13:50:                  36	30.23
13:51:                   6	30.27
13:51:                  36	30.21
13:52:                   6	30.22
13:52:                  36	30.21
13:53:                   6	30.19
13:53:                  36	30.24
13:54:                   6	30.19
13:54:                  36	30.18
13:55:                   6	30.21
13:55:                  36	30.23
13:56:                   6	30.20
13:56:                  36	30.26
13:57:                   7	30.27
13:57:                  37	30.12
13:58:                   7	30.18
13:58:                  37	30.13
13:59:                   7	30.19
13:59:                  37	30.11
14:00:                   7	30.13
14:00:                  37	30.07
14:01:                   7	30.10
14:01:                  37	30.19
14:02:                   7	30.19
14:02:                  37	30.17
14:03:                   7	30.18
14:03:                  37	30.13
14:04:                   7	30.14
14:04:                  37	30.19
14:05:                   7	30.21
14:05:                  37	30.20
14:06:                   7	30.19
14:06:                  37	30.24
14:07:                   7	30.20
14:07:                  37	30.23
14:08:                   7	30.19
14:08:                  37	30.17
14:09:                   7	30.17
14:09:                  37	30.16
14:10:                   7	30.18
14:10:                  37	30.15
14:11:                   7	30.14
14:11:                  37	30.18
14:12:                   7	30.16
14:12:                  37	30.15
14:13:                   7	30.13
14:13:                  37	30.19
14:14:                   7	30.11
14:14:                  37	30.17
14:15:                   7	30.30
14:15:                  37	30.26
14:16:                   8	30.30
14:16:                  38	30.29
14:17:                   8	30.19
14:17:                  38	30.25
14:18:                   8	30.26
14:18:                  38	30.29
14:19:                   8	30.16
14:19:                  38	30.25
14:20:                   8	30.45
14:20:                  38	30.39
14:21:                   8	30.37
14:21:                  38	30.35
14:22:                   8	30.33
14:22:                  38	30.27
14:23:                   8	30.27
14:23:                  38	30.25
14:24:                   8	30.20
14:24:                  38	30.16
14:25:                   8	30.26
14:25:                  38	30.27
14:26:                   8	30.26
14:26:                  38	30.17
14:27:                   8	30.16
14:27:                  38	30.14
14:28:                   8	30.17
14:28:                  38	30.13
14:29:                   8	30.11
14:29:                  38	30.14
14:30:                   8	30.13
14:30:                  38	30.15
14:31:                   8	30.18
14:31:                  38	30.13
14:32:                   8	30.17
14:32:                  38	30.21
14:33:                   8	30.26
14:33:                  38	30.20
14:34:                   8	30.21
14:34:                  38	30.25
14:35:                   8	30.26
14:35:                  38	30.23
14:36:                   8	30.21
14:36:                  39	30.18
14:37:                   9	30.21
14:37:                  39	30.20
14:38:                   9	30.18
14:38:                  39	30.20
14:39:                   9	30.14
14:39:                  39	30.13
14:40:                   9	30.15
14:40:                  39	30.15
14:41:                   9	30.11
14:41:                  39	30.12
14:42:                   9	30.09
14:42:                  39	30.07
14:43:                   9	30.07
14:43:                  39	30.04
14:44:                   9	30.08
14:44:                  39	30.08
14:45:                   9	30.08
14:45:                  39	30.07
14:46:                   9	30.03
14:46:                  39	30.02
14:47:                   9	30.02
14:47:                  39	30.11
14:48:                   9	30.10
14:48:                  39	30.13
14:49:                   9	30.11
14:49:                  39	30.08
14:50:                   9	30.10
14:50:                  39	30.11
14:51:                   9	30.18
14:51:                  39	30.18
14:52:                   9	30.12
14:52:                  39	30.15
14:53:                  10	30.14
14:53:                  40	30.15
14:54:                  10	30.12
14:54:                  40	30.18
14:55:                  10	30.24
14:55:                  40	30.26
14:56:                  10	30.28
14:56:                  40	30.39
14:57:                  10	30.39
14:57:                  40	30.39
14:58:                  10	30.36
14:58:                  40	30.32
14:59:                  10	30.29
14:59:                  40	30.28
15:00:                  10	30.21
15:00:                  40	30.34
15:01:                  10	30.37
15:01:                  40	30.43
15:02:                  10	30.47
15:02:                  40	30.41
15:03:                  10	30.44
15:03:                  40	30.38
15:04:                  10	30.44
15:04:                  40	30.40
15:05:                  10	30.38
15:05:                  40	30.36
15:06:                  10	30.31
15:06:                  40	30.27
15:07:                  10	30.30
15:07:                  40	30.30
15:08:                  10	30.34
15:08:                  40	30.38
15:09:                  10	30.40
15:09:                  41	30.41
15:10:                  11	30.50
15:10:                  41	30.54
15:11:                  11	30.49
15:11:                  41	30.44
15:12:                  11	30.47
15:12:                  41	30.50
15:13:                  11	30.34
15:13:                  41	30.36
15:14:                  11	30.33
15:14:                  41	30.26
15:15:                  11	30.32
15:15:                  41	30.38
15:16:                  11	30.38
15:16:                  41	30.41
15:17:                  11	30.28
15:17:                  41	30.20
15:18:                  11	30.29
15:18:                  41	30.25
15:19:                  11	30.38
15:19:                  41	30.42
15:20:                  11	30.45
15:20:                  41	30.35
15:21:                  11	30.47
15:21:                  41	30.39
15:22:                  11	30.37
15:22:                  41	30.35
15:23:                  11	30.38
15:23:                  41	30.41
15:24:                  11	30.44
15:24:                  41	30.37
15:25:                  11	30.32
15:25:                  41	30.42
15:26:                  11	30.47
15:26:                  41	30.38
15:27:                  11	30.46
15:27:                  41	30.49
15:28:                  11	30.56
15:28:                  41	30.57
15:29:                  12	30.62
15:29:                  42	30.63
15:30:                  12	30.70
15:30:                  42	30.65
15:31:                  12	30.54
15:31:                  42	30.53
15:32:                  12	30.71
15:32:                  42	30.67
15:33:                  12	30.64
15:33:                  42	30.63
15:34:                  12	30.58
15:34:                  42	30.56
15:35:                  12	30.52
15:35:                  42	30.56
15:36:                  12	30.46
15:36:                  42	30.57
15:37:                  12	30.53
15:37:                  42	30.53
15:38:                  12	30.50
15:38:                  42	30.52
15:39:                  12	30.48
15:39:                  42	30.50
15:40:                  12	30.58
15:40:                  42	30.58
15:41:                  12	30.60
15:41:                  42	30.66
15:42:                  12	30.64
15:42:                  42	30.68
15:43:                  12	30.73
15:43:                  42	30.81
15:44:                  12	30.81
15:44:                  42	30.78
15:45:                  12	30.78
15:45:                  42	30.83
15:46:                  12	30.80
15:46:                  42	30.76
15:47:                  12	30.86
15:47:                  42	30.77
15:48:                  12	30.82
15:48:                  43	30.68
15:49:                  13	30.58
15:49:                  43	30.51
15:50:                  13	30.54
15:50:                  43	30.58
15:51:                  13	30.53
15:51:                  43	30.63
15:52:                  13	30.61
15:52:                  43	30.59
15:53:                  13	30.65
15:53:                  43	30.58
15:54:                  13	30.60
15:54:                  43	30.58
15:55:                  13	30.55
15:55:                  43	30.54
15:56:                  13	30.51
15:56:                  43	30.48
15:57:                  13	30.52
15:57:                  43	30.62
15:58:                  13	30.59
15:58:                  43	30.53
15:59:                  13	30.59
15:59:                  43	30.58
16:00:                  13	30.56
16:00:                  43	30.59
16:01:                  13	30.63
16:01:                  43	30.64
16:02:                  13	30.66
16:02:                  43	30.66
16:03:                  13	30.74
16:03:                  43	30.71
16:04:                  13	30.73
16:04:                  43	30.84
16:05:                  13	30.85
16:05:                  43	30.76
16:06:                  13	30.74
16:06:                  43	30.73
16:07:                  13	30.81
16:07:                  44	30.83
16:08:                  14	30.86
16:08:                  44	30.93
16:09:                  14	30.90
16:09:                  44	30.87
16:10:                  14	30.83
16:10:                  44	30.82
16:11:                  14	30.86
16:11:                  44	30.86
16:12:                  14	30.85
16:12:                  44	30.95
16:13:                  14	30.96
16:13:                  44	31.00
16:14:                  14	30.87
16:14:                  44	30.87
16:15:                  14	30.79
16:15:                  44	30.84
16:16:                  14	30.80
16:16:                  44	30.75
16:17:                  14	30.74
16:17:                  44	30.80
16:18:                  14	30.81
16:18:                  44	30.85
16:19:                  14	30.84
16:19:                  44	30.82
16:20:                  14	30.80
16:20:                  44	30.78
16:21:                  14	30.69
16:21:                  44	30.82
16:22:                  14	30.78
16:22:                  44	30.76
16:23:                  14	30.78
16:23:                  44	30.84
16:24:                  15	30.97
16:24:                  45	30.90
16:25:                  15	30.82
16:25:                  45	30.81
16:26:                  15	30.81
16:26:                  45	30.81
16:27:                  15	30.82
16:27:                  45	30.86
16:28:                  15	30.84
16:28:                  45	30.92
16:29:                  15	30.97
16:29:                  45	30.91
16:30:                  15	30.91
16:30:                  45	30.84
16:31:                  15	30.85
16:31:                  45	30.84
16:32:                  15	30.76
16:32:                  45	30.79
16:33:                  15	30.79
16:33:                  45	30.80
16:34:                  15	30.78
16:34:                  45	30.78
16:35:                  15	30.77
16:35:                  45	30.78
16:36:                  15	30.76
16:36:                  45	30.72
16:37:                  15	30.65
16:37:                  45	30.74
16:38:                  15	30.79
16:38:                  45	30.77
16:39:                  15	30.72
16:39:                  45	30.75
16:40:                  15	30.71
16:40:                  46	30.79
16:41:                  16	30.76
16:41:                  46	30.76
16:42:                  16	30.70
16:42:                  46	30.76
16:43:                  16	30.72
16:43:                  46	30.74
16:44:                  16	30.82
16:44:                  46	30.76
16:45:                  16	30.81
16:45:                  46	30.78
16:46:                  16	30.88
16:46:                  46	30.82
16:47:                  16	30.81
16:47:                  46	30.78
16:48:                  16	30.82
16:48:                  46	30.78
16:49:                  16	30.77
16:49:                  46	30.80
16:50:                  16	30.80
16:50:                  46	30.88
16:51:                  16	30.81
16:51:                  46	30.81
16:52:                  16	30.84
16:52:                  46	30.81
16:53:                  16	30.82
16:53:                  46	30.89
16:54:                  16	30.84
16:54:                  46	30.79
16:55:                  16	30.76
16:55:                  46	30.69
16:56:                  16	30.68
16:56:                  47	30.71
16:57:                  17	30.84
16:57:                  47	30.78
16:58:                  17	30.68
16:58:                  47	30.67
16:59:                  17	30.71
16:59:                  47	30.74
17:00:                  17	30.69
17:00:                  47	30.70
17:01:                  17	30.69
17:01:                  47	30.65
17:02:                  17	30.64
17:02:                  47	30.49
17:03:                  17	30.50
17:03:                  47	30.49
17:04:                  17	30.51
17:04:                  47	30.48
17:05:                  17	30.49
17:05:                  47	30.48
17:06:                  17	30.44
17:06:                  47	30.48
17:07:                  17	30.41
17:07:                  47	30.38
17:08:                  17	30.45
17:08:                  47	30.43
17:09:                  17	30.48
17:09:                  47	30.46
17:10:                  17	30.35
17:10:                  47	30.34
17:11:                  17	30.46
17:11:                  47	30.51
17:12:                  17	30.54
17:12:                  47	30.60
17:13:                  18	30.59
17:13:                  48	30.57
17:14:                  18	30.58
17:14:                  48	30.56
17:15:                  18	30.57
17:15:                  48	30.61
17:16:                  18	30.52
17:16:                  48	30.58
17:17:                  18	30.59
17:17:                  48	30.59
17:18:                  18	30.68
17:18:                  48	30.70
17:19:                  18	30.69
17:19:                  48	30.67
17:20:                  18	30.61
17:20:                  48	30.61
17:21:                  18	30.69
17:21:                  48	30.68
17:22:                  18	30.65
17:22:                  48	30.79
17:23:                  18	30.80
17:23:                  48	30.71
17:24:                  18	30.72
17:24:                  48	30.68
17:25:                  18	30.59
17:25:                  48	30.61
17:26:                  18	30.58
17:26:                  48	30.55
17:27:                  18	30.57
17:27:                  48	30.59
17:28:                  18	30.61
17:28:                  48	30.66
17:29:                  18	30.63
17:29:                  48	30.62
17:30:                  19	30.52
17:30:                  49	30.50
17:31:                  19	30.50
17:31:                  49	30.64
17:32:                  19	30.69
17:32:                  49	30.66
17:33:                  19	30.69
17:33:                  49	30.65
17:34:                  19	30.68
17:34:                  49	30.69
17:35:                  19	30.64
17:35:                  49	30.62
17:36:                  19	30.57
17:36:                  49	30.61
17:37:                  19	30.61
17:37:                  49	30.62
17:38:                  19	30.58
17:38:                  49	30.56
17:39:                  19	30.60
17:39:                  49	30.62
17:40:                  19	30.66
17:40:                  49	30.69
17:41:                  19	30.71
17:41:                  49	30.76
17:42:                  19	30.71
17:42:                  49	30.74
17:43:                  19	30.76
17:43:                  49	30.83
17:44:                  19	30.81
17:44:                  49	30.77
17:45:                  19	30.64
17:45:                  49	30.59
17:46:                  19	30.54
17:46:                  49	30.59
17:47:                  19	30.60
17:47:                  49	30.73
17:48:                  19	30.66
17:48:                  49	30.73
17:49:                  20	30.67
17:49:                  50	30.77
17:50:                  20	30.74
17:50:                  50	30.71
17:51:                  20	30.77
17:51:                  50	30.77
17:52:                  20	30.73
17:52:                  50	30.78
17:53:                  20	30.87
17:53:                  50	30.95
17:54:                  20	30.82
17:54:                  50	30.81
17:55:                  20	30.85
17:55:                  50	30.82
17:56:                  20	30.77
17:56:                  50	30.78
17:57:                  20	30.84
17:57:                  50	30.82
17:58:                  20	30.79
17:58:                  50	30.70
17:59:                  20	30.70
17:59:                  50	30.73
18:00:                  20	30.76
18:00:                  50	30.86
18:01:                  20	30.91
18:01:                  50	30.85
18:02:                  20	30.83
18:02:                  50	30.78
18:03:                  20	30.80
18:03:                  50	30.80
18:04:                  20	30.80
18:04:                  50	30.80
18:05:                  20	30.77
18:05:                  51	30.76
18:06:                  21	30.72
18:06:                  51	30.72
18:07:                  21	30.76
18:07:                  51	30.76
18:08:                  21	30.73
18:08:                  51	30.74
18:09:                  21	30.81
18:09:                  51	30.84
18:10:                  21	30.83
18:10:                  51	30.81
18:11:                  21	30.75
18:11:                  51	30.79
18:12:                  21	30.77
18:12:                  51	30.75
18:13:                  21	30.67
18:13:                  51	30.82
18:14:                  21	31.00
18:14:                  51	31.05
18:15:                  21	31.09
18:15:                  51	31.16
18:16:                  21	31.11
18:16:                  51	31.13
18:17:                  21	31.13
18:17:                  51	31.12
18:18:                  21	31.14
18:18:                  51	31.15
18:19:                  21	31.03
18:19:                  51	30.96
18:20:                  21	30.86
18:20:                  51	30.82
18:21:                  21	30.84
18:21:                  51	30.78
18:22:                  21	30.85
18:22:                  52	30.80
18:23:                  22	30.76
18:23:                  52	30.66
18:24:                  22	30.62
18:24:                  52	30.59
18:25:                  22	30.55
18:25:                  52	30.58
18:26:                  22	30.57
18:26:                  52	30.55
18:27:                  22	30.45
18:27:                  52	30.37
18:28:                  22	30.26
18:28:                  52	30.24
18:29:                  22	30.13
18:29:                  52	30.15
18:30:                  22	30.07
18:30:                  52	30.08
18:31:                  22	30.09
18:31:                  52	30.02
18:32:                  22	30.09
18:32:                  52	30.18
18:33:                  22	30.21
18:33:                  52	30.20
18:34:                  22	30.16
18:34:                  52	30.13
18:35:                  22	30.13
18:35:                  52	30.16
18:36:                  22	30.12
18:36:                  52	30.08
18:37:                  22	29.99
18:37:                  52	29.95
18:38:                  22	29.93
18:38:                  52	29.96
18:39:                  22	29.99
18:39:                  52	30.01
18:40:                  22	29.95
18:40:                  52	29.89
18:41:                  22	29.87
18:41:                  52	29.83
18:42:                  22	29.82
18:42:                  53	29.76
18:43:                  23	29.80
18:43:                  53	29.81
18:44:                  23	29.79
18:44:                  53	29.84
18:45:                  23	29.81
18:45:                  53	29.77
18:46:                  23	29.75
18:46:                  53	29.72
18:47:                  23	29.71
18:47:                  53	29.67
18:48:                  23	29.65
18:48:                  53	29.61
18:49:                  23	29.56
18:49:                  53	29.58
18:50:                  23	29.53
18:50:                  53	29.51
18:51:                  23	29.46
18:51:                  53	29.52
18:52:                  23	29.60
18:52:                  53	29.53
18:53:                  23	29.51
18:53:                  53	29.56
18:54:                  23	29.55
18:54:                  53	29.52
18:55:                  23	29.55
18:55:                  53	29.50
18:56:                  23	29.52
18:56:                  53	29.52
18:57:                  23	29.55
18:57:                  53	29.58
18:58:                  23	29.59
18:58:                  53	29.38
18:59:                  23	29.46
18:59:                  53	29.58
19:00:                  23	29.61
19:00:                  53	29.70
19:01:                  23	29.88
19:01:                  54	29.96
19:02:                  24	30.00
19:02:                  54	30.08
19:03:                  24	30.18
19:03:                  54	30.22
19:04:                  24	30.29
19:04:                  54	30.32
19:05:                  24	30.35
19:05:                  54	30.42
19:06:                  24	30.42
19:06:                  54	30.38
19:07:                  24	30.42
19:07:                  54	30.42
19:08:                  24	30.43
19:08:                  54	30.42
19:09:                  24	30.41
19:09:                  54	30.43
19:10:                  24	30.46
19:10:                  54	30.50
19:11:                  24	30.49
19:11:                  54	30.54
19:12:                  24	30.49
19:12:                  54	30.50
19:13:                  24	30.53
19:13:                  54	30.52
19:14:                  24	30.48
19:14:                  54	30.46
19:15:                  24	30.45
19:15:                  54	30.45
19:16:                  24	30.48
19:16:                  54	30.46
19:17:                  24	30.47
19:17:                  54	30.45
19:18:                  25	30.48
19:18:                  55	30.48
19:19:                  25	30.51
19:19:                  55	30.46
19:20:                  25	30.48
19:20:                  55	30.44
19:21:                  25	30.48
19:21:                  55	30.50
19:22:                  25	30.45
19:22:                  55	30.46
19:23:                  25	30.44
19:23:                  55	30.48
19:24:                  25	30.45
19:24:                  55	30.46
19:25:                  25	30.49
19:25:                  55	30.44
19:26:                  25	30.39
19:26:                  55	30.39
19:27:                  25	30.39
19:27:                  55	30.35
19:28:                  25	30.40
19:28:                  55	30.39
19:29:                  25	30.36
19:29:                  55	30.36
19:30:                  25	30.32
19:30:                  55	30.32
19:31:                  25	30.32
19:31:                  55	30.36
19:32:                  25	30.37
19:32:                  55	30.36
19:33:                  25	30.37
19:33:                  55	30.37
19:34:                  25	30.38
19:34:                  56	30.43
19:35:                  26	30.44
19:35:                  56	30.47
19:36:                  26	30.45
19:36:                  56	30.47
19:37:                  26	30.45
19:37:                  56	30.43
19:38:                  26	30.46
19:38:                  56	30.45
19:39:                  26	30.48
19:39:                  56	30.44
19:40:                  26	30.44
19:40:                  56	30.47
19:41:                  26	30.51
19:41:                  56	30.48
19:42:                  26	30.44
19:42:                  56	30.46
19:43:                  26	30.41
19:43:                  56	30.39
19:44:                  26	30.42
19:44:                  56	30.41
19:45:                  26	30.45
19:45:                  56	30.40
19:46:                  26	30.37
19:46:                  56	30.39
19:47:                  26	30.34
19:47:                  56	30.35
19:48:                  26	30.34
19:48:                  56	30.35
19:49:                  26	30.36
19:49:                  56	30.32
19:50:                  26	30.33
19:50:                  56	30.31
19:51:                  26	30.29
19:51:                  56	30.33
19:52:                  26	30.33
19:52:                  56	30.29
19:53:                  26	30.27
19:53:                  56	30.29
19:54:                  26	30.27
19:54:                  56	30.29
19:55:                  27	30.27
19:55:                  57	30.32
19:56:                  27	30.27
19:56:                  57	30.29
19:57:                  27	30.27
19:57:                  57	30.24
19:58:                  27	30.20
19:58:                  57	30.18
19:59:                  27	30.20
19:59:                  57	30.16
20:00:                  27	30.22
20:00:                  57	30.22
20:01:                  27	30.22
20:01:                  57	30.20
20:02:                  27	30.19
20:02:                  57	30.18
20:03:                  27	30.17
20:03:                  57	30.19
20:04:                  27	30.19
20:04:                  57	30.23
20:05:                  27	30.24
20:05:                  57	30.22
20:06:                  27	30.19
20:06:                  57	30.20
20:07:                  27	30.17
20:07:                  57	30.17
20:08:                  27	30.15
20:08:                  57	30.16
20:09:                  27	30.16
20:09:                  57	30.13
20:10:                  27	30.14
20:10:                  57	30.12
20:11:                  28	30.14
20:11:                  58	30.11
20:12:                  28	30.08
20:12:                  58	30.10
20:13:                  28	30.13
20:13:                  58	30.18
20:14:                  28	30.16
20:14:                  58	30.13
20:15:                  28	30.17
20:15:                  58	30.19
20:16:                  28	30.15
20:16:                  58	30.04
20:17:                  28	30.02
20:17:                  58	30.03
20:18:                  28	30.16
20:18:                  58	30.17
20:19:                  28	30.14
20:19:                  58	30.14
20:20:                  28	30.10
20:20:                  58	30.09
20:21:                  28	30.15
20:21:                  58	30.12
20:22:                  28	30.12
20:22:                  58	30.15
20:23:                  28	30.17
20:23:                  58	30.19
20:24:                  28	30.21
20:24:                  58	30.19
20:25:                  28	30.17
20:25:                  58	30.14
20:26:                  28	30.15
20:26:                  58	30.10
20:27:                  28	30.09
20:27:                  58	30.10
20:28:                  28	30.15
20:28:                  58	30.15
20:29:                  28	30.12
20:29:                  58	30.17
20:30:                  28	30.17
20:30:                  59	30.13
20:31:                  29	30.11
20:31:                  59	30.16
20:32:                  29	30.17
20:32:                  59	30.14
20:33:                  29	30.14
20:33:                  59	30.13
20:34:                  29	30.14
20:34:                  59	30.08
20:35:                  29	30.08
20:35:                  59	30.06
20:36:                  29	30.08
20:36:                  59	30.05
20:37:                  29	30.07
20:37:                  59	30.04
20:38:                  29	30.04
20:38:                  59	30.01
20:39:                  29	30.03
20:39:                  59	30.06
20:40:                  29	30.08
20:40:                  59	30.08
20:41:                  29	30.07
20:41:                  59	30.06
20:42:                  29	30.05
20:42:                  59	30.05
20:43:                  29	30.06
20:43:                  59	30.05
20:44:                  29	30.05
20:44:                  59	30.12
20:45:                  29	30.07
20:45:                  59	30.06
20:46:                  29	30.07
20:46:                  59	30.04
20:47:                  29	30.03
20:47:                  59	30.04
20:48:                  29	30.02
20:48:                  59	30.03
20:49:                  29	30.04
20:49:                  59	30.02
20:50:                  29	30.04
20:50:                  59	30.01
20:51:                  29	29.97
20:51:                  59	29.99
20:52:                  29	29.93
20:52:                  59	30.01
20:53:                  29	30.03
20:53:                  59	29.99
20:54:                  30	30.00
20:55:                   0	30.00
20:55:                  30	30.01
20:56:                   0	29.94
20:56:                  30	29.96
20:57:                   0	29.97
20:57:                  30	29.99
20:58:                   0	30.02
20:58:                  30	30.06
20:59:                   0	30.07
20:59:                  30	30.10
21:00:                   0	30.13
21:00:                  30	30.13
21:01:                   0	30.02
21:01:                  30	29.95
21:02:                   0	29.95
21:02:                  30	29.89
21:03:                   0	29.86
21:03:                  30	29.83
21:04:                   0	29.81
21:04:                  30	29.72
21:05:                   0	29.66
21:05:                  30	29.67
21:06:                   0	29.72
21:06:                  30	29.73
21:07:                   0	29.85
21:07:                  30	29.97
21:08:                   0	29.98
21:08:                  30	30.01
21:09:                   0	30.05
21:09:                  30	29.97
21:10:                   0	29.90
21:10:                  30	29.96
21:11:                   0	29.97
21:11:                  30	29.97
21:12:                   0	29.86
21:12:                  30	29.78
21:13:                   0	29.82
21:13:                  30	29.89
21:14:                   1	29.90
21:14:                  31	29.84
21:15:                   1	29.88
21:15:                  31	29.85
21:16:                   1	29.78
21:16:                  31	29.73
21:17:                   1	29.74
21:17:                  31	29.74
21:18:                   1	29.74
21:18:                  31	29.75
21:19:                   1	29.76
21:19:                  31	29.80
21:20:                   1	29.81
21:20:                  31	29.81
21:21:                   1	29.85
21:21:                  31	29.79
21:22:                   1	29.81
21:22:                  31	29.81
21:23:                   1	29.78
21:23:                  31	29.75
21:24:                   1	29.79
21:24:                  31	29.76
21:25:                   1	29.78
21:25:                  31	29.70
21:26:                   1	29.67
21:26:                  31	29.63
21:27:                   1	29.65
21:27:                  31	29.72
21:28:                   1	29.70
21:28:                  31	29.72
21:29:                   1	29.70
21:29:                  31	29.73
21:30:                   1	29.72
21:30:                  31	29.72
21:31:                   1	29.71
21:31:                  31	29.71
21:32:                   1	29.69
21:32:                  31	29.70
21:33:                   1	29.74
21:33:                  31	29.77
21:34:                   1	29.80
21:34:                  31	29.73
21:35:                   1	29.73
21:35:                  31	29.75
21:36:                   1	29.74
21:36:                  31	29.79
21:37:                   1	29.79
21:37:                  31	29.72
21:38:                   1	29.70
21:38:                  31	29.69
21:39:                   2	29.69
21:39:                  32	29.65
21:40:                   2	29.72
21:40:                  32	29.72
21:41:                   2	29.72
21:41:                  32	29.74
21:42:                   2	29.72
21:42:                  32	29.72
21:43:                   2	29.75
21:43:                  32	29.74
21:44:                   2	29.75
21:44:                  32	29.72
21:45:                   2	29.75
21:45:                  32	29.76
21:46:                   2	29.72
21:46:                  32	29.72
21:47:                   2	29.69
21:47:                  32	29.64
21:48:                   2	29.67
21:48:                  32	29.67
21:49:                   2	29.71
21:49:                  32	29.70
21:50:                   2	29.73
21:50:                  32	29.71
21:51:                   2	29.71
21:51:                  32	29.65
21:52:                   2	29.60
21:52:                  32	29.64
21:53:                   2	29.62
21:53:                  32	29.58
21:54:                   2	29.57
21:54:                  32	29.52
21:55:                   2	29.49
21:55:                  32	29.50
21:56:                   2	29.49
21:56:                  32	29.50
21:57:                   2	29.56
21:57:                  32	29.54
21:58:                   2	29.59
21:58:                  32	29.64
21:59:                   2	29.60
21:59:                  32	29.63
22:00:                   3	29.64
22:00:                  33	29.66
22:01:                   3	29.66
22:01:                  33	29.65
22:02:                   3	29.63
22:02:                  33	29.65
22:03:                   3	29.64
22:03:                  33	29.65
22:04:                   3	29.67
22:04:                  33	29.71
22:05:                   3	29.69
22:05:                  33	29.60
22:06:                   3	29.55
22:06:                  33	29.52
22:07:                   3	29.49
22:07:                  33	29.51
22:08:                   3	29.53
22:08:                  33	29.55
22:09:                   3	29.53
22:09:                  33	29.50
22:10:                   3	29.49
22:10:                  33	29.47
22:11:                   3	29.44
22:11:                  33	29.48
22:12:                   3	29.47
22:12:                  33	29.47
22:13:                   3	29.46
22:13:                  33	29.55
22:14:                   3	29.55
22:14:                  33	29.53
22:15:                   3	29.51
22:15:                  33	29.50
22:16:                   3	29.48
22:16:                  33	29.42
22:17:                   3	29.41
22:17:                  33	29.46
22:18:                   3	29.49
22:18:                  33	29.49
22:19:                   4	29.47
22:19:                  34	29.46
22:20:                   4	29.46
22:20:                  34	29.45
22:21:                   4	29.46
22:21:                  34	29.46
22:22:                   4	29.49
22:22:                  34	29.47
22:23:                   4	29.46
22:23:                  34	29.45
22:24:                   4	29.48
22:24:                  34	29.50
22:25:                   4	29.52
22:25:                  34	29.50
22:26:                   4	29.54
22:26:                  34	29.58
22:27:                   4	29.56
22:27:                  34	29.58
22:28:                   4	29.59
22:28:                  34	29.56
22:29:                   4	29.58
22:29:                  34	29.57
22:30:                   4	29.55
22:30:                  34	29.54
22:31:                   4	29.55
22:31:                  34	29.55
22:32:                   4	29.55
22:32:                  34	29.53
22:33:                   4	29.49
22:33:                  34	29.51
22:34:                   4	29.56
22:34:                  34	29.56
22:35:                   4	29.53
22:35:                  34	29.47
22:36:                   4	29.49
22:36:                  34	29.46
22:37:                   4	29.43
22:37:                  35	29.52
22:38:                   5	29.51
22:38:                  35	29.57
22:39:                   5	29.54
22:39:                  35	29.53
22:40:                   5	29.64
22:40:                  35	29.61
22:41:                   5	29.57
22:41:                  35	29.55
22:42:                   5	29.55
22:42:                  35	29.53
22:43:                   5	29.50
22:43:                  35	29.44
22:44:                   5	29.43
22:44:                  35	29.46
22:45:                   5	29.49
22:45:                  35	29.52
22:46:                   5	29.55
22:46:                  35	29.53
22:47:                   5	29.53
22:47:                  35	29.51
22:48:                   5	29.52
22:48:                  35	29.47
22:49:                   5	29.46
22:49:                  35	29.50
22:50:                   5	29.51
22:50:                  35	29.47
22:51:                   5	29.49
22:51:                  35	29.45
22:52:                   5	29.50
22:52:                  35	29.47
22:53:                   5	29.52
22:53:                  35	29.54
22:54:                   5	29.52
22:54:                  35	29.53
22:55:                   5	29.52
22:55:                  35	29.47
22:56:                   5	29.51
22:56:                  35	29.48
22:57:                   5	29.42
22:57:                  35	29.36
22:58:                   5	29.36
22:58:                  35	29.32
22:59:                   5	29.32
22:59:                  35	29.32
23:00:                   5	29.35
23:00:                  35	29.36
23:01:                   5	29.38
23:01:                  35	29.40
23:02:                   5	29.41
23:02:                  35	29.37
23:03:                   5	29.38
23:03:                  35	29.36
23:04:                   5	29.39
23:04:                  35	29.40
23:05:                   6	29.40
23:05:                  36	29.42
23:06:                   6	29.39
23:06:                  36	29.45
23:07:                   6	29.42
23:07:                  36	29.42
23:08:                   6	29.41
23:08:                  36	29.40
23:09:                   6	29.40
23:09:                  36	29.39
23:10:                   6	29.42
23:10:                  36	29.43
23:11:                   6	29.43
23:11:                  36	29.49
23:12:                   6	29.45
23:12:                  36	29.42
23:13:                   6	29.43
23:13:                  36	29.42
23:14:                   6	29.38
23:14:                  36	29.35
23:15:                   6	29.37
23:15:                  36	29.38
23:16:                   6	29.36
23:16:                  36	29.36
23:17:                   6	29.36
23:17:                  36	29.34
23:18:                   6	29.33
23:18:                  36	29.38
23:19:                   6	29.36
23:19:                  36	29.33
23:20:                   6	29.30
23:20:                  36	29.32
23:21:                   6	29.36
23:21:                  36	29.36
23:22:                   6	29.43
23:22:                  37	29.47
23:23:                   7	29.45
23:23:                  37	29.45
23:24:                   7	29.53
23:24:                  37	29.57
23:25:                   7	29.57
23:25:                  37	29.57
23:26:                   7	29.58
23:26:                  37	29.57
23:27:                   7	29.54
23:27:                  37	29.53
23:28:                   7	29.56
23:28:                  37	29.57
23:29:                   7	29.58
23:29:                  37	29.57
23:30:                   7	29.57
23:30:                  37	29.60
23:31:                   7	29.60
23:31:                  37	29.59
23:32:                   7	29.60
23:32:                  37	29.56
23:33:                   7	29.59
23:33:                  37	29.57
23:34:                   7	29.60
23:34:                  37	29.59
23:35:                   7	29.61
23:35:                  37	29.62
23:36:                   7	29.62
23:36:                  37	29.60
23:37:                   7	29.55
23:37:                  37	29.65
23:38:                   7	29.61
23:38:                  37	29.61
23:39:                   7	29.61
23:39:                  37	29.62
23:40:                   7	29.65
23:40:                  37	29.65
23:41:                   7	29.66
23:41:                  37	29.65
23:42:                   7	29.62
23:42:                  37	29.60
23:43:                   7	29.61
23:43:                  37	29.61
23:44:                   7	29.63
23:44:                  37	29.66
23:45:                   7	29.66
23:45:                  37	29.64
23:46:                   7	29.64
23:46:                  37	29.62
23:47:                   7	29.62
23:47:                  37	29.63
23:48:                   7	29.57
23:48:                  37	29.64
23:49:                   7	29.67
23:49:                  38	29.69
23:50:                   8	29.70
23:50:                  38	29.71
23:51:                   8	29.71
23:51:                  38	29.69
23:52:                   8	29.68
23:52:                  38	29.70
23:53:                   8	29.73
23:53:                  38	29.72
23:54:                   8	29.72
23:54:                  38	29.73
23:55:                   8	29.72
23:55:                  38	29.72
23:56:                   8	29.74
23:56:                  38	29.72
23:57:                   8	29.76
23:57:                  38	29.74
23:58:                   8	29.72
23:58:                  38	29.75
23:59:                   8	29.71
23:59:                  38	29.71
