0:00:                   8	33.51
0:00:                  38	33.48
0:01:                   8	33.48
0:01:                  38	33.47
0:02:                   8	33.48
0:02:                  39	33.48
0:03:                   9	33.51
0:03:                  39	33.53
0:04:                   9	33.53
0:04:                  39	33.53
0:05:                   9	33.52
0:05:                  39	33.52
0:06:                   9	33.52
0:06:                  39	33.51
0:07:                   9	33.51
0:07:                  39	33.50
0:08:                   9	33.48
0:08:                  39	33.48
0:09:                   9	33.47
0:09:                  39	33.46
0:10:                   9	33.46
0:10:                  39	33.44
0:11:                   9	33.43
0:11:                  39	33.42
0:12:                   9	33.42
0:12:                  39	33.42
0:13:                   9	33.44
0:13:                  39	33.45
0:14:                   9	33.48
0:14:                  39	33.48
0:15:                   9	33.48
0:15:                  39	33.48
0:16:                   9	33.48
0:16:                  39	33.47
0:17:                   9	33.46
0:17:                  39	33.46
0:18:                   9	33.45
0:18:                  40	33.44
0:19:                  10	33.43
0:19:                  40	33.43
0:20:                  10	33.42
0:20:                  40	33.40
0:21:                  10	33.40
0:21:                  40	33.38
0:22:                  10	33.37
0:22:                  40	33.37
0:23:                  10	33.37
0:23:                  40	33.41
0:24:                  10	33.42
0:24:                  40	33.43
0:25:                  10	33.43
0:25:                  40	33.42
0:26:                  10	33.42
0:26:                  40	33.41
0:27:                  10	33.40
0:27:                  40	33.40
0:28:                  10	33.40
0:28:                  40	33.38
0:29:                  10	33.37
0:29:                  40	33.37
0:30:                  10	33.36
0:30:                  40	33.35
0:31:                  10	33.35
0:31:                  40	33.34
0:32:                  10	33.32
0:32:                  40	33.33
0:33:                  10	33.33
0:33:                  40	33.33
0:34:                  10	33.35
0:34:                  41	33.36
0:35:                  11	33.36
0:35:                  41	33.37
0:36:                  11	33.37
0:36:                  41	33.37
0:37:                  11	33.37
0:37:                  41	33.38
0:38:                  11	33.36
0:38:                  41	33.35
0:39:                  11	33.35
0:39:                  41	33.34
0:40:                  11	33.34
0:40:                  41	33.33
0:41:                  11	33.31
0:41:                  41	33.30
0:42:                  11	33.29
0:42:                  41	33.28
0:43:                  11	33.28
0:43:                  41	33.27
0:44:                  11	33.27
0:44:                  41	33.31
0:45:                  11	33.33
0:45:                  41	33.34
0:46:                  11	33.33
0:46:                  41	33.33
0:47:                  11	33.33
0:47:                  41	33.33
0:48:                  11	33.32
0:48:                  41	33.32
0:49:                  11	33.31
0:49:                  41	33.31
0:50:                  11	33.30
0:50:                  41	33.30
0:51:                  11	33.29
0:51:                  41	33.27
0:52:                  11	33.26
0:52:                  41	33.26
0:53:                  12	33.26
0:53:                  42	33.24
0:54:                  12	33.24
0:54:                  42	33.24
0:55:                  12	33.28
0:55:                  42	33.30
0:56:                  12	33.30
0:56:                  42	33.30
0:57:                  12	33.29
0:57:                  42	33.30
0:58:                  12	33.29
0:58:                  42	33.28
0:59:                  12	33.28
0:59:                  42	33.27
1:00:                  12	33.26
1:00:                  42	33.25
1:01:                  12	33.24
1:01:                  42	33.23
1:02:                  12	33.23
1:02:                  42	33.22
1:03:                  12	33.22
1:03:                  42	33.21
1:04:                  12	33.21
1:04:                  42	33.18
1:05:                  12	33.22
1:05:                  42	33.24
1:06:                  12	33.26
1:06:                  42	33.26
1:07:                  12	33.26
1:07:                  42	33.27
1:08:                  12	33.26
1:08:                  42	33.25
1:09:                  12	33.26
1:09:                  42	33.24
1:10:                  12	33.24
1:10:                  42	33.22
1:11:                  12	33.23
1:11:                  42	33.22
1:12:                  12	33.21
1:12:                  43	33.20
1:13:                  13	33.20
1:13:                  43	33.20
1:14:                  13	33.19
1:14:                  43	33.19
1:15:                  13	33.18
1:15:                  43	33.20
1:16:                  13	33.23
1:16:                  43	33.23
1:17:                  13	33.25
1:17:                  43	33.26
1:18:                  13	33.24
1:18:                  43	33.23
1:19:                  13	33.22
1:19:                  43	33.22
1:20:                  13	33.22
1:20:                  43	33.22
1:21:                  13	33.20
1:21:                  43	33.20
1:22:                  13	33.19
1:22:                  43	33.19
1:23:                  13	33.19
1:23:                  43	33.19
1:24:                  13	33.17
1:24:                  43	33.16
1:25:                  13	33.16
1:25:                  43	33.17
1:26:                  13	33.17
1:26:                  43	33.20
1:27:                  13	33.21
1:27:                  43	33.22
1:28:                  13	33.22
1:28:                  43	33.21
1:29:                  13	33.20
1:29:                  43	33.21
1:30:                  14	33.21
1:30:                  44	33.21
1:31:                  14	33.20
1:31:                  44	33.19
1:32:                  14	33.18
1:32:                  44	33.17
1:33:                  14	33.17
1:33:                  44	33.16
1:34:                  14	33.15
1:34:                  44	33.16
1:35:                  14	33.15
1:35:                  44	33.16
1:36:                  14	33.14
1:36:                  44	33.17
1:37:                  14	33.20
1:37:                  44	33.21
1:38:                  14	33.21
1:38:                  44	33.19
1:39:                  14	33.21
1:39:                  44	33.20
1:40:                  14	33.20
1:40:                  44	33.19
1:41:                  14	33.19
1:41:                  44	33.18
1:42:                  14	33.17
1:42:                  44	33.17
1:43:                  14	33.16
1:43:                  44	33.16
1:44:                  14	33.15
1:44:                  44	33.15
1:45:                  14	33.15
1:45:                  44	33.13
1:46:                  14	33.13
1:46:                  44	33.14
1:47:                  14	33.18
1:47:                  45	33.19
1:48:                  15	33.20
1:48:                  45	33.21
1:49:                  15	33.21
1:49:                  45	33.20
1:50:                  15	33.19
1:50:                  45	33.18
1:51:                  15	33.18
1:51:                  45	33.19
1:52:                  15	33.17
1:52:                  45	33.17
1:53:                  15	33.16
1:53:                  45	33.16
1:54:                  15	33.14
1:54:                  45	33.13
1:55:                  15	33.13
1:55:                  45	33.13
1:56:                  15	33.11
1:56:                  45	33.12
1:57:                  15	33.14
1:57:                  45	33.16
1:58:                  15	33.18
1:58:                  45	33.19
1:59:                  15	33.20
1:59:                  45	33.19
2:00:                  15	33.18
2:00:                  45	33.17
2:01:                  15	33.18
2:01:                  45	33.19
2:02:                  15	33.17
2:02:                  45	33.17
2:03:                  15	33.16
2:03:                  45	33.16
2:04:                  15	33.15
2:04:                  45	33.15
2:05:                  15	33.13
2:05:                  45	33.13
2:06:                  15	33.12
2:06:                  45	33.12
2:07:                  15	33.12
2:07:                  45	33.13
2:08:                  15	33.16
2:08:                  45	33.17
2:09:                  15	33.18
2:09:                  45	33.18
2:10:                  15	33.19
2:10:                  45	33.18
2:11:                  15	33.17
2:11:                  45	33.17
2:12:                  15	33.18
2:12:                  45	33.16
2:13:                  15	33.15
2:13:                  45	33.14
2:14:                  15	33.15
2:14:                  45	33.14
2:15:                  15	33.13
2:15:                  45	33.13
2:16:                  15	33.11
2:16:                  45	33.10
2:17:                  15	33.10
2:17:                  45	33.09
2:18:                  15	33.12
2:18:                  45	33.15
2:19:                  15	33.15
2:19:                  45	33.17
2:20:                  15	33.16
2:20:                  45	33.16
2:21:                  15	33.16
2:21:                  45	33.16
2:22:                  15	33.15
2:22:                  45	33.15
2:23:                  15	33.15
2:23:                  45	33.13
2:24:                  15	33.12
2:24:                  45	33.14
2:25:                  15	33.12
2:25:                  45	33.11
2:26:                  15	33.12
2:26:                  45	33.11
2:27:                  15	33.10
2:27:                  45	33.10
2:28:                  16	33.10
2:28:                  46	33.12
2:29:                  16	33.14
2:29:                  46	33.17
2:30:                  16	33.17
2:30:                  46	33.17
2:31:                  16	33.17
2:31:                  46	33.17
2:32:                  16	33.16
2:32:                  46	33.15
2:33:                  16	33.15
2:33:                  46	33.15
2:34:                  16	33.12
2:34:                  46	33.13
2:35:                  16	33.13
2:35:                  46	33.11
2:36:                  16	33.11
2:36:                  46	33.10
2:37:                  16	33.09
2:37:                  46	33.08
2:38:                  16	33.08
2:38:                  46	33.09
2:39:                  16	33.12
2:39:                  46	33.15
2:40:                  16	33.16
2:40:                  46	33.14
2:41:                  16	33.16
2:41:                  46	33.15
2:42:                  16	33.13
2:42:                  46	33.15
2:43:                  16	33.13
2:43:                  46	33.12
2:44:                  16	33.13
2:44:                  46	33.12
2:45:                  16	33.11
2:45:                  46	33.11
2:46:                  16	33.10
2:46:                  46	33.09
2:47:                  16	33.10
2:47:                  46	33.09
2:48:                  16	33.09
2:48:                  46	33.08
2:49:                  16	33.09
2:49:                  46	33.13
2:50:                  16	33.13
2:50:                  46	33.14
2:51:                  17	33.14
2:51:                  47	33.13
2:52:                  17	33.15
2:52:                  47	33.14
2:53:                  17	33.12
2:53:                  47	33.12
2:54:                  17	33.12
2:54:                  47	33.12
2:55:                  17	33.11
2:55:                  47	33.11
2:56:                  17	33.10
2:56:                  47	33.10
2:57:                  17	33.08
2:57:                  47	33.08
2:58:                  17	33.09
2:58:                  47	33.07
2:59:                  17	33.06
2:59:                  47	33.08
3:00:                  17	33.11
3:00:                  47	33.12
3:01:                  17	33.13
3:01:                  47	33.14
3:02:                  17	33.13
3:02:                  47	33.14
3:03:                  17	33.12
3:03:                  47	33.12
3:04:                  17	33.11
3:04:                  47	33.11
3:05:                  17	33.10
3:05:                  47	33.09
3:06:                  17	33.10
3:06:                  47	33.08
3:07:                  17	33.08
3:07:                  47	33.05
3:08:                  17	33.04
3:08:                  47	33.05
3:09:                  17	33.05
3:09:                  47	33.04
3:10:                  17	33.07
3:10:                  47	33.09
3:11:                  17	33.11
3:11:                  47	33.11
3:12:                  17	33.12
3:12:                  47	33.13
3:13:                  17	33.12
3:13:                  47	33.11
3:14:                  17	33.11
3:14:                  47	33.11
3:15:                  17	33.10
3:15:                  47	33.10
3:16:                  17	33.09
3:16:                  47	33.09
3:17:                  17	33.08
3:17:                  47	33.07
3:18:                  17	33.06
3:18:                  47	33.06
3:19:                  17	33.05
3:19:                  47	33.04
3:20:                  17	33.05
3:20:                  47	33.08
3:21:                  17	33.09
3:21:                  47	33.10
3:22:                  17	33.11
3:22:                  47	33.11
3:23:                  17	33.11
3:23:                  47	33.10
3:24:                  17	33.09
3:24:                  47	33.09
3:25:                  17	33.09
3:25:                  47	33.08
3:26:                  17	33.07
3:26:                  47	33.05
3:27:                  17	33.05
3:27:                  47	33.03
3:28:                  17	33.03
3:28:                  47	33.04
3:29:                  17	33.03
3:29:                  47	33.02
3:30:                  17	33.02
3:30:                  47	33.02
3:31:                  17	33.05
3:31:                  47	33.09
3:32:                  17	33.09
3:32:                  47	33.09
3:33:                  17	33.09
3:33:                  47	33.08
3:34:                  17	33.09
3:34:                  47	33.07
3:35:                  17	33.08
3:35:                  47	33.08
3:36:                  17	33.08
3:36:                  47	33.06
3:37:                  18	33.06
3:37:                  48	33.04
3:38:                  18	33.04
3:38:                  48	33.03
3:39:                  18	33.03
3:39:                  48	33.01
3:40:                  18	33.02
3:40:                  48	33.01
3:41:                  18	33.02
3:41:                  48	33.05
3:42:                  18	33.07
3:42:                  48	33.08
3:43:                  18	33.08
3:43:                  48	33.08
3:44:                  18	33.06
3:44:                  48	33.07
3:45:                  18	33.08
3:45:                  48	33.08
3:46:                  18	33.08
3:46:                  48	33.06
3:47:                  18	33.05
3:47:                  48	33.05
3:48:                  18	33.05
3:48:                  48	33.04
3:49:                  18	33.03
3:49:                  48	33.03
3:50:                  18	33.02
3:50:                  48	33.01
3:51:                  18	33.02
3:51:                  48	33.03
3:52:                  18	33.05
3:52:                  48	33.07
3:53:                  18	33.08
3:53:                  48	33.08
3:54:                  18	33.08
3:54:                  48	33.08
3:55:                  18	33.07
3:55:                  48	33.05
3:56:                  18	33.05
3:56:                  48	33.06
3:57:                  18	33.04
3:57:                  48	33.07
3:58:                  18	33.03
3:58:                  48	33.03
3:59:                  18	33.02
3:59:                  48	33.01
4:00:                  18	33.03
4:00:                  48	33.01
4:01:                  18	33.01
4:01:                  48	33.00
4:02:                  18	33.02
4:02:                  48	33.06
4:03:                  18	33.08
4:03:                  48	33.09
4:04:                  18	33.09
4:04:                  48	33.09
4:05:                  18	33.09
4:05:                  48	33.09
4:06:                  18	33.09
4:06:                  48	33.07
4:07:                  18	33.06
4:07:                  48	33.04
4:08:                  18	33.05
4:08:                  48	33.02
4:09:                  18	33.03
4:09:                  48	33.01
4:10:                  19	33.02
4:10:                  49	33.02
4:11:                  19	33.00
4:11:                  49	33.00
4:12:                  19	33.00
4:12:                  49	33.03
4:13:                  19	33.04
4:13:                  49	33.05
4:14:                  19	33.05
4:14:                  49	33.05
4:15:                  19	33.07
4:15:                  49	33.05
4:16:                  19	33.05
4:16:                  49	33.04
4:17:                  19	33.04
4:17:                  49	33.03
4:18:                  19	33.03
4:18:                  49	33.02
4:19:                  19	33.02
4:19:                  49	33.01
4:20:                  19	33.00
4:20:                  49	33.00
4:21:                  19	33.00
4:21:                  49	32.99
4:22:                  19	32.99
4:22:                  49	32.97
4:23:                  19	33.01
4:23:                  49	33.04
4:24:                  19	33.04
4:24:                  49	33.04
4:25:                  19	33.04
4:25:                  49	33.04
4:26:                  19	33.03
4:26:                  49	33.03
4:27:                  19	33.03
4:27:                  49	33.02
4:28:                  19	33.01
4:28:                  49	33.01
4:29:                  19	33.01
4:29:                  49	33.00
4:30:                  19	32.99
4:30:                  49	32.99
4:31:                  19	32.99
4:31:                  49	32.98
4:32:                  19	32.97
4:32:                  49	32.97
4:33:                  19	32.98
4:33:                  50	33.00
4:34:                  20	33.02
4:34:                  50	33.02
4:35:                  20	33.03
4:35:                  50	33.03
4:36:                  20	33.04
4:36:                  50	33.02
4:37:                  20	33.02
4:37:                  50	33.02
4:38:                  20	33.01
4:38:                  50	33.01
4:39:                  20	33.00
4:39:                  50	33.01
4:40:                  20	32.99
4:40:                  50	32.99
4:41:                  20	32.98
4:41:                  50	32.97
4:42:                  20	32.97
4:42:                  50	32.98
4:43:                  20	32.96
4:43:                  50	32.97
4:44:                  20	33.01
4:44:                  50	33.03
4:45:                  20	33.03
4:45:                  50	33.03
4:46:                  20	33.04
4:46:                  50	33.02
4:47:                  20	33.02
4:47:                  50	33.01
4:48:                  20	33.01
4:48:                  50	32.99
4:49:                  20	33.00
4:49:                  50	32.99
4:50:                  20	32.99
4:50:                  50	32.99
4:51:                  20	32.97
4:51:                  50	32.98
4:52:                  20	32.95
4:52:                  50	32.96
4:53:                  20	32.95
4:53:                  50	32.94
4:54:                  20	32.96
4:54:                  50	33.00
4:55:                  20	33.01
4:55:                  50	33.03
4:56:                  20	33.02
4:56:                  50	33.01
4:57:                  20	33.01
4:57:                  50	33.00
4:58:                  20	33.00
4:58:                  50	33.00
4:59:                  20	33.00
4:59:                  50	32.99
5:00:                  20	32.97
5:00:                  50	32.96
5:01:                  20	32.98
5:01:                  50	32.96
5:02:                  20	32.97
5:02:                  50	32.96
5:03:                  20	32.97
5:03:                  50	32.95
5:04:                  20	32.94
5:04:                  50	32.97
5:05:                  20	32.98
5:05:                  50	33.00
5:06:                  20	33.00
5:06:                  50	33.00
5:07:                  20	33.00
5:07:                  50	32.99
5:08:                  20	32.99
5:08:                  50	32.99
5:09:                  20	32.99
5:09:                  50	32.99
5:10:                  20	32.97
5:10:                  50	32.96
5:11:                  20	32.95
5:11:                  50	32.95
5:12:                  20	32.94
5:12:                  50	32.95
5:13:                  20	32.94
5:13:                  50	32.93
5:14:                  21	32.93
5:14:                  51	32.94
5:15:                  21	32.96
5:15:                  51	32.98
5:16:                  21	33.00
5:16:                  51	33.00
5:17:                  21	33.00
5:17:                  51	33.00
5:18:                  21	33.00
5:18:                  51	33.00
5:19:                  21	33.01
5:19:                  51	32.99
5:20:                  21	32.99
5:20:                  51	32.99
5:21:                  21	32.98
5:21:                  51	32.98
5:22:                  21	32.97
5:22:                  51	32.96
5:23:                  21	32.95
5:23:                  51	32.95
5:24:                  21	32.94
5:24:                  51	32.93
5:25:                  21	32.96
5:25:                  51	32.98
5:26:                  21	33.00
5:26:                  51	33.01
5:27:                  21	33.01
5:27:                  51	33.02
5:28:                  21	33.01
5:28:                  51	33.00
5:29:                  21	32.99
5:29:                  51	32.99
5:30:                  21	32.99
5:30:                  51	32.98
5:31:                  21	32.97
5:31:                  51	32.97
5:32:                  21	32.96
5:32:                  51	32.95
5:33:                  21	32.95
5:33:                  51	32.93
5:34:                  21	32.93
5:34:                  51	32.94
5:35:                  21	32.92
5:35:                  51	32.95
5:36:                  21	32.97
5:36:                  51	32.99
5:37:                  21	33.00
5:37:                  51	33.00
5:38:                  21	33.00
5:38:                  51	33.00
5:39:                  21	33.00
5:39:                  51	32.99
5:40:                  21	32.99
5:40:                  51	32.98
5:41:                  21	32.98
5:41:                  51	32.97
5:42:                  21	32.97
5:42:                  51	32.95
5:43:                  21	32.95
5:43:                  51	32.96
5:44:                  21	32.92
5:44:                  51	32.94
5:45:                  21	32.93
5:45:                  51	32.91
5:46:                  21	32.93
5:46:                  51	32.97
5:47:                  21	32.99
5:47:                  51	32.99
5:48:                  21	33.01
5:48:                  51	33.00
5:49:                  21	33.01
5:49:                  51	32.99
5:50:                  21	33.00
5:50:                  51	32.99
5:51:                  21	32.98
5:51:                  51	32.98
5:52:                  21	32.97
5:52:                  51	32.97
5:53:                  21	32.97
5:53:                  51	32.96
5:54:                  21	32.94
5:54:                  51	32.94
5:55:                  21	32.93
5:55:                  51	32.93
5:56:                  21	32.93
5:56:                  51	32.94
5:57:                  21	32.97
5:57:                  51	32.98
5:58:                  21	32.99
5:58:                  51	32.99
5:59:                  21	32.99
5:59:                  51	32.98
6:00:                  21	32.98
6:00:                  51	32.97
6:01:                  21	32.96
6:01:                  51	32.97
6:02:                  21	32.95
6:02:                  51	32.95
6:03:                  21	32.94
6:03:                  52	32.94
6:04:                  22	32.93
6:04:                  52	32.92
6:05:                  22	32.92
6:05:                  52	32.91
6:06:                  22	32.90
6:06:                  52	32.91
6:07:                  22	32.95
6:07:                  52	32.97
6:08:                  22	32.99
6:08:                  52	33.00
6:09:                  22	33.00
6:09:                  52	33.00
6:10:                  22	33.00
6:10:                  52	32.99
6:11:                  22	32.98
6:11:                  52	32.99
6:12:                  22	32.97
6:12:                  52	32.96
6:13:                  22	32.97
6:13:                  52	32.95
6:14:                  22	32.96
6:14:                  52	32.95
6:15:                  22	32.94
6:15:                  52	32.94
6:16:                  22	32.93
6:16:                  52	32.93
6:17:                  22	32.94
6:17:                  52	32.98
6:18:                  22	33.00
6:18:                  52	33.02
6:19:                  22	33.01
6:19:                  52	33.01
6:20:                  22	33.00
6:20:                  52	33.01
6:21:                  22	33.00
6:21:                  52	32.99
6:22:                  22	32.99
6:22:                  52	32.98
6:23:                  22	32.97
6:23:                  52	32.97
6:24:                  22	32.97
6:24:                  52	32.96
6:25:                  22	32.96
6:25:                  52	32.96
6:26:                  22	32.95
6:26:                  52	32.94
6:27:                  22	32.95
6:27:                  52	32.96
6:28:                  22	32.99
6:28:                  52	33.00
6:29:                  22	33.01
6:29:                  52	33.00
6:30:                  22	33.00
6:30:                  52	32.99
6:31:                  22	32.99
6:31:                  52	32.98
6:32:                  22	32.98
6:32:                  52	32.97
6:33:                  22	32.96
6:33:                  52	32.96
6:34:                  22	32.95
6:34:                  52	32.95
6:35:                  22	32.95
6:35:                  52	32.93
6:36:                  22	32.93
6:36:                  52	32.93
6:37:                  22	32.93
6:37:                  52	32.91
6:38:                  23	32.93
6:38:                  53	32.96
6:39:                  23	32.97
6:39:                  53	32.98
6:40:                  23	32.98
6:40:                  53	32.98
6:41:                  23	32.98
6:41:                  53	32.98
6:42:                  23	32.98
6:42:                  53	32.97
6:43:                  23	32.98
6:43:                  53	32.96
6:44:                  23	32.96
6:44:                  53	32.96
6:45:                  23	32.95
6:45:                  53	32.95
6:46:                  23	32.93
6:46:                  53	32.93
6:47:                  23	32.93
6:47:                  53	32.91
6:48:                  23	32.92
6:48:                  53	32.95
6:49:                  23	32.97
6:49:                  53	32.98
6:50:                  23	32.99
6:50:                  53	32.99
6:51:                  23	33.00
6:51:                  53	33.00
6:52:                  23	33.00
6:52:                  53	32.99
6:53:                  23	32.99
6:53:                  53	32.99
6:54:                  23	32.97
6:54:                  53	32.96
6:55:                  23	32.95
6:55:                  53	32.94
6:56:                  23	32.94
6:56:                  54	32.93
6:57:                  24	32.93
6:57:                  54	32.93
6:58:                  24	32.92
6:58:                  54	32.93
6:59:                  24	32.95
6:59:                  54	32.97
7:00:                  24	32.97
7:00:                  54	32.97
7:01:                  24	32.99
7:01:                  54	32.98
7:02:                  24	32.99
7:02:                  54	32.97
7:03:                  24	32.96
7:03:                  54	32.96
7:04:                  24	32.96
7:04:                  54	32.96
7:05:                  24	32.96
7:05:                  54	32.96
7:06:                  24	32.95
7:06:                  54	32.94
7:07:                  24	32.93
7:07:                  54	32.93
7:08:                  24	32.92
7:08:                  54	32.91
7:09:                  24	32.92
7:09:                  54	32.95
7:10:                  24	32.96
7:10:                  54	32.98
7:11:                  24	33.00
7:11:                  54	32.97
7:12:                  24	32.97
7:12:                  54	32.98
7:13:                  24	32.98
7:13:                  54	32.96
7:14:                  24	32.97
7:14:                  54	32.97
7:15:                  24	32.96
7:15:                  54	32.96
7:16:                  24	32.96
7:16:                  54	32.94
7:17:                  24	32.94
7:17:                  54	32.94
7:18:                  24	32.94
7:18:                  55	32.93
7:19:                  25	32.92
7:19:                  55	32.93
7:20:                  25	32.96
7:20:                  55	32.98
7:21:                  25	32.98
7:21:                  55	32.98
7:22:                  25	32.98
7:22:                  55	32.99
7:23:                  25	32.98
7:23:                  55	32.97
7:24:                  25	32.93
7:24:                  55	32.87
7:25:                  25	32.92
7:25:                  55	32.90
7:26:                  25	32.91
7:26:                  55	32.90
7:27:                  25	32.89
7:27:                  55	32.88
7:28:                  25	32.87
7:28:                  55	32.86
7:29:                  25	32.85
7:29:                  55	32.85
7:30:                  25	32.87
7:30:                  55	32.91
7:31:                  25	32.93
7:31:                  55	32.93
7:32:                  25	32.94
7:32:                  55	32.94
7:33:                  25	32.93
7:33:                  55	32.95
7:34:                  25	32.94
7:34:                  55	32.94
7:35:                  25	32.94
7:35:                  55	32.93
7:36:                  25	32.93
7:36:                  55	32.93
7:37:                  25	32.92
7:37:                  55	32.90
7:38:                  25	32.91
7:38:                  55	32.91
7:39:                  25	32.91
7:39:                  55	32.90
7:40:                  25	32.90
7:40:                  55	32.94
7:41:                  25	32.96
7:41:                  55	32.97
7:42:                  25	32.96
7:42:                  55	32.98
7:43:                  26	32.96
7:43:                  56	32.96
7:44:                  26	32.97
7:44:                  56	32.96
7:45:                  26	32.95
7:45:                  56	32.94
7:46:                  26	32.94
7:46:                  56	32.91
7:47:                  26	32.92
7:47:                  56	32.92
7:48:                  26	32.92
7:48:                  56	32.92
7:49:                  26	32.91
7:49:                  56	32.91
7:50:                  26	32.90
7:50:                  56	32.90
7:51:                  26	32.94
7:51:                  56	32.97
7:52:                  26	32.98
7:52:                  56	32.98
7:53:                  26	32.98
7:53:                  56	32.98
7:54:                  26	32.99
7:54:                  56	32.97
7:55:                  26	32.98
7:55:                  56	32.97
7:56:                  26	32.96
7:56:                  56	32.96
7:57:                  26	32.95
7:57:                  56	32.94
7:58:                  26	32.95
7:58:                  56	32.93
7:59:                  26	32.93
7:59:                  56	32.92
8:00:                  26	32.93
8:00:                  56	32.91
8:01:                  26	32.93
8:01:                  56	32.95
8:02:                  26	32.98
8:02:                  56	32.99
8:03:                  26	32.99
8:03:                  56	32.99
8:04:                  26	32.99
8:04:                  56	32.99
8:05:                  27	32.99
8:05:                  57	32.97
8:06:                  27	32.97
8:06:                  57	32.97
8:07:                  27	32.96
8:07:                  57	32.95
8:08:                  27	32.95
8:08:                  57	32.96
8:09:                  27	32.94
8:09:                  57	32.94
8:10:                  27	32.94
8:10:                  57	32.94
8:11:                  27	32.94
8:11:                  57	32.96
8:12:                  27	32.97
8:12:                  57	32.99
8:13:                  27	32.99
8:13:                  57	33.01
8:14:                  27	33.00
8:14:                  57	33.00
8:15:                  27	32.99
8:15:                  57	32.99
8:16:                  27	32.99
8:16:                  57	32.97
8:17:                  27	32.97
8:17:                  57	32.96
8:18:                  27	32.96
8:18:                  57	32.95
8:19:                  27	32.94
8:19:                  57	32.93
8:20:                  27	32.92
8:20:                  57	32.90
8:21:                  27	32.91
8:21:                  57	32.90
8:22:                  27	32.92
8:22:                  57	32.96
8:23:                  27	32.98
8:23:                  57	32.98
8:24:                  27	32.98
8:24:                  57	32.98
8:25:                  27	32.98
8:25:                  57	32.96
8:26:                  27	32.97
8:26:                  57	32.97
8:27:                  28	32.97
8:27:                  58	32.95
8:28:                  28	32.96
8:28:                  58	32.94
8:29:                  28	32.92
8:29:                  58	32.93
8:30:                  28	32.93
8:30:                  58	32.93
8:31:                  28	32.91
8:31:                  58	32.92
8:32:                  28	32.92
8:32:                  58	32.94
8:33:                  28	32.96
8:33:                  58	32.98
8:34:                  28	33.00
8:34:                  58	32.98
8:35:                  28	32.99
8:35:                  58	32.99
8:36:                  28	32.99
8:36:                  58	32.98
8:37:                  28	32.98
8:37:                  58	32.98
8:38:                  28	32.97
8:38:                  58	32.95
8:39:                  28	32.94
8:39:                  58	32.94
8:40:                  28	32.94
8:40:                  58	32.94
8:41:                  28	32.92
8:41:                  58	32.91
8:42:                  28	32.91
8:42:                  58	32.90
8:43:                  28	32.93
8:43:                  58	32.95
8:44:                  28	32.96
8:44:                  58	32.98
8:45:                  28	32.96
8:45:                  58	32.97
8:46:                  28	32.97
8:46:                  58	32.97
8:47:                  28	32.95
8:47:                  59	32.95
8:48:                  29	32.94
8:48:                  59	32.94
8:49:                  29	32.94
8:49:                  59	32.93
8:50:                  29	32.94
8:50:                  59	32.93
8:51:                  29	32.92
8:51:                  59	32.91
8:52:                  29	32.91
8:52:                  59	32.91
8:53:                  29	32.92
8:53:                  59	32.93
8:54:                  29	32.97
8:54:                  59	32.98
8:55:                  29	32.98
8:55:                  59	32.99
8:56:                  29	32.98
8:56:                  59	32.96
8:57:                  29	32.97
8:57:                  59	32.98
8:58:                  29	32.97
8:58:                  59	32.96
8:59:                  29	32.96
8:59:                  59	32.96
9:00:                  29	32.95
9:00:                  59	32.95
9:01:                  29	32.93
9:01:                  59	32.92
9:02:                  29	32.94
9:02:                  59	32.93
9:03:                  29	32.93
9:03:                  59	32.93
9:04:                  29	32.96
9:04:                  59	32.99
9:05:                  29	32.99
9:05:                  59	33.00
9:06:                  30	33.00
9:07:                   0	32.99
9:07:                  30	32.99
9:08:                   0	33.00
9:08:                  30	32.99
9:09:                   0	32.98
9:09:                  30	32.97
9:10:                   0	32.97
9:10:                  30	32.97
9:11:                   0	32.97
9:11:                  30	32.95
9:12:                   0	32.96
9:12:                  30	32.94
9:13:                   0	32.95
9:13:                  30	32.94
9:14:                   0	32.93
9:14:                  30	32.95
9:15:                   0	32.98
9:15:                  30	33.01
9:16:                   0	33.02
9:16:                  30	33.02
9:17:                   0	33.03
9:17:                  30	33.03
9:18:                   0	33.03
9:18:                  30	33.03
9:19:                   0	33.03
9:19:                  30	33.02
9:20:                   0	33.03
9:20:                  30	33.03
9:21:                   0	33.02
9:21:                  30	33.03
9:22:                   0	33.03
9:22:                  30	33.04
9:23:                   0	33.03
9:23:                  30	33.04
9:24:                   0	33.04
9:24:                  30	33.05
9:25:                   0	33.10
9:25:                  30	33.13
9:26:                   0	33.13
9:26:                  30	33.15
9:27:                   0	33.14
9:27:                  30	33.15
9:28:                   1	33.16
9:28:                  31	33.16
9:29:                   1	33.16
9:29:                  31	33.17
9:30:                   1	33.17
9:30:                  31	33.18
9:31:                   1	33.10
9:31:                  31	33.13
9:32:                   1	33.15
9:32:                  31	33.16
9:33:                   1	33.17
9:33:                  31	33.18
9:34:                   1	33.18
9:34:                  31	33.20
9:35:                   1	33.24
9:35:                  31	33.32
9:36:                   1	33.37
9:36:                  31	33.38
9:37:                   1	33.41
9:37:                  31	33.43
9:38:                   1	33.47
9:38:                  31	33.49
9:39:                   1	33.50
9:39:                  31	33.49
9:40:                   1	33.50
9:40:                  31	33.49
9:41:                   1	33.52
9:41:                  31	33.52
9:42:                   1	33.53
9:42:                  31	33.56
9:43:                   1	33.58
9:43:                  31	33.58
9:44:                   1	33.61
9:44:                  31	33.63
9:45:                   1	33.63
9:45:                  31	33.65
9:46:                   1	33.68
9:46:                  31	33.70
9:47:                   1	33.72
9:47:                  31	33.70
9:48:                   1	33.64
9:48:                  31	33.63
9:49:                   1	33.63
9:49:                  31	33.62
9:50:                   1	33.61
9:50:                  31	33.60
9:51:                   1	33.58
9:51:                  31	33.57
9:52:                   1	33.56
9:52:                  31	33.56
9:53:                   1	33.58
9:53:                  31	33.53
9:54:                   1	33.54
9:54:                  31	33.63
9:55:                   1	33.69
9:55:                  31	33.66
9:56:                   1	33.76
9:56:                  31	33.87
9:57:                   1	33.91
9:57:                  31	34.00
9:58:                   1	34.05
9:58:                  31	34.06
9:59:                   1	34.12
9:59:                  31	34.22
10:00:                   1	34.32
10:00:                  31	34.36
10:01:                   2	34.37
10:01:                  32	34.35
10:02:                   2	34.42
10:02:                  32	34.47
10:03:                   2	34.49
10:03:                  32	34.48
10:04:                   2	34.46
10:04:                  32	34.45
10:05:                   2	34.52
10:05:                  32	34.54
10:06:                   2	34.57
10:06:                  32	34.68
10:07:                   2	34.67
10:07:                  32	34.68
10:08:                   2	34.79
10:08:                  32	34.80
10:09:                   2	34.90
10:09:                  32	35.01
10:10:                   2	35.01
10:10:                  32	35.00
10:11:                   2	34.98
10:11:                  32	35.01
10:12:                   2	35.01
10:12:                  32	35.03
10:13:                   2	35.03
10:13:                  32	34.99
10:14:                   2	34.99
10:14:                  32	34.96
10:15:                   2	34.89
10:15:                  32	34.86
10:16:                   2	34.84
10:16:                  32	34.85
10:17:                   2	34.87
10:17:                  32	34.87
10:18:                   2	34.90
10:18:                  32	34.90
10:19:                   2	34.89
10:19:                  33	34.86
10:20:                   3	34.85
10:20:                  33	34.90
10:21:                   3	34.91
10:21:                  33	34.93
10:22:                   3	34.96
10:22:                  33	34.91
10:23:                   3	34.89
10:23:                  33	34.90
10:24:                   3	34.88
10:24:                  33	34.88
10:25:                   3	34.90
10:25:                  33	34.88
10:26:                   3	34.90
10:26:                  33	34.88
10:27:                   3	34.85
10:27:                  33	34.87
10:28:                   3	34.85
10:28:                  33	34.83
10:29:                   3	34.80
10:29:                  33	34.74
10:30:                   3	34.74
10:30:                  33	34.77
10:31:                   3	34.77
10:31:                  33	34.74
10:32:                   3	34.71
10:32:                  33	34.65
10:33:                   3	34.66
10:33:                  33	34.61
10:34:                   3	34.53
10:34:                  33	34.53
10:35:                   3	34.46
10:35:                  33	34.47
10:36:                   3	34.47
10:36:                  34	34.45
10:37:                   4	34.42
10:37:                  34	34.40
10:38:                   4	34.38
10:38:                  34	34.33
10:39:                   4	34.36
10:39:                  34	34.35
10:40:                   4	34.33
10:40:                  34	34.36
10:41:                   4	34.31
10:41:                  34	34.26
10:42:                   4	34.22
10:42:                  34	34.19
10:43:                   4	34.16
10:43:                  34	34.19
10:44:                   4	34.12
10:44:                  34	34.04
10:45:                   4	34.08
10:45:                  34	34.04
10:46:                   4	34.04
10:46:                  34	34.11
10:47:                   4	34.22
10:47:                  34	34.33
10:48:                   4	34.42
10:48:                  34	34.49
10:49:                   4	34.68
10:49:                  34	34.83
10:50:                   4	34.90
10:50:                  34	34.99
10:51:                   4	35.06
10:51:                  34	35.20
10:52:                   4	35.22
10:52:                  34	35.34
10:53:                   4	35.43
10:53:                  34	35.56
10:54:                   4	35.66
10:54:                  34	35.70
10:55:                   4	35.79
10:55:                  34	35.88
10:56:                   4	35.93
10:56:                  34	36.01
10:57:                   4	36.01
10:57:                  34	36.11
10:58:                   4	36.21
10:58:                  34	36.25
10:59:                   4	36.35
10:59:                  34	36.43
11:00:                   4	36.48
11:00:                  34	36.56
11:01:                   4	36.61
11:01:                  34	36.66
11:02:                   4	36.65
11:02:                  35	36.71
11:03:                   5	36.77
11:03:                  35	36.79
11:04:                   5	36.86
11:04:                  35	36.88
11:05:                   5	36.93
11:05:                  35	36.94
11:06:                   5	37.00
11:06:                  35	37.04
11:07:                   5	37.08
11:07:                  35	37.10
11:08:                   5	37.11
11:08:                  35	37.19
11:09:                   5	37.26
11:09:                  35	37.32
11:10:                   5	37.33
11:10:                  35	37.41
11:11:                   5	37.45
11:11:                  35	37.48
11:12:                   5	37.51
11:12:                  35	37.52
11:13:                   5	37.55
11:13:                  35	37.60
11:14:                   5	37.59
11:14:                  35	37.63
11:15:                   5	37.66
11:15:                  35	37.69
11:16:                   5	37.72
11:16:                  35	37.72
11:17:                   5	37.76
11:17:                  35	37.77
11:18:                   5	37.76
11:18:                  35	37.76
11:19:                   5	37.75
11:19:                  35	37.63
11:20:                   5	37.69
11:20:                  35	37.72
11:21:                   5	37.72
11:21:                  35	37.70
11:22:                   5	37.72
11:22:                  35	37.68
11:23:                   5	37.68
11:23:                  35	37.69
11:24:                   5	37.71
11:24:                  35	37.70
11:25:                   5	37.69
11:25:                  35	37.69
11:26:                   5	37.69
11:26:                  35	37.70
11:27:                   5	37.66
11:27:                  35	37.69
11:28:                   5	37.72
11:28:                  35	37.72
11:29:                   5	37.74
11:29:                  35	37.74
11:30:                   5	37.77
11:30:                  35	37.80
11:31:                   5	37.82
11:31:                  35	37.82
11:32:                   5	37.85
11:32:                  35	37.85
11:33:                   5	37.87
11:33:                  35	37.88
11:34:                   5	37.86
11:34:                  35	37.87
11:35:                   6	37.84
11:35:                  36	37.80
11:36:                   6	37.74
11:36:                  36	37.78
11:37:                   6	37.84
11:37:                  36	37.81
11:38:                   6	37.79
11:38:                  36	37.82
11:39:                   6	37.86
11:39:                  36	37.83
11:40:                   6	37.87
11:40:                  36	37.87
11:41:                   6	37.89
11:41:                  36	37.94
11:42:                   6	37.93
11:42:                  36	37.93
11:43:                   6	37.92
11:43:                  36	37.89
11:44:                   6	37.92
11:44:                  36	37.94
11:45:                   6	37.92
11:45:                  36	37.95
11:46:                   6	37.88
11:46:                  36	37.86
11:47:                   6	37.91
11:47:                  36	37.90
11:48:                   6	37.91
11:48:                  36	37.92
11:49:                   6	37.92
11:49:                  36	37.89
11:50:                   6	37.90
11:50:                  37	37.90
11:51:                   7	37.94
11:51:                  37	37.97
11:52:                   7	37.98
11:52:                  37	37.97
11:53:                   7	37.97
11:53:                  37	37.96
11:54:                   7	37.98
11:54:                  37	37.99
11:55:                   7	37.97
11:55:                  37	37.97
11:56:                   7	37.97
11:56:                  37	37.95
11:57:                   7	37.93
11:57:                  37	37.94
11:58:                   7	37.97
11:58:                  37	37.96
11:59:                   7	37.96
11:59:                  37	37.96
12:00:                   7	37.95
12:00:                  37	37.96
12:01:                   7	37.98
12:01:                  37	38.00
12:02:                   7	38.06
12:02:                  37	38.03
12:03:                   7	38.02
12:03:                  37	38.08
12:04:                   7	38.08
12:04:                  37	38.08
12:05:                   7	38.05
12:05:                  37	38.07
12:06:                   7	38.09
12:06:                  37	38.06
12:07:                   7	38.09
12:07:                  37	38.08
12:08:                   7	38.07
12:08:                  37	38.09
12:09:                   7	38.11
12:09:                  37	38.09
12:10:                   7	38.11
12:10:                  37	38.10
12:11:                   7	38.10
12:11:                  37	38.13
12:12:                   7	38.17
12:12:                  37	38.17
12:13:                   7	38.19
12:13:                  37	38.17
12:14:                   7	38.19
12:14:                  37	38.20
12:15:                   7	38.18
12:15:                  37	38.17
12:16:                   7	38.20
12:16:                  37	38.22
12:17:                   7	38.20
12:17:                  37	38.18
12:18:                   7	38.20
12:18:                  37	38.17
12:19:                   7	38.17
12:19:                  37	38.17
12:20:                   7	38.17
12:20:                  37	38.15
12:21:                   7	38.15
12:21:                  38	38.16
12:22:                   8	38.20
12:22:                  38	38.25
12:23:                   8	38.23
12:23:                  38	38.26
12:24:                   8	38.26
12:24:                  38	38.24
12:25:                   8	38.24
12:25:                  38	38.24
12:26:                   8	38.27
12:26:                  38	38.24
12:27:                   8	38.25
12:27:                  38	38.25
12:28:                   8	38.25
12:28:                  38	38.28
12:29:                   8	38.27
12:29:                  38	38.28
12:30:                   8	38.28
12:30:                  38	38.25
12:31:                   8	38.25
12:31:                  38	38.26
12:32:                   8	38.29
12:32:                  38	38.33
12:33:                   8	38.35
12:33:                  38	38.37
12:34:                   8	38.39
12:34:                  38	38.37
12:35:                   8	38.41
12:35:                  38	38.40
12:36:                   8	38.39
12:36:                  38	38.39
12:37:                   8	38.37
12:37:                  38	38.39
12:38:                   8	38.37
12:38:                  38	38.36
12:39:                   8	38.36
12:39:                  38	38.35
12:40:                   8	38.32
12:40:                  38	38.30
12:41:                   8	38.32
12:41:                  39	38.30
12:42:                   9	38.28
12:42:                  39	38.35
12:43:                   9	38.39
12:43:                  39	38.39
12:44:                   9	38.39
12:44:                  39	38.41
12:45:                   9	38.41
12:45:                  39	38.42
12:46:                   9	38.40
12:46:                  39	38.43
12:47:                   9	38.44
12:47:                  39	38.45
12:48:                   9	38.41
12:48:                  39	38.42
12:49:                   9	38.43
12:49:                  39	38.46
12:50:                   9	38.44
12:50:                  39	38.44
12:51:                   9	38.42
12:51:                  39	38.45
12:52:                   9	38.46
12:52:                  39	38.45
12:53:                   9	38.48
12:53:                  39	38.53
12:54:                   9	38.54
12:54:                  39	38.59
12:55:                   9	38.58
12:55:                  39	38.62
12:56:                   9	38.60
12:56:                  39	38.62
12:57:                   9	38.62
12:57:                  39	38.64
12:58:                   9	38.65
12:58:                  40	38.65
12:59:                  10	38.64
12:59:                  40	38.65
13:00:                  10	38.62
13:00:                  40	38.61
13:01:                  10	38.61
13:01:                  40	38.60
13:02:                  10	38.64
13:02:                  40	38.64
13:03:                  10	38.63
13:03:                  40	38.66
13:04:                  10	38.72
13:04:                  40	38.70
13:05:                  10	38.73
13:05:                  40	38.73
13:06:                  10	38.72
13:06:                  40	38.73
13:07:                  10	38.72
13:07:                  40	38.66
13:08:                  10	38.67
13:08:                  40	38.68
13:09:                  10	38.67
13:09:                  40	38.65
13:10:                  10	38.63
13:10:                  40	38.63
13:11:                  10	38.63
13:11:                  40	38.59
13:12:                  10	38.59
13:12:                  40	38.57
13:13:                  10	38.56
13:13:                  40	38.57
13:14:                  10	38.58
13:14:                  41	38.59
13:15:                  11	38.62
13:15:                  41	38.63
13:16:                  11	38.63
13:16:                  41	38.67
13:17:                  11	38.66
13:17:                  41	38.68
13:18:                  11	38.67
13:18:                  41	38.64
13:19:                  11	38.64
13:19:                  41	38.66
13:20:                  11	38.64
13:20:                  41	38.64
13:21:                  11	38.67
13:21:                  41	38.62
13:22:                  11	38.61
13:22:                  41	38.60
13:23:                  11	38.61
13:23:                  41	38.60
13:24:                  11	38.63
13:24:                  41	38.66
13:25:                  11	38.68
13:25:                  41	38.69
13:26:                  11	38.70
13:26:                  41	38.67
13:27:                  11	38.68
13:27:                  41	38.64
13:28:                  11	38.62
13:28:                  41	38.61
13:29:                  11	38.58
13:29:                  41	38.58
13:30:                  11	38.58
13:30:                  41	38.57
13:31:                  11	38.54
13:31:                  41	38.54
13:32:                  11	38.54
13:32:                  41	38.52
13:33:                  11	38.52
13:33:                  41	38.48
13:34:                  11	38.49
13:34:                  41	38.52
13:35:                  11	38.53
13:35:                  41	38.51
13:36:                  11	38.50
13:36:                  41	38.50
13:37:                  11	38.51
13:37:                  41	38.50
13:38:                  11	38.46
13:38:                  41	38.46
13:39:                  11	38.44
13:39:                  41	38.43
13:40:                  11	38.41
13:40:                  41	38.43
13:41:                  11	38.40
13:41:                  41	38.38
13:42:                  11	38.36
13:42:                  41	38.34
13:43:                  11	38.34
13:43:                  41	38.32
13:44:                  12	38.31
13:44:                  42	38.31
13:45:                  12	38.33
13:45:                  42	38.35
13:46:                  12	38.34
13:46:                  42	38.33
13:47:                  12	38.31
13:47:                  42	38.29
13:48:                  12	38.29
13:48:                  42	38.27
13:49:                  12	38.27
13:49:                  42	38.24
13:50:                  12	38.21
13:50:                  42	38.18
13:51:                  12	38.16
13:51:                  42	38.15
13:52:                  12	38.16
13:52:                  42	38.14
13:53:                  12	38.09
13:53:                  42	38.05
13:54:                  12	38.03
13:54:                  42	38.01
13:55:                  12	38.01
13:55:                  42	38.03
13:56:                  12	38.02
13:56:                  42	38.01
13:57:                  12	37.96
13:57:                  42	37.95
13:58:                  12	37.94
13:58:                  42	37.90
13:59:                  12	37.88
13:59:                  42	37.89
14:00:                  12	37.89
14:00:                  42	37.83
14:01:                  12	37.81
14:01:                  42	37.78
14:02:                  12	37.76
14:02:                  42	37.75
14:03:                  12	37.74
14:03:                  43	37.69
14:04:                  13	37.69
14:04:                  43	37.68
14:05:                  13	37.64
14:05:                  43	37.60
14:06:                  13	37.61
14:06:                  43	37.60
14:07:                  13	37.59
14:07:                  43	37.56
14:08:                  13	37.52
14:08:                  43	37.49
14:09:                  13	37.44
14:09:                  43	37.40
14:10:                  13	37.36
14:10:                  43	37.36
14:11:                  13	37.33
14:11:                  43	37.29
14:12:                  13	37.26
14:12:                  43	37.24
14:13:                  13	37.20
14:13:                  43	37.18
14:14:                  13	37.17
14:14:                  43	37.10
14:15:                  13	37.08
14:15:                  43	37.06
14:16:                  13	37.04
14:16:                  43	37.04
14:17:                  13	37.03
14:17:                  43	37.02
14:18:                  13	36.99
14:18:                  43	36.98
14:19:                  13	36.97
14:19:                  43	36.93
14:20:                  14	36.92
14:20:                  44	36.90
14:21:                  14	36.91
14:21:                  44	36.90
14:22:                  14	36.88
14:22:                  44	36.88
14:23:                  14	36.86
14:23:                  44	36.84
14:24:                  14	36.82
14:24:                  44	36.79
14:25:                  14	36.79
14:25:                  44	36.76
14:26:                  14	36.76
14:26:                  44	36.78
14:27:                  14	36.79
14:27:                  44	36.79
14:28:                  14	36.79
14:28:                  44	36.78
14:29:                  14	36.75
14:29:                  44	36.74
14:30:                  14	36.71
14:30:                  44	36.68
14:31:                  14	36.68
14:31:                  44	36.65
14:32:                  14	36.65
14:32:                  44	36.63
14:33:                  14	36.60
14:33:                  44	36.58
14:34:                  14	36.59
14:34:                  44	36.57
14:35:                  14	36.54
14:35:                  44	36.52
14:36:                  14	36.51
14:36:                  44	36.49
14:37:                  14	36.51
14:37:                  45	36.52
14:38:                  15	36.52
14:38:                  45	36.51
14:39:                  15	36.51
14:39:                  45	36.47
14:40:                  15	36.47
14:40:                  45	36.46
14:41:                  15	36.46
14:41:                  45	36.44
14:42:                  15	36.44
14:42:                  45	36.43
14:43:                  15	36.40
14:43:                  45	36.38
14:44:                  15	36.37
14:44:                  45	36.38
14:45:                  15	36.35
14:45:                  45	36.34
14:46:                  15	36.34
14:46:                  45	36.33
14:47:                  15	36.34
14:47:                  45	36.35
14:48:                  15	36.36
14:48:                  45	36.36
14:49:                  15	36.36
14:49:                  45	36.35
14:50:                  15	36.34
14:50:                  45	36.32
14:51:                  15	36.33
14:51:                  45	36.33
14:52:                  15	36.32
14:52:                  45	36.28
14:53:                  15	36.28
14:53:                  45	36.27
14:54:                  15	36.26
14:54:                  45	36.25
14:55:                  15	36.22
14:55:                  45	36.21
14:56:                  15	36.19
14:56:                  45	36.17
14:57:                  15	36.16
14:57:                  45	36.16
14:58:                  15	36.18
14:58:                  45	36.20
14:59:                  15	36.20
14:59:                  45	36.20
15:00:                  15	36.19
15:00:                  45	36.18
15:01:                  15	36.15
15:01:                  45	36.15
15:02:                  15	36.12
15:02:                  45	36.11
15:03:                  15	36.12
15:03:                  45	36.11
15:04:                  15	36.09
15:04:                  45	36.10
15:05:                  15	36.07
15:05:                  45	36.07
15:06:                  16	36.05
15:06:                  46	36.04
15:07:                  16	36.02
15:07:                  46	36.01
15:08:                  16	36.02
15:08:                  46	36.03
15:09:                  16	36.05
15:09:                  46	36.07
15:10:                  16	36.05
15:10:                  46	36.05
15:11:                  16	36.04
15:11:                  46	36.02
15:12:                  16	36.01
15:12:                  46	36.02
15:13:                  16	35.99
15:13:                  46	35.99
15:14:                  16	35.96
15:14:                  46	35.97
15:15:                  16	35.95
15:15:                  46	35.95
15:16:                  16	35.94
15:16:                  46	35.93
15:17:                  16	35.91
15:17:                  46	35.90
15:18:                  16	35.89
15:18:                  46	35.88
15:19:                  16	35.92
15:19:                  46	35.93
15:20:                  16	35.94
15:20:                  46	35.94
15:21:                  16	35.92
15:21:                  47	35.89
15:22:                  17	35.88
15:22:                  47	35.86
15:23:                  17	35.85
15:23:                  47	35.84
15:24:                  17	35.83
15:24:                  47	35.81
15:25:                  17	35.78
15:25:                  47	35.79
15:26:                  17	35.77
15:26:                  47	35.79
15:27:                  17	35.74
15:27:                  47	35.75
15:28:                  17	35.73
15:28:                  47	35.72
15:29:                  17	35.74
15:29:                  47	35.76
15:30:                  17	35.78
15:30:                  47	35.80
15:31:                  17	35.80
15:31:                  47	35.77
15:32:                  17	35.76
15:32:                  47	35.75
15:33:                  17	35.74
15:33:                  47	35.74
15:34:                  17	35.71
15:34:                  47	35.70
15:35:                  17	35.69
15:35:                  47	35.68
15:36:                  17	35.68
15:36:                  47	35.66
15:37:                  17	35.64
15:37:                  48	35.64
15:38:                  18	35.63
15:38:                  48	35.64
15:39:                  18	35.62
15:39:                  48	35.64
15:40:                  18	35.68
15:40:                  48	35.68
15:41:                  18	35.69
15:41:                  48	35.66
15:42:                  18	35.67
15:42:                  48	35.68
15:43:                  18	35.68
15:43:                  48	35.67
15:44:                  18	35.65
15:44:                  48	35.62
15:45:                  18	35.59
15:45:                  48	35.60
15:46:                  18	35.56
15:46:                  48	35.56
15:47:                  18	35.58
15:47:                  48	35.57
15:48:                  18	35.57
15:48:                  48	35.54
15:49:                  18	35.51
15:49:                  48	35.53
15:50:                  18	35.56
15:50:                  48	35.56
15:51:                  18	35.58
15:51:                  48	35.58
15:52:                  18	35.58
15:52:                  48	35.58
15:53:                  18	35.56
15:53:                  48	35.56
15:54:                  18	35.54
15:54:                  48	35.55
15:55:                  18	35.52
15:55:                  48	35.53
15:56:                  18	35.53
15:56:                  48	35.53
15:57:                  18	35.51
15:57:                  48	35.51
15:58:                  18	35.50
15:58:                  48	35.49
15:59:                  18	35.50
15:59:                  48	35.45
16:00:                  18	35.47
16:00:                  49	35.49
16:01:                  19	35.51
16:01:                  49	35.50
16:02:                  19	35.51
16:02:                  49	35.49
16:03:                  19	35.48
16:03:                  49	35.47
16:04:                  19	35.44
16:04:                  49	35.43
16:05:                  19	35.44
16:05:                  49	35.42
16:06:                  19	35.37
16:06:                  49	35.40
16:07:                  19	35.40
16:07:                  49	35.40
16:08:                  19	35.38
16:08:                  49	35.31
16:09:                  19	35.24
16:09:                  49	35.24
16:10:                  19	35.21
16:10:                  49	35.24
16:11:                  19	35.23
16:11:                  49	35.20
16:12:                  19	35.19
16:12:                  49	35.19
16:13:                  19	35.21
16:13:                  49	35.22
16:14:                  19	35.20
16:14:                  49	35.17
16:15:                  19	35.14
16:15:                  49	35.12
16:16:                  19	35.09
16:16:                  49	35.05
16:17:                  19	35.04
16:17:                  50	35.01
16:18:                  20	34.99
16:18:                  50	34.95
16:19:                  20	34.93
16:19:                  50	34.90
16:20:                  20	34.90
16:20:                  50	34.91
16:21:                  20	34.89
16:21:                  50	34.89
16:22:                  20	34.92
16:22:                  50	34.89
16:23:                  20	34.86
16:23:                  50	34.83
16:24:                  20	34.83
16:24:                  50	34.82
16:25:                  20	34.84
16:25:                  50	34.83
16:26:                  20	34.81
16:26:                  50	34.80
16:27:                  20	34.80
16:27:                  50	34.80
16:28:                  20	34.79
16:28:                  50	34.77
16:29:                  20	34.72
16:29:                  50	34.76
16:30:                  20	34.75
16:30:                  50	34.74
16:31:                  20	34.74
16:31:                  50	34.73
16:32:                  20	34.76
16:32:                  50	34.78
16:33:                  20	34.79
16:33:                  51	34.78
16:34:                  21	34.78
16:34:                  51	34.75
16:35:                  21	34.74
16:35:                  51	34.75
16:36:                  21	34.74
16:36:                  51	34.72
16:37:                  21	34.74
16:37:                  51	34.73
16:38:                  21	34.71
16:38:                  51	34.72
16:39:                  21	34.71
16:39:                  51	34.70
16:40:                  21	34.69
16:40:                  51	34.65
16:41:                  21	34.63
16:41:                  51	34.63
16:42:                  21	34.66
16:42:                  51	34.64
16:43:                  21	34.65
16:43:                  51	34.66
16:44:                  21	34.67
16:44:                  51	34.64
16:45:                  21	34.62
16:45:                  51	34.62
16:46:                  21	34.60
16:46:                  51	34.57
16:47:                  21	34.58
16:47:                  51	34.57
16:48:                  21	34.58
16:48:                  51	34.57
16:49:                  21	34.55
16:49:                  52	34.54
16:50:                  22	34.53
16:50:                  52	34.51
16:51:                  22	34.45
16:51:                  52	34.44
16:52:                  22	34.44
16:52:                  52	34.49
16:53:                  22	34.47
16:53:                  52	34.47
16:54:                  22	34.45
16:54:                  52	34.46
16:55:                  22	34.43
16:55:                  52	34.40
16:56:                  22	34.40
16:56:                  52	34.40
16:57:                  22	34.39
16:57:                  52	34.41
16:58:                  22	34.41
16:58:                  52	34.43
16:59:                  22	34.46
16:59:                  52	34.46
17:00:                  22	34.48
17:00:                  52	34.47
17:01:                  22	34.45
17:01:                  52	34.46
17:02:                  22	34.46
17:02:                  52	34.48
17:03:                  22	34.38
17:03:                  52	34.41
17:04:                  22	34.35
17:04:                  52	34.41
17:05:                  22	34.38
17:05:                  52	34.42
17:06:                  22	34.44
17:06:                  53	34.43
17:07:                  23	34.38
17:07:                  53	34.38
17:08:                  23	34.38
17:08:                  53	34.38
17:09:                  23	34.39
17:09:                  53	34.38
17:10:                  23	34.37
17:10:                  53	34.35
17:11:                  23	34.30
17:11:                  53	34.26
17:12:                  23	34.26
17:12:                  53	34.27
17:13:                  23	34.30
17:13:                  53	34.31
17:14:                  23	34.31
17:14:                  53	34.26
17:15:                  23	34.22
17:15:                  53	34.21
17:16:                  23	34.21
17:16:                  53	34.20
17:17:                  23	34.18
17:17:                  53	34.17
17:18:                  23	34.12
17:18:                  53	34.12
17:19:                  23	34.08
17:19:                  53	34.10
17:20:                  23	34.08
17:20:                  53	34.08
17:21:                  23	34.01
17:21:                  53	34.02
17:22:                  23	33.98
17:22:                  53	33.99
17:23:                  24	33.93
17:23:                  54	33.97
17:24:                  24	33.96
17:24:                  54	33.98
17:25:                  24	33.99
17:25:                  54	33.97
17:26:                  24	33.98
17:26:                  54	33.99
17:27:                  24	33.91
17:27:                  54	33.91
17:28:                  24	33.90
17:28:                  54	33.86
17:29:                  24	33.85
17:29:                  54	33.82
17:30:                  24	33.81
17:30:                  54	33.80
17:31:                  24	33.80
17:31:                  54	33.77
17:32:                  24	33.77
17:32:                  54	33.77
17:33:                  24	33.79
17:33:                  54	33.78
17:34:                  24	33.82
17:34:                  54	33.85
17:35:                  24	33.87
17:35:                  54	33.90
17:36:                  24	33.90
17:36:                  54	33.88
17:37:                  24	33.89
17:37:                  54	33.87
17:38:                  24	33.89
17:38:                  54	33.90
17:39:                  25	33.89
17:39:                  55	33.88
17:40:                  25	33.87
17:40:                  55	33.87
17:41:                  25	33.86
17:41:                  55	33.86
17:42:                  25	33.85
17:42:                  55	33.86
17:43:                  25	33.86
17:43:                  55	33.85
17:44:                  25	33.86
17:44:                  55	33.89
17:45:                  25	33.92
17:45:                  55	33.91
17:46:                  25	33.92
17:46:                  55	33.91
17:47:                  25	33.92
17:47:                  55	33.90
17:48:                  25	33.90
17:48:                  55	33.89
17:49:                  25	33.90
17:49:                  55	33.89
17:50:                  25	33.87
17:50:                  55	33.88
17:51:                  25	33.86
17:51:                  55	33.86
17:52:                  25	33.86
17:52:                  55	33.86
17:53:                  25	33.84
17:53:                  55	33.85
17:54:                  25	33.83
17:54:                  55	33.85
17:55:                  26	33.86
17:55:                  56	33.87
17:56:                  26	33.90
17:56:                  56	33.90
17:57:                  26	33.90
17:57:                  56	33.90
17:58:                  26	33.89
17:58:                  56	33.88
17:59:                  26	33.89
17:59:                  56	33.87
18:00:                  26	33.87
18:00:                  56	33.86
18:01:                  26	33.86
18:01:                  56	33.84
18:02:                  26	33.84
18:02:                  56	33.82
18:03:                  26	33.82
18:03:                  56	33.82
18:04:                  26	33.82
18:04:                  56	33.81
18:05:                  26	33.84
18:05:                  56	33.86
18:06:                  26	33.87
18:06:                  56	33.87
18:07:                  26	33.88
18:07:                  56	33.86
18:08:                  26	33.87
18:08:                  56	33.86
18:09:                  26	33.86
18:09:                  56	33.85
18:10:                  26	33.84
18:10:                  57	33.84
18:11:                  27	33.83
18:11:                  57	33.81
18:12:                  27	33.82
18:12:                  57	33.79
18:13:                  27	33.79
18:13:                  57	33.79
18:14:                  27	33.78
18:14:                  57	33.77
18:15:                  27	33.76
18:15:                  57	33.78
18:16:                  27	33.80
18:16:                  57	33.81
18:17:                  27	33.81
18:17:                  57	33.81
18:18:                  27	33.81
18:18:                  57	33.80
18:19:                  27	33.81
18:19:                  57	33.79
18:20:                  27	33.78
18:20:                  57	33.78
18:21:                  27	33.78
18:21:                  57	33.76
18:22:                  27	33.75
18:22:                  57	33.74
18:23:                  27	33.73
18:23:                  57	33.72
18:24:                  27	33.71
18:24:                  57	33.70
18:25:                  27	33.70
18:25:                  57	33.68
18:26:                  27	33.71
18:26:                  58	33.73
18:27:                  28	33.74
18:27:                  58	33.73
18:28:                  28	33.73
18:28:                  58	33.72
18:29:                  28	33.73
18:29:                  58	33.71
18:30:                  28	33.69
18:30:                  58	33.67
18:31:                  28	33.66
18:31:                  58	33.66
18:32:                  28	33.65
18:32:                  58	33.65
18:33:                  28	33.63
18:33:                  58	33.62
18:34:                  28	33.61
18:34:                  58	33.60
18:35:                  28	33.60
18:35:                  58	33.59
18:36:                  28	33.60
18:36:                  58	33.62
18:37:                  28	33.64
18:37:                  58	33.66
18:38:                  28	33.64
18:38:                  58	33.64
18:39:                  28	33.65
18:39:                  58	33.63
18:40:                  28	33.63
18:40:                  58	33.62
18:41:                  28	33.61
18:41:                  58	33.60
18:42:                  28	33.59
18:42:                  58	33.57
18:43:                  28	33.56
18:43:                  58	33.56
18:44:                  28	33.55
18:44:                  58	33.53
18:45:                  28	33.52
18:45:                  58	33.53
18:46:                  28	33.53
18:46:                  58	33.53
18:47:                  28	33.53
18:47:                  58	33.50
18:48:                  28	33.49
18:48:                  58	33.48
18:49:                  28	33.47
18:49:                  58	33.47
18:50:                  28	33.45
18:50:                  58	33.43
18:51:                  28	33.43
18:51:                  59	33.42
18:52:                  29	33.40
18:52:                  59	33.39
18:53:                  29	33.39
18:53:                  59	33.38
18:54:                  29	33.38
18:54:                  59	33.37
18:55:                  29	33.37
18:55:                  59	33.36
18:56:                  29	33.36
18:56:                  59	33.36
18:57:                  29	33.40
18:57:                  59	33.43
18:58:                  29	33.46
18:58:                  59	33.45
18:59:                  29	33.44
18:59:                  59	33.45
19:00:                  29	33.45
19:00:                  59	33.44
19:01:                  29	33.44
19:01:                  59	33.43
19:02:                  29	33.42
19:02:                  59	33.42
19:03:                  29	33.41
19:03:                  59	33.41
19:04:                  29	33.41
19:04:                  59	33.41
19:05:                  29	33.39
19:05:                  59	33.40
19:06:                  29	33.39
19:06:                  59	33.40
19:07:                  29	33.40
19:07:                  59	33.43
19:08:                  29	33.43
19:08:                  59	33.46
19:09:                  29	33.48
19:09:                  59	33.49
19:10:                  30	33.48
19:11:                   0	33.47
19:11:                  30	33.47
19:12:                   0	33.45
19:12:                  30	33.46
19:13:                   0	33.44
19:13:                  30	33.42
19:14:                   0	33.43
19:14:                  30	33.42
19:15:                   0	33.39
19:15:                  30	33.38
19:16:                   0	33.36
19:16:                  30	33.36
19:17:                   0	33.37
19:17:                  30	33.36
19:18:                   0	33.38
19:18:                  30	33.41
19:19:                   0	33.44
19:19:                  30	33.46
19:20:                   0	33.46
19:20:                  30	33.46
19:21:                   0	33.45
19:21:                  30	33.44
19:22:                   0	33.44
19:22:                  30	33.43
19:23:                   0	33.42
19:23:                  30	33.42
19:24:                   0	33.42
19:24:                  30	33.42
19:25:                   0	33.41
19:25:                  30	33.38
19:26:                   0	33.40
19:26:                  30	33.38
19:27:                   0	33.37
19:27:                  30	33.37
19:28:                   0	33.35
19:28:                  30	33.37
19:29:                   0	33.39
19:29:                  30	33.41
19:30:                   1	33.42
19:30:                  31	33.43
19:31:                   1	33.43
19:31:                  31	33.42
19:32:                   1	33.42
19:32:                  31	33.42
19:33:                   1	33.42
19:33:                  31	33.41
19:34:                   1	33.40
19:34:                  31	33.40
19:35:                   1	33.40
19:35:                  31	33.38
19:36:                   1	33.38
19:36:                  31	33.35
19:37:                   1	33.36
19:37:                  31	33.35
19:38:                   1	33.35
19:38:                  31	33.34
19:39:                   1	33.36
19:39:                  31	33.38
19:40:                   1	33.40
19:40:                  31	33.41
19:41:                   1	33.42
19:41:                  31	33.42
19:42:                   1	33.42
19:42:                  31	33.42
19:43:                   1	33.37
19:43:                  31	33.37
19:44:                   1	33.36
19:44:                  31	33.35
19:45:                   1	33.35
19:45:                  31	33.35
19:46:                   1	33.33
19:46:                  31	33.32
19:47:                   1	33.33
19:47:                  31	33.32
19:48:                   1	33.30
19:48:                  31	33.30
19:49:                   1	33.29
19:49:                  31	33.31
19:50:                   1	33.33
19:50:                  31	33.35
19:51:                   1	33.35
19:51:                  31	33.35
19:52:                   1	33.36
19:52:                  31	33.35
19:53:                   1	33.35
19:53:                  31	33.33
19:54:                   1	33.33
19:54:                  31	33.32
19:55:                   1	33.32
19:55:                  31	33.31
19:56:                   1	33.30
19:56:                  31	33.26
19:57:                   1	33.25
19:57:                  31	33.26
19:58:                   1	33.26
19:58:                  31	33.27
19:59:                   1	33.27
19:59:                  31	33.27
20:00:                   1	33.29
20:00:                  31	33.32
20:01:                   1	33.32
20:01:                  32	33.31
20:02:                   2	33.31
20:02:                  32	33.30
20:03:                   2	33.30
20:03:                  32	33.28
20:04:                   2	33.28
20:04:                  32	33.27
20:05:                   2	33.24
20:05:                  32	33.26
20:06:                   2	33.24
20:06:                  32	33.24
20:07:                   2	33.23
20:07:                  32	33.22
20:08:                   2	33.20
20:08:                  32	33.20
20:09:                   2	33.21
20:09:                  32	33.18
20:10:                   2	33.19
20:10:                  32	33.22
20:11:                   2	33.26
20:11:                  32	33.26
20:12:                   2	33.25
20:12:                  32	33.24
20:13:                   2	33.26
20:13:                  32	33.27
20:14:                   2	33.27
20:14:                  32	33.27
20:15:                   2	33.25
20:15:                  32	33.21
20:16:                   2	33.19
20:16:                  32	33.20
20:17:                   2	33.19
20:17:                  32	33.18
20:18:                   2	33.19
20:18:                  32	33.18
20:19:                   2	33.16
20:19:                  32	33.19
20:20:                   2	33.18
20:20:                  33	33.19
20:21:                   3	33.23
20:21:                  33	33.24
20:22:                   3	33.27
20:22:                  33	33.26
20:23:                   3	33.26
20:23:                  33	33.28
20:24:                   3	33.29
20:24:                  33	33.31
20:25:                   3	33.30
20:25:                  33	33.29
20:26:                   3	33.29
20:26:                  33	33.28
20:27:                   3	33.28
20:27:                  33	33.27
20:28:                   3	33.28
20:28:                  33	33.31
20:29:                   3	33.32
20:29:                  33	33.30
20:30:                   3	33.32
20:30:                  33	33.32
20:31:                   3	33.34
20:31:                  33	33.40
20:32:                   3	33.42
20:32:                  33	33.44
20:33:                   3	33.46
20:33:                  33	33.43
20:34:                   3	33.42
20:34:                  33	33.39
20:35:                   3	33.35
20:35:                  33	33.35
20:36:                   3	33.35
20:36:                  33	33.34
20:37:                   3	33.33
20:37:                  33	33.29
20:38:                   3	33.26
20:38:                  33	33.25
20:39:                   3	33.24
20:39:                  33	33.22
20:40:                   3	33.22
20:40:                  33	33.22
20:41:                   3	33.22
20:41:                  33	33.25
20:42:                   3	33.26
20:42:                  33	33.29
20:43:                   3	33.28
20:43:                  33	33.30
20:44:                   3	33.28
20:44:                  33	33.27
20:45:                   3	33.27
20:45:                  33	33.25
20:46:                   3	33.24
20:46:                  33	33.22
20:47:                   3	33.20
20:47:                  33	33.19
20:48:                   3	33.19
20:48:                  33	33.16
20:49:                   3	33.15
20:49:                  33	33.14
20:50:                   3	33.12
20:50:                  33	33.11
20:51:                   3	33.10
20:51:                  33	33.12
20:52:                   3	33.14
20:52:                  33	33.16
20:53:                   3	33.17
20:53:                  33	33.18
20:54:                   4	33.16
20:54:                  34	33.15
20:55:                   4	33.13
20:55:                  34	33.14
20:56:                   4	33.13
20:56:                  34	33.11
20:57:                   4	33.10
20:57:                  34	33.08
20:58:                   4	33.05
20:58:                  34	33.04
20:59:                   4	32.99
20:59:                  34	32.98
21:00:                   4	32.99
21:00:                  34	32.95
21:01:                   4	32.93
21:01:                  34	32.93
21:02:                   4	32.92
21:02:                  34	32.95
21:03:                   4	32.98
21:03:                  34	32.98
21:04:                   4	33.00
21:04:                  34	33.00
21:05:                   4	33.01
21:05:                  34	33.00
21:06:                   4	32.98
21:06:                  34	32.98
21:07:                   4	32.98
21:07:                  34	32.97
21:08:                   4	32.98
21:08:                  34	32.96
21:09:                   4	32.95
21:09:                  34	32.92
21:10:                   4	32.92
21:10:                  35	32.92
21:11:                   5	32.92
21:11:                  35	32.91
21:12:                   5	32.90
21:12:                  35	32.90
21:13:                   5	32.93
21:13:                  35	32.94
21:14:                   5	32.94
21:14:                  35	32.95
21:15:                   5	32.93
21:15:                  35	32.90
21:16:                   5	32.92
21:16:                  35	32.89
21:17:                   5	32.88
21:17:                  35	32.89
21:18:                   5	32.88
21:18:                  35	32.87
21:19:                   5	32.84
21:19:                  35	32.82
21:20:                   5	32.82
21:20:                  35	32.82
21:21:                   5	32.81
21:21:                  35	32.77
21:22:                   5	32.75
21:22:                  35	32.74
21:23:                   5	32.74
21:23:                  35	32.75
21:24:                   5	32.79
21:24:                  35	32.83
21:25:                   5	32.83
21:25:                  35	32.83
21:26:                   5	32.81
21:26:                  35	32.74
21:27:                   5	32.73
21:27:                  35	32.74
21:28:                   5	32.72
21:28:                  35	32.68
21:29:                   5	32.68
21:29:                  35	32.66
21:30:                   5	32.64
21:30:                  35	32.66
21:31:                   5	32.65
21:31:                  35	32.61
21:32:                   5	32.60
21:32:                  35	32.60
21:33:                   6	32.61
21:33:                  36	32.65
21:34:                   6	32.66
21:34:                  36	32.67
21:35:                   6	32.67
21:35:                  36	32.68
21:36:                   6	32.66
21:36:                  36	32.65
21:37:                   6	32.65
21:37:                  36	32.67
21:38:                   6	32.66
21:38:                  36	32.64
21:39:                   6	32.64
21:39:                  36	32.61
21:40:                   6	32.61
21:40:                  36	32.63
21:41:                   6	32.64
21:41:                  36	32.64
21:42:                   6	32.64
21:42:                  36	32.65
21:43:                   6	32.65
21:43:                  36	32.65
21:44:                   6	32.67
21:44:                  36	32.70
21:45:                   6	32.72
21:45:                  36	32.73
21:46:                   6	32.74
21:46:                  36	32.73
21:47:                   6	32.72
21:47:                  36	32.71
21:48:                   6	32.71
21:48:                  36	32.71
21:49:                   6	32.69
21:49:                  36	32.70
21:50:                   6	32.69
21:50:                  36	32.67
21:51:                   6	32.66
21:51:                  36	32.65
21:52:                   6	32.65
21:52:                  37	32.65
21:53:                   7	32.63
21:53:                  37	32.62
21:54:                   7	32.61
21:54:                  37	32.66
21:55:                   7	32.69
21:55:                  37	32.71
21:56:                   7	32.71
21:56:                  37	32.70
21:57:                   7	32.71
21:57:                  37	32.71
21:58:                   7	32.70
21:58:                  37	32.69
21:59:                   7	32.68
21:59:                  37	32.67
22:00:                   7	32.67
22:00:                  37	32.68
22:01:                   7	32.68
22:01:                  37	32.68
22:02:                   7	32.67
22:02:                  37	32.66
22:03:                   7	32.67
22:03:                  37	32.65
22:04:                   7	32.64
22:04:                  37	32.61
22:05:                   7	32.67
22:05:                  37	32.65
22:06:                   7	32.66
22:06:                  37	32.67
22:07:                   7	32.65
22:07:                  37	32.67
22:08:                   7	32.65
22:08:                  37	32.63
22:09:                   7	32.65
22:09:                  37	32.63
22:10:                   7	32.63
22:10:                  37	32.62
22:11:                   7	32.61
22:11:                  37	32.61
22:12:                   7	32.64
22:12:                  37	32.63
22:13:                   7	32.62
22:13:                  37	32.64
22:14:                   7	32.65
22:14:                  37	32.66
22:15:                   7	32.66
22:15:                  37	32.69
22:16:                   7	32.72
22:16:                  37	32.70
22:17:                   7	32.73
22:17:                  37	32.73
22:18:                   7	32.75
22:18:                  37	32.77
22:19:                   7	32.77
22:19:                  37	32.74
22:20:                   7	32.75
22:20:                  37	32.77
22:21:                   7	32.78
22:21:                  37	32.77
22:22:                   7	32.78
22:22:                  38	32.78
22:23:                   8	32.79
22:23:                  38	32.79
22:24:                   8	32.78
22:24:                  38	32.79
22:25:                   8	32.78
22:25:                  38	32.83
22:26:                   8	32.84
22:26:                  38	32.86
22:27:                   8	32.86
22:27:                  38	32.87
22:28:                   8	32.88
22:28:                  38	32.82
22:29:                   8	32.80
22:29:                  38	32.79
22:30:                   8	32.78
22:30:                  38	32.79
22:31:                   8	32.75
22:31:                  38	32.76
22:32:                   8	32.74
22:32:                  38	32.74
22:33:                   8	32.75
22:33:                  38	32.75
22:34:                   8	32.74
22:34:                  38	32.72
22:35:                   8	32.70
22:35:                  38	32.71
22:36:                   8	32.71
22:36:                  38	32.75
22:37:                   8	32.74
22:37:                  38	32.75
22:38:                   8	32.77
22:38:                  38	32.75
22:39:                   8	32.77
22:39:                  38	32.77
22:40:                   8	32.78
22:40:                  38	32.78
22:41:                   8	32.76
22:41:                  38	32.75
22:42:                   8	32.77
22:42:                  38	32.74
22:43:                   8	32.72
22:43:                  38	32.72
22:44:                   9	32.72
22:44:                  39	32.70
22:45:                   9	32.68
22:45:                  39	32.69
22:46:                   9	32.68
22:46:                  39	32.71
22:47:                   9	32.70
22:47:                  39	32.74
22:48:                   9	32.73
22:48:                  39	32.73
22:49:                   9	32.74
22:49:                  39	32.74
22:50:                   9	32.76
22:50:                  39	32.73
22:51:                   9	32.73
22:51:                  39	32.74
22:52:                   9	32.71
22:52:                  39	32.71
22:53:                   9	32.70
22:53:                  39	32.70
22:54:                   9	32.70
22:54:                  39	32.70
22:55:                   9	32.70
22:55:                  39	32.69
22:56:                   9	32.69
22:56:                  39	32.68
22:57:                   9	32.71
22:57:                  39	32.72
22:58:                   9	32.73
22:58:                  39	32.74
22:59:                   9	32.77
22:59:                  39	32.78
23:00:                   9	32.77
23:00:                  39	32.79
23:01:                   9	32.79
23:01:                  39	32.79
23:02:                   9	32.78
23:02:                  39	32.75
23:03:                   9	32.78
23:03:                  39	32.78
23:04:                   9	32.78
23:04:                  39	32.75
23:05:                   9	32.74
23:05:                  39	32.76
23:06:                   9	32.78
23:06:                  39	32.79
23:07:                   9	32.82
23:07:                  39	32.84
23:08:                   9	32.87
23:08:                  39	32.86
23:09:                   9	32.87
23:09:                  39	32.88
23:10:                   9	32.90
23:10:                  39	32.90
23:11:                   9	32.90
23:11:                  39	32.89
23:12:                   9	32.89
23:12:                  39	32.86
23:13:                   9	32.85
23:13:                  39	32.83
23:14:                   9	32.83
23:14:                  39	32.81
23:15:                   9	32.81
23:15:                  39	32.79
23:16:                   9	32.79
23:16:                  39	32.78
23:17:                   9	32.78
23:17:                  39	32.79
23:18:                   9	32.84
23:18:                  39	32.84
23:19:                   9	32.85
23:19:                  39	32.86
23:20:                   9	32.87
23:20:                  39	32.85
23:21:                   9	32.86
23:21:                  40	32.86
23:22:                  10	32.84
23:22:                  40	32.84
23:23:                  10	32.82
23:23:                  40	32.81
23:24:                  10	32.78
23:24:                  40	32.78
23:25:                  10	32.78
23:25:                  40	32.78
23:26:                  10	32.77
23:26:                  40	32.79
23:27:                  10	32.78
23:27:                  40	32.74
23:28:                  10	32.78
23:28:                  40	32.81
23:29:                  10	32.84
23:29:                  40	32.86
23:30:                  10	32.86
23:30:                  40	32.87
23:31:                  10	32.87
23:31:                  40	32.85
23:32:                  10	32.84
23:32:                  40	32.83
23:33:                  10	32.84
23:33:                  40	32.86
23:34:                  10	32.86
23:34:                  40	32.86
23:35:                  10	32.84
23:35:                  40	32.82
23:36:                  10	32.80
23:36:                  40	32.80
23:37:                  10	32.80
23:37:                  40	32.79
23:38:                  10	32.78
23:38:                  41	32.80
23:39:                  11	32.81
23:39:                  41	32.82
23:40:                  11	32.83
23:40:                  41	32.82
23:41:                  11	32.81
23:41:                  41	32.82
23:42:                  11	32.80
23:42:                  41	32.83
23:43:                  11	32.80
23:43:                  41	32.78
23:44:                  11	32.78
23:44:                  41	32.76
23:45:                  11	32.77
23:45:                  41	32.79
23:46:                  11	32.77
23:46:                  41	32.78
23:47:                  11	32.77
23:47:                  41	32.75
23:48:                  11	32.74
23:48:                  41	32.74
23:49:                  11	32.80
23:49:                  41	32.80
23:50:                  11	32.81
23:50:                  41	32.79
23:51:                  11	32.79
23:51:                  41	32.80
23:52:                  11	32.75
23:52:                  41	32.74
23:53:                  11	32.73
23:53:                  41	32.72
23:54:                  11	32.73
23:54:                  41	32.75
23:55:                  11	32.73
23:55:                  42	32.75
23:56:                  12	32.70
23:56:                  42	32.69
23:57:                  12	32.69
23:57:                  42	32.70
23:58:                  12	32.70
23:58:                  42	32.68
23:59:                  12	32.69
23:59:                  42	32.70
