0:00:                  24	28.66
0:00:                  54	28.67
0:01:                  24	28.65
0:01:                  54	28.63
0:02:                  25	28.66
0:02:                  55	28.68
0:03:                  25	28.69
0:03:                  55	28.70
0:04:                  25	28.70
0:04:                  55	28.69
0:05:                  25	28.66
0:05:                  55	28.66
0:06:                  25	28.66
0:06:                  55	28.65
0:07:                  25	28.65
0:07:                  55	28.66
0:08:                  25	28.65
0:08:                  55	28.66
0:09:                  25	28.70
0:09:                  55	28.69
0:10:                  25	28.71
0:10:                  55	28.74
0:11:                  25	28.74
0:11:                  55	28.72
0:12:                  25	28.71
0:12:                  55	28.69
0:13:                  25	28.68
0:13:                  55	28.70
0:14:                  25	28.69
0:14:                  55	28.70
0:15:                  25	28.68
0:15:                  55	28.69
0:16:                  25	28.72
0:16:                  55	28.71
0:17:                  25	28.69
0:17:                  55	28.66
0:18:                  25	28.69
0:18:                  55	28.68
0:19:                  26	28.66
0:19:                  56	28.67
0:20:                  26	28.65
0:20:                  56	28.66
0:21:                  26	28.63
0:21:                  56	28.64
0:22:                  26	28.61
0:22:                  56	28.59
0:23:                  26	28.59
0:23:                  56	28.60
0:24:                  26	28.61
0:24:                  56	28.62
0:25:                  26	28.65
0:25:                  56	28.65
0:26:                  26	28.64
0:26:                  56	28.65
0:27:                  26	28.66
0:27:                  56	28.69
0:28:                  26	28.68
0:28:                  56	28.66
0:29:                  26	28.66
0:29:                  56	28.63
0:30:                  26	28.63
0:30:                  56	28.65
0:31:                  26	28.64
0:31:                  56	28.65
0:32:                  26	28.64
0:32:                  56	28.65
0:33:                  26	28.66
0:33:                  56	28.63
0:34:                  26	28.65
0:34:                  56	28.68
0:35:                  26	28.65
0:35:                  56	28.65
0:36:                  26	28.65
0:36:                  56	28.62
0:37:                  26	28.63
0:37:                  56	28.63
0:38:                  26	28.62
0:38:                  56	28.63
0:39:                  26	28.64
0:39:                  57	28.65
0:40:                  27	28.70
0:40:                  57	28.69
0:41:                  27	28.69
0:41:                  57	28.69
0:42:                  27	28.70
0:42:                  57	28.69
0:43:                  27	28.69
0:43:                  57	28.69
0:44:                  27	28.69
0:44:                  57	28.69
0:45:                  27	28.69
0:45:                  57	28.70
0:46:                  27	28.71
0:46:                  57	28.68
0:47:                  27	28.66
0:47:                  57	28.66
0:48:                  27	28.67
0:48:                  57	28.65
0:49:                  27	28.65
0:49:                  57	28.63
0:50:                  27	28.62
0:50:                  57	28.62
0:51:                  27	28.65
0:51:                  57	28.65
0:52:                  27	28.65
0:52:                  57	28.66
0:53:                  27	28.66
0:53:                  57	28.65
0:54:                  27	28.65
0:54:                  57	28.64
0:55:                  27	28.63
0:55:                  57	28.63
0:56:                  28	28.64
0:56:                  58	28.64
0:57:                  28	28.64
0:57:                  58	28.65
0:58:                  28	28.65
0:58:                  58	28.63
0:59:                  28	28.61
0:59:                  58	28.62
1:00:                  28	28.60
1:00:                  58	28.63
1:01:                  28	28.65
1:01:                  58	28.65
1:02:                  28	28.63
1:02:                  58	28.65
1:03:                  28	28.64
1:03:                  58	28.64
1:04:                  28	28.62
1:04:                  58	28.64
1:05:                  28	28.64
1:05:                  58	28.61
1:06:                  28	28.60
1:06:                  58	28.59
1:07:                  28	28.60
1:07:                  58	28.59
1:08:                  28	28.62
1:08:                  58	28.60
1:09:                  28	28.61
1:09:                  58	28.61
1:10:                  28	28.62
1:10:                  58	28.62
1:11:                  28	28.63
1:11:                  58	28.61
1:12:                  28	28.60
1:12:                  59	28.61
1:13:                  29	28.59
1:13:                  59	28.60
1:14:                  29	28.59
1:14:                  59	28.61
1:15:                  29	28.60
1:15:                  59	28.61
1:16:                  29	28.62
1:16:                  59	28.62
1:17:                  29	28.63
1:17:                  59	28.63
1:18:                  29	28.62
1:18:                  59	28.63
1:19:                  29	28.63
1:19:                  59	28.62
1:20:                  29	28.60
1:20:                  59	28.62
1:21:                  29	28.63
1:21:                  59	28.63
1:22:                  29	28.61
1:22:                  59	28.62
1:23:                  29	28.61
1:23:                  59	28.61
1:24:                  29	28.60
1:24:                  59	28.59
1:25:                  29	28.60
1:25:                  59	28.59
1:26:                  29	28.60
1:26:                  59	28.60
1:27:                  29	28.57
1:27:                  59	28.57
1:28:                  29	28.57
1:28:                  59	28.57
1:29:                  30	28.58
1:30:                   0	28.60
1:30:                  30	28.60
1:31:                   0	28.60
1:31:                  30	28.60
1:32:                   0	28.63
1:32:                  30	28.63
1:33:                   0	28.63
1:33:                  30	28.64
1:34:                   0	28.63
1:34:                  30	28.63
1:35:                   0	28.62
1:35:                  30	28.60
1:36:                   0	28.59
1:36:                  30	28.58
1:37:                   0	28.58
1:37:                  30	28.61
1:38:                   0	28.60
1:38:                  30	28.61
1:39:                   0	28.64
1:39:                  30	28.63
1:40:                   0	28.62
1:40:                  30	28.60
1:41:                   0	28.62
1:41:                  30	28.62
1:42:                   0	28.63
1:42:                  30	28.63
1:43:                   0	28.61
1:43:                  30	28.63
1:44:                   0	28.62
1:44:                  30	28.63
1:45:                   0	28.63
1:45:                  30	28.64
1:46:                   0	28.64
1:46:                  30	28.62
1:47:                   0	28.63
1:47:                  30	28.61
1:48:                   0	28.61
1:48:                  30	28.62
1:49:                   0	28.63
1:49:                  30	28.63
1:50:                   1	28.63
1:50:                  31	28.63
1:51:                   1	28.62
1:51:                  31	28.60
1:52:                   1	28.63
1:52:                  31	28.63
1:53:                   1	28.62
1:53:                  31	28.61
1:54:                   1	28.63
1:54:                  31	28.62
1:55:                   1	28.63
1:55:                  31	28.64
1:56:                   1	28.63
1:56:                  31	28.63
1:57:                   1	28.63
1:57:                  31	28.65
1:58:                   1	28.64
1:58:                  31	28.63
1:59:                   1	28.62
1:59:                  31	28.62
2:00:                   1	28.64
2:00:                  31	28.63
2:01:                   1	28.62
2:01:                  31	28.64
2:02:                   1	28.65
2:02:                  31	28.65
2:03:                   1	28.65
2:03:                  31	28.64
2:04:                   1	28.62
2:04:                  31	28.59
2:05:                   1	28.59
2:05:                  31	28.61
2:06:                   1	28.62
2:06:                  31	28.61
2:07:                   1	28.61
2:07:                  31	28.62
2:08:                   1	28.63
2:08:                  31	28.63
2:09:                   1	28.61
2:09:                  31	28.62
2:10:                   2	28.64
2:10:                  32	28.64
2:11:                   2	28.63
2:11:                  32	28.63
2:12:                   2	28.62
2:12:                  32	28.63
2:13:                   2	28.65
2:13:                  32	28.63
2:14:                   2	28.60
2:14:                  32	28.60
2:15:                   2	28.62
2:15:                  32	28.62
2:16:                   2	28.63
2:16:                  32	28.63
2:17:                   2	28.65
2:17:                  32	28.68
2:18:                   2	28.65
2:18:                  32	28.65
2:19:                   2	28.64
2:19:                  32	28.66
2:20:                   2	28.64
2:20:                  32	28.66
2:21:                   2	28.64
2:21:                  32	28.65
2:22:                   2	28.67
2:22:                  32	28.66
2:23:                   2	28.65
2:23:                  32	28.65
2:24:                   2	28.62
2:24:                  32	28.60
2:25:                   2	28.62
2:25:                  32	28.61
2:26:                   3	28.60
2:26:                  33	28.60
2:27:                   3	28.61
2:27:                  33	28.62
2:28:                   3	28.63
2:28:                  33	28.63
2:29:                   3	28.64
2:29:                  33	28.62
2:30:                   3	28.62
2:30:                  33	28.63
2:31:                   3	28.64
2:31:                  33	28.66
2:32:                   3	28.65
2:32:                  33	28.63
2:33:                   3	28.62
2:33:                  33	28.60
2:34:                   3	28.61
2:34:                  33	28.62
2:35:                   3	28.64
2:35:                  33	28.65
2:36:                   3	28.64
2:36:                  33	28.65
2:37:                   3	28.65
2:37:                  33	28.63
2:38:                   3	28.63
2:38:                  33	28.63
2:39:                   3	28.63
2:39:                  33	28.60
2:40:                   3	28.59
2:40:                  33	28.59
2:41:                   3	28.60
2:41:                  33	28.61
2:42:                   3	28.62
2:42:                  33	28.65
2:43:                   3	28.65
2:43:                  33	28.65
2:44:                   3	28.64
2:44:                  34	28.65
2:45:                   4	28.63
2:45:                  34	28.62
2:46:                   4	28.61
2:46:                  34	28.63
2:47:                   4	28.64
2:47:                  34	28.65
2:48:                   4	28.64
2:48:                  34	28.66
2:49:                   4	28.65
2:49:                  34	28.63
2:50:                   4	28.63
2:50:                  34	28.64
2:51:                   4	28.63
2:51:                  34	28.65
2:52:                   4	28.65
2:52:                  34	28.66
2:53:                   4	28.65
2:53:                  34	28.66
2:54:                   4	28.67
2:54:                  34	28.66
2:55:                   4	28.68
2:55:                  34	28.68
2:56:                   4	28.68
2:56:                  34	28.68
2:57:                   4	28.68
2:57:                  34	28.66
2:58:                   4	28.70
2:58:                  34	28.69
2:59:                   4	28.69
2:59:                  34	28.69
3:00:                   4	28.69
3:00:                  34	28.70
3:01:                   5	28.71
3:01:                  35	28.71
3:02:                   5	28.73
3:02:                  35	28.71
3:03:                   5	28.69
3:03:                  35	28.69
3:04:                   5	28.70
3:04:                  35	28.69
3:05:                   5	28.68
3:05:                  35	28.68
3:06:                   5	28.69
3:06:                  35	28.70
3:07:                   5	28.71
3:07:                  35	28.67
3:08:                   5	28.69
3:08:                  35	28.69
3:09:                   5	28.68
3:09:                  35	28.69
3:10:                   5	28.69
3:10:                  35	28.68
3:11:                   5	28.66
3:11:                  35	28.68
3:12:                   5	28.69
3:12:                  35	28.68
3:13:                   5	28.69
3:13:                  35	28.70
3:14:                   5	28.72
3:14:                  35	28.72
3:15:                   5	28.72
3:15:                  35	28.72
3:16:                   5	28.73
3:16:                  35	28.75
3:17:                   5	28.72
3:17:                  35	28.71
3:18:                   5	28.72
3:18:                  35	28.73
3:19:                   5	28.73
3:19:                  35	28.71
3:20:                   5	28.71
3:20:                  36	28.69
3:21:                   6	28.68
3:21:                  36	28.67
3:22:                   6	28.69
3:22:                  36	28.69
3:23:                   6	28.68
3:23:                  36	28.66
3:24:                   6	28.68
3:24:                  36	28.68
3:25:                   6	28.64
3:25:                  36	28.66
3:26:                   6	28.67
3:26:                  36	28.65
3:27:                   6	28.68
3:27:                  36	28.68
3:28:                   6	28.68
3:28:                  36	28.68
3:29:                   6	28.66
3:29:                  36	28.66
3:30:                   6	28.65
3:30:                  36	28.62
3:31:                   6	28.60
3:31:                  36	28.61
3:32:                   6	28.62
3:32:                  36	28.62
3:33:                   6	28.61
3:33:                  36	28.64
3:34:                   6	28.69
3:34:                  36	28.68
3:35:                   6	28.66
3:35:                  36	28.66
3:36:                   6	28.67
3:36:                  36	28.64
3:37:                   6	28.63
3:37:                  37	28.68
3:38:                   7	28.69
3:38:                  37	28.69
3:39:                   7	28.69
3:39:                  37	28.69
3:40:                   7	28.66
3:40:                  37	28.64
3:41:                   7	28.63
3:41:                  37	28.65
3:42:                   7	28.65
3:42:                  37	28.66
3:43:                   7	28.65
3:43:                  37	28.62
3:44:                   7	28.63
3:44:                  37	28.62
3:45:                   7	28.61
3:45:                  37	28.60
3:46:                   7	28.60
3:46:                  37	28.60
3:47:                   7	28.64
3:47:                  37	28.65
3:48:                   7	28.63
3:48:                  37	28.66
3:49:                   7	28.64
3:49:                  37	28.62
3:50:                   7	28.62
3:50:                  37	28.62
3:51:                   7	28.65
3:51:                  37	28.65
3:52:                   7	28.65
3:52:                  37	28.63
3:53:                   7	28.64
3:53:                  37	28.66
3:54:                   7	28.64
3:54:                  38	28.61
3:55:                   8	28.63
3:55:                  38	28.65
3:56:                   8	28.64
3:56:                  38	28.64
3:57:                   8	28.61
3:57:                  38	28.60
3:58:                   8	28.59
3:58:                  38	28.58
3:59:                   8	28.58
3:59:                  38	28.60
4:00:                   8	28.60
4:00:                  38	28.60
4:01:                   8	28.59
4:01:                  38	28.60
4:02:                   8	28.58
4:02:                  38	28.60
4:03:                   8	28.59
4:03:                  38	28.59
4:04:                   8	28.59
4:04:                  38	28.59
4:05:                   8	28.61
4:05:                  38	28.62
4:06:                   8	28.63
4:06:                  38	28.62
4:07:                   8	28.60
4:07:                  38	28.61
4:08:                   8	28.64
4:08:                  38	28.64
4:09:                   8	28.64
4:09:                  38	28.65
4:10:                   8	28.69
4:10:                  38	28.68
4:11:                   8	28.66
4:11:                  38	28.66
4:12:                   8	28.65
4:12:                  38	28.68
4:13:                   8	28.68
4:13:                  39	28.70
4:14:                   9	28.69
4:14:                  39	28.70
4:15:                   9	28.69
4:15:                  39	28.69
4:16:                   9	28.69
4:16:                  39	28.68
4:17:                   9	28.64
4:17:                  39	28.63
4:18:                   9	28.63
4:18:                  39	28.64
4:19:                   9	28.63
4:19:                  39	28.64
4:20:                   9	28.65
4:20:                  39	28.66
4:21:                   9	28.65
4:21:                  39	28.65
4:22:                   9	28.68
4:22:                  39	28.66
4:23:                   9	28.66
4:23:                  39	28.66
4:24:                   9	28.68
4:24:                  39	28.66
4:25:                   9	28.64
4:25:                  39	28.66
4:26:                   9	28.66
4:26:                  39	28.65
4:27:                   9	28.64
4:27:                  39	28.61
4:28:                   9	28.59
4:28:                  39	28.59
4:29:                   9	28.61
4:29:                  39	28.59
4:30:                   9	28.59
4:30:                  40	28.59
4:31:                  10	28.58
4:31:                  40	28.59
4:32:                  10	28.60
4:32:                  40	28.59
4:33:                  10	28.61
4:33:                  40	28.60
4:34:                  10	28.61
4:34:                  40	28.61
4:35:                  10	28.59
4:35:                  40	28.60
4:36:                  10	28.60
4:36:                  40	28.61
4:37:                  10	28.62
4:37:                  40	28.63
4:38:                  10	28.62
4:38:                  40	28.63
4:39:                  10	28.63
4:39:                  40	28.64
4:40:                  10	28.65
4:40:                  40	28.63
4:41:                  10	28.59
4:41:                  40	28.60
4:42:                  10	28.60
4:42:                  40	28.61
4:43:                  10	28.60
4:43:                  40	28.60
4:44:                  10	28.62
4:44:                  40	28.60
4:45:                  10	28.57
4:45:                  40	28.57
4:46:                  10	28.58
4:46:                  40	28.59
4:47:                  10	28.58
4:47:                  40	28.58
4:48:                  10	28.58
4:48:                  40	28.56
4:49:                  10	28.54
4:49:                  40	28.53
4:50:                  10	28.55
4:50:                  40	28.55
4:51:                  10	28.53
4:51:                  40	28.55
4:52:                  10	28.54
4:52:                  41	28.55
4:53:                  11	28.56
4:53:                  41	28.57
4:54:                  11	28.59
4:54:                  41	28.61
4:55:                  11	28.64
4:55:                  41	28.63
4:56:                  11	28.63
4:56:                  41	28.62
4:57:                  11	28.61
4:57:                  41	28.61
4:58:                  11	28.59
4:58:                  41	28.59
4:59:                  11	28.61
4:59:                  41	28.60
5:00:                  11	28.62
5:00:                  41	28.63
5:01:                  11	28.61
5:01:                  41	28.59
5:02:                  11	28.58
5:02:                  41	28.57
5:03:                  11	28.56
5:03:                  41	28.56
5:04:                  11	28.59
5:04:                  41	28.59
5:05:                  11	28.60
5:05:                  41	28.59
5:06:                  11	28.59
5:06:                  41	28.54
5:07:                  11	28.56
5:07:                  41	28.56
5:08:                  11	28.54
5:08:                  41	28.53
5:09:                  12	28.53
5:09:                  42	28.54
5:10:                  12	28.54
5:10:                  42	28.54
5:11:                  12	28.57
5:11:                  42	28.57
5:12:                  12	28.56
5:12:                  42	28.58
5:13:                  12	28.58
5:13:                  42	28.55
5:14:                  12	28.56
5:14:                  42	28.56
5:15:                  12	28.55
5:15:                  42	28.57
5:16:                  12	28.55
5:16:                  42	28.54
5:17:                  12	28.52
5:17:                  42	28.51
5:18:                  12	28.52
5:18:                  42	28.52
5:19:                  12	28.52
5:19:                  42	28.52
5:20:                  12	28.52
5:20:                  42	28.52
5:21:                  12	28.53
5:21:                  42	28.53
5:22:                  12	28.50
5:22:                  42	28.51
5:23:                  12	28.51
5:23:                  42	28.52
5:24:                  12	28.52
5:24:                  42	28.55
5:25:                  12	28.56
5:25:                  43	28.57
5:26:                  13	28.55
5:26:                  43	28.56
5:27:                  13	28.57
5:27:                  43	28.55
5:28:                  13	28.58
5:28:                  43	28.57
5:29:                  13	28.56
5:29:                  43	28.58
5:30:                  13	28.57
5:30:                  43	28.58
5:31:                  13	28.60
5:31:                  43	28.57
5:32:                  13	28.55
5:32:                  43	28.52
5:33:                  13	28.51
5:33:                  43	28.52
5:34:                  13	28.54
5:34:                  43	28.53
5:35:                  13	28.52
5:35:                  43	28.51
5:36:                  13	28.52
5:36:                  43	28.51
5:37:                  13	28.51
5:37:                  43	28.48
5:38:                  13	28.49
5:38:                  43	28.50
5:39:                  13	28.50
5:39:                  43	28.50
5:40:                  13	28.55
5:40:                  43	28.53
5:41:                  13	28.54
5:41:                  43	28.53
5:42:                  13	28.53
5:42:                  43	28.55
5:43:                  13	28.52
5:43:                  43	28.52
5:44:                  13	28.51
5:44:                  43	28.51
5:45:                  14	28.49
5:45:                  44	28.50
5:46:                  14	28.51
5:46:                  44	28.49
5:47:                  14	28.50
5:47:                  44	28.51
5:48:                  14	28.51
5:48:                  44	28.49
5:49:                  14	28.49
5:49:                  44	28.50
5:50:                  14	28.49
5:50:                  44	28.51
5:51:                  14	28.50
5:51:                  44	28.50
5:52:                  14	28.50
5:52:                  44	28.51
5:53:                  14	28.51
5:53:                  44	28.50
5:54:                  14	28.47
5:54:                  44	28.48
5:55:                  14	28.50
5:55:                  44	28.48
5:56:                  14	28.47
5:56:                  44	28.45
5:57:                  14	28.44
5:57:                  44	28.45
5:58:                  14	28.47
5:58:                  44	28.49
5:59:                  14	28.51
5:59:                  44	28.51
6:00:                  14	28.51
6:00:                  44	28.50
6:01:                  14	28.48
6:01:                  44	28.47
6:02:                  14	28.48
6:02:                  45	28.45
6:03:                  15	28.47
6:03:                  45	28.46
6:04:                  15	28.46
6:04:                  45	28.45
6:05:                  15	28.43
6:05:                  45	28.45
6:06:                  15	28.45
6:06:                  45	28.47
6:07:                  15	28.46
6:07:                  45	28.47
6:08:                  15	28.48
6:08:                  45	28.47
6:09:                  15	28.48
6:09:                  45	28.47
6:10:                  15	28.46
6:10:                  45	28.46
6:11:                  15	28.46
6:11:                  45	28.46
6:12:                  15	28.44
6:12:                  45	28.45
6:13:                  15	28.45
6:13:                  45	28.46
6:14:                  15	28.48
6:14:                  45	28.48
6:15:                  15	28.47
6:15:                  45	28.49
6:16:                  15	28.49
6:16:                  45	28.48
6:17:                  15	28.49
6:17:                  45	28.52
6:18:                  15	28.51
6:18:                  45	28.50
6:19:                  15	28.51
6:19:                  45	28.51
6:20:                  15	28.49
6:20:                  45	28.50
6:21:                  15	28.51
6:21:                  45	28.50
6:22:                  15	28.50
6:22:                  46	28.49
6:23:                  16	28.48
6:23:                  46	28.49
6:24:                  16	28.47
6:24:                  46	28.49
6:25:                  16	28.47
6:25:                  46	28.48
6:26:                  16	28.49
6:26:                  46	28.47
6:27:                  16	28.47
6:27:                  46	28.46
6:28:                  16	28.45
6:28:                  46	28.46
6:29:                  16	28.45
6:29:                  46	28.46
6:30:                  16	28.47
6:30:                  46	28.46
6:31:                  16	28.46
6:31:                  46	28.47
6:32:                  16	28.47
6:32:                  46	28.47
6:33:                  16	28.48
6:33:                  46	28.49
6:34:                  16	28.48
6:34:                  46	28.49
6:35:                  16	28.48
6:35:                  46	28.46
6:36:                  16	28.47
6:36:                  46	28.44
6:37:                  16	28.43
6:37:                  46	28.42
6:38:                  16	28.43
6:38:                  46	28.41
6:39:                  16	28.42
6:39:                  46	28.40
6:40:                  16	28.41
6:40:                  47	28.40
6:41:                  17	28.42
6:41:                  47	28.43
6:42:                  17	28.43
6:42:                  47	28.42
6:43:                  17	28.44
6:43:                  47	28.42
6:44:                  17	28.41
6:44:                  47	28.40
6:45:                  17	28.39
6:45:                  47	28.38
6:46:                  17	28.38
6:46:                  47	28.39
6:47:                  17	28.38
6:47:                  47	28.37
6:48:                  17	28.35
6:48:                  47	28.35
6:49:                  17	28.38
6:49:                  47	28.40
6:50:                  17	28.38
6:50:                  47	28.38
6:51:                  17	28.34
6:51:                  47	28.33
6:52:                  17	28.33
6:52:                  47	28.34
6:53:                  17	28.34
6:53:                  47	28.37
6:54:                  17	28.39
6:54:                  47	28.38
6:55:                  17	28.37
6:55:                  47	28.37
6:56:                  17	28.37
6:56:                  47	28.38
6:57:                  17	28.38
6:57:                  47	28.40
6:58:                  17	28.42
6:58:                  47	28.43
6:59:                  17	28.42
6:59:                  47	28.40
7:00:                  17	28.41
7:00:                  47	28.43
7:01:                  18	28.41
7:01:                  48	28.41
7:02:                  18	28.43
7:02:                  48	28.44
7:03:                  18	28.42
7:03:                  48	28.43
7:04:                  18	28.41
7:04:                  48	28.44
7:05:                  18	28.43
7:05:                  48	28.42
7:06:                  18	28.40
7:06:                  48	28.40
7:07:                  18	28.40
7:07:                  48	28.39
7:08:                  18	28.41
7:08:                  48	28.41
7:09:                  18	28.39
7:09:                  48	28.41
7:10:                  18	28.42
7:10:                  48	28.42
7:11:                  18	28.43
7:11:                  48	28.40
7:12:                  18	28.40
7:12:                  48	28.40
7:13:                  18	28.40
7:13:                  48	28.41
7:14:                  18	28.41
7:14:                  48	28.39
7:15:                  18	28.38
7:15:                  48	28.38
7:16:                  18	28.35
7:16:                  48	28.35
7:17:                  18	28.34
7:17:                  48	28.36
7:18:                  18	28.37
7:18:                  48	28.37
7:19:                  18	28.37
7:19:                  49	28.38
7:20:                  19	28.40
7:20:                  49	28.39
7:21:                  19	28.40
7:21:                  49	28.37
7:22:                  19	28.37
7:22:                  49	28.37
7:23:                  19	28.38
7:23:                  49	28.37
7:24:                  19	28.42
7:24:                  49	28.44
7:25:                  19	28.44
7:25:                  49	28.41
7:26:                  19	28.39
7:26:                  49	28.40
7:27:                  19	28.39
7:27:                  49	28.39
7:28:                  19	28.38
7:28:                  49	28.38
7:29:                  19	28.39
7:29:                  49	28.38
7:30:                  19	28.37
7:30:                  49	28.39
7:31:                  19	28.39
7:31:                  49	28.39
7:32:                  19	28.40
7:32:                  49	28.38
7:33:                  19	28.40
7:33:                  49	28.38
7:34:                  19	28.37
7:34:                  49	28.39
7:35:                  19	28.39
7:35:                  49	28.38
7:36:                  20	28.37
7:36:                  50	28.40
7:37:                  20	28.39
7:37:                  50	28.37
7:38:                  20	28.38
7:38:                  50	28.37
7:39:                  20	28.35
7:39:                  50	28.38
7:40:                  20	28.39
7:40:                  50	28.38
7:41:                  20	28.37
7:41:                  50	28.38
7:42:                  20	28.39
7:42:                  50	28.39
7:43:                  20	28.37
7:43:                  50	28.35
7:44:                  20	28.38
7:44:                  50	28.38
7:45:                  20	28.36
7:45:                  50	28.35
7:46:                  20	28.34
7:46:                  50	28.35
7:47:                  20	28.32
7:47:                  50	28.31
7:48:                  20	28.33
7:48:                  50	28.33
7:49:                  20	28.34
7:49:                  50	28.33
7:50:                  20	28.31
7:50:                  50	28.32
7:51:                  20	28.32
7:51:                  50	28.34
7:52:                  20	28.34
7:52:                  50	28.33
7:53:                  20	28.34
7:53:                  50	28.34
7:54:                  20	28.34
7:54:                  51	28.32
7:55:                  21	28.31
7:55:                  51	28.32
7:56:                  21	28.31
7:56:                  51	28.32
7:57:                  21	28.33
7:57:                  51	28.34
7:58:                  21	28.39
7:58:                  51	28.38
7:59:                  21	28.36
7:59:                  51	28.33
8:00:                  21	28.35
8:00:                  51	28.35
8:01:                  21	28.38
8:01:                  51	28.38
8:02:                  21	28.39
8:02:                  51	28.40
8:03:                  21	28.37
8:03:                  51	28.34
8:04:                  21	28.34
8:04:                  51	28.31
8:05:                  21	28.34
8:05:                  51	28.34
8:06:                  21	28.34
8:06:                  51	28.35
8:07:                  21	28.37
8:07:                  51	28.39
8:08:                  21	28.37
8:08:                  51	28.36
8:09:                  21	28.35
8:09:                  51	28.34
8:10:                  21	28.34
8:10:                  51	28.34
8:11:                  22	28.32
8:11:                  52	28.33
8:12:                  22	28.32
8:12:                  52	28.32
8:13:                  22	28.32
8:13:                  52	28.33
8:14:                  22	28.35
8:14:                  52	28.34
8:15:                  22	28.35
8:15:                  52	28.35
8:16:                  22	28.34
8:16:                  52	28.31
8:17:                  22	28.31
8:17:                  52	28.32
8:18:                  22	28.30
8:18:                  52	28.26
8:19:                  22	28.32
8:19:                  52	28.31
8:20:                  22	28.32
8:20:                  52	28.30
8:21:                  22	28.32
8:21:                  52	28.33
8:22:                  22	28.34
8:22:                  52	28.41
8:23:                  22	28.43
8:23:                  52	28.47
8:24:                  22	28.43
8:24:                  52	28.42
8:25:                  22	28.46
8:25:                  52	28.39
8:26:                  22	28.40
8:26:                  52	28.37
8:27:                  22	28.33
8:27:                  53	28.32
8:28:                  23	28.32
8:28:                  53	28.31
8:29:                  23	28.32
8:29:                  53	28.31
8:30:                  23	28.31
8:30:                  53	28.29
8:31:                  23	28.31
8:31:                  53	28.30
8:32:                  23	28.28
8:32:                  53	28.25
8:33:                  23	28.26
8:33:                  53	28.25
8:34:                  23	28.27
8:34:                  53	28.27
8:35:                  23	28.25
8:35:                  53	28.26
8:36:                  23	28.28
8:36:                  53	28.28
8:37:                  23	28.25
8:37:                  53	28.24
8:38:                  23	28.27
8:38:                  53	28.27
8:39:                  23	28.26
8:39:                  53	28.26
8:40:                  23	28.26
8:40:                  53	28.29
8:41:                  23	28.29
8:41:                  53	28.30
8:42:                  23	28.32
8:42:                  53	28.35
8:43:                  23	28.38
8:43:                  54	28.37
8:44:                  24	28.35
8:44:                  54	28.35
8:45:                  24	28.40
8:45:                  54	28.42
8:46:                  24	28.45
8:46:                  54	28.44
8:47:                  24	28.44
8:47:                  54	28.45
8:48:                  24	28.51
8:48:                  54	28.54
8:49:                  24	28.54
8:49:                  54	28.54
8:50:                  24	28.52
8:50:                  54	28.52
8:51:                  24	28.50
8:51:                  54	28.47
8:52:                  24	28.48
8:52:                  54	28.47
8:53:                  24	28.46
8:53:                  54	28.46
8:54:                  24	28.49
8:54:                  54	28.53
8:55:                  24	28.51
8:55:                  54	28.51
8:56:                  24	28.52
8:56:                  54	28.54
8:57:                  24	28.51
8:57:                  54	28.51
8:58:                  24	28.50
8:58:                  54	28.47
8:59:                  24	28.46
8:59:                  54	28.47
9:00:                  24	28.48
9:00:                  54	28.43
9:01:                  24	28.40
9:01:                  54	28.44
9:02:                  24	28.42
9:02:                  54	28.42
9:03:                  24	28.40
9:03:                  54	28.41
9:04:                  24	28.37
9:04:                  54	28.33
9:05:                  24	28.30
9:05:                  54	28.31
9:06:                  24	28.30
9:06:                  54	28.24
9:07:                  24	28.27
9:07:                  54	28.24
9:08:                  24	28.26
9:08:                  54	28.28
9:09:                  24	28.25
9:09:                  54	28.23
9:10:                  25	28.22
9:10:                  55	28.18
9:11:                  25	28.17
9:11:                  55	28.21
9:12:                  25	28.24
9:12:                  55	28.25
9:13:                  25	28.22
9:13:                  55	28.23
9:14:                  25	28.21
9:14:                  55	28.21
9:15:                  25	28.21
9:15:                  55	28.20
9:16:                  25	28.27
9:16:                  55	28.33
9:17:                  25	28.34
9:17:                  55	28.38
9:18:                  25	28.39
9:18:                  55	28.37
9:19:                  25	28.38
9:19:                  55	28.41
9:20:                  25	28.46
9:20:                  55	28.55
9:21:                  25	28.51
9:21:                  55	28.39
9:22:                  25	28.35
9:22:                  55	28.27
9:23:                  25	28.23
9:23:                  55	28.17
9:24:                  25	28.12
9:24:                  55	28.11
9:25:                  25	28.05
9:25:                  55	28.00
9:26:                  25	28.00
9:26:                  55	28.01
9:27:                  25	27.97
9:27:                  55	27.96
9:28:                  26	27.92
9:28:                  56	27.88
9:29:                  26	27.86
9:29:                  56	27.84
9:30:                  26	27.83
9:30:                  56	27.84
9:31:                  26	27.82
9:31:                  56	27.83
9:32:                  26	27.82
9:32:                  56	27.75
9:33:                  26	27.75
9:33:                  56	27.78
9:34:                  26	27.80
9:34:                  56	27.79
9:35:                  26	27.79
9:35:                  56	27.75
9:36:                  26	27.74
9:36:                  56	27.72
9:37:                  26	27.69
9:37:                  56	27.69
9:38:                  26	27.66
9:38:                  56	27.66
9:39:                  26	27.64
9:39:                  56	27.54
9:40:                  26	27.54
9:40:                  56	27.64
9:41:                  26	27.76
9:41:                  56	27.72
9:42:                  26	27.73
9:42:                  56	27.70
9:43:                  26	27.69
9:43:                  56	27.65
9:44:                  26	27.66
9:44:                  56	27.64
9:45:                  26	27.60
9:45:                  56	27.54
9:46:                  26	27.48
9:46:                  56	27.42
9:47:                  26	27.41
9:47:                  56	27.37
9:48:                  26	27.35
9:48:                  56	27.35
9:49:                  26	27.31
9:49:                  56	27.31
9:50:                  26	27.35
9:50:                  56	27.32
9:51:                  26	27.33
9:51:                  57	27.35
9:52:                  27	27.35
9:52:                  57	27.35
9:53:                  27	27.33
9:53:                  57	27.30
9:54:                  27	27.29
9:54:                  57	27.28
9:55:                  27	27.26
9:55:                  57	27.25
9:56:                  27	27.27
9:56:                  57	27.28
9:57:                  27	27.25
9:57:                  57	27.27
9:58:                  27	27.27
9:58:                  57	27.28
9:59:                  27	27.27
9:59:                  57	27.26
10:00:                  27	27.26
10:00:                  57	27.26
10:01:                  27	27.27
10:01:                  57	27.26
10:02:                  27	27.24
10:02:                  57	27.24
10:03:                  27	27.25
10:03:                  57	27.26
10:04:                  27	27.26
10:04:                  57	27.23
10:05:                  27	27.29
10:05:                  57	27.32
10:06:                  27	27.26
10:06:                  57	27.27
10:07:                  27	27.32
10:07:                  57	27.32
10:08:                  28	27.29
10:08:                  58	27.33
10:09:                  28	27.34
10:09:                  58	27.34
10:10:                  28	27.33
10:10:                  58	27.33
10:11:                  28	27.35
10:11:                  58	27.33
10:12:                  28	27.34
10:12:                  58	27.28
10:13:                  28	27.27
10:13:                  58	27.28
10:14:                  28	27.30
10:14:                  58	27.31
10:15:                  28	27.29
10:15:                  58	27.30
10:16:                  28	27.28
10:16:                  58	27.26
10:17:                  28	27.21
10:17:                  58	27.27
10:18:                  28	27.28
10:18:                  58	27.26
10:19:                  28	27.27
10:19:                  58	27.28
10:20:                  28	27.27
10:20:                  58	27.25
10:21:                  28	27.28
10:21:                  58	27.27
10:22:                  28	27.30
10:22:                  58	27.30
10:23:                  28	27.27
10:23:                  58	27.28
10:24:                  28	27.26
10:24:                  58	27.24
10:25:                  28	27.23
10:25:                  58	27.23
10:26:                  28	27.24
10:26:                  58	27.25
10:27:                  28	27.28
10:27:                  58	27.26
10:28:                  29	27.26
10:28:                  59	27.25
10:29:                  29	27.24
10:29:                  59	27.22
10:30:                  29	27.22
10:30:                  59	27.22
10:31:                  29	27.20
10:31:                  59	27.23
10:32:                  29	27.24
10:32:                  59	27.25
10:33:                  29	27.22
10:33:                  59	27.19
10:34:                  29	27.22
10:34:                  59	27.21
10:35:                  29	27.20
10:35:                  59	27.22
10:36:                  29	27.23
10:36:                  59	27.22
10:37:                  29	27.23
10:37:                  59	27.27
10:38:                  29	27.26
10:38:                  59	27.27
10:39:                  29	27.29
10:39:                  59	27.28
10:40:                  29	27.28
10:40:                  59	27.26
10:41:                  29	27.29
10:41:                  59	27.29
10:42:                  29	27.29
10:42:                  59	27.29
10:43:                  29	27.23
10:43:                  59	27.25
10:44:                  29	27.27
10:45:                   0	27.28
10:45:                  30	27.26
10:46:                   0	27.25
10:46:                  30	27.22
10:47:                   0	27.19
10:47:                  30	27.20
10:48:                   0	27.22
10:48:                  30	27.23
10:49:                   0	27.23
10:49:                  30	27.21
10:50:                   0	27.20
10:50:                  30	27.16
10:51:                   0	27.19
10:51:                  30	27.19
10:52:                   0	27.19
10:52:                  30	27.22
10:53:                   0	27.18
10:53:                  30	27.20
10:54:                   0	27.21
10:54:                  30	27.22
10:55:                   0	27.20
10:55:                  30	27.19
10:56:                   0	27.16
10:56:                  30	27.19
10:57:                   0	27.22
10:57:                  30	27.24
10:58:                   0	27.25
10:58:                  30	27.25
10:59:                   0	27.22
10:59:                  30	27.22
11:00:                   0	27.18
11:00:                  30	27.19
11:01:                   0	27.21
11:01:                  31	27.19
11:02:                   1	27.24
11:02:                  31	27.22
11:03:                   1	27.21
11:03:                  31	27.18
11:04:                   1	27.20
11:04:                  31	27.20
11:05:                   1	27.18
11:05:                  31	27.18
11:06:                   1	27.18
11:06:                  31	27.18
11:07:                   1	27.18
11:07:                  31	27.16
11:08:                   1	27.21
11:08:                  31	27.20
11:09:                   1	27.22
11:09:                  31	27.22
11:10:                   1	27.23
11:10:                  31	27.22
11:11:                   1	27.22
11:11:                  31	27.21
11:12:                   1	27.22
11:12:                  31	27.20
11:13:                   1	27.23
11:13:                  31	27.21
11:14:                   1	27.20
11:14:                  31	27.22
11:15:                   1	27.22
11:15:                  31	27.21
11:16:                   1	27.22
11:16:                  31	27.24
11:17:                   1	27.22
11:17:                  31	27.21
11:18:                   1	27.21
11:18:                  31	27.16
11:19:                   1	27.16
11:19:                  31	27.22
11:20:                   1	27.21
11:20:                  31	27.22
11:21:                   1	27.20
11:21:                  31	27.21
11:22:                   1	27.19
11:22:                  31	27.18
11:23:                   1	27.19
11:23:                  32	27.19
11:24:                   2	27.20
11:24:                  32	27.20
11:25:                   2	27.19
11:25:                  32	27.18
11:26:                   2	27.20
11:26:                  32	27.21
11:27:                   2	27.22
11:27:                  32	27.22
11:28:                   2	27.22
11:28:                  32	27.24
11:29:                   2	27.24
11:29:                  32	27.24
11:30:                   2	27.23
11:30:                  32	27.24
11:31:                   2	27.23
11:31:                  32	27.24
11:32:                   2	27.25
11:32:                  32	27.26
11:33:                   2	27.22
11:33:                  32	27.23
11:34:                   2	27.23
11:34:                  32	27.22
11:35:                   2	27.20
11:35:                  32	27.20
11:36:                   2	27.26
11:36:                  32	27.26
11:37:                   2	27.27
11:37:                  32	27.25
11:38:                   2	27.23
11:38:                  32	27.22
11:39:                   2	27.23
11:39:                  32	27.24
11:40:                   2	27.21
11:40:                  32	27.22
11:41:                   2	27.22
11:41:                  32	27.22
11:42:                   2	27.21
11:42:                  32	27.17
11:43:                   2	27.16
11:43:                  32	27.17
11:44:                   2	27.14
11:44:                  33	27.14
11:45:                   3	27.14
11:45:                  33	27.13
11:46:                   3	27.13
11:46:                  33	27.12
11:47:                   3	27.14
11:47:                  33	27.14
11:48:                   3	27.14
11:48:                  33	27.12
11:49:                   3	27.11
11:49:                  33	27.15
11:50:                   3	27.14
11:50:                  33	27.13
11:51:                   3	27.12
11:51:                  33	27.12
11:52:                   3	27.13
11:52:                  33	27.15
11:53:                   3	27.12
11:53:                  33	27.15
11:54:                   3	27.16
11:54:                  33	27.16
11:55:                   3	27.15
11:55:                  33	27.16
11:56:                   3	27.14
11:56:                  33	27.14
11:57:                   3	27.15
11:57:                  33	27.13
11:58:                   3	27.14
11:58:                  33	27.14
11:59:                   3	27.14
11:59:                  33	27.13
12:00:                   3	27.13
12:00:                  33	27.13
12:01:                   3	27.14
12:01:                  33	27.13
12:02:                   3	27.13
12:02:                  33	27.13
12:03:                   4	27.16
12:03:                  34	27.14
12:04:                   4	27.15
12:04:                  34	27.14
12:05:                   4	27.15
12:05:                  34	27.16
12:06:                   4	27.16
12:06:                  34	27.15
12:07:                   4	27.14
12:07:                  34	27.15
12:08:                   4	27.15
12:08:                  34	27.16
12:09:                   4	27.17
12:09:                  34	27.15
12:10:                   4	27.15
12:10:                  34	27.20
12:11:                   4	27.18
12:11:                  34	27.21
12:12:                   4	27.22
12:12:                  34	27.22
12:13:                   4	27.21
12:13:                  34	27.23
12:14:                   4	27.21
12:14:                  34	27.19
12:15:                   4	27.22
12:15:                  34	27.20
12:16:                   4	27.20
12:16:                  34	27.19
12:17:                   4	27.21
12:17:                  34	27.20
12:18:                   4	27.20
12:18:                  34	27.21
12:19:                   4	27.24
12:19:                  34	27.22
12:20:                   4	27.20
12:20:                  34	27.23
12:21:                   5	27.26
12:21:                  35	27.23
12:22:                   5	27.22
12:22:                  35	27.25
12:23:                   5	27.23
12:23:                  35	27.22
12:24:                   5	27.24
12:24:                  35	27.25
12:25:                   5	27.25
12:25:                  35	27.24
12:26:                   5	27.24
12:26:                  35	27.24
12:27:                   5	27.24
12:27:                  35	27.26
12:28:                   5	27.26
12:28:                  35	27.26
12:29:                   5	27.26
12:29:                  35	27.25
12:30:                   5	27.24
12:30:                  35	27.26
12:31:                   5	27.23
12:31:                  35	27.23
12:32:                   5	27.27
12:32:                  35	27.23
12:33:                   5	27.25
12:33:                  35	27.25
12:34:                   5	27.25
12:34:                  35	27.25
12:35:                   5	27.24
12:35:                  35	27.22
12:36:                   5	27.22
12:36:                  35	27.25
12:37:                   5	27.27
12:37:                  36	27.26
12:38:                   6	27.28
12:38:                  36	27.25
12:39:                   6	27.24
12:39:                  36	27.24
12:40:                   6	27.25
12:40:                  36	27.28
12:41:                   6	27.30
12:41:                  36	27.30
12:42:                   6	27.27
12:42:                  36	27.25
12:43:                   6	27.26
12:43:                  36	27.27
12:44:                   6	27.28
12:44:                  36	27.26
12:45:                   6	27.26
12:45:                  36	27.26
12:46:                   6	27.25
12:46:                  36	27.26
12:47:                   6	27.22
12:47:                  36	27.26
12:48:                   6	27.34
12:48:                  36	27.34
12:49:                   6	27.31
12:49:                  36	27.30
12:50:                   6	27.29
12:50:                  36	27.24
12:51:                   6	27.27
12:51:                  36	27.25
12:52:                   6	27.23
12:52:                  36	27.21
12:53:                   6	27.23
12:53:                  36	27.21
12:54:                   6	27.23
12:54:                  36	27.23
12:55:                   6	27.25
12:55:                  36	27.26
12:56:                   6	27.25
12:56:                  36	27.23
12:57:                   6	27.25
12:57:                  37	27.24
12:58:                   7	27.26
12:58:                  37	27.23
12:59:                   7	27.24
12:59:                  37	27.25
13:00:                   7	27.25
13:00:                  37	27.22
13:01:                   7	27.26
13:01:                  37	27.25
13:02:                   7	27.23
13:02:                  37	27.25
13:03:                   7	27.24
13:03:                  37	27.22
13:04:                   7	27.22
13:04:                  37	27.26
13:05:                   7	27.27
13:05:                  37	27.25
13:06:                   7	27.28
13:06:                  37	27.27
13:07:                   7	27.27
13:07:                  37	27.28
13:08:                   7	27.29
13:08:                  37	27.27
13:09:                   7	27.26
13:09:                  37	27.24
13:10:                   7	27.22
13:10:                  37	27.22
13:11:                   7	27.22
13:11:                  37	27.20
13:12:                   7	27.22
13:12:                  37	27.22
13:13:                   7	27.24
13:13:                  37	27.23
13:14:                   7	27.21
13:14:                  37	27.15
13:15:                   7	27.17
13:15:                  37	27.20
13:16:                   7	27.19
13:16:                  37	27.17
13:17:                   7	27.22
13:17:                  38	27.24
13:18:                   8	27.24
13:18:                  38	27.24
13:19:                   8	27.26
13:19:                  38	27.26
13:20:                   8	27.23
13:20:                  38	27.23
13:21:                   8	27.20
13:21:                  38	27.22
13:22:                   8	27.21
13:22:                  38	27.22
13:23:                   8	27.19
13:23:                  38	27.20
13:24:                   8	27.19
13:24:                  38	27.20
13:25:                   8	27.25
13:25:                  38	27.25
13:26:                   8	27.26
13:26:                  38	27.21
13:27:                   8	27.22
13:27:                  38	27.24
13:28:                   8	27.22
13:28:                  38	27.22
13:29:                   8	27.22
13:29:                  38	27.22
13:30:                   8	27.18
13:30:                  38	27.19
13:31:                   8	27.21
13:31:                  38	27.20
13:32:                   8	27.22
13:32:                  38	27.24
13:33:                   8	27.25
13:33:                  38	27.25
13:34:                   8	27.27
13:34:                  38	27.28
13:35:                   8	27.29
13:35:                  38	27.29
13:36:                   8	27.30
13:36:                  39	27.30
13:37:                   9	27.31
13:37:                  39	27.31
13:38:                   9	27.34
13:38:                  39	27.36
13:39:                   9	27.33
13:39:                  39	27.33
13:40:                   9	27.34
13:40:                  39	27.32
13:41:                   9	27.28
13:41:                  39	27.29
13:42:                   9	27.30
13:42:                  39	27.32
13:43:                   9	27.31
13:43:                  39	27.31
13:44:                   9	27.29
13:44:                  39	27.27
13:45:                   9	27.28
13:45:                  39	27.27
13:46:                   9	27.28
13:46:                  39	27.29
13:47:                   9	27.30
13:47:                  39	27.27
13:48:                   9	27.28
13:48:                  39	27.28
13:49:                   9	27.30
13:49:                  39	27.30
13:50:                   9	27.31
13:50:                  39	27.35
13:51:                   9	27.33
13:51:                  39	27.30
13:52:                   9	27.34
13:52:                  39	27.37
13:53:                   9	27.37
13:53:                  39	27.39
13:54:                   9	27.36
13:54:                  39	27.35
13:55:                   9	27.34
13:55:                  39	27.36
13:56:                   9	27.36
13:56:                  39	27.37
13:57:                   9	27.37
13:57:                  39	27.35
13:58:                   9	27.36
13:58:                  40	27.36
13:59:                  10	27.36
13:59:                  40	27.35
14:00:                  10	27.36
14:00:                  40	27.38
14:01:                  10	27.39
14:01:                  40	27.39
14:02:                  10	27.39
14:02:                  40	27.37
14:03:                  10	27.32
14:03:                  40	27.32
14:04:                  10	27.30
14:04:                  40	27.30
14:05:                  10	27.30
14:05:                  40	27.28
14:06:                  10	27.31
14:06:                  40	27.30
14:07:                  10	27.30
14:07:                  40	27.29
14:08:                  10	27.29
14:08:                  40	27.29
14:09:                  10	27.31
14:09:                  40	27.29
14:10:                  10	27.28
14:10:                  40	27.26
14:11:                  10	27.26
14:11:                  40	27.27
14:12:                  10	27.27
14:12:                  40	27.27
14:13:                  10	27.27
14:13:                  40	27.27
14:14:                  10	27.25
14:14:                  40	27.26
14:15:                  10	27.27
14:15:                  40	27.29
14:16:                  10	27.27
14:16:                  41	27.25
14:17:                  11	27.26
14:17:                  41	27.26
14:18:                  11	27.25
14:18:                  41	27.24
14:19:                  11	27.25
14:19:                  41	27.24
14:20:                  11	27.24
14:20:                  41	27.24
14:21:                  11	27.23
14:21:                  41	27.23
14:22:                  11	27.23
14:22:                  41	27.22
14:23:                  11	27.23
14:23:                  41	27.21
14:24:                  11	27.21
14:24:                  41	27.23
14:25:                  11	27.21
14:25:                  41	27.21
14:26:                  11	27.18
14:26:                  41	27.19
14:27:                  11	27.18
14:27:                  41	27.21
14:28:                  11	27.19
14:28:                  41	27.19
14:29:                  11	27.20
14:29:                  41	27.21
14:30:                  11	27.20
14:30:                  41	27.20
14:31:                  11	27.24
14:31:                  41	27.20
14:32:                  11	27.20
14:32:                  41	27.21
14:33:                  12	27.22
14:33:                  42	27.22
14:34:                  12	27.23
14:34:                  42	27.19
14:35:                  12	27.23
14:35:                  42	27.21
14:36:                  12	27.23
14:36:                  42	27.22
14:37:                  12	27.21
14:37:                  42	27.24
14:38:                  12	27.23
14:38:                  42	27.26
14:39:                  12	27.28
14:39:                  42	27.28
14:40:                  12	27.29
14:40:                  42	27.30
14:41:                  12	27.28
14:41:                  42	27.27
14:42:                  12	27.25
14:42:                  42	27.27
14:43:                  12	27.28
14:43:                  42	27.29
14:44:                  12	27.28
14:44:                  42	27.27
14:45:                  12	27.26
14:45:                  42	27.24
14:46:                  12	27.25
14:46:                  42	27.24
14:47:                  12	27.23
14:47:                  42	27.21
14:48:                  12	27.23
14:48:                  42	27.23
14:49:                  12	27.21
14:49:                  42	27.19
14:50:                  12	27.21
14:50:                  42	27.24
14:51:                  12	27.21
14:51:                  42	27.20
14:52:                  12	27.24
14:52:                  42	27.21
14:53:                  12	27.20
14:53:                  42	27.21
14:54:                  12	27.19
14:54:                  42	27.19
14:55:                  12	27.20
14:55:                  43	27.23
14:56:                  13	27.23
14:56:                  43	27.24
14:57:                  13	27.23
14:57:                  43	27.21
14:58:                  13	27.23
14:58:                  43	27.25
14:59:                  13	27.29
14:59:                  43	27.27
15:00:                  13	27.26
15:00:                  43	27.27
15:01:                  13	27.25
15:01:                  43	27.26
15:02:                  13	27.25
15:02:                  43	27.23
15:03:                  13	27.22
15:03:                  43	27.23
15:04:                  13	27.22
15:04:                  43	27.21
15:05:                  13	27.22
15:05:                  43	27.26
15:06:                  13	27.23
15:06:                  43	27.22
15:07:                  13	27.21
15:07:                  43	27.20
15:08:                  13	27.18
15:08:                  43	27.22
15:09:                  13	27.21
15:09:                  43	27.23
15:10:                  13	27.21
15:10:                  43	27.23
15:11:                  13	27.23
15:11:                  43	27.23
15:12:                  13	27.25
15:12:                  43	27.27
15:13:                  13	27.23
15:13:                  43	27.23
15:14:                  13	27.19
15:14:                  43	27.21
15:15:                  13	27.22
15:15:                  44	27.20
15:16:                  14	27.19
15:16:                  44	27.19
15:17:                  14	27.19
15:17:                  44	27.17
15:18:                  14	27.20
15:18:                  44	27.20
15:19:                  14	27.22
15:19:                  44	27.22
15:20:                  14	27.23
15:20:                  44	27.19
15:21:                  14	27.23
15:21:                  44	27.21
15:22:                  14	27.21
15:22:                  44	27.25
15:23:                  14	27.21
15:23:                  44	27.21
15:24:                  14	27.23
15:24:                  44	27.22
15:25:                  14	27.23
15:25:                  44	27.22
15:26:                  14	27.23
15:26:                  44	27.22
15:27:                  14	27.23
15:27:                  44	27.26
15:28:                  14	27.22
15:28:                  44	27.23
15:29:                  14	27.22
15:29:                  44	27.23
15:30:                  14	27.24
15:30:                  44	27.22
15:31:                  14	27.22
15:31:                  44	27.22
15:32:                  14	27.20
15:32:                  44	27.21
15:33:                  14	27.22
15:33:                  44	27.22
15:34:                  14	27.20
15:34:                  44	27.20
15:35:                  14	27.19
15:35:                  44	27.19
15:36:                  14	27.18
15:36:                  44	27.18
15:37:                  14	27.18
15:37:                  45	27.17
15:38:                  15	27.16
15:38:                  45	27.15
15:39:                  15	27.15
15:39:                  45	27.14
15:40:                  15	27.15
15:40:                  45	27.15
15:41:                  15	27.15
15:41:                  45	27.17
15:42:                  15	27.18
15:42:                  45	27.21
15:43:                  15	27.20
15:43:                  45	27.16
15:44:                  15	27.16
15:44:                  45	27.19
15:45:                  15	27.21
15:45:                  45	27.23
15:46:                  15	27.21
15:46:                  45	27.20
15:47:                  15	27.20
15:47:                  45	27.23
15:48:                  15	27.24
15:48:                  45	27.24
15:49:                  15	27.19
15:49:                  45	27.19
15:50:                  15	27.20
15:50:                  45	27.20
15:51:                  15	27.19
15:51:                  45	27.18
15:52:                  15	27.19
15:52:                  45	27.21
15:53:                  15	27.22
15:53:                  45	27.20
15:54:                  15	27.21
15:54:                  45	27.18
15:55:                  15	27.20
15:55:                  45	27.21
15:56:                  15	27.23
15:56:                  45	27.19
15:57:                  15	27.21
15:57:                  45	27.19
15:58:                  15	27.20
15:58:                  45	27.22
15:59:                  15	27.24
15:59:                  46	27.23
16:00:                  16	27.24
16:00:                  46	27.25
16:01:                  16	27.26
16:01:                  46	27.24
16:02:                  16	27.22
16:02:                  46	27.24
16:03:                  16	27.26
16:03:                  46	27.27
16:04:                  16	27.27
16:04:                  46	27.23
16:05:                  16	27.23
16:05:                  46	27.23
16:06:                  16	27.21
16:06:                  46	27.23
16:07:                  16	27.20
16:07:                  46	27.19
16:08:                  16	27.21
16:08:                  46	27.23
16:09:                  16	27.24
16:09:                  46	27.22
16:10:                  16	27.22
16:10:                  46	27.23
16:11:                  16	27.22
16:11:                  46	27.22
16:12:                  16	27.22
16:12:                  46	27.18
16:13:                  16	27.19
16:13:                  46	27.18
16:14:                  16	27.18
16:14:                  46	27.22
16:15:                  16	27.23
16:15:                  46	27.21
16:16:                  16	27.21
16:16:                  46	27.19
16:17:                  16	27.21
16:17:                  46	27.20
16:18:                  16	27.21
16:18:                  46	27.21
16:19:                  17	27.23
16:19:                  47	27.23
16:20:                  17	27.23
16:20:                  47	27.26
16:21:                  17	27.25
16:21:                  47	27.23
16:22:                  17	27.25
16:22:                  47	27.26
16:23:                  17	27.24
16:23:                  47	27.23
16:24:                  17	27.22
16:24:                  47	27.20
16:25:                  17	27.19
16:25:                  47	27.20
16:26:                  17	27.20
16:26:                  47	27.20
16:27:                  17	27.18
16:27:                  47	27.18
16:28:                  17	27.18
16:28:                  47	27.19
16:29:                  17	27.18
16:29:                  47	27.18
16:30:                  17	27.16
16:30:                  47	27.18
16:31:                  17	27.16
16:31:                  47	27.18
16:32:                  17	27.20
16:32:                  47	27.21
16:33:                  17	27.20
16:33:                  47	27.19
16:34:                  17	27.18
16:34:                  47	27.18
16:35:                  17	27.16
16:35:                  47	27.19
16:36:                  17	27.16
16:36:                  47	27.16
16:37:                  17	27.16
16:37:                  47	27.16
16:38:                  17	27.18
16:38:                  47	27.16
16:39:                  17	27.21
16:39:                  47	27.21
16:40:                  17	27.22
16:40:                  47	27.23
16:41:                  17	27.22
16:41:                  47	27.21
16:42:                  17	27.21
16:42:                  48	27.17
16:43:                  18	27.19
16:43:                  48	27.20
16:44:                  18	27.21
16:44:                  48	27.18
16:45:                  18	27.16
16:45:                  48	27.16
16:46:                  18	27.15
16:46:                  48	27.14
16:47:                  18	27.16
16:47:                  48	27.15
16:48:                  18	27.17
16:48:                  48	27.17
16:49:                  18	27.16
16:49:                  48	27.17
16:50:                  18	27.18
16:50:                  48	27.16
16:51:                  18	27.18
16:51:                  48	27.19
16:52:                  18	27.20
16:52:                  48	27.20
16:53:                  18	27.23
16:53:                  48	27.24
16:54:                  18	27.23
16:54:                  48	27.23
16:55:                  18	27.22
16:55:                  48	27.22
16:56:                  18	27.21
16:56:                  48	27.18
16:57:                  18	27.16
16:57:                  48	27.18
16:58:                  18	27.18
16:58:                  48	27.15
16:59:                  18	27.17
16:59:                  48	27.17
17:00:                  18	27.19
17:00:                  48	27.20
17:01:                  18	27.19
17:01:                  49	27.19
17:02:                  19	27.16
17:02:                  49	27.21
17:03:                  19	27.20
17:03:                  49	27.21
17:04:                  19	27.22
17:04:                  49	27.21
17:05:                  19	27.19
17:05:                  49	27.21
17:06:                  19	27.19
17:06:                  49	27.19
17:07:                  19	27.18
17:07:                  49	27.18
17:08:                  19	27.18
17:08:                  49	27.18
17:09:                  19	27.19
17:09:                  49	27.20
17:10:                  19	27.21
17:10:                  49	27.22
17:11:                  19	27.22
17:11:                  49	27.19
17:12:                  19	27.19
17:12:                  49	27.19
17:13:                  19	27.21
17:13:                  49	27.21
17:14:                  19	27.21
17:14:                  49	27.23
17:15:                  19	27.23
17:15:                  49	27.21
17:16:                  19	27.21
17:16:                  49	27.19
17:17:                  19	27.19
17:17:                  49	27.19
17:18:                  19	27.19
17:18:                  49	27.19
17:19:                  19	27.19
17:19:                  49	27.19
17:20:                  19	27.20
17:20:                  49	27.21
17:21:                  19	27.20
17:21:                  49	27.17
17:22:                  19	27.19
17:22:                  49	27.20
17:23:                  19	27.20
17:23:                  49	27.21
17:24:                  19	27.19
17:24:                  50	27.23
17:25:                  20	27.23
17:25:                  50	27.20
17:26:                  20	27.21
17:26:                  50	27.18
17:27:                  20	27.18
17:27:                  50	27.19
17:28:                  20	27.18
17:28:                  50	27.18
17:29:                  20	27.19
17:29:                  50	27.19
17:30:                  20	27.16
17:30:                  50	27.17
17:31:                  20	27.18
17:31:                  50	27.17
17:32:                  20	27.17
17:32:                  50	27.18
17:33:                  20	27.16
17:33:                  50	27.18
17:34:                  20	27.18
17:34:                  50	27.21
17:35:                  20	27.18
17:35:                  50	27.18
17:36:                  20	27.21
17:36:                  50	27.24
17:37:                  20	27.21
17:37:                  50	27.21
17:38:                  20	27.22
17:38:                  50	27.22
17:39:                  20	27.21
17:39:                  50	27.22
17:40:                  20	27.21
17:40:                  50	27.22
17:41:                  20	27.23
17:41:                  50	27.23
17:42:                  20	27.24
17:42:                  50	27.23
17:43:                  20	27.20
17:43:                  50	27.21
17:44:                  20	27.22
17:44:                  51	27.18
17:45:                  21	27.20
17:45:                  51	27.21
17:46:                  21	27.19
17:46:                  51	27.21
17:47:                  21	27.22
17:47:                  51	27.20
17:48:                  21	27.20
17:48:                  51	27.19
17:49:                  21	27.19
17:49:                  51	27.18
17:50:                  21	27.17
17:50:                  51	27.18
17:51:                  21	27.18
17:51:                  51	27.18
17:52:                  21	27.17
17:52:                  51	27.15
17:53:                  21	27.18
17:53:                  51	27.21
17:54:                  21	27.24
17:54:                  51	27.25
17:55:                  21	27.22
17:55:                  51	27.23
17:56:                  21	27.23
17:56:                  51	27.25
17:57:                  21	27.20
17:57:                  51	27.21
17:58:                  21	27.23
17:58:                  51	27.24
17:59:                  21	27.23
17:59:                  51	27.23
18:00:                  21	27.20
18:00:                  51	27.22
18:01:                  21	27.21
18:01:                  52	27.23
18:02:                  22	27.22
18:02:                  52	27.20
18:03:                  22	27.19
18:03:                  52	27.19
18:04:                  22	27.18
18:04:                  52	27.19
18:05:                  22	27.18
18:05:                  52	27.16
18:06:                  22	27.19
18:06:                  52	27.22
18:07:                  22	27.19
18:07:                  52	27.20
18:08:                  22	27.22
18:08:                  52	27.21
18:09:                  22	27.22
18:09:                  52	27.21
18:10:                  22	27.24
18:10:                  52	27.25
18:11:                  22	27.26
18:11:                  52	27.28
18:12:                  22	27.25
18:12:                  52	27.24
18:13:                  22	27.26
18:13:                  52	27.27
18:14:                  22	27.29
18:14:                  52	27.28
18:15:                  22	27.28
18:15:                  52	27.27
18:16:                  22	27.26
18:16:                  52	27.24
18:17:                  22	27.22
18:17:                  52	27.23
18:18:                  22	27.24
18:18:                  52	27.24
18:19:                  22	27.21
18:19:                  52	27.21
18:20:                  22	27.25
18:20:                  52	27.25
18:21:                  22	27.23
18:21:                  52	27.22
18:22:                  22	27.23
18:22:                  52	27.23
18:23:                  23	27.21
18:23:                  53	27.21
18:24:                  23	27.22
18:24:                  53	27.20
18:25:                  23	27.20
18:25:                  53	27.20
18:26:                  23	27.22
18:26:                  53	27.24
18:27:                  23	27.22
18:27:                  53	27.24
18:28:                  23	27.25
18:28:                  53	27.31
18:29:                  23	27.34
18:29:                  53	27.36
18:30:                  23	27.36
18:30:                  53	27.36
18:31:                  23	27.35
18:31:                  53	27.33
18:32:                  23	27.37
18:32:                  53	27.37
18:33:                  23	27.38
18:33:                  53	27.37
18:34:                  23	27.36
18:34:                  53	27.35
18:35:                  23	27.35
18:35:                  53	27.31
18:36:                  23	27.29
18:36:                  53	27.27
18:37:                  23	27.25
18:37:                  53	27.25
18:38:                  23	27.26
18:38:                  53	27.28
18:39:                  23	27.27
18:39:                  54	27.26
18:40:                  24	27.24
18:40:                  54	27.26
18:41:                  24	27.24
18:41:                  54	27.23
18:42:                  24	27.25
18:42:                  54	27.24
18:43:                  24	27.24
18:43:                  54	27.22
18:44:                  24	27.22
18:44:                  54	27.22
18:45:                  24	27.23
18:45:                  54	27.19
18:46:                  24	27.22
18:46:                  54	27.26
18:47:                  24	27.28
18:47:                  54	27.27
18:48:                  24	27.25
18:48:                  54	27.27
18:49:                  24	27.29
18:49:                  54	27.32
18:50:                  24	27.28
18:50:                  54	27.27
18:51:                  24	27.27
18:51:                  54	27.28
18:52:                  24	27.30
18:52:                  54	27.29
18:53:                  24	27.28
18:53:                  54	27.28
18:54:                  24	27.29
18:54:                  54	27.28
18:55:                  24	27.28
18:55:                  54	27.27
18:56:                  24	27.27
18:56:                  55	27.26
18:57:                  25	27.25
18:57:                  55	27.24
18:58:                  25	27.23
18:58:                  55	27.22
18:59:                  25	27.22
18:59:                  55	27.23
19:00:                  25	27.23
19:00:                  55	27.23
19:01:                  25	27.24
19:01:                  55	27.25
19:02:                  25	27.22
19:02:                  55	27.22
19:03:                  25	27.25
19:03:                  55	27.28
19:04:                  25	27.29
19:04:                  55	27.27
19:05:                  25	27.24
19:05:                  55	27.24
19:06:                  25	27.28
19:06:                  55	27.28
19:07:                  25	27.31
19:07:                  55	27.30
19:08:                  25	27.29
19:08:                  55	27.30
19:09:                  25	27.28
19:09:                  55	27.27
19:10:                  25	27.26
19:10:                  55	27.24
19:11:                  25	27.24
19:11:                  55	27.24
19:12:                  25	27.24
19:12:                  55	27.25
19:13:                  25	27.25
19:13:                  55	27.23
19:14:                  25	27.22
19:14:                  55	27.23
19:15:                  25	27.24
19:15:                  55	27.23
19:16:                  26	27.23
19:16:                  56	27.25
19:17:                  26	27.23
19:17:                  56	27.22
19:18:                  26	27.23
19:18:                  56	27.23
19:19:                  26	27.21
19:19:                  56	27.20
19:20:                  26	27.21
19:20:                  56	27.21
19:21:                  26	27.20
19:21:                  56	27.19
19:22:                  26	27.20
19:22:                  56	27.20
19:23:                  26	27.20
19:23:                  56	27.20
19:24:                  26	27.20
19:24:                  56	27.20
19:25:                  26	27.23
19:25:                  56	27.23
19:26:                  26	27.24
19:26:                  56	27.29
19:27:                  26	27.25
19:27:                  56	27.27
19:28:                  26	27.28
19:28:                  56	27.27
19:29:                  26	27.30
19:29:                  56	27.30
19:30:                  26	27.28
19:30:                  56	27.27
19:31:                  26	27.28
19:31:                  56	27.27
19:32:                  26	27.29
19:32:                  57	27.28
19:33:                  27	27.30
19:33:                  57	27.29
19:34:                  27	27.28
19:34:                  57	27.26
19:35:                  27	27.28
19:35:                  57	27.26
19:36:                  27	27.27
19:36:                  57	27.27
19:37:                  27	27.30
19:37:                  57	27.29
19:38:                  27	27.28
19:38:                  57	27.27
19:39:                  27	27.27
19:39:                  57	27.28
19:40:                  27	27.30
19:40:                  57	27.30
19:41:                  27	27.30
19:41:                  57	27.33
19:42:                  27	27.33
19:42:                  57	27.32
19:43:                  27	27.31
19:43:                  57	27.28
19:44:                  27	27.29
19:44:                  57	27.30
19:45:                  27	27.30
19:45:                  57	27.28
19:46:                  27	27.27
19:46:                  57	27.26
19:47:                  27	27.26
19:47:                  57	27.25
19:48:                  27	27.25
19:48:                  57	27.24
19:49:                  27	27.24
19:49:                  57	27.23
19:50:                  27	27.22
19:50:                  57	27.23
19:51:                  27	27.23
19:51:                  57	27.24
19:52:                  27	27.22
19:52:                  57	27.23
19:53:                  27	27.24
19:53:                  57	27.24
19:54:                  27	27.25
19:54:                  57	27.26
19:55:                  27	27.22
19:55:                  57	27.22
19:56:                  27	27.22
19:56:                  57	27.22
19:57:                  27	27.23
19:57:                  58	27.23
19:58:                  28	27.23
19:58:                  58	27.23
19:59:                  28	27.21
19:59:                  58	27.19
20:00:                  28	27.21
20:00:                  58	27.21
20:01:                  28	27.17
20:01:                  58	27.17
20:02:                  28	27.19
20:02:                  58	27.19
20:03:                  28	27.21
20:03:                  58	27.21
20:04:                  28	27.18
20:04:                  58	27.17
20:05:                  28	27.17
20:05:                  58	27.19
20:06:                  28	27.22
20:06:                  58	27.20
20:07:                  28	27.21
20:07:                  58	27.18
20:08:                  28	27.24
20:08:                  58	27.23
20:09:                  28	27.24
20:09:                  58	27.21
20:10:                  28	27.20
20:10:                  58	27.20
20:11:                  28	27.18
20:11:                  58	27.19
20:12:                  28	27.20
20:12:                  58	27.19
20:13:                  28	27.18
20:13:                  58	27.19
20:14:                  28	27.17
20:14:                  58	27.19
20:15:                  28	27.16
20:15:                  58	27.16
20:16:                  29	27.15
20:16:                  59	27.14
20:17:                  29	27.12
20:17:                  59	27.11
20:18:                  29	27.12
20:18:                  59	27.13
20:19:                  29	27.14
20:19:                  59	27.13
20:20:                  29	27.13
20:20:                  59	27.11
20:21:                  29	27.10
20:21:                  59	27.09
20:22:                  29	27.10
20:22:                  59	27.14
20:23:                  29	27.14
20:23:                  59	27.14
20:24:                  29	27.13
20:24:                  59	27.14
20:25:                  29	27.16
20:25:                  59	27.15
20:26:                  29	27.15
20:26:                  59	27.14
20:27:                  29	27.17
20:27:                  59	27.19
20:28:                  29	27.16
20:28:                  59	27.21
20:29:                  29	27.21
20:29:                  59	27.19
20:30:                  29	27.17
20:30:                  59	27.17
20:31:                  29	27.15
20:31:                  59	27.15
20:32:                  29	27.14
20:32:                  59	27.11
20:33:                  30	27.13
20:34:                   0	27.14
20:34:                  30	27.14
20:35:                   0	27.17
20:35:                  30	27.17
20:36:                   0	27.15
20:36:                  30	27.12
20:37:                   0	27.15
20:37:                  30	27.15
20:38:                   0	27.14
20:38:                  30	27.16
20:39:                   0	27.18
20:39:                  30	27.18
20:40:                   0	27.18
20:40:                  30	27.18
20:41:                   0	27.19
20:41:                  30	27.20
20:42:                   0	27.22
20:42:                  30	27.22
20:43:                   0	27.21
20:43:                  30	27.23
20:44:                   0	27.18
20:44:                  30	27.15
20:45:                   0	27.17
20:45:                  30	27.17
20:46:                   0	27.18
20:46:                  30	27.16
20:47:                   0	27.13
20:47:                  30	27.14
20:48:                   0	27.13
20:48:                  30	27.15
20:49:                   0	27.15
20:49:                  30	27.15
20:50:                   0	27.15
20:50:                  30	27.15
20:51:                   0	27.21
20:51:                  30	27.24
20:52:                   1	27.22
20:52:                  31	27.21
20:53:                   1	27.21
20:53:                  31	27.17
20:54:                   1	27.19
20:54:                  31	27.20
20:55:                   1	27.18
20:55:                  31	27.15
20:56:                   1	27.16
20:56:                  31	27.15
20:57:                   1	27.15
20:57:                  31	27.18
20:58:                   1	27.20
20:58:                  31	27.18
20:59:                   1	27.19
20:59:                  31	27.20
21:00:                   1	27.18
21:00:                  31	27.15
21:01:                   1	27.15
21:01:                  31	27.14
21:02:                   1	27.15
21:02:                  31	27.16
21:03:                   1	27.14
21:03:                  31	27.12
21:04:                   1	27.11
21:04:                  31	27.12
21:05:                   1	27.11
21:05:                  31	27.12
21:06:                   1	27.15
21:06:                  31	27.15
21:07:                   1	27.14
21:07:                  31	27.16
21:08:                   1	27.18
21:08:                  31	27.19
21:09:                   1	27.16
21:09:                  31	27.18
21:10:                   1	27.20
21:10:                  31	27.20
21:11:                   1	27.21
21:11:                  31	27.21
21:12:                   2	27.21
21:12:                  32	27.22
21:13:                   2	27.24
21:13:                  32	27.37
21:14:                   2	27.42
21:14:                  32	27.40
21:15:                   2	27.32
21:15:                  32	27.24
21:16:                   2	27.19
21:16:                  32	27.16
21:17:                   2	27.14
21:17:                  32	27.14
21:18:                   2	27.11
21:18:                  32	27.07
21:19:                   2	27.07
21:19:                  32	27.04
21:20:                   2	27.05
21:20:                  32	27.05
21:21:                   2	27.03
21:21:                  32	27.04
21:22:                   2	27.01
21:22:                  32	27.01
21:23:                   2	27.02
21:23:                  32	27.03
21:24:                   2	27.05
21:24:                  32	27.07
21:25:                   2	27.05
21:25:                  32	27.09
21:26:                   2	27.12
21:26:                  32	27.10
21:27:                   2	27.13
21:27:                  32	27.14
21:28:                   2	27.15
21:28:                  32	27.15
21:29:                   2	27.15
21:29:                  32	27.16
21:30:                   2	27.16
21:30:                  32	27.16
21:31:                   2	27.16
21:31:                  32	27.14
21:32:                   3	27.15
21:32:                  33	27.14
21:33:                   3	27.14
21:33:                  33	27.25
21:34:                   3	27.31
21:34:                  33	27.30
21:35:                   3	27.29
21:35:                  33	27.24
21:36:                   3	27.28
21:36:                  33	27.30
21:37:                   3	27.30
21:37:                  33	27.30
21:38:                   3	27.30
21:38:                  33	27.30
21:39:                   3	27.27
21:39:                  33	27.29
21:40:                   3	27.27
21:40:                  33	27.34
21:41:                   3	27.30
21:41:                  33	27.26
21:42:                   3	27.27
21:42:                  33	27.30
21:43:                   3	27.33
21:43:                  33	27.37
21:44:                   3	27.38
21:44:                  33	27.38
21:45:                   3	27.34
21:45:                  33	27.44
21:46:                   3	27.45
21:46:                  33	27.47
21:47:                   3	27.47
21:47:                  33	27.46
21:48:                   3	27.48
21:48:                  33	27.45
21:49:                   3	27.38
21:49:                  33	27.38
21:50:                   3	27.46
21:50:                  33	27.51
21:51:                   3	27.57
21:51:                  34	27.61
21:52:                   4	27.60
21:52:                  34	27.66
21:53:                   4	27.60
21:53:                  34	27.58
21:54:                   4	27.66
21:54:                  34	27.65
21:55:                   4	27.66
21:55:                  34	27.64
21:56:                   4	27.65
21:56:                  34	27.66
21:57:                   4	27.67
21:57:                  34	27.65
21:58:                   4	27.63
21:58:                  34	27.60
21:59:                   4	27.60
21:59:                  34	27.58
22:00:                   4	27.56
22:00:                  34	27.55
22:01:                   4	27.53
22:01:                  34	27.55
22:02:                   4	27.53
22:02:                  34	27.51
22:03:                   4	27.52
22:03:                  34	27.55
22:04:                   4	27.55
22:04:                  34	27.55
22:05:                   4	27.57
22:05:                  34	27.64
22:06:                   4	27.65
22:06:                  34	27.67
22:07:                   4	27.68
22:07:                  34	27.70
22:08:                   5	27.71
22:08:                  35	27.74
22:09:                   5	27.75
22:09:                  35	27.74
22:10:                   5	27.76
22:10:                  35	27.75
22:11:                   5	27.74
22:11:                  35	27.76
22:12:                   5	27.81
22:12:                  35	27.82
22:13:                   5	27.84
22:13:                  35	27.85
22:14:                   5	27.87
22:14:                  35	27.89
22:15:                   5	27.92
22:15:                  35	27.94
22:16:                   5	27.93
22:16:                  35	27.93
22:17:                   5	27.95
22:17:                  35	27.97
22:18:                   5	27.95
22:18:                  35	27.97
22:19:                   5	27.98
22:19:                  35	27.93
22:20:                   5	27.93
22:20:                  35	27.94
22:21:                   5	27.92
22:21:                  35	27.92
22:22:                   5	27.95
22:22:                  35	27.99
22:23:                   5	27.99
22:23:                  35	27.98
22:24:                   5	28.03
22:24:                  36	28.02
22:25:                   6	28.03
22:25:                  36	28.03
22:26:                   6	28.03
22:26:                  36	28.07
22:27:                   6	28.05
22:27:                  36	28.06
22:28:                   6	28.09
22:28:                  36	28.08
22:29:                   6	28.09
22:29:                  36	28.10
22:30:                   6	28.11
22:30:                  36	28.13
22:31:                   6	28.16
22:31:                  36	28.18
22:32:                   6	28.24
22:32:                  36	28.28
22:33:                   6	28.28
22:33:                  36	28.27
22:34:                   6	28.28
22:34:                  36	28.29
22:35:                   6	28.29
22:35:                  36	28.29
22:36:                   6	28.29
22:36:                  36	28.31
22:37:                   6	28.34
22:37:                  36	28.36
22:38:                   6	28.35
22:38:                  36	28.36
22:39:                   6	28.34
22:39:                  36	28.31
22:40:                   6	28.30
22:40:                  36	28.31
22:41:                   6	28.31
22:41:                  37	28.29
22:42:                   7	28.27
22:42:                  37	28.27
22:43:                   7	28.30
22:43:                  37	28.32
22:44:                   7	28.31
22:44:                  37	28.32
22:45:                   7	28.34
22:45:                  37	28.37
22:46:                   7	28.37
22:46:                  37	28.38
22:47:                   7	28.34
22:47:                  37	28.34
22:48:                   7	28.35
22:48:                  37	28.34
22:49:                   7	28.34
22:49:                  37	28.38
22:50:                   7	28.39
22:50:                  37	28.42
22:51:                   7	28.41
22:51:                  37	28.40
22:52:                   7	28.41
22:52:                  37	28.40
22:53:                   7	28.37
22:53:                  37	28.35
22:54:                   7	28.35
22:54:                  37	28.32
22:55:                   7	28.28
22:55:                  37	28.28
22:56:                   7	28.22
22:56:                  37	28.21
22:57:                   7	28.21
22:57:                  37	28.21
22:58:                   7	28.25
22:58:                  37	28.25
22:59:                   7	28.27
22:59:                  37	28.28
23:00:                   7	28.29
23:00:                  37	28.31
23:01:                   8	28.31
23:01:                  38	28.34
23:02:                   8	28.37
23:02:                  38	28.42
23:03:                   8	28.47
23:03:                  38	28.51
23:04:                   8	28.50
23:04:                  38	28.50
23:05:                   8	28.49
23:05:                  38	28.48
23:06:                   8	28.52
23:06:                  38	28.57
23:07:                   8	28.67
23:07:                  38	28.70
23:08:                   8	28.76
23:08:                  38	28.76
23:09:                   8	28.72
23:09:                  38	28.75
23:10:                   8	28.77
23:10:                  38	28.78
23:11:                   8	28.81
23:11:                  38	28.89
23:12:                   8	28.92
23:12:                  38	28.91
23:13:                   8	28.98
23:13:                  38	29.09
23:14:                   8	29.15
23:14:                  38	29.19
23:15:                   8	29.19
23:15:                  38	29.20
23:16:                   8	29.25
23:16:                  38	29.26
23:17:                   8	29.31
23:17:                  39	29.34
23:18:                   9	29.34
23:18:                  39	29.40
23:19:                   9	29.48
23:19:                  39	29.47
23:20:                   9	29.46
23:20:                  39	29.43
23:21:                   9	29.43
23:21:                  39	29.38
23:22:                   9	29.38
23:22:                  39	29.32
23:23:                   9	29.31
23:23:                  39	29.24
23:24:                   9	29.24
23:24:                  39	29.20
23:25:                   9	29.15
23:25:                  39	29.15
23:26:                   9	29.13
23:26:                  39	29.10
23:27:                   9	29.07
23:27:                  39	29.04
23:28:                   9	28.98
23:28:                  39	28.96
23:29:                   9	28.94
23:29:                  39	28.89
23:30:                   9	28.83
23:30:                  39	28.78
23:31:                   9	28.81
23:31:                  39	28.80
23:32:                   9	28.76
23:32:                  39	28.77
23:33:                   9	28.73
23:33:                  39	28.73
23:34:                   9	28.70
23:34:                  39	28.66
23:35:                   9	28.65
23:35:                  39	28.67
23:36:                   9	28.64
23:36:                  39	28.63
23:37:                   9	28.59
23:37:                  39	28.58
23:38:                   9	28.58
23:38:                  40	28.56
23:39:                  10	28.54
23:39:                  40	28.55
23:40:                  10	28.54
23:40:                  40	28.51
23:41:                  10	28.47
23:41:                  40	28.47
23:42:                  10	28.48
23:42:                  40	28.47
23:43:                  10	28.44
23:43:                  40	28.40
23:44:                  10	28.43
23:44:                  40	28.43
23:45:                  10	28.41
23:45:                  40	28.39
23:46:                  10	28.37
23:46:                  40	28.35
23:47:                  10	28.33
23:47:                  40	28.32
23:48:                  10	28.32
23:48:                  40	28.30
23:49:                  10	28.27
23:49:                  40	28.26
23:50:                  10	28.25
23:50:                  40	28.26
23:51:                  10	28.22
23:51:                  40	28.21
23:52:                  10	28.24
23:52:                  40	28.25
23:53:                  10	28.23
23:53:                  40	28.19
23:54:                  10	28.18
23:54:                  40	28.15
23:55:                  10	28.16
23:55:                  40	28.16
23:56:                  10	28.15
23:56:                  41	28.12
23:57:                  11	28.11
23:57:                  41	28.13
23:58:                  11	28.15
23:58:                  41	28.13
23:59:                  11	28.13
23:59:                  41	28.13
