0:00:                   9	29.82
0:00:                  39	29.81
0:01:                   9	29.80
0:01:                  39	29.81
0:02:                   9	29.80
0:02:                  39	29.79
0:03:                   9	29.78
0:03:                  39	29.79
0:04:                   9	29.80
0:04:                  39	29.78
0:05:                   9	29.77
0:05:                  39	29.78
0:06:                   9	29.77
0:06:                  40	29.75
0:07:                  10	29.77
0:07:                  40	29.77
0:08:                  10	29.77
0:08:                  40	29.77
0:09:                  10	29.78
0:09:                  40	29.80
0:10:                  10	29.80
0:10:                  40	29.80
0:11:                  10	29.80
0:11:                  40	29.80
0:12:                  10	29.78
0:12:                  40	29.78
0:13:                  10	29.78
0:13:                  40	29.78
0:14:                  10	29.77
0:14:                  40	29.77
0:15:                  10	29.78
0:15:                  40	29.79
0:16:                  10	29.77
0:16:                  40	29.78
0:17:                  10	29.81
0:17:                  40	29.79
0:18:                  10	29.79
0:18:                  40	29.78
0:19:                  10	29.79
0:19:                  40	29.78
0:20:                  10	29.79
0:20:                  40	29.78
0:21:                  10	29.78
0:21:                  40	29.77
0:22:                  10	29.78
0:22:                  40	29.78
0:23:                  10	29.78
0:23:                  40	29.78
0:24:                  10	29.79
0:24:                  41	29.81
0:25:                  11	29.80
0:25:                  41	29.80
0:26:                  11	29.78
0:26:                  41	29.80
0:27:                  11	29.78
0:27:                  41	29.77
0:28:                  11	29.78
0:28:                  41	29.77
0:29:                  11	29.77
0:29:                  41	29.78
0:30:                  11	29.79
0:30:                  41	29.79
0:31:                  11	29.81
0:31:                  41	29.81
0:32:                  11	29.81
0:32:                  41	29.81
0:33:                  11	29.84
0:33:                  41	29.83
0:34:                  11	29.83
0:34:                  41	29.84
0:35:                  11	29.81
0:35:                  41	29.82
0:36:                  11	29.82
0:36:                  41	29.84
0:37:                  11	29.85
0:37:                  41	29.85
0:38:                  11	29.83
0:38:                  41	29.81
0:39:                  11	29.81
0:39:                  41	29.80
0:40:                  11	29.80
0:40:                  41	29.79
0:41:                  11	29.79
0:41:                  41	29.77
0:42:                  11	29.78
0:42:                  41	29.78
0:43:                  11	29.79
0:43:                  41	29.80
0:44:                  11	29.77
0:44:                  41	29.77
0:45:                  11	29.78
0:45:                  42	29.77
0:46:                  12	29.77
0:46:                  42	29.77
0:47:                  12	29.79
0:47:                  42	29.79
0:48:                  12	29.80
0:48:                  42	29.79
0:49:                  12	29.79
0:49:                  42	29.79
0:50:                  12	29.78
0:50:                  42	29.78
0:51:                  12	29.75
0:51:                  42	29.77
0:52:                  12	29.77
0:52:                  42	29.77
0:53:                  12	29.78
0:53:                  42	29.79
0:54:                  12	29.79
0:54:                  42	29.81
0:55:                  12	29.80
0:55:                  42	29.82
0:56:                  12	29.84
0:56:                  42	29.83
0:57:                  12	29.83
0:57:                  42	29.81
0:58:                  12	29.83
0:58:                  42	29.83
0:59:                  12	29.83
0:59:                  42	29.81
1:00:                  12	29.82
1:00:                  42	29.83
1:01:                  12	29.81
1:01:                  42	29.82
1:02:                  12	29.82
1:02:                  42	29.82
1:03:                  12	29.81
1:03:                  42	29.80
1:04:                  12	29.77
1:04:                  42	29.82
1:05:                  12	29.81
1:05:                  42	29.81
1:06:                  12	29.80
1:06:                  42	29.81
1:07:                  12	29.81
1:07:                  42	29.78
1:08:                  12	29.79
1:08:                  43	29.79
1:09:                  13	29.83
1:09:                  43	29.82
1:10:                  13	29.82
1:10:                  43	29.81
1:11:                  13	29.81
1:11:                  43	29.81
1:12:                  13	29.81
1:12:                  43	29.81
1:13:                  13	29.81
1:13:                  43	29.83
1:14:                  13	29.82
1:14:                  43	29.81
1:15:                  13	29.82
1:15:                  43	29.84
1:16:                  13	29.85
1:16:                  43	29.86
1:17:                  13	29.83
1:17:                  43	29.85
1:18:                  13	29.87
1:18:                  43	29.85
1:19:                  13	29.85
1:19:                  43	29.83
1:20:                  13	29.83
1:20:                  43	29.82
1:21:                  13	29.81
1:21:                  43	29.82
1:22:                  13	29.80
1:22:                  43	29.82
1:23:                  13	29.82
1:23:                  43	29.81
1:24:                  13	29.80
1:24:                  43	29.82
1:25:                  13	29.80
1:25:                  43	29.80
1:26:                  13	29.81
1:26:                  44	29.84
1:27:                  14	29.83
1:27:                  44	29.86
1:28:                  14	29.84
1:28:                  44	29.83
1:29:                  14	29.83
1:29:                  44	29.82
1:30:                  14	29.80
1:30:                  44	29.80
1:31:                  14	29.78
1:31:                  44	29.78
1:32:                  14	29.77
1:32:                  44	29.79
1:33:                  14	29.80
1:33:                  44	29.79
1:34:                  14	29.80
1:34:                  44	29.81
1:35:                  14	29.79
1:35:                  44	29.79
1:36:                  14	29.80
1:36:                  44	29.83
1:37:                  14	29.83
1:37:                  44	29.84
1:38:                  14	29.83
1:38:                  44	29.83
1:39:                  14	29.82
1:39:                  44	29.83
1:40:                  14	29.83
1:40:                  44	29.83
1:41:                  14	29.82
1:41:                  44	29.80
1:42:                  14	29.81
1:42:                  44	29.82
1:43:                  14	29.82
1:43:                  44	29.84
1:44:                  14	29.84
1:44:                  44	29.84
1:45:                  14	29.83
1:45:                  44	29.82
1:46:                  15	29.82
1:46:                  45	29.81
1:47:                  15	29.79
1:47:                  45	29.79
1:48:                  15	29.81
1:48:                  45	29.80
1:49:                  15	29.82
1:49:                  45	29.79
1:50:                  15	29.79
1:50:                  45	29.79
1:51:                  15	29.78
1:51:                  45	29.78
1:52:                  15	29.78
1:52:                  45	29.78
1:53:                  15	29.79
1:53:                  45	29.79
1:54:                  15	29.79
1:54:                  45	29.81
1:55:                  15	29.80
1:55:                  45	29.82
1:56:                  15	29.81
1:56:                  45	29.80
1:57:                  15	29.80
1:57:                  45	29.79
1:58:                  15	29.81
1:58:                  45	29.80
1:59:                  15	29.80
1:59:                  45	29.81
2:00:                  15	29.80
2:00:                  45	29.80
2:01:                  15	29.78
2:01:                  45	29.78
2:02:                  15	29.76
2:02:                  45	29.76
2:03:                  16	29.78
2:03:                  46	29.77
2:04:                  16	29.76
2:04:                  46	29.77
2:05:                  16	29.78
2:05:                  46	29.78
2:06:                  16	29.78
2:06:                  46	29.79
2:07:                  16	29.76
2:07:                  46	29.78
2:08:                  16	29.77
2:08:                  46	29.75
2:09:                  16	29.75
2:09:                  46	29.74
2:10:                  16	29.75
2:10:                  46	29.76
2:11:                  16	29.76
2:11:                  46	29.75
2:12:                  16	29.78
2:12:                  46	29.77
2:13:                  16	29.78
2:13:                  46	29.79
2:14:                  16	29.78
2:14:                  46	29.77
2:15:                  16	29.79
2:15:                  46	29.79
2:16:                  16	29.80
2:16:                  46	29.80
2:17:                  16	29.79
2:17:                  46	29.78
2:18:                  16	29.81
2:18:                  46	29.81
2:19:                  16	29.82
2:19:                  46	29.80
2:20:                  16	29.79
2:20:                  46	29.78
2:21:                  16	29.79
2:21:                  46	29.79
2:22:                  17	29.79
2:22:                  47	29.80
2:23:                  17	29.83
2:23:                  47	29.84
2:24:                  17	29.82
2:24:                  47	29.81
2:25:                  17	29.81
2:25:                  47	29.81
2:26:                  17	29.79
2:26:                  47	29.79
2:27:                  17	29.79
2:27:                  47	29.79
2:28:                  17	29.77
2:28:                  47	29.78
2:29:                  17	29.79
2:29:                  47	29.78
2:30:                  17	29.75
2:30:                  47	29.76
2:31:                  17	29.74
2:31:                  47	29.74
2:32:                  17	29.76
2:32:                  47	29.76
2:33:                  17	29.76
2:33:                  47	29.76
2:34:                  17	29.78
2:34:                  47	29.75
2:35:                  17	29.79
2:35:                  47	29.82
2:36:                  17	29.80
2:36:                  47	29.82
2:37:                  17	29.83
2:37:                  47	29.82
2:38:                  17	29.83
2:38:                  48	29.80
2:39:                  18	29.79
2:39:                  48	29.80
2:40:                  18	29.81
2:40:                  48	29.82
2:41:                  18	29.81
2:41:                  48	29.85
2:42:                  18	29.85
2:42:                  48	29.85
2:43:                  18	29.84
2:43:                  48	29.84
2:44:                  18	29.84
2:44:                  48	29.83
2:45:                  18	29.86
2:45:                  48	29.84
2:46:                  18	29.83
2:46:                  48	29.81
2:47:                  18	29.80
2:47:                  48	29.79
2:48:                  18	29.78
2:48:                  48	29.78
2:49:                  18	29.77
2:49:                  48	29.79
2:50:                  18	29.80
2:50:                  48	29.79
2:51:                  18	29.80
2:51:                  48	29.77
2:52:                  18	29.77
2:52:                  48	29.76
2:53:                  18	29.75
2:53:                  48	29.75
2:54:                  18	29.75
2:54:                  48	29.75
2:55:                  18	29.74
2:55:                  49	29.75
2:56:                  19	29.75
2:56:                  49	29.77
2:57:                  19	29.78
2:57:                  49	29.79
2:58:                  19	29.79
2:58:                  49	29.78
2:59:                  19	29.78
2:59:                  49	29.78
3:00:                  19	29.78
3:00:                  49	29.79
3:01:                  19	29.79
3:01:                  49	29.78
3:02:                  19	29.78
3:02:                  49	29.79
3:03:                  19	29.78
3:03:                  49	29.77
3:04:                  19	29.78
3:04:                  49	29.80
3:05:                  19	29.79
3:05:                  49	29.80
3:06:                  19	29.78
3:06:                  49	29.78
3:07:                  19	29.78
3:07:                  49	29.76
3:08:                  19	29.78
3:08:                  49	29.77
3:09:                  19	29.78
3:09:                  49	29.78
3:10:                  19	29.80
3:10:                  49	29.80
3:11:                  19	29.81
3:11:                  49	29.81
3:12:                  19	29.81
3:12:                  49	29.81
3:13:                  19	29.82
3:13:                  49	29.80
3:14:                  19	29.78
3:14:                  49	29.77
3:15:                  19	29.78
3:15:                  49	29.79
3:16:                  19	29.77
3:16:                  49	29.78
3:17:                  20	29.79
3:17:                  50	29.79
3:18:                  20	29.78
3:18:                  50	29.77
3:19:                  20	29.77
3:19:                  50	29.77
3:20:                  20	29.78
3:20:                  50	29.76
3:21:                  20	29.78
3:21:                  50	29.78
3:22:                  20	29.80
3:22:                  50	29.79
3:23:                  20	29.79
3:23:                  50	29.81
3:24:                  20	29.79
3:24:                  50	29.81
3:25:                  20	29.80
3:25:                  50	29.78
3:26:                  20	29.80
3:26:                  50	29.79
3:27:                  20	29.82
3:27:                  50	29.82
3:28:                  20	29.85
3:28:                  50	29.85
3:29:                  20	29.86
3:29:                  50	29.86
3:30:                  20	29.83
3:30:                  50	29.83
3:31:                  20	29.83
3:31:                  50	29.82
3:32:                  20	29.81
3:32:                  50	29.80
3:33:                  20	29.80
3:33:                  51	29.79
3:34:                  21	29.79
3:34:                  51	29.80
3:35:                  21	29.82
3:35:                  51	29.83
3:36:                  21	29.82
3:36:                  51	29.82
3:37:                  21	29.82
3:37:                  51	29.81
3:38:                  21	29.81
3:38:                  51	29.79
3:39:                  21	29.78
3:39:                  51	29.81
3:40:                  21	29.81
3:40:                  51	29.81
3:41:                  21	29.81
3:41:                  51	29.81
3:42:                  21	29.79
3:42:                  51	29.78
3:43:                  21	29.79
3:43:                  51	29.80
3:44:                  21	29.80
3:44:                  51	29.82
3:45:                  21	29.82
3:45:                  51	29.81
3:46:                  21	29.80
3:46:                  51	29.79
3:47:                  21	29.80
3:47:                  51	29.81
3:48:                  21	29.80
3:48:                  51	29.81
3:49:                  21	29.80
3:49:                  51	29.82
3:50:                  21	29.80
3:50:                  51	29.81
3:51:                  21	29.81
3:51:                  51	29.80
3:52:                  21	29.79
3:52:                  51	29.80
3:53:                  21	29.80
3:53:                  51	29.80
3:54:                  21	29.81
3:54:                  51	29.81
3:55:                  21	29.80
3:55:                  51	29.80
3:56:                  21	29.78
3:56:                  51	29.78
3:57:                  22	29.76
3:57:                  52	29.75
3:58:                  22	29.76
3:58:                  52	29.78
3:59:                  22	29.76
3:59:                  52	29.78
4:00:                  22	29.77
4:00:                  52	29.77
4:01:                  22	29.76
4:01:                  52	29.77
4:02:                  22	29.77
4:02:                  52	29.76
4:03:                  22	29.77
4:03:                  52	29.76
4:04:                  22	29.75
4:04:                  52	29.76
4:05:                  22	29.74
4:05:                  52	29.75
4:06:                  22	29.76
4:06:                  52	29.75
4:07:                  22	29.75
4:07:                  52	29.76
4:08:                  22	29.78
4:08:                  52	29.78
4:09:                  22	29.79
4:09:                  52	29.78
4:10:                  22	29.77
4:10:                  52	29.77
4:11:                  22	29.77
4:11:                  52	29.76
4:12:                  22	29.76
4:12:                  52	29.75
4:13:                  22	29.75
4:13:                  52	29.76
4:14:                  22	29.76
4:14:                  52	29.76
4:15:                  22	29.82
4:15:                  52	29.84
4:16:                  22	29.84
4:16:                  52	29.82
4:17:                  22	29.81
4:17:                  53	29.80
4:18:                  23	29.82
4:18:                  53	29.81
4:19:                  23	29.79
4:19:                  53	29.79
4:20:                  23	29.79
4:20:                  53	29.78
4:21:                  23	29.76
4:21:                  53	29.75
4:22:                  23	29.74
4:22:                  53	29.73
4:23:                  23	29.77
4:23:                  53	29.78
4:24:                  23	29.78
4:24:                  53	29.78
4:25:                  23	29.81
4:25:                  53	29.83
4:26:                  23	29.81
4:26:                  53	29.82
4:27:                  23	29.80
4:27:                  53	29.78
4:28:                  23	29.78
4:28:                  53	29.77
4:29:                  23	29.75
4:29:                  53	29.76
4:30:                  23	29.77
4:30:                  53	29.77
4:31:                  23	29.77
4:31:                  53	29.77
4:32:                  23	29.76
4:32:                  53	29.76
4:33:                  23	29.75
4:33:                  53	29.76
4:34:                  23	29.76
4:34:                  53	29.75
4:35:                  23	29.76
4:35:                  53	29.78
4:36:                  23	29.78
4:36:                  53	29.77
4:37:                  23	29.78
4:37:                  53	29.82
4:38:                  23	29.83
4:38:                  54	29.82
4:39:                  24	29.83
4:39:                  54	29.82
4:40:                  24	29.84
4:40:                  54	29.82
4:41:                  24	29.81
4:41:                  54	29.79
4:42:                  24	29.79
4:42:                  54	29.78
4:43:                  24	29.76
4:43:                  54	29.76
4:44:                  24	29.78
4:44:                  54	29.78
4:45:                  24	29.78
4:45:                  54	29.79
4:46:                  24	29.77
4:46:                  54	29.80
4:47:                  24	29.82
4:47:                  54	29.80
4:48:                  24	29.82
4:48:                  54	29.81
4:49:                  24	29.80
4:49:                  54	29.79
4:50:                  24	29.77
4:50:                  54	29.78
4:51:                  24	29.78
4:51:                  54	29.79
4:52:                  24	29.80
4:52:                  54	29.78
4:53:                  24	29.77
4:53:                  54	29.79
4:54:                  24	29.77
4:54:                  54	29.77
4:55:                  25	29.77
4:55:                  55	29.76
4:56:                  25	29.77
4:56:                  55	29.78
4:57:                  25	29.77
4:57:                  55	29.75
4:58:                  25	29.74
4:58:                  55	29.73
4:59:                  25	29.75
4:59:                  55	29.74
5:00:                  25	29.73
5:00:                  55	29.75
5:01:                  25	29.75
5:01:                  55	29.76
5:02:                  25	29.76
5:02:                  55	29.76
5:03:                  25	29.76
5:03:                  55	29.79
5:04:                  25	29.77
5:04:                  55	29.77
5:05:                  25	29.78
5:05:                  55	29.78
5:06:                  25	29.78
5:06:                  55	29.76
5:07:                  25	29.76
5:07:                  55	29.79
5:08:                  25	29.80
5:08:                  55	29.79
5:09:                  25	29.80
5:09:                  55	29.80
5:10:                  25	29.81
5:10:                  55	29.79
5:11:                  25	29.79
5:11:                  55	29.80
5:12:                  25	29.78
5:12:                  55	29.79
5:13:                  25	29.81
5:13:                  55	29.79
5:14:                  25	29.83
5:14:                  55	29.85
5:15:                  26	29.84
5:15:                  56	29.84
5:16:                  26	29.83
5:16:                  56	29.83
5:17:                  26	29.82
5:17:                  56	29.81
5:18:                  26	29.81
5:18:                  56	29.81
5:19:                  26	29.80
5:19:                  56	29.79
5:20:                  26	29.78
5:20:                  56	29.78
5:21:                  26	29.79
5:21:                  56	29.78
5:22:                  26	29.79
5:22:                  56	29.79
5:23:                  26	29.79
5:23:                  56	29.78
5:24:                  26	29.76
5:24:                  56	29.76
5:25:                  26	29.80
5:25:                  56	29.81
5:26:                  26	29.80
5:26:                  56	29.80
5:27:                  26	29.81
5:27:                  56	29.80
5:28:                  26	29.80
5:28:                  56	29.78
5:29:                  26	29.78
5:29:                  56	29.77
5:30:                  26	29.78
5:30:                  56	29.78
5:31:                  26	29.77
5:31:                  57	29.78
5:32:                  27	29.78
5:32:                  57	29.78
5:33:                  27	29.77
5:33:                  57	29.76
5:34:                  27	29.77
5:34:                  57	29.77
5:35:                  27	29.74
5:35:                  57	29.76
5:36:                  27	29.77
5:36:                  57	29.75
5:37:                  27	29.75
5:37:                  57	29.76
5:38:                  27	29.75
5:38:                  57	29.74
5:39:                  27	29.73
5:39:                  57	29.76
5:40:                  27	29.74
5:40:                  57	29.77
5:41:                  27	29.78
5:41:                  57	29.77
5:42:                  27	29.77
5:42:                  57	29.76
5:43:                  27	29.78
5:43:                  57	29.76
5:44:                  27	29.78
5:44:                  57	29.78
5:45:                  27	29.79
5:45:                  57	29.79
5:46:                  27	29.81
5:46:                  57	29.79
5:47:                  27	29.77
5:47:                  57	29.81
5:48:                  28	29.81
5:48:                  58	29.80
5:49:                  28	29.79
5:49:                  58	29.78
5:50:                  28	29.77
5:50:                  58	29.77
5:51:                  28	29.76
5:51:                  58	29.80
5:52:                  28	29.79
5:52:                  58	29.79
5:53:                  28	29.78
5:53:                  58	29.81
5:54:                  28	29.81
5:54:                  58	29.80
5:55:                  28	29.79
5:55:                  58	29.77
5:56:                  28	29.77
5:56:                  58	29.79
5:57:                  28	29.83
5:57:                  58	29.83
5:58:                  28	29.83
5:58:                  58	29.82
5:59:                  28	29.82
5:59:                  58	29.79
6:00:                  28	29.78
6:00:                  58	29.78
6:01:                  28	29.75
6:01:                  58	29.77
6:02:                  28	29.78
6:02:                  58	29.76
6:03:                  28	29.75
6:03:                  58	29.77
6:04:                  28	29.78
6:04:                  58	29.77
6:05:                  28	29.77
6:05:                  59	29.76
6:06:                  29	29.77
6:06:                  59	29.76
6:07:                  29	29.80
6:07:                  59	29.81
6:08:                  29	29.81
6:08:                  59	29.80
6:09:                  29	29.77
6:09:                  59	29.77
6:10:                  29	29.78
6:10:                  59	29.79
6:11:                  29	29.79
6:11:                  59	29.80
6:12:                  29	29.81
6:12:                  59	29.82
6:13:                  29	29.81
6:13:                  59	29.83
6:14:                  29	29.84
6:14:                  59	29.84
6:15:                  29	29.82
6:15:                  59	29.81
6:16:                  29	29.79
6:16:                  59	29.79
6:17:                  29	29.77
6:17:                  59	29.76
6:18:                  29	29.75
6:18:                  59	29.74
6:19:                  29	29.73
6:19:                  59	29.74
6:20:                  29	29.75
6:20:                  59	29.74
6:21:                  29	29.74
6:21:                  59	29.74
6:22:                  29	29.74
6:22:                  59	29.75
6:23:                  29	29.76
6:23:                  59	29.75
6:24:                  30	29.74
6:25:                   0	29.75
6:25:                  30	29.74
6:26:                   0	29.74
6:26:                  30	29.75
6:27:                   0	29.75
6:27:                  30	29.74
6:28:                   0	29.73
6:28:                  30	29.74
6:29:                   0	29.73
6:29:                  30	29.72
6:30:                   0	29.72
6:30:                  30	29.72
6:31:                   0	29.72
6:31:                  30	29.74
6:32:                   0	29.74
6:32:                  30	29.74
6:33:                   0	29.74
6:33:                  30	29.73
6:34:                   0	29.74
6:34:                  30	29.76
6:35:                   0	29.75
6:35:                  30	29.76
6:36:                   0	29.76
6:36:                  30	29.75
6:37:                   0	29.77
6:37:                  30	29.81
6:38:                   0	29.80
6:38:                  30	29.79
6:39:                   0	29.76
6:39:                  30	29.78
6:40:                   0	29.77
6:40:                  30	29.76
6:41:                   0	29.77
6:41:                  30	29.77
6:42:                   0	29.78
6:42:                  30	29.77
6:43:                   0	29.76
6:43:                  30	29.75
6:44:                   0	29.74
6:44:                  30	29.74
6:45:                   1	29.73
6:45:                  31	29.73
6:46:                   1	29.73
6:46:                  31	29.73
6:47:                   1	29.72
6:47:                  31	29.73
6:48:                   1	29.76
6:48:                  31	29.77
6:49:                   1	29.77
6:49:                  31	29.74
6:50:                   1	29.74
6:50:                  31	29.73
6:51:                   1	29.72
6:51:                  31	29.72
6:52:                   1	29.74
6:52:                  31	29.74
6:53:                   1	29.74
6:53:                  31	29.73
6:54:                   1	29.72
6:54:                  31	29.73
6:55:                   1	29.74
6:55:                  31	29.75
6:56:                   1	29.76
6:56:                  31	29.74
6:57:                   1	29.77
6:57:                  31	29.78
6:58:                   1	29.77
6:58:                  31	29.78
6:59:                   1	29.78
6:59:                  31	29.79
7:00:                   1	29.79
7:00:                  31	29.79
7:01:                   1	29.76
7:01:                  31	29.78
7:02:                   1	29.78
7:02:                  31	29.76
7:03:                   1	29.77
7:03:                  31	29.75
7:04:                   1	29.73
7:04:                  31	29.75
7:05:                   2	29.75
7:05:                  32	29.73
7:06:                   2	29.73
7:06:                  32	29.73
7:07:                   2	29.74
7:07:                  32	29.74
7:08:                   2	29.73
7:08:                  32	29.74
7:09:                   2	29.74
7:09:                  32	29.72
7:10:                   2	29.76
7:10:                  32	29.76
7:11:                   2	29.75
7:11:                  32	29.74
7:12:                   2	29.73
7:12:                  32	29.73
7:13:                   2	29.76
7:13:                  32	29.77
7:14:                   2	29.75
7:14:                  32	29.75
7:15:                   2	29.75
7:15:                  32	29.73
7:16:                   2	29.73
7:16:                  32	29.72
7:17:                   2	29.75
7:17:                  32	29.75
7:18:                   2	29.75
7:18:                  32	29.74
7:19:                   2	29.74
7:19:                  32	29.73
7:20:                   2	29.74
7:20:                  32	29.73
7:21:                   2	29.74
7:21:                  32	29.74
7:22:                   2	29.75
7:22:                  32	29.74
7:23:                   2	29.76
7:23:                  32	29.77
7:24:                   2	29.76
7:24:                  32	29.75
7:25:                   2	29.76
7:25:                  32	29.76
7:26:                   3	29.75
7:26:                  33	29.76
7:27:                   3	29.76
7:27:                  33	29.75
7:28:                   3	29.76
7:28:                  33	29.76
7:29:                   3	29.75
7:29:                  33	29.76
7:30:                   3	29.76
7:30:                  33	29.75
7:31:                   3	29.75
7:31:                  33	29.74
7:32:                   3	29.74
7:32:                  33	29.73
7:33:                   3	29.73
7:33:                  33	29.72
7:34:                   3	29.74
7:34:                  33	29.73
7:35:                   3	29.76
7:35:                  33	29.73
7:36:                   3	29.75
7:36:                  33	29.77
7:37:                   3	29.76
7:37:                  33	29.75
7:38:                   3	29.76
7:38:                  33	29.75
7:39:                   3	29.76
7:39:                  33	29.78
7:40:                   3	29.77
7:40:                  33	29.75
7:41:                   3	29.74
7:41:                  33	29.73
7:42:                   3	29.73
7:42:                  33	29.73
7:43:                   3	29.74
7:43:                  33	29.76
7:44:                   3	29.77
7:44:                  33	29.77
7:45:                   3	29.77
7:45:                  33	29.82
7:46:                   4	29.81
7:46:                  34	29.81
7:47:                   4	29.81
7:47:                  34	29.79
7:48:                   4	29.78
7:48:                  34	29.77
7:49:                   4	29.79
7:49:                  34	29.79
7:50:                   4	29.82
7:50:                  34	29.82
7:51:                   4	29.81
7:51:                  34	29.80
7:52:                   4	29.77
7:52:                  34	29.77
7:53:                   4	29.76
7:53:                  34	29.74
7:54:                   4	29.74
7:54:                  34	29.72
7:55:                   4	29.75
7:55:                  34	29.73
7:56:                   4	29.72
7:56:                  34	29.69
7:57:                   4	29.71
7:57:                  34	29.72
7:58:                   4	29.71
7:58:                  34	29.71
7:59:                   4	29.69
7:59:                  34	29.72
8:00:                   4	29.73
8:00:                  34	29.73
8:01:                   4	29.72
8:01:                  34	29.70
8:02:                   4	29.71
8:02:                  34	29.71
8:03:                   4	29.73
8:03:                  34	29.74
8:04:                   4	29.75
8:04:                  34	29.74
8:05:                   4	29.74
8:05:                  35	29.74
8:06:                   5	29.73
8:06:                  35	29.74
8:07:                   5	29.76
8:07:                  35	29.76
8:08:                   5	29.77
8:08:                  35	29.76
8:09:                   5	29.77
8:09:                  35	29.74
8:10:                   5	29.74
8:10:                  35	29.75
8:11:                   5	29.75
8:11:                  35	29.72
8:12:                   5	29.73
8:12:                  35	29.73
8:13:                   5	29.74
8:13:                  35	29.75
8:14:                   5	29.74
8:14:                  35	29.76
8:15:                   5	29.73
8:15:                  35	29.72
8:16:                   5	29.72
8:16:                  35	29.74
8:17:                   5	29.76
8:17:                  35	29.76
8:18:                   5	29.77
8:18:                  35	29.76
8:19:                   5	29.79
8:19:                  35	29.77
8:20:                   5	29.74
8:20:                  35	29.72
8:21:                   5	29.70
8:21:                  35	29.73
8:22:                   6	29.72
8:22:                  36	29.72
8:23:                   6	29.72
8:23:                  36	29.67
8:24:                   6	29.69
8:24:                  36	29.71
8:25:                   6	29.72
8:25:                  36	29.71
8:26:                   6	29.70
8:26:                  36	29.70
8:27:                   6	29.70
8:27:                  36	29.71
8:28:                   6	29.70
8:28:                  36	29.72
8:29:                   6	29.72
8:29:                  36	29.73
8:30:                   6	29.71
8:30:                  36	29.71
8:31:                   6	29.73
8:31:                  36	29.74
8:32:                   6	29.73
8:32:                  36	29.73
8:33:                   6	29.72
8:33:                  36	29.70
8:34:                   6	29.72
8:34:                  36	29.71
8:35:                   6	29.71
8:35:                  36	29.72
8:36:                   6	29.72
8:36:                  36	29.72
8:37:                   6	29.72
8:37:                  36	29.71
8:38:                   6	29.72
8:38:                  36	29.70
8:39:                   6	29.71
8:39:                  36	29.72
8:40:                   6	29.75
8:40:                  36	29.75
8:41:                   6	29.74
8:41:                  36	29.73
8:42:                   7	29.72
8:42:                  37	29.72
8:43:                   7	29.71
8:43:                  37	29.70
8:44:                   7	29.71
8:44:                  37	29.72
8:45:                   7	29.68
8:45:                  37	29.68
8:46:                   7	29.71
8:46:                  37	29.73
8:47:                   7	29.72
8:47:                  37	29.71
8:48:                   7	29.71
8:48:                  37	29.70
8:49:                   7	29.69
8:49:                  37	29.72
8:50:                   7	29.72
8:50:                  37	29.71
8:51:                   7	29.70
8:51:                  37	29.71
8:52:                   7	29.73
8:52:                  37	29.72
8:53:                   7	29.75
8:53:                  37	29.73
8:54:                   7	29.73
8:54:                  37	29.72
8:55:                   7	29.72
8:55:                  37	29.72
8:56:                   7	29.72
8:56:                  37	29.72
8:57:                   7	29.72
8:57:                  37	29.71
8:58:                   7	29.70
8:58:                  38	29.70
8:59:                   8	29.67
8:59:                  38	29.69
9:00:                   8	29.69
9:00:                  38	29.72
9:01:                   8	29.71
9:01:                  38	29.72
9:02:                   8	29.72
9:02:                  38	29.71
9:03:                   8	29.70
9:03:                  38	29.68
9:04:                   8	29.70
9:04:                  38	29.69
9:05:                   8	29.69
9:05:                  38	29.68
9:06:                   8	29.67
9:06:                  38	29.66
9:07:                   8	29.66
9:07:                  38	29.67
9:08:                   8	29.67
9:08:                  38	29.67
9:09:                   8	29.67
9:09:                  38	29.69
9:10:                   8	29.70
9:10:                  38	29.70
9:11:                   8	29.69
9:11:                  38	29.68
9:12:                   8	29.68
9:12:                  38	29.67
9:13:                   8	29.66
9:13:                  38	29.66
9:14:                   8	29.66
9:14:                  38	29.70
9:15:                   8	29.70
9:15:                  38	29.71
9:16:                   8	29.70
9:16:                  38	29.67
9:17:                   8	29.68
9:17:                  39	29.65
9:18:                   9	29.66
9:18:                  39	29.66
9:19:                   9	29.68
9:19:                  39	29.68
9:20:                   9	29.69
9:20:                  39	29.68
9:21:                   9	29.69
9:21:                  39	29.71
9:22:                   9	29.73
9:22:                  39	29.74
9:23:                   9	29.72
9:23:                  39	29.72
9:24:                   9	29.72
9:24:                  39	29.70
9:25:                   9	29.72
9:25:                  39	29.72
9:26:                   9	29.72
9:26:                  39	29.72
9:27:                   9	29.72
9:27:                  39	29.71
9:28:                   9	29.72
9:28:                  39	29.74
9:29:                   9	29.73
9:29:                  39	29.73
9:30:                   9	29.73
9:30:                  39	29.73
9:31:                   9	29.73
9:31:                  39	29.74
9:32:                   9	29.72
9:32:                  39	29.72
9:33:                   9	29.71
9:33:                  39	29.73
9:34:                   9	29.72
9:34:                  39	29.73
9:35:                   9	29.72
9:35:                  39	29.73
9:36:                   9	29.72
9:36:                  39	29.71
9:37:                   9	29.71
9:37:                  39	29.70
9:38:                   9	29.71
9:38:                  39	29.71
9:39:                   9	29.70
9:39:                  39	29.71
9:40:                  10	29.71
9:40:                  40	29.70
9:41:                  10	29.70
9:41:                  40	29.68
9:42:                  10	29.68
9:42:                  40	29.68
9:43:                  10	29.68
9:43:                  40	29.69
9:44:                  10	29.70
9:44:                  40	29.71
9:45:                  10	29.72
9:45:                  40	29.71
9:46:                  10	29.72
9:46:                  40	29.72
9:47:                  10	29.71
9:47:                  40	29.71
9:48:                  10	29.71
9:48:                  40	29.72
9:49:                  10	29.72
9:49:                  40	29.72
9:50:                  10	29.71
9:50:                  40	29.69
9:51:                  10	29.68
9:51:                  40	29.68
9:52:                  10	29.70
9:52:                  40	29.70
9:53:                  10	29.69
9:53:                  40	29.70
9:54:                  10	29.70
9:54:                  40	29.72
9:55:                  10	29.73
9:55:                  40	29.73
9:56:                  10	29.72
9:56:                  40	29.71
9:57:                  10	29.70
9:57:                  41	29.70
9:58:                  11	29.67
9:58:                  41	29.67
9:59:                  11	29.69
9:59:                  41	29.66
10:00:                  11	29.69
10:00:                  41	29.67
10:01:                  11	29.69
10:01:                  41	29.70
10:02:                  11	29.68
10:02:                  41	29.70
10:03:                  11	29.70
10:03:                  41	29.69
10:04:                  11	29.68
10:04:                  41	29.67
10:05:                  11	29.69
10:05:                  41	29.69
10:06:                  11	29.73
10:06:                  41	29.72
10:07:                  11	29.74
10:07:                  41	29.74
10:08:                  11	29.74
10:08:                  41	29.72
10:09:                  11	29.73
10:09:                  41	29.75
10:10:                  11	29.75
10:10:                  41	29.77
10:11:                  11	29.77
10:11:                  41	29.76
10:12:                  11	29.76
10:12:                  41	29.78
10:13:                  11	29.77
10:13:                  41	29.75
10:14:                  11	29.75
10:14:                  41	29.75
10:15:                  11	29.77
10:15:                  41	29.76
10:16:                  11	29.74
10:16:                  41	29.75
10:17:                  11	29.73
10:17:                  41	29.76
10:18:                  12	29.74
10:18:                  42	29.72
10:19:                  12	29.72
10:19:                  42	29.72
10:20:                  12	29.72
10:20:                  42	29.72
10:21:                  12	29.72
10:21:                  42	29.71
10:22:                  12	29.70
10:22:                  42	29.72
10:23:                  12	29.72
10:23:                  42	29.72
10:24:                  12	29.71
10:24:                  42	29.70
10:25:                  12	29.72
10:25:                  42	29.75
10:26:                  12	29.74
10:26:                  42	29.72
10:27:                  12	29.73
10:27:                  42	29.71
10:28:                  12	29.70
10:28:                  42	29.71
10:29:                  12	29.70
10:29:                  42	29.68
10:30:                  12	29.70
10:30:                  42	29.69
10:31:                  12	29.71
10:31:                  42	29.69
10:32:                  12	29.70
10:32:                  42	29.72
10:33:                  12	29.71
10:33:                  42	29.69
10:34:                  12	29.66
10:34:                  42	29.67
10:35:                  12	29.68
10:35:                  42	29.72
10:36:                  12	29.72
10:36:                  42	29.71
10:37:                  12	29.72
10:37:                  42	29.73
10:38:                  12	29.72
10:38:                  42	29.70
10:39:                  12	29.71
10:39:                  42	29.69
10:40:                  12	29.70
10:40:                  42	29.69
10:41:                  13	29.68
10:41:                  43	29.66
10:42:                  13	29.66
10:42:                  43	29.65
10:43:                  13	29.64
10:43:                  43	29.67
10:44:                  13	29.68
10:44:                  43	29.69
10:45:                  13	29.68
10:45:                  43	29.67
10:46:                  13	29.67
10:46:                  43	29.67
10:47:                  13	29.68
10:47:                  43	29.68
10:48:                  13	29.69
10:48:                  43	29.68
10:49:                  13	29.66
10:49:                  43	29.67
10:50:                  13	29.69
10:50:                  43	29.68
10:51:                  13	29.67
10:51:                  43	29.67
10:52:                  13	29.67
10:52:                  43	29.69
10:53:                  13	29.70
10:53:                  43	29.68
10:54:                  13	29.67
10:54:                  43	29.66
10:55:                  13	29.67
10:55:                  43	29.65
10:56:                  13	29.65
10:56:                  43	29.66
10:57:                  13	29.66
10:57:                  43	29.67
10:58:                  13	29.67
10:58:                  43	29.66
10:59:                  13	29.66
10:59:                  43	29.67
11:00:                  14	29.67
11:00:                  44	29.67
11:01:                  14	29.70
11:01:                  44	29.71
11:02:                  14	29.73
11:02:                  44	29.73
11:03:                  14	29.72
11:03:                  44	29.71
11:04:                  14	29.70
11:04:                  44	29.71
11:05:                  14	29.69
11:05:                  44	29.70
11:06:                  14	29.69
11:06:                  44	29.68
11:07:                  14	29.67
11:07:                  44	29.66
11:08:                  14	29.69
11:08:                  44	29.69
11:09:                  14	29.71
11:09:                  44	29.70
11:10:                  14	29.70
11:10:                  44	29.71
11:11:                  14	29.68
11:11:                  44	29.65
11:12:                  14	29.66
11:12:                  44	29.66
11:13:                  14	29.66
11:13:                  44	29.66
11:14:                  14	29.66
11:14:                  44	29.64
11:15:                  14	29.68
11:15:                  44	29.67
11:16:                  14	29.66
11:16:                  44	29.67
11:17:                  14	29.67
11:17:                  44	29.66
11:18:                  14	29.68
11:18:                  44	29.66
11:19:                  14	29.66
11:19:                  44	29.67
11:20:                  14	29.66
11:20:                  44	29.68
11:21:                  14	29.66
11:21:                  44	29.67
11:22:                  14	29.66
11:22:                  44	29.66
11:23:                  15	29.66
11:23:                  45	29.66
11:24:                  15	29.66
11:24:                  45	29.67
11:25:                  15	29.64
11:25:                  45	29.66
11:26:                  15	29.67
11:26:                  45	29.67
11:27:                  15	29.68
11:27:                  45	29.67
11:28:                  15	29.66
11:28:                  45	29.66
11:29:                  15	29.66
11:29:                  45	29.68
11:30:                  15	29.69
11:30:                  45	29.72
11:31:                  15	29.72
11:31:                  45	29.72
11:32:                  15	29.70
11:32:                  45	29.70
11:33:                  15	29.74
11:33:                  45	29.73
11:34:                  15	29.72
11:34:                  45	29.71
11:35:                  15	29.71
11:35:                  45	29.69
11:36:                  15	29.69
11:36:                  45	29.68
11:37:                  15	29.68
11:37:                  45	29.69
11:38:                  15	29.68
11:38:                  45	29.67
11:39:                  15	29.67
11:39:                  46	29.67
11:40:                  16	29.68
11:40:                  46	29.68
11:41:                  16	29.69
11:41:                  46	29.69
11:42:                  16	29.68
11:42:                  46	29.68
11:43:                  16	29.69
11:43:                  46	29.68
11:44:                  16	29.67
11:44:                  46	29.67
11:45:                  16	29.67
11:45:                  46	29.67
11:46:                  16	29.67
11:46:                  46	29.66
11:47:                  16	29.66
11:47:                  46	29.66
11:48:                  16	29.66
11:48:                  46	29.64
11:49:                  16	29.64
11:49:                  46	29.66
11:50:                  16	29.64
11:50:                  46	29.65
11:51:                  16	29.70
11:51:                  46	29.71
11:52:                  16	29.72
11:52:                  46	29.71
11:53:                  16	29.71
11:53:                  46	29.70
11:54:                  16	29.70
11:54:                  46	29.69
11:55:                  16	29.68
11:55:                  46	29.66
11:56:                  17	29.65
11:56:                  47	29.66
11:57:                  17	29.66
11:57:                  47	29.67
11:58:                  17	29.67
11:58:                  47	29.66
11:59:                  17	29.66
11:59:                  47	29.65
12:00:                  17	29.65
12:00:                  47	29.66
12:01:                  17	29.68
12:01:                  47	29.69
12:02:                  17	29.69
12:02:                  47	29.66
12:03:                  17	29.67
12:03:                  47	29.68
12:04:                  17	29.70
12:04:                  47	29.71
12:05:                  17	29.71
12:05:                  47	29.69
12:06:                  17	29.68
12:06:                  47	29.66
12:07:                  17	29.67
12:07:                  47	29.71
12:08:                  17	29.72
12:08:                  47	29.72
12:09:                  17	29.69
12:09:                  47	29.72
12:10:                  17	29.75
12:10:                  47	29.74
12:11:                  17	29.73
12:11:                  47	29.75
12:12:                  17	29.72
12:12:                  47	29.72
12:13:                  17	29.71
12:13:                  47	29.70
12:14:                  17	29.70
12:14:                  47	29.68
12:15:                  17	29.66
12:15:                  47	29.66
12:16:                  18	29.65
12:16:                  48	29.65
12:17:                  18	29.65
12:17:                  48	29.64
12:18:                  18	29.66
12:18:                  48	29.66
12:19:                  18	29.67
12:19:                  48	29.68
12:20:                  18	29.67
12:20:                  48	29.68
12:21:                  18	29.67
12:21:                  48	29.68
12:22:                  18	29.68
12:22:                  48	29.67
12:23:                  18	29.66
12:23:                  48	29.63
12:24:                  18	29.66
12:24:                  48	29.65
12:25:                  18	29.65
12:25:                  48	29.64
12:26:                  18	29.65
12:26:                  48	29.63
12:27:                  18	29.64
12:27:                  48	29.63
12:28:                  18	29.62
12:28:                  48	29.61
12:29:                  18	29.63
12:29:                  48	29.64
12:30:                  18	29.63
12:30:                  48	29.63
12:31:                  18	29.61
12:31:                  48	29.64
12:32:                  18	29.64
12:32:                  48	29.65
12:33:                  18	29.65
12:33:                  48	29.66
12:34:                  18	29.68
12:34:                  48	29.66
12:35:                  19	29.65
12:35:                  49	29.66
12:36:                  19	29.67
12:36:                  49	29.66
12:37:                  19	29.65
12:37:                  49	29.67
12:38:                  19	29.66
12:38:                  49	29.65
12:39:                  19	29.67
12:39:                  49	29.66
12:40:                  19	29.67
12:40:                  49	29.68
12:41:                  19	29.68
12:41:                  49	29.67
12:42:                  19	29.66
12:42:                  49	29.65
12:43:                  19	29.66
12:43:                  49	29.66
12:44:                  19	29.64
12:44:                  49	29.64
12:45:                  19	29.64
12:45:                  49	29.64
12:46:                  19	29.62
12:46:                  49	29.63
12:47:                  19	29.63
12:47:                  49	29.63
12:48:                  19	29.63
12:48:                  49	29.63
12:49:                  19	29.64
12:49:                  49	29.66
12:50:                  19	29.65
12:50:                  49	29.63
12:51:                  19	29.65
12:51:                  50	29.66
12:52:                  20	29.64
12:52:                  50	29.66
12:53:                  20	29.66
12:53:                  50	29.66
12:54:                  20	29.65
12:54:                  50	29.67
12:55:                  20	29.69
12:55:                  50	29.70
12:56:                  20	29.71
12:56:                  50	29.69
12:57:                  20	29.68
12:57:                  50	29.67
12:58:                  20	29.68
12:58:                  50	29.68
12:59:                  20	29.67
12:59:                  50	29.67
13:00:                  20	29.66
13:00:                  50	29.66
13:01:                  20	29.66
13:01:                  50	29.65
13:02:                  20	29.65
13:02:                  50	29.66
13:03:                  20	29.68
13:03:                  50	29.68
13:04:                  20	29.69
13:04:                  50	29.71
13:05:                  20	29.72
13:05:                  50	29.69
13:06:                  20	29.70
13:06:                  50	29.68
13:07:                  20	29.66
13:07:                  50	29.66
13:08:                  21	29.64
13:08:                  51	29.63
13:09:                  21	29.64
13:09:                  51	29.63
13:10:                  21	29.64
13:10:                  51	29.64
13:11:                  21	29.62
13:11:                  51	29.61
13:12:                  21	29.61
13:12:                  51	29.62
13:13:                  21	29.64
13:13:                  51	29.63
13:14:                  21	29.65
13:14:                  51	29.65
13:15:                  21	29.67
13:15:                  51	29.67
13:16:                  21	29.66
13:16:                  51	29.66
13:17:                  21	29.63
13:17:                  51	29.63
13:18:                  21	29.63
13:18:                  51	29.63
13:19:                  21	29.64
13:19:                  51	29.64
13:20:                  21	29.65
13:20:                  51	29.65
13:21:                  21	29.64
13:21:                  51	29.64
13:22:                  21	29.66
13:22:                  51	29.67
13:23:                  21	29.67
13:23:                  51	29.65
13:24:                  21	29.65
13:24:                  51	29.66
13:25:                  21	29.65
13:25:                  51	29.65
13:26:                  21	29.65
13:26:                  51	29.64
13:27:                  21	29.64
13:27:                  51	29.63
13:28:                  21	29.64
13:28:                  51	29.65
13:29:                  21	29.65
13:29:                  51	29.63
13:30:                  22	29.63
13:30:                  52	29.63
13:31:                  22	29.62
13:31:                  52	29.64
13:32:                  22	29.64
13:32:                  52	29.65
13:33:                  22	29.65
13:33:                  52	29.64
13:34:                  22	29.64
13:34:                  52	29.64
13:35:                  22	29.64
13:35:                  52	29.63
13:36:                  22	29.63
13:36:                  52	29.63
13:37:                  22	29.65
13:37:                  52	29.66
13:38:                  22	29.65
13:38:                  52	29.63
13:39:                  22	29.64
13:39:                  52	29.64
13:40:                  22	29.63
13:40:                  52	29.63
13:41:                  22	29.65
13:41:                  52	29.65
13:42:                  22	29.63
13:42:                  52	29.64
13:43:                  22	29.64
13:43:                  52	29.61
13:44:                  22	29.60
13:44:                  52	29.62
13:45:                  22	29.60
13:45:                  52	29.60
13:46:                  22	29.63
13:46:                  52	29.62
13:47:                  22	29.63
13:47:                  52	29.64
13:48:                  22	29.64
13:48:                  52	29.64
13:49:                  22	29.64
13:49:                  52	29.64
13:50:                  22	29.66
13:50:                  53	29.65
13:51:                  23	29.65
13:51:                  53	29.64
13:52:                  23	29.64
13:52:                  53	29.63
13:53:                  23	29.63
13:53:                  53	29.60
13:54:                  23	29.63
13:54:                  53	29.64
13:55:                  23	29.66
13:55:                  53	29.66
13:56:                  23	29.64
13:56:                  53	29.64
13:57:                  23	29.64
13:57:                  53	29.64
13:58:                  23	29.63
13:58:                  53	29.60
13:59:                  23	29.61
13:59:                  53	29.62
14:00:                  23	29.61
14:00:                  53	29.62
14:01:                  23	29.62
14:01:                  53	29.63
14:02:                  23	29.61
14:02:                  53	29.61
14:03:                  23	29.63
14:03:                  53	29.61
14:04:                  23	29.63
14:04:                  53	29.63
14:05:                  23	29.64
14:05:                  53	29.65
14:06:                  23	29.64
14:06:                  54	29.64
14:07:                  24	29.62
14:07:                  54	29.64
14:08:                  24	29.64
14:08:                  54	29.64
14:09:                  24	29.64
14:09:                  54	29.64
14:10:                  24	29.63
14:10:                  54	29.63
14:11:                  24	29.64
14:11:                  54	29.64
14:12:                  24	29.63
14:12:                  54	29.63
14:13:                  24	29.63
14:13:                  54	29.63
14:14:                  24	29.63
14:14:                  54	29.61
14:15:                  24	29.60
14:15:                  54	29.60
14:16:                  24	29.60
14:16:                  54	29.60
14:17:                  24	29.59
14:17:                  54	29.60
14:18:                  24	29.61
14:18:                  54	29.63
14:19:                  24	29.63
14:19:                  54	29.60
14:20:                  24	29.61
14:20:                  54	29.63
14:21:                  24	29.64
14:21:                  54	29.65
14:22:                  24	29.65
14:22:                  54	29.65
14:23:                  24	29.63
14:23:                  54	29.62
14:24:                  24	29.63
14:24:                  54	29.65
14:25:                  24	29.63
14:25:                  54	29.64
14:26:                  24	29.63
14:26:                  55	29.62
14:27:                  25	29.63
14:27:                  55	29.62
14:28:                  25	29.64
14:28:                  55	29.67
14:29:                  25	29.66
14:29:                  55	29.65
14:30:                  25	29.65
14:30:                  55	29.65
14:31:                  25	29.64
14:31:                  55	29.64
14:32:                  25	29.65
14:32:                  55	29.64
14:33:                  25	29.63
14:33:                  55	29.64
14:34:                  25	29.65
14:34:                  55	29.66
14:35:                  25	29.67
14:35:                  55	29.68
14:36:                  25	29.66
14:36:                  55	29.64
14:37:                  25	29.63
14:37:                  55	29.63
14:38:                  25	29.63
14:38:                  55	29.64
14:39:                  25	29.65
14:39:                  55	29.65
14:40:                  25	29.63
14:40:                  55	29.64
14:41:                  25	29.63
14:41:                  55	29.63
14:42:                  25	29.63
14:42:                  55	29.61
14:43:                  26	29.62
14:43:                  56	29.64
14:44:                  26	29.64
14:44:                  56	29.64
14:45:                  26	29.64
14:45:                  56	29.63
14:46:                  26	29.61
14:46:                  56	29.62
14:47:                  26	29.63
14:47:                  56	29.63
14:48:                  26	29.65
14:48:                  56	29.64
14:49:                  26	29.64
14:49:                  56	29.62
14:50:                  26	29.60
14:50:                  56	29.60
14:51:                  26	29.63
14:51:                  56	29.66
14:52:                  26	29.67
14:52:                  56	29.66
14:53:                  26	29.66
14:53:                  56	29.66
14:54:                  26	29.66
14:54:                  56	29.67
14:55:                  26	29.66
14:55:                  56	29.66
14:56:                  26	29.66
14:56:                  56	29.66
14:57:                  26	29.66
14:57:                  56	29.67
14:58:                  26	29.65
14:58:                  56	29.65
14:59:                  26	29.66
14:59:                  56	29.66
15:00:                  26	29.65
15:00:                  56	29.65
15:01:                  26	29.65
15:01:                  57	29.64
15:02:                  27	29.63
15:02:                  57	29.66
15:03:                  27	29.66
15:03:                  57	29.65
15:04:                  27	29.65
15:04:                  57	29.65
15:05:                  27	29.63
15:05:                  57	29.64
15:06:                  27	29.64
15:06:                  57	29.64
15:07:                  27	29.64
15:07:                  57	29.64
15:08:                  27	29.63
15:08:                  57	29.63
15:09:                  27	29.65
15:09:                  57	29.67
15:10:                  27	29.71
15:10:                  57	29.71
15:11:                  27	29.70
15:11:                  57	29.68
15:12:                  27	29.68
15:12:                  57	29.68
15:13:                  27	29.67
15:13:                  57	29.66
15:14:                  27	29.65
15:14:                  57	29.65
15:15:                  27	29.64
15:15:                  57	29.65
15:16:                  27	29.64
15:16:                  57	29.65
15:17:                  27	29.63
15:17:                  57	29.63
15:18:                  27	29.64
15:18:                  57	29.66
15:19:                  27	29.65
15:19:                  57	29.69
15:20:                  27	29.68
15:20:                  57	29.68
15:21:                  27	29.69
15:21:                  58	29.68
15:22:                  28	29.67
15:22:                  58	29.67
15:23:                  28	29.65
15:23:                  58	29.65
15:24:                  28	29.64
15:24:                  58	29.64
15:25:                  28	29.63
15:25:                  58	29.61
15:26:                  28	29.60
15:26:                  58	29.64
15:27:                  28	29.65
15:27:                  58	29.66
15:28:                  28	29.65
15:28:                  58	29.64
15:29:                  28	29.64
15:29:                  58	29.65
15:30:                  28	29.67
15:30:                  58	29.68
15:31:                  28	29.67
15:31:                  58	29.67
15:32:                  28	29.67
15:32:                  58	29.67
15:33:                  28	29.67
15:33:                  58	29.67
15:34:                  28	29.69
15:34:                  58	29.69
15:35:                  28	29.70
15:35:                  58	29.70
15:36:                  28	29.71
15:36:                  58	29.69
15:37:                  28	29.71
15:37:                  58	29.72
15:38:                  29	29.69
15:38:                  59	29.69
15:39:                  29	29.69
15:39:                  59	29.70
15:40:                  29	29.71
15:40:                  59	29.72
15:41:                  29	29.72
15:41:                  59	29.71
15:42:                  29	29.69
15:42:                  59	29.70
15:43:                  29	29.71
15:43:                  59	29.72
15:44:                  29	29.70
15:44:                  59	29.71
15:45:                  29	29.69
15:45:                  59	29.68
15:46:                  29	29.68
15:46:                  59	29.71
15:47:                  29	29.73
15:47:                  59	29.72
15:48:                  29	29.72
15:48:                  59	29.70
15:49:                  29	29.71
15:49:                  59	29.69
15:50:                  29	29.72
15:50:                  59	29.72
15:51:                  29	29.71
15:51:                  59	29.70
15:52:                  29	29.71
15:52:                  59	29.71
15:53:                  29	29.72
15:53:                  59	29.72
15:54:                  30	29.71
15:55:                   0	29.72
15:55:                  30	29.72
15:56:                   0	29.71
15:56:                  30	29.71
15:57:                   0	29.74
15:57:                  30	29.73
15:58:                   0	29.77
15:58:                  30	29.77
15:59:                   0	29.76
15:59:                  30	29.74
16:00:                   0	29.73
16:00:                  30	29.73
16:01:                   0	29.74
16:01:                  30	29.72
16:02:                   0	29.72
16:02:                  30	29.71
16:03:                   0	29.72
16:03:                  30	29.74
16:04:                   0	29.75
16:04:                  30	29.74
16:05:                   0	29.74
16:05:                  30	29.76
16:06:                   0	29.78
16:06:                  30	29.78
16:07:                   0	29.78
16:07:                  30	29.76
16:08:                   0	29.75
16:08:                  30	29.77
16:09:                   0	29.77
16:09:                  30	29.77
16:10:                   0	29.75
16:10:                  31	29.75
16:11:                   1	29.75
16:11:                  31	29.75
16:12:                   1	29.74
16:12:                  31	29.74
16:13:                   1	29.74
16:13:                  31	29.77
16:14:                   1	29.80
16:14:                  31	29.80
16:15:                   1	29.80
16:15:                  31	29.79
16:16:                   1	29.77
16:16:                  31	29.78
16:17:                   1	29.78
16:17:                  31	29.80
16:18:                   1	29.79
16:18:                  31	29.80
16:19:                   1	29.78
16:19:                  31	29.79
16:20:                   1	29.83
16:20:                  31	29.84
16:21:                   1	29.84
16:21:                  31	29.84
16:22:                   1	29.83
16:22:                  31	29.81
16:23:                   1	29.78
16:23:                  31	29.78
16:24:                   1	29.78
16:24:                  31	29.81
16:25:                   1	29.82
16:25:                  31	29.84
16:26:                   1	29.85
16:26:                  31	29.88
16:27:                   2	29.86
16:27:                  32	29.86
16:28:                   2	29.85
16:28:                  32	29.82
16:29:                   2	29.82
16:29:                  32	29.83
16:30:                   2	29.84
16:30:                  32	29.86
16:31:                   2	29.86
16:31:                  32	29.87
16:32:                   2	29.87
16:32:                  32	29.89
16:33:                   2	29.88
16:33:                  32	29.86
16:34:                   2	29.85
16:34:                  32	29.84
16:35:                   2	29.84
16:35:                  32	29.82
16:36:                   2	29.81
16:36:                  32	29.81
16:37:                   2	29.82
16:37:                  32	29.80
16:38:                   2	29.81
16:38:                  32	29.82
16:39:                   2	29.80
16:39:                  32	29.78
16:40:                   2	29.79
16:40:                  32	29.81
16:41:                   2	29.83
16:41:                  32	29.82
16:42:                   2	29.85
16:42:                  32	29.86
16:43:                   2	29.86
16:43:                  33	29.89
16:44:                   3	29.90
16:44:                  33	29.87
16:45:                   3	29.88
16:45:                  33	29.89
16:46:                   3	29.88
16:46:                  33	29.89
16:47:                   3	29.85
16:47:                  33	29.87
16:48:                   3	29.88
16:48:                  33	29.88
16:49:                   3	29.90
16:49:                  33	29.90
16:50:                   3	29.87
16:50:                  33	29.85
16:51:                   3	29.85
16:51:                  33	29.83
16:52:                   3	29.85
16:52:                  33	29.88
16:53:                   3	29.89
16:53:                  33	29.88
16:54:                   3	29.87
16:54:                  33	29.86
16:55:                   3	29.85
16:55:                  33	29.85
16:56:                   3	29.83
16:56:                  33	29.84
16:57:                   3	29.85
16:57:                  33	29.87
16:58:                   3	29.88
16:58:                  33	29.87
16:59:                   3	29.84
16:59:                  34	29.86
17:00:                   4	29.86
17:00:                  34	29.85
17:01:                   4	29.87
17:01:                  34	29.88
17:02:                   4	29.87
17:02:                  34	29.88
17:03:                   4	29.85
17:03:                  34	29.86
17:04:                   4	29.85
17:04:                  34	29.85
17:05:                   4	29.83
17:05:                  34	29.83
17:06:                   4	29.83
17:06:                  34	29.85
17:07:                   4	29.87
17:07:                  34	29.86
17:08:                   4	29.88
17:08:                  34	29.85
17:09:                   4	29.84
17:09:                  34	29.87
17:10:                   4	29.88
17:10:                  34	29.90
17:11:                   4	29.93
17:11:                  34	29.93
17:12:                   4	29.95
17:12:                  34	29.95
17:13:                   4	29.93
17:13:                  34	29.91
17:14:                   4	29.93
17:14:                  34	29.89
17:15:                   4	29.91
17:15:                  34	29.90
17:16:                   4	29.88
17:16:                  35	29.88
17:17:                   5	29.87
17:17:                  35	29.88
17:18:                   5	29.90
17:18:                  35	29.90
17:19:                   5	29.93
17:19:                  35	29.94
17:20:                   5	29.94
17:20:                  35	29.95
17:21:                   5	29.98
17:21:                  35	29.96
17:22:                   5	29.96
17:22:                  35	29.96
17:23:                   5	29.94
17:23:                  35	29.96
17:24:                   5	29.94
17:24:                  35	29.96
17:25:                   5	29.97
17:25:                  35	29.97
17:26:                   5	29.97
17:26:                  35	29.94
17:27:                   5	29.92
17:27:                  35	29.92
17:28:                   5	29.93
17:28:                  35	29.96
17:29:                   5	29.95
17:29:                  35	29.96
17:30:                   5	29.94
17:30:                  35	29.95
17:31:                   5	29.95
17:31:                  35	29.96
17:32:                   5	29.96
17:32:                  36	29.96
17:33:                   6	29.96
17:33:                  36	29.90
17:34:                   6	29.89
17:34:                  36	29.93
17:35:                   6	29.93
17:35:                  36	29.93
17:36:                   6	29.91
17:36:                  36	29.93
17:37:                   6	29.92
17:37:                  36	29.91
17:38:                   6	29.91
17:38:                  36	29.91
17:39:                   6	29.95
17:39:                  36	29.93
17:40:                   6	29.93
17:40:                  36	29.91
17:41:                   6	29.93
17:41:                  36	29.95
17:42:                   6	29.94
17:42:                  36	29.94
17:43:                   6	29.94
17:43:                  36	29.94
17:44:                   6	29.96
17:44:                  36	29.96
17:45:                   6	29.95
17:45:                  36	29.96
17:46:                   6	29.95
17:46:                  36	29.95
17:47:                   6	29.96
17:47:                  36	29.96
17:48:                   6	29.95
17:48:                  36	29.95
17:49:                   7	29.98
17:49:                  37	29.96
17:50:                   7	29.96
17:50:                  37	29.97
17:51:                   7	29.98
17:51:                  37	29.97
17:52:                   7	29.96
17:52:                  37	29.96
17:53:                   7	29.99
17:53:                  37	30.00
17:54:                   7	30.00
17:54:                  37	30.01
17:55:                   7	30.00
17:55:                  37	29.99
17:56:                   7	29.99
17:56:                  37	29.98
17:57:                   7	29.98
17:57:                  37	29.99
17:58:                   7	29.98
17:58:                  37	29.98
17:59:                   7	29.96
17:59:                  37	29.94
18:00:                   7	29.94
18:00:                  37	29.95
18:01:                   7	29.93
18:01:                  37	29.93
18:02:                   7	29.91
18:02:                  37	29.93
18:03:                   7	29.94
18:03:                  37	29.94
18:04:                   7	29.94
18:04:                  37	29.93
18:05:                   8	29.94
18:05:                  38	29.95
18:06:                   8	29.95
18:06:                  38	29.95
18:07:                   8	29.95
18:07:                  38	29.95
18:08:                   8	29.95
18:08:                  38	29.97
18:09:                   8	29.97
18:09:                  38	29.97
18:10:                   8	29.97
18:10:                  38	29.98
18:11:                   8	29.98
18:11:                  38	30.01
18:12:                   8	30.00
18:12:                  38	29.98
18:13:                   8	29.99
18:13:                  38	29.98
18:14:                   8	29.97
18:14:                  38	30.00
18:15:                   8	29.99
18:15:                  38	29.98
18:16:                   8	29.98
18:16:                  38	29.98
18:17:                   8	29.99
18:17:                  38	29.98
18:18:                   8	29.99
18:18:                  38	29.97
18:19:                   8	29.97
18:19:                  38	29.95
18:20:                   8	29.94
18:20:                  38	29.93
18:21:                   8	29.92
18:21:                  38	29.94
18:22:                   8	29.91
18:22:                  39	29.92
18:23:                   9	29.94
18:23:                  39	29.95
18:24:                   9	29.96
18:24:                  39	29.95
18:25:                   9	29.96
18:25:                  39	29.95
18:26:                   9	29.93
18:26:                  39	29.97
18:27:                   9	29.95
18:27:                  39	29.94
18:28:                   9	29.94
18:28:                  39	29.93
18:29:                   9	29.91
18:29:                  39	29.94
18:30:                   9	29.94
18:30:                  39	29.91
18:31:                   9	29.88
18:31:                  39	29.88
18:32:                   9	29.87
18:32:                  39	29.87
18:33:                   9	29.86
18:33:                  39	29.84
18:34:                   9	29.84
18:34:                  39	29.83
18:35:                   9	29.83
18:35:                  39	29.84
18:36:                   9	29.85
18:36:                  39	29.85
18:37:                   9	29.84
18:37:                  39	29.87
18:38:                   9	29.87
18:38:                  39	29.89
18:39:                   9	29.89
18:39:                  39	29.89
18:40:                   9	29.88
18:40:                  39	29.91
18:41:                   9	29.91
18:41:                  39	29.91
18:42:                   9	29.93
18:42:                  40	29.93
18:43:                  10	29.94
18:43:                  40	29.97
18:44:                  10	29.95
18:44:                  40	29.94
18:45:                  10	29.92
18:45:                  40	29.93
18:46:                  10	29.90
18:46:                  40	29.88
18:47:                  10	29.88
18:47:                  40	29.89
18:48:                  10	29.90
18:48:                  40	29.89
18:49:                  10	29.88
18:49:                  40	29.89
18:50:                  10	29.89
18:50:                  40	29.89
18:51:                  10	29.88
18:51:                  40	29.88
18:52:                  10	29.89
18:52:                  40	29.91
18:53:                  10	29.93
18:53:                  40	29.90
18:54:                  10	29.91
18:54:                  40	29.91
18:55:                  10	29.93
18:55:                  40	29.92
18:56:                  10	29.94
18:56:                  40	29.90
18:57:                  10	29.95
18:57:                  40	29.94
18:58:                  10	29.94
18:58:                  40	29.95
18:59:                  11	29.91
18:59:                  41	29.92
19:00:                  11	29.95
19:00:                  41	29.96
19:01:                  11	29.97
19:01:                  41	29.96
19:02:                  11	29.96
19:02:                  41	29.95
19:03:                  11	29.92
19:03:                  41	29.93
19:04:                  11	29.96
19:04:                  41	29.96
19:05:                  11	29.96
19:05:                  41	29.97
19:06:                  11	29.96
19:06:                  41	29.95
19:07:                  11	29.91
19:07:                  41	29.90
19:08:                  11	29.90
19:08:                  41	29.94
19:09:                  11	29.94
19:09:                  41	29.91
19:10:                  11	29.93
19:10:                  41	29.94
19:11:                  11	29.96
19:11:                  41	29.94
19:12:                  11	29.94
19:12:                  41	29.93
19:13:                  11	29.94
19:13:                  41	29.97
19:14:                  11	29.95
19:14:                  41	29.96
19:15:                  11	29.97
19:15:                  42	29.96
19:16:                  12	29.97
19:16:                  42	29.97
19:17:                  12	29.94
19:17:                  42	29.96
19:18:                  12	29.95
19:18:                  42	29.95
19:19:                  12	29.95
19:19:                  42	29.94
19:20:                  12	29.94
19:20:                  42	29.91
19:21:                  12	29.93
19:21:                  42	29.95
19:22:                  12	29.94
19:22:                  42	29.93
19:23:                  12	29.92
19:23:                  42	29.95
19:24:                  12	29.94
19:24:                  42	29.94
19:25:                  12	29.93
19:25:                  42	29.93
19:26:                  12	29.93
19:26:                  42	29.94
19:27:                  12	29.94
19:27:                  42	29.94
19:28:                  12	29.96
19:28:                  42	29.94
19:29:                  12	29.95
19:29:                  42	29.96
19:30:                  12	29.95
19:30:                  42	29.97
19:31:                  12	29.96
19:31:                  42	29.93
19:32:                  12	29.94
19:32:                  42	29.96
19:33:                  12	29.97
19:33:                  42	29.96
19:34:                  12	29.95
19:34:                  43	29.95
19:35:                  13	29.97
19:35:                  43	29.96
19:36:                  13	29.97
19:36:                  43	29.97
19:37:                  13	29.98
19:37:                  43	29.98
19:38:                  13	29.97
19:38:                  43	29.96
19:39:                  13	29.95
19:39:                  43	29.94
19:40:                  13	29.95
19:40:                  43	29.97
19:41:                  13	29.97
19:41:                  43	29.98
19:42:                  13	29.99
19:42:                  43	29.99
19:43:                  13	29.96
19:43:                  43	29.97
19:44:                  13	29.96
19:44:                  43	29.95
19:45:                  13	29.96
19:45:                  43	29.98
19:46:                  13	29.98
19:46:                  43	29.97
19:47:                  13	29.96
19:47:                  43	29.99
19:48:                  13	29.98
19:48:                  43	29.98
19:49:                  13	29.97
19:49:                  43	29.98
19:50:                  13	29.98
19:50:                  43	29.97
19:51:                  13	29.97
19:51:                  43	29.97
19:52:                  13	29.98
19:52:                  43	29.97
19:53:                  13	29.98
19:53:                  43	29.99
19:54:                  13	29.99
19:54:                  44	29.98
19:55:                  14	29.98
19:55:                  44	29.98
19:56:                  14	29.99
19:56:                  44	29.98
19:57:                  14	30.00
19:57:                  44	29.99
19:58:                  14	29.99
19:58:                  44	29.98
19:59:                  14	29.97
19:59:                  44	29.98
20:00:                  14	29.98
20:00:                  44	29.98
20:01:                  14	29.98
20:01:                  44	29.96
20:02:                  14	29.98
20:02:                  44	29.98
20:03:                  14	29.97
20:03:                  44	29.97
20:04:                  14	29.96
20:04:                  44	29.98
20:05:                  14	29.96
20:05:                  44	29.97
20:06:                  14	29.97
20:06:                  44	29.97
20:07:                  14	29.97
20:07:                  44	29.97
20:08:                  14	29.98
20:08:                  44	29.98
20:09:                  14	29.98
20:09:                  44	29.97
20:10:                  14	29.95
20:10:                  44	29.95
20:11:                  14	29.94
20:11:                  44	29.94
20:12:                  14	29.95
20:12:                  44	29.95
20:13:                  14	29.95
20:13:                  44	29.96
20:14:                  14	29.97
20:14:                  44	29.97
20:15:                  14	29.96
20:15:                  44	29.97
20:16:                  14	29.98
20:16:                  44	29.96
20:17:                  14	29.97
20:17:                  45	29.97
20:18:                  15	29.97
20:18:                  45	29.96
20:19:                  15	29.96
20:19:                  45	29.96
20:20:                  15	29.97
20:20:                  45	29.96
20:21:                  15	29.95
20:21:                  45	29.97
20:22:                  15	29.97
20:22:                  45	29.98
20:23:                  15	29.98
20:23:                  45	29.96
20:24:                  15	29.96
20:24:                  45	29.95
20:25:                  15	29.94
20:25:                  45	29.94
20:26:                  15	29.96
20:26:                  45	29.94
20:27:                  15	29.93
20:27:                  45	29.95
20:28:                  15	29.95
20:28:                  45	29.96
20:29:                  15	29.95
20:29:                  45	29.93
20:30:                  15	29.90
20:30:                  45	29.91
20:31:                  15	29.93
20:31:                  45	29.95
20:32:                  15	29.95
20:32:                  45	29.96
20:33:                  15	29.94
20:33:                  45	29.96
20:34:                  15	29.96
20:34:                  45	29.94
20:35:                  15	29.94
20:35:                  45	29.91
20:36:                  15	29.93
20:36:                  45	29.96
20:37:                  15	29.95
20:37:                  45	29.93
20:38:                  15	29.97
20:38:                  45	29.96
20:39:                  16	29.97
20:39:                  46	29.96
20:40:                  16	29.96
20:40:                  46	29.98
20:41:                  16	29.97
20:41:                  46	29.98
20:42:                  16	29.96
20:42:                  46	29.97
20:43:                  16	29.96
20:43:                  46	29.96
20:44:                  16	29.96
20:44:                  46	29.96
20:45:                  16	29.98
20:45:                  46	29.97
20:46:                  16	29.98
20:46:                  46	29.97
20:47:                  16	29.98
20:47:                  46	29.97
20:48:                  16	29.96
20:48:                  46	29.98
20:49:                  16	29.98
20:49:                  46	29.97
20:50:                  16	29.97
20:50:                  46	29.97
20:51:                  16	29.97
20:51:                  46	29.99
20:52:                  16	30.00
20:52:                  46	29.98
20:53:                  16	29.97
20:53:                  46	29.98
20:54:                  16	29.99
20:54:                  46	29.99
20:55:                  16	29.98
20:55:                  47	29.97
20:56:                  17	29.98
20:56:                  47	29.97
20:57:                  17	29.98
20:57:                  47	29.99
20:58:                  17	29.99
20:58:                  47	29.99
20:59:                  17	30.00
20:59:                  47	29.98
21:00:                  17	29.98
21:00:                  47	29.99
21:01:                  17	29.99
21:01:                  47	30.00
21:02:                  17	29.98
21:02:                  47	29.96
21:03:                  17	29.95
21:03:                  47	29.97
21:04:                  17	29.96
21:04:                  47	29.97
21:05:                  17	29.98
21:05:                  47	29.98
21:06:                  17	29.95
21:06:                  47	29.90
21:07:                  17	29.88
21:07:                  47	29.86
21:08:                  17	29.82
21:08:                  47	29.80
21:09:                  17	29.83
21:09:                  47	29.87
21:10:                  17	29.89
21:10:                  47	29.92
21:11:                  17	29.94
21:11:                  47	29.96
21:12:                  17	29.97
21:12:                  47	29.97
21:13:                  18	29.95
21:13:                  48	29.95
21:14:                  18	29.95
21:14:                  48	29.95
21:15:                  18	29.94
21:15:                  48	29.94
21:16:                  18	29.97
21:16:                  48	29.98
21:17:                  18	29.95
21:17:                  48	29.95
21:18:                  18	29.95
21:18:                  48	29.97
21:19:                  18	29.95
21:19:                  48	29.97
21:20:                  18	29.96
21:20:                  48	29.93
21:21:                  18	29.91
21:21:                  48	29.90
21:22:                  18	29.90
21:22:                  48	29.89
21:23:                  18	29.93
21:23:                  48	29.97
21:24:                  18	29.96
21:24:                  48	29.98
21:25:                  18	29.96
21:25:                  48	29.95
21:26:                  18	29.94
21:26:                  48	29.92
21:27:                  18	29.94
21:27:                  48	29.94
21:28:                  18	29.95
21:28:                  48	29.94
21:29:                  18	29.97
21:29:                  48	29.96
21:30:                  18	29.97
21:30:                  48	29.98
21:31:                  18	29.97
21:31:                  48	29.98
21:32:                  18	29.96
21:32:                  48	29.96
21:33:                  18	29.98
21:33:                  49	29.97
21:34:                  19	29.97
21:34:                  49	29.95
21:35:                  19	29.94
21:35:                  49	29.94
21:36:                  19	29.97
21:36:                  49	29.96
21:37:                  19	29.94
21:37:                  49	29.95
21:38:                  19	29.96
21:38:                  49	29.98
21:39:                  19	29.96
21:39:                  49	29.95
21:40:                  19	29.96
21:40:                  49	29.97
21:41:                  19	29.99
21:41:                  49	29.99
21:42:                  19	29.98
21:42:                  49	29.99
21:43:                  19	29.95
21:43:                  49	29.96
21:44:                  19	29.97
21:44:                  49	29.96
21:45:                  19	29.97
21:45:                  49	29.99
21:46:                  19	30.00
21:46:                  49	29.98
21:47:                  19	29.98
21:47:                  49	29.98
21:48:                  19	29.96
21:48:                  49	29.98
21:49:                  19	29.94
21:49:                  49	29.91
21:50:                  19	29.90
21:50:                  49	29.90
21:51:                  19	29.90
21:51:                  49	29.91
21:52:                  19	29.93
21:52:                  49	29.94
21:53:                  19	29.93
21:53:                  49	29.91
21:54:                  19	29.94
21:54:                  50	29.95
21:55:                  20	29.95
21:55:                  50	29.95
21:56:                  20	29.96
21:56:                  50	29.97
21:57:                  20	29.97
21:57:                  50	29.94
21:58:                  20	29.90
21:58:                  50	29.87
21:59:                  20	29.88
21:59:                  50	29.90
22:00:                  20	29.93
22:00:                  50	29.93
22:01:                  20	29.95
22:01:                  50	29.95
22:02:                  20	29.97
22:02:                  50	29.95
22:03:                  20	29.98
22:03:                  50	29.97
22:04:                  20	29.98
22:04:                  50	30.01
22:05:                  20	29.99
22:05:                  50	29.98
22:06:                  20	29.98
22:06:                  50	29.99
22:07:                  20	29.98
22:07:                  50	29.95
22:08:                  20	29.93
22:08:                  50	29.94
22:09:                  20	29.96
22:09:                  50	29.95
22:10:                  20	29.99
22:10:                  50	29.96
22:11:                  20	29.96
22:11:                  50	29.98
22:12:                  20	29.98
22:12:                  50	29.97
22:13:                  20	29.99
22:13:                  50	29.98
22:14:                  20	29.99
22:14:                  50	29.97
22:15:                  20	29.95
22:15:                  50	29.91
22:16:                  20	29.92
22:16:                  50	29.91
22:17:                  21	29.90
22:17:                  51	29.93
22:18:                  21	29.95
22:18:                  51	29.95
22:19:                  21	29.97
22:19:                  51	29.96
22:20:                  21	29.96
22:20:                  51	29.96
22:21:                  21	29.98
22:21:                  51	29.97
22:22:                  21	29.97
22:22:                  51	29.95
22:23:                  21	29.94
22:23:                  51	29.92
22:24:                  21	29.90
22:24:                  51	29.91
22:25:                  21	29.91
22:25:                  51	29.95
22:26:                  21	29.96
22:26:                  51	29.97
22:27:                  21	29.98
22:27:                  51	29.97
22:28:                  21	29.98
22:28:                  51	29.99
22:29:                  21	29.98
22:29:                  51	29.98
22:30:                  21	29.97
22:30:                  51	29.97
22:31:                  21	29.98
22:31:                  51	29.98
22:32:                  21	30.00
22:32:                  51	29.99
22:33:                  21	29.97
22:33:                  52	29.97
22:34:                  22	29.97
22:34:                  52	29.97
22:35:                  22	29.97
22:35:                  52	29.97
22:36:                  22	29.96
22:36:                  52	29.97
22:37:                  22	29.97
22:37:                  52	29.97
22:38:                  22	29.98
22:38:                  52	29.97
22:39:                  22	29.96
22:39:                  52	29.98
22:40:                  22	29.98
22:40:                  52	29.98
22:41:                  22	29.98
22:41:                  52	29.97
22:42:                  22	29.98
22:42:                  52	29.99
22:43:                  22	29.98
22:43:                  52	29.99
22:44:                  22	30.00
22:44:                  52	29.98
22:45:                  22	29.98
22:45:                  52	29.99
22:46:                  22	29.98
22:46:                  52	30.00
22:47:                  22	29.98
22:47:                  52	29.99
22:48:                  22	29.98
22:48:                  52	29.99
22:49:                  22	29.97
22:49:                  52	29.96
22:50:                  22	29.96
22:50:                  53	29.97
22:51:                  23	29.98
22:51:                  53	29.98
22:52:                  23	29.98
22:52:                  53	30.00
22:53:                  23	29.97
22:53:                  53	29.97
22:54:                  23	29.96
22:54:                  53	29.96
22:55:                  23	29.96
22:55:                  53	29.98
22:56:                  23	29.98
22:56:                  53	29.98
22:57:                  23	29.97
22:57:                  53	29.96
22:58:                  23	29.97
22:58:                  53	29.97
22:59:                  23	29.97
22:59:                  53	29.97
23:00:                  23	29.97
23:00:                  53	29.99
23:01:                  23	29.97
23:01:                  53	29.97
23:02:                  23	29.97
23:02:                  53	29.98
23:03:                  23	29.96
23:03:                  53	29.96
23:04:                  23	29.97
23:04:                  53	29.98
23:05:                  23	29.99
23:05:                  53	29.98
23:06:                  23	29.98
23:06:                  53	29.97
23:07:                  24	29.97
23:07:                  54	29.97
23:08:                  24	29.97
23:08:                  54	29.97
23:09:                  24	29.98
23:09:                  54	29.97
23:10:                  24	29.96
23:10:                  54	29.97
23:11:                  24	29.97
23:11:                  54	29.98
23:12:                  24	29.96
23:12:                  54	29.96
23:13:                  24	29.96
23:13:                  54	29.96
23:14:                  24	29.97
23:14:                  54	29.98
23:15:                  24	29.97
23:15:                  54	29.98
23:16:                  24	29.97
23:16:                  54	29.98
23:17:                  24	29.98
23:17:                  54	29.98
23:18:                  24	29.97
23:18:                  54	29.96
23:19:                  24	29.96
23:19:                  54	29.96
23:20:                  24	29.95
23:20:                  54	29.97
23:21:                  24	29.98
23:21:                  54	29.95
23:22:                  24	29.97
23:22:                  54	29.97
23:23:                  24	29.97
23:23:                  55	29.97
23:24:                  25	29.97
23:24:                  55	29.99
23:25:                  25	29.98
23:25:                  55	29.98
23:26:                  25	29.97
23:26:                  55	29.97
23:27:                  25	29.98
23:27:                  55	29.98
23:28:                  25	29.97
23:28:                  55	29.99
23:29:                  25	29.98
23:29:                  55	29.98
23:30:                  25	29.98
23:30:                  55	29.98
23:31:                  25	30.00
23:31:                  55	29.98
23:32:                  25	29.98
23:32:                  55	29.99
23:33:                  25	29.98
23:33:                  55	29.98
23:34:                  25	29.98
23:34:                  55	29.98
23:35:                  25	29.96
23:35:                  55	29.97
23:36:                  25	29.97
23:36:                  55	29.97
23:37:                  25	29.96
23:37:                  55	29.98
23:38:                  25	29.98
23:38:                  55	29.96
23:39:                  25	29.97
23:39:                  55	29.96
23:40:                  26	29.94
23:40:                  56	29.95
23:41:                  26	29.95
23:41:                  56	29.98
23:42:                  26	29.98
23:42:                  56	29.96
23:43:                  26	29.97
23:43:                  56	29.96
23:44:                  26	29.97
23:44:                  56	29.97
23:45:                  26	29.96
23:45:                  56	29.96
23:46:                  26	29.96
23:46:                  56	29.97
23:47:                  26	29.96
23:47:                  56	29.94
23:48:                  26	29.94
23:48:                  56	29.94
23:49:                  26	29.93
23:49:                  56	29.95
23:50:                  26	29.95
23:50:                  56	29.94
23:51:                  26	29.93
23:51:                  56	29.94
23:52:                  26	29.95
23:52:                  56	29.96
23:53:                  26	29.94
23:53:                  56	29.94
23:54:                  26	29.93
23:54:                  56	29.95
23:55:                  26	29.95
23:55:                  56	29.94
23:56:                  26	29.90
23:56:                  56	29.90
23:57:                  27	29.91
23:57:                  57	29.94
23:58:                  27	29.94
23:58:                  57	29.95
23:59:                  27	29.95
23:59:                  57	29.91
