0:00:                  29	31.43
0:00:                  59	31.42
0:01:                  29	31.40
0:01:                  59	31.39
0:02:                  29	31.40
0:02:                  59	31.39
0:03:                  29	31.39
0:03:                  59	31.36
0:04:                  29	31.37
0:04:                  59	31.37
0:05:                  30	31.38
0:06:                   0	31.38
0:06:                  30	31.36
0:07:                   0	31.35
0:07:                  30	31.33
0:08:                   0	31.33
0:08:                  30	31.31
0:09:                   0	31.30
0:09:                  30	31.31
0:10:                   0	31.31
0:10:                  30	31.30
0:11:                   0	31.31
0:11:                  30	31.30
0:12:                   0	31.27
0:12:                  30	31.27
0:13:                   0	31.27
0:13:                  30	31.27
0:14:                   0	31.25
0:14:                  30	31.26
0:15:                   0	31.26
0:15:                  30	31.25
0:16:                   0	31.25
0:16:                  30	31.27
0:17:                   0	31.24
0:17:                  30	31.21
0:18:                   0	31.22
0:18:                  30	31.22
0:19:                   0	31.22
0:19:                  30	31.21
0:20:                   0	31.21
0:20:                  30	31.21
0:21:                   0	31.17
0:21:                  30	31.20
0:22:                   0	31.17
0:22:                  30	31.16
0:23:                   0	31.16
0:23:                  30	31.15
0:24:                   0	31.13
0:24:                  30	31.12
0:25:                   0	31.15
0:25:                  30	31.15
0:26:                   0	31.17
0:26:                  30	31.20
0:27:                   0	31.23
0:27:                  30	31.25
0:28:                   0	31.28
0:28:                  30	31.28
0:29:                   0	31.28
0:29:                  30	31.27
0:30:                   0	31.28
0:30:                  30	31.27
0:31:                   0	31.26
0:31:                  30	31.24
0:32:                   0	31.23
0:32:                  30	31.22
0:33:                   0	31.19
0:33:                  30	31.20
0:34:                   0	31.19
0:34:                  30	31.16
0:35:                   0	31.16
0:35:                  30	31.17
0:36:                   0	31.15
0:36:                  30	31.15
0:37:                   0	31.14
0:37:                  30	31.13
0:38:                   0	31.12
0:38:                  31	31.11
0:39:                   1	31.09
0:39:                  31	31.09
0:40:                   1	31.08
0:40:                  31	31.06
0:41:                   1	31.05
0:41:                  31	31.02
0:42:                   1	31.03
0:42:                  31	31.04
0:43:                   1	31.03
0:43:                  31	31.02
0:44:                   1	31.00
0:44:                  31	31.00
0:45:                   1	31.01
0:45:                  31	31.01
0:46:                   1	31.01
0:46:                  31	31.01
0:47:                   1	31.00
0:47:                  31	31.00
0:48:                   1	30.99
0:48:                  31	30.98
0:49:                   1	30.96
0:49:                  31	30.96
0:50:                   1	30.94
0:50:                  31	30.95
0:51:                   1	30.93
0:51:                  31	30.93
0:52:                   1	30.92
0:52:                  31	30.90
0:53:                   1	30.90
0:53:                  31	30.91
0:54:                   1	30.90
0:54:                  31	30.89
0:55:                   1	30.90
0:55:                  31	30.90
0:56:                   1	30.91
0:56:                  31	30.90
0:57:                   1	30.90
0:57:                  31	30.92
0:58:                   1	30.90
0:58:                  31	30.90
0:59:                   1	30.89
0:59:                  31	30.88
1:00:                   1	30.88
1:00:                  31	30.87
1:01:                   1	30.87
1:01:                  31	30.85
1:02:                   1	30.83
1:02:                  31	30.84
1:03:                   1	30.83
1:03:                  31	30.83
1:04:                   1	30.84
1:04:                  31	30.84
1:05:                   1	30.82
1:05:                  31	30.83
1:06:                   1	30.84
1:06:                  31	30.84
1:07:                   1	30.83
1:07:                  31	30.83
1:08:                   1	30.82
1:08:                  31	30.83
1:09:                   1	30.81
1:09:                  31	30.83
1:10:                   2	30.81
1:10:                  32	30.81
1:11:                   2	30.78
1:11:                  32	30.80
1:12:                   2	30.80
1:12:                  32	30.79
1:13:                   2	30.79
1:13:                  32	30.80
1:14:                   2	30.77
1:14:                  32	30.78
1:15:                   2	30.77
1:15:                  32	30.78
1:16:                   2	30.78
1:16:                  32	30.80
1:17:                   2	30.81
1:17:                  32	30.79
1:18:                   2	30.79
1:18:                  32	30.80
1:19:                   2	30.77
1:19:                  32	30.78
1:20:                   2	30.76
1:20:                  32	30.78
1:21:                   2	30.76
1:21:                  32	30.76
1:22:                   2	30.77
1:22:                  32	30.77
1:23:                   2	30.76
1:23:                  32	30.76
1:24:                   2	30.75
1:24:                  32	30.76
1:25:                   2	30.75
1:25:                  32	30.75
1:26:                   2	30.77
1:26:                  32	30.75
1:27:                   2	30.77
1:27:                  32	30.77
1:28:                   2	30.76
1:28:                  32	30.76
1:29:                   2	30.77
1:29:                  32	30.76
1:30:                   2	30.75
1:30:                  32	30.75
1:31:                   2	30.76
1:31:                  32	30.75
1:32:                   2	30.75
1:32:                  32	30.74
1:33:                   2	30.74
1:33:                  32	30.74
1:34:                   2	30.73
1:34:                  32	30.73
1:35:                   2	30.72
1:35:                  32	30.72
1:36:                   2	30.72
1:36:                  32	30.73
1:37:                   2	30.74
1:37:                  32	30.73
1:38:                   2	30.74
1:38:                  32	30.73
1:39:                   2	30.73
1:39:                  32	30.73
1:40:                   2	30.74
1:40:                  32	30.73
1:41:                   2	30.74
1:41:                  32	30.72
1:42:                   2	30.71
1:42:                  32	30.72
1:43:                   2	30.72
1:43:                  32	30.72
1:44:                   2	30.70
1:44:                  32	30.69
1:45:                   2	30.70
1:45:                  32	30.69
1:46:                   2	30.72
1:46:                  32	30.71
1:47:                   2	30.71
1:47:                  32	30.72
1:48:                   2	30.71
1:48:                  32	30.72
1:49:                   2	30.70
1:49:                  32	30.70
1:50:                   2	30.69
1:50:                  32	30.71
1:51:                   2	30.70
1:51:                  32	30.68
1:52:                   2	30.69
1:52:                  32	30.68
1:53:                   2	30.69
1:53:                  32	30.68
1:54:                   2	30.67
1:54:                  32	30.66
1:55:                   2	30.67
1:55:                  32	30.66
1:56:                   2	30.67
1:56:                  32	30.67
1:57:                   2	30.68
1:57:                  32	30.68
1:58:                   2	30.68
1:58:                  32	30.68
1:59:                   2	30.66
1:59:                  32	30.65
2:00:                   2	30.66
2:00:                  32	30.65
2:01:                   2	30.65
2:01:                  32	30.66
2:02:                   2	30.65
2:02:                  32	30.64
2:03:                   2	30.64
2:03:                  32	30.63
2:04:                   2	30.64
2:04:                  32	30.64
2:05:                   2	30.63
2:05:                  33	30.64
2:06:                   3	30.64
2:06:                  33	30.65
2:07:                   3	30.65
2:07:                  33	30.66
2:08:                   3	30.65
2:08:                  33	30.64
2:09:                   3	30.63
2:09:                  33	30.63
2:10:                   3	30.64
2:10:                  33	30.64
2:11:                   3	30.64
2:11:                  33	30.63
2:12:                   3	30.63
2:12:                  33	30.62
2:13:                   3	30.62
2:13:                  33	30.61
2:14:                   3	30.60
2:14:                  33	30.59
2:15:                   3	30.60
2:15:                  33	30.60
2:16:                   3	30.60
2:16:                  33	30.62
2:17:                   3	30.62
2:17:                  33	30.61
2:18:                   3	30.62
2:18:                  33	30.61
2:19:                   3	30.61
2:19:                  33	30.60
2:20:                   3	30.61
2:20:                  33	30.61
2:21:                   3	30.60
2:21:                  33	30.59
2:22:                   3	30.58
2:22:                  33	30.59
2:23:                   3	30.58
2:23:                  33	30.58
2:24:                   3	30.57
2:24:                  33	30.57
2:25:                   3	30.57
2:25:                  33	30.58
2:26:                   3	30.57
2:26:                  33	30.57
2:27:                   3	30.58
2:27:                  33	30.60
2:28:                   3	30.59
2:28:                  33	30.58
2:29:                   3	30.58
2:29:                  33	30.58
2:30:                   3	30.57
2:30:                  33	30.56
2:31:                   3	30.56
2:31:                  33	30.56
2:32:                   3	30.55
2:32:                  33	30.56
2:33:                   3	30.53
2:33:                  33	30.56
2:34:                   3	30.56
2:34:                  33	30.54
2:35:                   3	30.54
2:35:                  33	30.52
2:36:                   3	30.52
2:36:                  33	30.53
2:37:                   3	30.53
2:37:                  33	30.55
2:38:                   3	30.54
2:38:                  33	30.55
2:39:                   3	30.55
2:39:                  33	30.54
2:40:                   3	30.53
2:40:                  33	30.54
2:41:                   3	30.53
2:41:                  33	30.53
2:42:                   3	30.53
2:42:                  33	30.51
2:43:                   3	30.52
2:43:                  33	30.52
2:44:                   3	30.52
2:44:                  33	30.51
2:45:                   3	30.50
2:45:                  33	30.51
2:46:                   3	30.50
2:46:                  33	30.50
2:47:                   3	30.51
2:47:                  33	30.51
2:48:                   3	30.51
2:48:                  33	30.52
2:49:                   3	30.51
2:49:                  33	30.50
2:50:                   3	30.51
2:50:                  34	30.51
2:51:                   4	30.50
2:51:                  34	30.50
2:52:                   4	30.49
2:52:                  34	30.48
2:53:                   4	30.48
2:53:                  34	30.47
2:54:                   4	30.48
2:54:                  34	30.48
2:55:                   4	30.47
2:55:                  34	30.47
2:56:                   4	30.46
2:56:                  34	30.47
2:57:                   4	30.48
2:57:                  34	30.49
2:58:                   4	30.48
2:58:                  34	30.48
2:59:                   4	30.49
2:59:                  34	30.49
3:00:                   4	30.48
3:00:                  34	30.48
3:01:                   4	30.48
3:01:                  34	30.48
3:02:                   4	30.47
3:02:                  34	30.47
3:03:                   4	30.46
3:03:                  34	30.45
3:04:                   4	30.44
3:04:                  34	30.45
3:05:                   4	30.45
3:05:                  34	30.45
3:06:                   4	30.44
3:06:                  34	30.43
3:07:                   4	30.44
3:07:                  34	30.45
3:08:                   4	30.45
3:08:                  34	30.46
3:09:                   4	30.44
3:09:                  34	30.46
3:10:                   4	30.45
3:10:                  34	30.46
3:11:                   4	30.45
3:11:                  34	30.45
3:12:                   4	30.44
3:12:                  34	30.44
3:13:                   4	30.44
3:13:                  34	30.44
3:14:                   4	30.42
3:14:                  34	30.42
3:15:                   4	30.43
3:15:                  34	30.42
3:16:                   4	30.42
3:16:                  34	30.41
3:17:                   4	30.41
3:17:                  34	30.41
3:18:                   4	30.43
3:18:                  34	30.44
3:19:                   4	30.43
3:19:                  34	30.43
3:20:                   4	30.43
3:20:                  34	30.42
3:21:                   4	30.42
3:21:                  34	30.42
3:22:                   4	30.42
3:22:                  34	30.41
3:23:                   4	30.41
3:23:                  34	30.41
3:24:                   4	30.41
3:24:                  34	30.39
3:25:                   4	30.39
3:25:                  34	30.40
3:26:                   4	30.39
3:26:                  34	30.39
3:27:                   4	30.38
3:27:                  34	30.39
3:28:                   4	30.39
3:28:                  34	30.40
3:29:                   4	30.41
3:29:                  34	30.40
3:30:                   4	30.39
3:30:                  34	30.39
3:31:                   4	30.39
3:31:                  34	30.38
3:32:                   4	30.39
3:32:                  34	30.38
3:33:                   4	30.38
3:33:                  34	30.37
3:34:                   4	30.37
3:34:                  34	30.36
3:35:                   4	30.37
3:35:                  34	30.37
3:36:                   4	30.36
3:36:                  34	30.36
3:37:                   4	30.35
3:37:                  34	30.36
3:38:                   4	30.38
3:38:                  34	30.37
3:39:                   4	30.36
3:39:                  34	30.37
3:40:                   4	30.37
3:40:                  34	30.37
3:41:                   4	30.37
3:41:                  34	30.36
3:42:                   4	30.37
3:42:                  34	30.36
3:43:                   4	30.35
3:43:                  34	30.36
3:44:                   4	30.35
3:44:                  34	30.36
3:45:                   4	30.35
3:45:                  34	30.35
3:46:                   4	30.34
3:46:                  34	30.33
3:47:                   4	30.33
3:47:                  34	30.34
3:48:                   4	30.35
3:48:                  34	30.34
3:49:                   4	30.34
3:49:                  34	30.35
3:50:                   4	30.36
3:50:                  34	30.34
3:51:                   4	30.34
3:51:                  34	30.34
3:52:                   4	30.33
3:52:                  34	30.33
3:53:                   5	30.33
3:53:                  35	30.33
3:54:                   5	30.32
3:54:                  35	30.31
3:55:                   5	30.30
3:55:                  35	30.32
3:56:                   5	30.31
3:56:                  35	30.31
3:57:                   5	30.29
3:57:                  35	30.31
3:58:                   5	30.30
3:58:                  35	30.32
3:59:                   5	30.32
3:59:                  35	30.32
4:00:                   5	30.32
4:00:                  35	30.31
4:01:                   5	30.31
4:01:                  35	30.29
4:02:                   5	30.30
4:02:                  35	30.30
4:03:                   5	30.31
4:03:                  35	30.29
4:04:                   5	30.30
4:04:                  35	30.29
4:05:                   5	30.28
4:05:                  35	30.28
4:06:                   5	30.27
4:06:                  35	30.27
4:07:                   5	30.28
4:07:                  35	30.27
4:08:                   5	30.29
4:08:                  35	30.29
4:09:                   5	30.29
4:09:                  35	30.30
4:10:                   5	30.29
4:10:                  35	30.28
4:11:                   5	30.28
4:11:                  35	30.28
4:12:                   5	30.28
4:12:                  35	30.29
4:13:                   6	30.28
4:13:                  36	30.27
4:14:                   6	30.27
4:14:                  36	30.26
4:15:                   6	30.26
4:15:                  36	30.26
4:16:                   6	30.26
4:16:                  36	30.26
4:17:                   6	30.26
4:17:                  36	30.25
4:18:                   6	30.26
4:18:                  36	30.27
4:19:                   6	30.27
4:19:                  36	30.27
4:20:                   6	30.27
4:20:                  36	30.26
4:21:                   6	30.26
4:21:                  36	30.27
4:22:                   6	30.26
4:22:                  36	30.24
4:23:                   6	30.26
4:23:                  36	30.24
4:24:                   6	30.24
4:24:                  36	30.24
4:25:                   6	30.24
4:25:                  36	30.24
4:26:                   6	30.23
4:26:                  36	30.23
4:27:                   6	30.22
4:27:                  36	30.23
4:28:                   6	30.23
4:28:                  36	30.23
4:29:                   6	30.24
4:29:                  36	30.24
4:30:                   6	30.24
4:30:                  36	30.25
4:31:                   6	30.23
4:31:                  36	30.23
4:32:                   6	30.24
4:32:                  36	30.24
4:33:                   7	30.24
4:33:                  37	30.24
4:34:                   7	30.23
4:34:                  37	30.22
4:35:                   7	30.22
4:35:                  37	30.21
4:36:                   7	30.20
4:36:                  37	30.21
4:37:                   7	30.20
4:37:                  37	30.20
4:38:                   7	30.21
4:38:                  37	30.21
4:39:                   7	30.21
4:39:                  37	30.22
4:40:                   7	30.22
4:40:                  37	30.22
4:41:                   7	30.23
4:41:                  37	30.23
4:42:                   7	30.22
4:42:                  37	30.21
4:43:                   7	30.22
4:43:                  37	30.20
4:44:                   7	30.22
4:44:                  37	30.21
4:45:                   7	30.20
4:45:                  37	30.20
4:46:                   7	30.20
4:46:                  37	30.19
4:47:                   7	30.18
4:47:                  37	30.18
4:48:                   7	30.19
4:48:                  37	30.20
4:49:                   7	30.19
4:49:                  37	30.20
4:50:                   7	30.20
4:50:                  37	30.21
4:51:                   7	30.19
4:51:                  37	30.20
4:52:                   7	30.19
4:52:                  37	30.20
4:53:                   7	30.19
4:53:                  37	30.18
4:54:                   7	30.19
4:54:                  37	30.20
4:55:                   7	30.18
4:55:                  37	30.18
4:56:                   7	30.18
4:56:                  37	30.18
4:57:                   7	30.17
4:57:                  37	30.17
4:58:                   8	30.17
4:58:                  38	30.18
4:59:                   8	30.18
4:59:                  38	30.18
5:00:                   8	30.18
5:00:                  38	30.19
5:01:                   8	30.19
5:01:                  38	30.19
5:02:                   8	30.18
5:02:                  38	30.18
5:03:                   8	30.18
5:03:                  38	30.17
5:04:                   8	30.17
5:04:                  38	30.17
5:05:                   8	30.17
5:05:                  38	30.16
5:06:                   8	30.17
5:06:                  38	30.16
5:07:                   8	30.16
5:07:                  38	30.16
5:08:                   8	30.16
5:08:                  38	30.16
5:09:                   8	30.17
5:09:                  38	30.18
5:10:                   8	30.19
5:10:                  38	30.18
5:11:                   8	30.19
5:11:                  38	30.18
5:12:                   8	30.17
5:12:                  38	30.17
5:13:                   8	30.17
5:13:                  38	30.17
5:14:                   8	30.17
5:14:                  38	30.16
5:15:                   8	30.16
5:15:                  38	30.16
5:16:                   8	30.16
5:16:                  38	30.15
5:17:                   8	30.14
5:17:                  38	30.15
5:18:                   8	30.14
5:18:                  38	30.14
5:19:                   8	30.15
5:19:                  38	30.15
5:20:                   8	30.16
5:20:                  38	30.15
5:21:                   8	30.15
5:21:                  38	30.15
5:22:                   8	30.16
5:22:                  38	30.15
5:23:                   8	30.15
5:23:                  38	30.15
5:24:                   8	30.14
5:24:                  38	30.13
5:25:                   8	30.13
5:25:                  38	30.14
5:26:                   8	30.12
5:26:                  38	30.12
5:27:                   8	30.12
5:27:                  38	30.13
5:28:                   8	30.11
5:28:                  38	30.10
5:29:                   8	30.12
5:29:                  38	30.13
5:30:                   8	30.14
5:30:                  38	30.14
5:31:                   8	30.14
5:31:                  38	30.15
5:32:                   8	30.14
5:32:                  38	30.13
5:33:                   8	30.13
5:33:                  38	30.13
5:34:                   8	30.13
5:34:                  38	30.13
5:35:                   8	30.11
5:35:                  38	30.11
5:36:                   8	30.11
5:36:                  38	30.10
5:37:                   8	30.09
5:37:                  38	30.09
5:38:                   8	30.10
5:38:                  38	30.08
5:39:                   8	30.10
5:39:                  38	30.10
5:40:                   8	30.12
5:40:                  39	30.12
5:41:                   9	30.12
5:41:                  39	30.12
5:42:                   9	30.12
5:42:                  39	30.12
5:43:                   9	30.11
5:43:                  39	30.10
5:44:                   9	30.11
5:44:                  39	30.09
5:45:                   9	30.09
5:45:                  39	30.08
5:46:                   9	30.09
5:46:                  39	30.08
5:47:                   9	30.07
5:47:                  39	30.08
5:48:                   9	30.08
5:48:                  39	30.06
5:49:                   9	30.07
5:49:                  39	30.09
5:50:                   9	30.11
5:50:                  39	30.09
5:51:                   9	30.09
5:51:                  39	30.11
5:52:                   9	30.10
5:52:                  39	30.10
5:53:                   9	30.10
5:53:                  39	30.08
5:54:                   9	30.09
5:54:                  39	30.09
5:55:                   9	30.07
5:55:                  39	30.07
5:56:                   9	30.08
5:56:                  39	30.08
5:57:                   9	30.07
5:57:                  39	30.06
5:58:                   9	30.06
5:58:                  39	30.05
5:59:                   9	30.05
5:59:                  39	30.06
6:00:                   9	30.07
6:00:                  39	30.07
6:01:                   9	30.07
6:01:                  39	30.07
6:02:                   9	30.06
6:02:                  39	30.05
6:03:                   9	30.05
6:03:                  39	30.05
6:04:                   9	30.05
6:04:                  39	30.05
6:05:                   9	30.05
6:05:                  39	30.05
6:06:                   9	30.04
6:06:                  39	30.04
6:07:                   9	30.04
6:07:                  39	30.04
6:08:                   9	30.04
6:08:                  39	30.03
6:09:                   9	30.03
6:09:                  39	30.05
6:10:                   9	30.04
6:10:                  39	30.06
6:11:                   9	30.06
6:11:                  39	30.06
6:12:                  10	30.05
6:12:                  40	30.06
6:13:                  10	30.05
6:13:                  40	30.05
6:14:                  10	30.06
6:14:                  40	30.05
6:15:                  10	30.04
6:15:                  40	30.04
6:16:                  10	30.04
6:16:                  40	30.04
6:17:                  10	30.04
6:17:                  40	30.04
6:18:                  10	30.03
6:18:                  40	30.03
6:19:                  10	30.03
6:19:                  40	30.02
6:20:                  10	30.03
6:20:                  40	30.04
6:21:                  10	30.04
6:21:                  40	30.05
6:22:                  10	30.04
6:22:                  40	30.04
6:23:                  10	30.04
6:23:                  40	30.03
6:24:                  10	30.04
6:24:                  40	30.04
6:25:                  10	30.04
6:25:                  40	30.03
6:26:                  10	30.03
6:26:                  40	30.03
6:27:                  10	30.03
6:27:                  40	30.03
6:28:                  10	30.02
6:28:                  40	30.02
6:29:                  10	30.01
6:29:                  40	30.01
6:30:                  10	30.03
6:30:                  40	30.03
6:31:                  10	30.04
6:31:                  40	30.04
6:32:                  10	30.03
6:32:                  40	30.04
6:33:                  10	30.03
6:33:                  40	30.03
6:34:                  10	30.03
6:34:                  40	30.02
6:35:                  10	30.01
6:35:                  40	30.01
6:36:                  10	29.99
6:36:                  40	30.00
6:37:                  10	30.00
6:37:                  40	30.00
6:38:                  10	30.00
6:38:                  40	29.99
6:39:                  10	29.99
6:39:                  40	29.98
6:40:                  10	29.99
6:40:                  40	30.00
6:41:                  10	29.99
6:41:                  40	30.00
6:42:                  11	30.01
6:42:                  41	30.01
6:43:                  11	30.01
6:43:                  41	30.00
6:44:                  11	29.99
6:44:                  41	30.01
6:45:                  11	30.00
6:45:                  41	29.99
6:46:                  11	29.99
6:46:                  41	29.98
6:47:                  11	29.98
6:47:                  41	29.98
6:48:                  11	29.97
6:48:                  41	29.97
6:49:                  11	29.96
6:49:                  41	29.96
6:50:                  11	29.97
6:50:                  41	29.98
6:51:                  11	29.98
6:51:                  41	29.98
6:52:                  11	29.97
6:52:                  41	29.98
6:53:                  11	29.98
6:53:                  41	29.96
6:54:                  11	29.96
6:54:                  41	29.97
6:55:                  11	29.97
6:55:                  41	29.96
6:56:                  11	29.96
6:56:                  41	29.96
6:57:                  11	29.95
6:57:                  41	29.96
6:58:                  11	29.95
6:58:                  41	29.94
6:59:                  11	29.95
6:59:                  41	29.95
7:00:                  11	29.94
7:00:                  41	29.96
7:01:                  11	29.96
7:01:                  41	29.97
7:02:                  11	29.96
7:02:                  41	29.96
7:03:                  11	29.95
7:03:                  41	29.94
7:04:                  11	29.95
7:04:                  41	29.95
7:05:                  11	29.95
7:05:                  41	29.93
7:06:                  11	29.94
7:06:                  41	29.93
7:07:                  11	29.93
7:07:                  41	29.91
7:08:                  11	29.93
7:08:                  41	29.92
7:09:                  11	29.92
7:09:                  41	29.92
7:10:                  11	29.91
7:10:                  41	29.93
7:11:                  11	29.94
7:11:                  41	29.94
7:12:                  11	29.95
7:12:                  41	29.94
7:13:                  11	29.94
7:13:                  41	29.94
7:14:                  11	29.94
7:14:                  41	29.93
7:15:                  11	29.94
7:15:                  41	29.93
7:16:                  11	29.91
7:16:                  41	29.91
7:17:                  11	29.93
7:17:                  41	29.92
7:18:                  11	29.91
7:18:                  41	29.90
7:19:                  11	29.90
7:19:                  41	29.90
7:20:                  11	29.90
7:20:                  41	29.90
7:21:                  11	29.91
7:21:                  41	29.93
7:22:                  11	29.91
7:22:                  41	29.91
7:23:                  11	29.92
7:23:                  41	29.91
7:24:                  11	29.91
7:24:                  41	29.90
7:25:                  12	29.90
7:25:                  42	29.89
7:26:                  12	29.89
7:26:                  42	29.89
7:27:                  12	29.89
7:27:                  42	29.89
7:28:                  12	29.89
7:28:                  42	29.88
7:29:                  12	29.88
7:29:                  42	29.89
7:30:                  12	29.88
7:30:                  42	29.88
7:31:                  12	29.89
7:31:                  42	29.88
7:32:                  12	29.82
7:32:                  42	29.76
7:33:                  12	29.78
7:33:                  42	29.78
7:34:                  12	29.77
7:34:                  42	29.78
7:35:                  12	29.76
7:35:                  42	29.76
7:36:                  12	29.77
7:36:                  42	29.77
7:37:                  12	29.76
7:37:                  42	29.77
7:38:                  12	29.77
7:38:                  42	29.77
7:39:                  12	29.76
7:39:                  42	29.77
7:40:                  12	29.77
7:40:                  42	29.78
7:41:                  12	29.79
7:41:                  42	29.80
7:42:                  12	29.82
7:42:                  42	29.81
7:43:                  12	29.82
7:43:                  42	29.82
7:44:                  12	29.82
7:44:                  42	29.82
7:45:                  12	29.83
7:45:                  42	29.82
7:46:                  12	29.82
7:46:                  42	29.83
7:47:                  12	29.82
7:47:                  42	29.83
7:48:                  12	29.82
7:48:                  42	29.82
7:49:                  12	29.82
7:49:                  42	29.82
7:50:                  12	29.82
7:50:                  42	29.82
7:51:                  12	29.83
7:51:                  42	29.84
7:52:                  12	29.83
7:52:                  42	29.84
7:53:                  12	29.84
7:53:                  42	29.84
7:54:                  12	29.83
7:54:                  42	29.83
7:55:                  12	29.83
7:55:                  43	29.83
7:56:                  13	29.83
7:56:                  43	29.81
7:57:                  13	29.81
7:57:                  43	29.81
7:58:                  13	29.81
7:58:                  43	29.81
7:59:                  13	29.80
7:59:                  43	29.80
8:00:                  13	29.79
8:00:                  43	29.80
8:01:                  13	29.80
8:01:                  43	29.81
8:02:                  13	29.81
8:02:                  43	29.80
8:03:                  13	29.82
8:03:                  43	29.82
8:04:                  13	29.81
8:04:                  43	29.81
8:05:                  13	29.80
8:05:                  43	29.80
8:06:                  13	29.80
8:06:                  43	29.79
8:07:                  13	29.78
8:07:                  43	29.78
8:08:                  13	29.78
8:08:                  43	29.78
8:09:                  13	29.76
8:09:                  43	29.76
8:10:                  13	29.75
8:10:                  43	29.76
8:11:                  14	29.76
8:11:                  44	29.76
8:12:                  14	29.77
8:12:                  44	29.77
8:13:                  14	29.76
8:13:                  44	29.76
8:14:                  14	29.74
8:14:                  44	29.75
8:15:                  14	29.75
8:15:                  44	29.74
8:16:                  14	29.75
8:16:                  44	29.74
8:17:                  14	29.73
8:17:                  44	29.73
8:18:                  14	29.73
8:18:                  44	29.73
8:19:                  14	29.72
8:19:                  44	29.72
8:20:                  14	29.72
8:20:                  44	29.72
8:21:                  14	29.72
8:21:                  44	29.72
8:22:                  14	29.72
8:22:                  44	29.73
8:23:                  14	29.72
8:23:                  44	29.72
8:24:                  14	29.72
8:24:                  44	29.72
8:25:                  14	29.72
8:25:                  44	29.71
8:26:                  14	29.72
8:26:                  44	29.71
8:27:                  15	29.71
8:27:                  45	29.71
8:28:                  15	29.71
8:28:                  45	29.70
8:29:                  15	29.70
8:29:                  45	29.69
8:30:                  15	29.70
8:30:                  45	29.70
8:31:                  15	29.69
8:31:                  45	29.71
8:32:                  15	29.72
8:32:                  45	29.72
8:33:                  15	29.73
8:33:                  45	29.72
8:34:                  15	29.73
8:34:                  45	29.73
8:35:                  15	29.73
8:35:                  45	29.74
8:36:                  15	29.73
8:36:                  45	29.73
8:37:                  15	29.74
8:37:                  45	29.74
8:38:                  15	29.75
8:38:                  45	29.74
8:39:                  15	29.75
8:39:                  45	29.77
8:40:                  15	29.77
8:40:                  45	29.78
8:41:                  15	29.80
8:41:                  45	29.83
8:42:                  15	29.85
8:42:                  45	29.87
8:43:                  15	29.89
8:43:                  46	29.88
8:44:                  16	29.90
8:44:                  46	29.93
8:45:                  16	29.94
8:45:                  46	29.96
8:46:                  16	29.97
8:46:                  46	29.99
8:47:                  16	30.01
8:47:                  46	30.02
8:48:                  16	30.03
8:48:                  46	30.04
8:49:                  16	30.05
8:49:                  46	30.07
8:50:                  16	30.09
8:50:                  46	30.12
8:51:                  16	30.13
8:51:                  46	30.16
8:52:                  16	30.20
8:52:                  46	30.23
8:53:                  16	30.25
8:53:                  46	30.28
8:54:                  16	30.30
8:54:                  46	30.33
8:55:                  16	30.35
8:55:                  46	30.38
8:56:                  16	30.41
8:56:                  46	30.43
8:57:                  16	30.45
8:57:                  46	30.49
8:58:                  16	30.51
8:58:                  46	30.53
8:59:                  16	30.53
8:59:                  46	30.58
9:00:                  16	30.60
9:00:                  46	30.63
9:01:                  16	30.66
9:01:                  46	30.68
9:02:                  17	30.71
9:02:                  47	30.74
9:03:                  17	30.78
9:03:                  47	30.81
9:04:                  17	30.82
9:04:                  47	30.84
9:05:                  17	30.85
9:05:                  47	30.87
9:06:                  17	30.89
9:06:                  47	30.90
9:07:                  17	30.93
9:07:                  47	30.93
9:08:                  17	30.97
9:08:                  47	30.97
9:09:                  17	30.99
9:09:                  47	31.02
9:10:                  17	31.04
9:10:                  47	31.09
9:11:                  17	31.09
9:11:                  47	31.11
9:12:                  17	31.14
9:12:                  47	31.18
9:13:                  17	31.20
9:13:                  47	31.26
9:14:                  17	31.38
9:14:                  47	31.38
9:15:                  17	31.44
9:15:                  47	31.48
9:16:                  17	31.55
9:16:                  47	31.59
9:17:                  17	31.63
9:17:                  48	31.69
9:18:                  18	31.71
9:18:                  48	31.77
9:19:                  18	31.79
9:19:                  48	31.84
9:20:                  18	31.88
9:20:                  48	31.93
9:21:                  18	31.96
9:21:                  48	31.97
9:22:                  18	32.00
9:22:                  48	32.02
9:23:                  18	32.01
9:23:                  48	32.08
9:24:                  18	32.11
9:24:                  48	32.15
9:25:                  18	32.17
9:25:                  48	32.18
9:26:                  18	32.21
9:26:                  48	32.25
9:27:                  18	32.27
9:27:                  48	32.31
9:28:                  18	32.35
9:28:                  48	32.37
9:29:                  18	32.44
9:29:                  48	32.48
9:30:                  18	32.50
9:30:                  48	32.51
9:31:                  18	32.52
9:31:                  48	32.57
9:32:                  18	32.62
9:32:                  48	32.66
9:33:                  18	32.72
9:33:                  48	32.75
9:34:                  19	32.80
9:34:                  49	32.83
9:35:                  19	32.87
9:35:                  49	32.93
9:36:                  19	32.99
9:36:                  49	33.01
9:37:                  19	33.05
9:37:                  49	33.11
9:38:                  19	33.10
9:38:                  49	33.09
9:39:                  19	33.13
9:39:                  49	33.17
9:40:                  19	33.19
9:40:                  49	33.22
9:41:                  19	33.25
9:41:                  49	33.28
9:42:                  19	33.32
9:42:                  49	33.36
9:43:                  19	33.42
9:43:                  49	33.49
9:44:                  19	33.50
9:44:                  49	33.55
9:45:                  19	33.57
9:45:                  49	33.58
9:46:                  19	33.61
9:46:                  49	33.63
9:47:                  19	33.68
9:47:                  49	33.70
9:48:                  19	33.75
9:48:                  49	33.78
9:49:                  19	33.78
9:49:                  49	33.83
9:50:                  20	33.84
9:50:                  50	33.87
9:51:                  20	33.91
9:51:                  50	33.92
9:52:                  20	33.97
9:52:                  50	33.97
9:53:                  20	34.01
9:53:                  50	34.05
9:54:                  20	34.07
9:54:                  50	34.11
9:55:                  20	34.13
9:55:                  50	34.16
9:56:                  20	34.23
9:56:                  50	34.25
9:57:                  20	34.28
9:57:                  50	34.32
9:58:                  20	34.37
9:58:                  50	34.38
9:59:                  20	34.40
9:59:                  50	34.43
10:00:                  20	34.46
10:00:                  50	34.50
10:01:                  20	34.49
10:01:                  50	34.54
10:02:                  20	34.57
10:02:                  50	34.58
10:03:                  20	34.62
10:03:                  50	34.66
10:04:                  20	34.64
10:04:                  50	34.67
10:05:                  20	34.70
10:05:                  51	34.72
10:06:                  21	34.77
10:06:                  51	34.81
10:07:                  21	34.84
10:07:                  51	34.85
10:08:                  21	34.87
10:08:                  51	34.86
10:09:                  21	34.90
10:09:                  51	34.90
10:10:                  21	34.90
10:10:                  51	34.92
10:11:                  21	34.92
10:11:                  51	34.95
10:12:                  21	34.96
10:12:                  51	34.95
10:13:                  21	34.96
10:13:                  51	35.00
10:14:                  21	35.01
10:14:                  51	35.01
10:15:                  21	35.02
10:15:                  51	35.08
10:16:                  21	35.04
10:16:                  51	35.03
10:17:                  21	35.08
10:17:                  51	35.10
10:18:                  21	35.11
10:18:                  51	35.08
10:19:                  21	35.15
10:19:                  51	35.12
10:20:                  21	35.16
10:20:                  51	35.19
10:21:                  21	35.17
10:21:                  52	35.19
10:22:                  22	35.20
10:22:                  52	35.26
10:23:                  22	35.31
10:23:                  52	35.29
10:24:                  22	35.25
10:24:                  52	35.30
10:25:                  22	35.34
10:25:                  52	35.36
10:26:                  22	35.37
10:26:                  52	35.36
10:27:                  22	35.32
10:27:                  52	35.34
10:28:                  22	35.35
10:28:                  52	35.35
10:29:                  22	35.38
10:29:                  52	35.41
10:30:                  22	35.37
10:30:                  52	35.38
10:31:                  22	35.44
10:31:                  52	35.44
10:32:                  22	35.45
10:32:                  52	35.42
10:33:                  22	35.46
10:33:                  52	35.49
10:34:                  22	35.60
10:34:                  52	35.55
10:35:                  22	35.55
10:35:                  52	35.55
10:36:                  22	35.58
10:36:                  52	35.57
10:37:                  23	35.64
10:37:                  53	35.67
10:38:                  23	35.67
10:38:                  53	35.73
10:39:                  23	35.74
10:39:                  53	35.74
10:40:                  23	35.76
10:40:                  53	35.78
10:41:                  23	35.78
10:41:                  53	35.78
10:42:                  23	35.78
10:42:                  53	35.81
10:43:                  23	35.84
10:43:                  53	35.83
10:44:                  23	35.93
10:44:                  53	35.94
10:45:                  23	35.93
10:45:                  53	36.03
10:46:                  23	36.01
10:46:                  53	36.03
10:47:                  23	36.06
10:47:                  53	36.06
10:48:                  23	36.04
10:48:                  53	36.08
10:49:                  23	36.11
10:49:                  53	36.14
10:50:                  23	36.12
10:50:                  53	36.14
10:51:                  23	36.14
10:51:                  53	36.13
10:52:                  23	36.17
10:52:                  53	36.21
10:53:                  23	36.25
10:53:                  54	36.27
10:54:                  24	36.28
10:54:                  54	36.27
10:55:                  24	36.31
10:55:                  54	36.32
10:56:                  24	36.34
10:56:                  54	36.39
10:57:                  24	36.37
10:57:                  54	36.37
10:58:                  24	36.39
10:58:                  54	36.37
10:59:                  24	36.38
10:59:                  54	36.44
11:00:                  24	36.45
11:00:                  54	36.44
11:01:                  24	36.46
11:01:                  54	36.46
11:02:                  24	36.49
11:02:                  54	36.49
11:03:                  24	36.49
11:03:                  54	36.49
11:04:                  24	36.48
11:04:                  54	36.57
11:05:                  24	36.58
11:05:                  54	36.56
11:06:                  24	36.56
11:06:                  54	36.56
11:07:                  24	36.57
11:07:                  54	36.57
11:08:                  24	36.61
11:08:                  54	36.59
11:09:                  24	36.57
11:09:                  55	36.56
11:10:                  25	36.60
11:10:                  55	36.61
11:11:                  25	36.62
11:11:                  55	36.64
11:12:                  25	36.60
11:12:                  55	36.58
11:13:                  25	36.57
11:13:                  55	36.55
11:14:                  25	36.59
11:14:                  55	36.60
11:15:                  25	36.63
11:15:                  55	36.66
11:16:                  25	36.66
11:16:                  55	36.65
11:17:                  25	36.67
11:17:                  55	36.65
11:18:                  25	36.67
11:18:                  55	36.67
11:19:                  25	36.68
11:19:                  55	36.70
11:20:                  25	36.70
11:20:                  55	36.72
11:21:                  25	36.72
11:21:                  55	36.73
11:22:                  25	36.70
11:22:                  55	36.73
11:23:                  25	36.75
11:23:                  55	36.80
11:24:                  25	36.78
11:24:                  55	36.79
11:25:                  25	36.80
11:25:                  56	36.80
11:26:                  26	36.84
11:26:                  56	36.86
11:27:                  26	36.86
11:27:                  56	36.90
11:28:                  26	36.92
11:28:                  56	36.90
11:29:                  26	36.96
11:29:                  56	36.94
11:30:                  26	36.93
11:30:                  56	36.95
11:31:                  26	36.95
11:31:                  56	36.95
11:32:                  26	36.93
11:32:                  56	36.97
11:33:                  26	37.00
11:33:                  56	37.01
11:34:                  26	36.99
11:34:                  56	37.04
11:35:                  26	37.06
11:35:                  56	37.09
11:36:                  26	37.08
11:36:                  56	37.12
11:37:                  26	37.11
11:37:                  56	37.11
11:38:                  26	37.10
11:38:                  56	37.11
11:39:                  26	37.10
11:39:                  56	37.14
11:40:                  26	37.12
11:40:                  56	37.14
11:41:                  27	37.15
11:41:                  57	37.14
11:42:                  27	37.15
11:42:                  57	37.17
11:43:                  27	37.15
11:43:                  57	37.12
11:44:                  27	37.15
11:44:                  57	37.14
11:45:                  27	37.14
11:45:                  57	37.17
11:46:                  27	37.15
11:46:                  57	37.13
11:47:                  27	37.15
11:47:                  57	37.18
11:48:                  27	37.15
11:48:                  57	37.14
11:49:                  27	37.12
11:49:                  57	37.13
11:50:                  27	37.13
11:50:                  57	37.12
11:51:                  27	37.09
11:51:                  57	37.09
11:52:                  27	37.11
11:52:                  57	37.10
11:53:                  27	37.07
11:53:                  57	37.08
11:54:                  27	37.12
11:54:                  57	37.11
11:55:                  27	37.06
11:55:                  57	37.05
11:56:                  27	37.02
11:56:                  58	37.03
11:57:                  28	36.98
11:57:                  58	36.95
11:58:                  28	36.93
11:58:                  58	36.95
11:59:                  28	36.93
11:59:                  58	36.91
12:00:                  28	36.87
12:00:                  58	36.86
12:01:                  28	36.85
12:01:                  58	36.82
12:02:                  28	36.78
12:02:                  58	36.72
12:03:                  28	36.70
12:03:                  58	36.69
12:04:                  28	36.70
12:04:                  58	36.64
12:05:                  28	36.64
12:05:                  58	36.65
12:06:                  28	36.63
12:06:                  58	36.64
12:07:                  28	36.59
12:07:                  58	36.56
12:08:                  28	36.54
12:08:                  58	36.54
12:09:                  28	36.50
12:09:                  58	36.48
12:10:                  28	36.43
12:10:                  58	36.41
12:11:                  28	36.34
12:11:                  58	36.32
12:12:                  28	36.26
12:12:                  59	36.21
12:13:                  29	36.19
12:13:                  59	36.11
12:14:                  29	36.08
12:14:                  59	36.06
12:15:                  29	36.05
12:15:                  59	36.00
12:16:                  29	35.93
12:16:                  59	35.92
12:17:                  29	35.88
12:17:                  59	35.84
12:18:                  29	35.79
12:18:                  59	35.74
12:19:                  29	35.77
12:19:                  59	35.72
12:20:                  29	35.67
12:20:                  59	35.67
12:21:                  29	35.67
12:21:                  59	35.64
12:22:                  29	35.63
12:22:                  59	35.57
12:23:                  29	35.59
12:23:                  59	35.53
12:24:                  29	35.55
12:24:                  59	35.55
12:25:                  29	35.55
12:25:                  59	35.52
12:26:                  29	35.52
12:26:                  59	35.49
12:27:                  29	35.50
12:27:                  59	35.48
12:28:                  30	35.46
12:29:                   0	35.45
12:29:                  30	35.43
12:30:                   0	35.39
12:30:                  30	35.39
12:31:                   0	35.34
12:31:                  30	35.38
12:32:                   0	35.36
12:32:                  30	35.33
12:33:                   0	35.36
12:33:                  30	35.27
12:34:                   0	35.27
12:34:                  30	35.26
12:35:                   0	35.24
12:35:                  30	35.25
12:36:                   0	35.25
12:36:                  30	35.24
12:37:                   0	35.22
12:37:                  30	35.22
12:38:                   0	35.23
12:38:                  30	35.19
12:39:                   0	35.21
12:39:                  30	35.18
12:40:                   0	35.16
12:40:                  30	35.11
12:41:                   0	35.10
12:41:                  30	35.17
12:42:                   0	35.18
12:42:                  30	35.18
12:43:                   0	35.14
12:43:                  30	35.16
12:44:                   0	35.19
12:44:                  31	35.22
12:45:                   1	35.18
12:45:                  31	35.22
12:46:                   1	35.24
12:46:                  31	35.21
12:47:                   1	35.24
12:47:                  31	35.22
12:48:                   1	35.24
12:48:                  31	35.29
12:49:                   1	35.33
12:49:                  31	35.34
12:50:                   1	35.38
12:50:                  31	35.42
12:51:                   1	35.39
12:51:                  31	35.42
12:52:                   1	35.47
12:52:                  31	35.42
12:53:                   1	35.49
12:53:                  31	35.54
12:54:                   1	35.57
12:54:                  31	35.59
12:55:                   1	35.64
12:55:                  31	35.69
12:56:                   1	35.71
12:56:                  31	35.75
12:57:                   1	35.79
12:57:                  31	35.83
12:58:                   1	35.79
12:58:                  31	35.78
12:59:                   1	35.78
12:59:                  31	35.81
13:00:                   1	35.83
13:00:                  31	35.80
13:01:                   2	35.82
13:01:                  32	35.81
13:02:                   2	35.86
13:02:                  32	35.78
13:03:                   2	35.77
13:03:                  32	35.77
13:04:                   2	35.79
13:04:                  32	35.79
13:05:                   2	35.77
13:05:                  32	35.76
13:06:                   2	35.81
13:06:                  32	35.76
13:07:                   2	35.79
13:07:                  32	35.75
13:08:                   2	35.71
13:08:                  32	35.69
13:09:                   2	35.68
13:09:                  32	35.66
13:10:                   2	35.64
13:10:                  32	35.60
13:11:                   2	35.51
13:11:                  32	35.47
13:12:                   2	35.43
13:12:                  32	35.42
13:13:                   2	35.29
13:13:                  32	35.29
13:14:                   2	35.25
13:14:                  32	35.25
13:15:                   2	35.23
13:15:                  32	35.23
13:16:                   2	35.23
13:16:                  32	35.24
13:17:                   3	35.19
13:17:                  33	35.19
13:18:                   3	35.16
13:18:                  33	35.13
13:19:                   3	35.11
13:19:                  33	35.10
13:20:                   3	35.07
13:20:                  33	35.05
13:21:                   3	34.98
13:21:                  33	34.93
13:22:                   3	34.96
13:22:                  33	34.99
13:23:                   3	34.98
13:23:                  33	34.96
13:24:                   3	34.90
13:24:                  33	34.91
13:25:                   3	34.92
13:25:                  33	34.87
13:26:                   3	34.85
13:26:                  33	34.88
13:27:                   3	34.86
13:27:                  33	34.87
13:28:                   3	34.83
13:28:                  33	34.80
13:29:                   3	34.76
13:29:                  33	34.74
13:30:                   3	34.68
13:30:                  33	34.67
13:31:                   3	34.67
13:31:                  33	34.64
13:32:                   3	34.61
13:32:                  33	34.61
13:33:                   3	34.59
13:33:                  33	34.58
13:34:                   3	34.47
13:34:                  33	34.49
13:35:                   3	34.48
13:35:                  33	34.45
13:36:                   3	34.45
13:36:                  33	34.43
13:37:                   3	34.42
13:37:                  33	34.43
13:38:                   3	34.40
13:38:                  33	34.37
13:39:                   3	34.38
13:39:                  33	34.38
13:40:                   3	34.38
13:40:                  33	34.34
13:41:                   3	34.38
13:41:                  33	34.35
13:42:                   3	34.34
13:42:                  33	34.34
13:43:                   3	34.36
13:43:                  33	34.35
13:44:                   3	34.33
13:44:                  34	34.30
13:45:                   4	34.27
13:45:                  34	34.24
13:46:                   4	34.25
13:46:                  34	34.24
13:47:                   4	34.23
13:47:                  34	34.23
13:48:                   4	34.19
13:48:                  34	34.18
13:49:                   4	34.14
13:49:                  34	34.12
13:50:                   4	34.11
13:50:                  34	34.07
13:51:                   4	34.05
13:51:                  34	34.04
13:52:                   4	34.01
13:52:                  34	34.03
13:53:                   4	34.00
13:53:                  34	33.99
13:54:                   4	33.96
13:54:                  34	33.92
13:55:                   4	33.87
13:55:                  34	33.84
13:56:                   4	33.86
13:56:                  34	33.89
13:57:                   4	33.90
13:57:                  34	33.90
13:58:                   4	33.87
13:58:                  34	33.88
13:59:                   4	33.85
13:59:                  34	33.83
14:00:                   4	33.81
14:00:                  34	33.79
14:01:                   4	33.79
14:01:                  34	33.74
14:02:                   4	33.73
14:02:                  35	33.73
14:03:                   5	33.71
14:03:                  35	33.70
14:04:                   5	33.58
14:04:                  35	33.61
14:05:                   5	33.56
14:05:                  35	33.47
14:06:                   5	33.46
14:06:                  35	33.44
14:07:                   5	33.31
14:07:                  35	33.12
14:08:                   5	33.06
14:08:                  35	33.04
14:09:                   5	33.01
14:09:                  35	32.99
14:10:                   5	32.94
14:10:                  35	32.88
14:11:                   5	32.83
14:11:                  35	32.83
14:12:                   5	32.81
14:12:                  35	32.80
14:13:                   5	32.75
14:13:                  35	32.75
14:14:                   5	32.75
14:14:                  35	32.76
14:15:                   5	32.79
14:15:                  35	32.77
14:16:                   5	32.78
14:16:                  35	32.77
14:17:                   5	32.75
14:17:                  35	32.78
14:18:                   5	32.77
14:18:                  35	32.75
14:19:                   5	32.75
14:19:                  35	32.75
14:20:                   5	32.74
14:20:                  35	32.74
14:21:                   5	32.74
14:21:                  35	32.73
14:22:                   5	32.75
14:22:                  35	32.75
14:23:                   5	32.75
14:23:                  35	32.75
14:24:                   5	32.76
14:24:                  35	32.75
14:25:                   5	32.78
14:25:                  35	32.82
14:26:                   5	32.80
14:26:                  35	32.83
14:27:                   5	32.83
14:27:                  35	32.85
14:28:                   5	32.87
14:28:                  35	32.88
14:29:                   5	32.89
14:29:                  35	32.91
14:30:                   5	32.96
14:30:                  35	32.95
14:31:                   5	32.96
14:31:                  35	32.97
14:32:                   5	32.99
14:32:                  35	33.01
14:33:                   5	33.02
14:33:                  35	33.05
14:34:                   6	33.08
14:34:                  36	33.08
14:35:                   6	33.07
14:35:                  36	33.09
14:36:                   6	33.10
14:36:                  36	33.11
14:37:                   6	33.13
14:37:                  36	33.16
14:38:                   6	33.16
14:38:                  36	33.17
14:39:                   6	33.19
14:39:                  36	33.19
14:40:                   6	33.22
14:40:                  36	33.22
14:41:                   6	33.22
14:41:                  36	33.21
14:42:                   6	33.23
14:42:                  36	33.23
14:43:                   6	33.23
14:43:                  36	33.22
14:44:                   6	33.24
14:44:                  36	33.23
14:45:                   6	33.23
14:45:                  36	33.25
14:46:                   6	33.23
14:46:                  36	33.23
14:47:                   6	33.25
14:47:                  36	33.28
14:48:                   6	33.28
14:48:                  36	33.26
14:49:                   6	33.27
14:49:                  36	33.25
14:50:                   6	33.26
14:50:                  36	33.27
14:51:                   6	33.28
14:51:                  36	33.27
14:52:                   6	33.25
14:52:                  36	33.24
14:53:                   6	33.24
14:53:                  36	33.25
14:54:                   6	33.26
14:54:                  36	33.26
14:55:                   6	33.25
14:55:                  36	33.24
14:56:                   6	33.24
14:56:                  36	33.23
14:57:                   6	33.25
14:57:                  36	33.25
14:58:                   6	33.26
14:58:                  36	33.27
14:59:                   6	33.26
14:59:                  36	33.28
15:00:                   6	33.29
15:00:                  36	33.27
15:01:                   6	33.27
15:01:                  36	33.26
15:02:                   6	33.27
15:02:                  36	33.27
15:03:                   6	33.28
15:03:                  36	33.28
15:04:                   6	33.27
15:04:                  36	33.26
15:05:                   6	33.26
15:05:                  36	33.25
15:06:                   6	33.25
15:06:                  36	33.26
15:07:                   6	33.27
15:07:                  36	33.29
15:08:                   6	33.29
15:08:                  36	33.30
15:09:                   6	33.31
15:09:                  36	33.31
15:10:                   6	33.32
15:10:                  36	33.31
15:11:                   6	33.33
15:11:                  37	33.32
15:12:                   7	33.30
15:12:                  37	33.31
15:13:                   7	33.32
15:13:                  37	33.31
15:14:                   7	33.31
15:14:                  37	33.30
15:15:                   7	33.30
15:15:                  37	33.28
15:16:                   7	33.30
15:16:                  37	33.30
15:17:                   7	33.29
15:17:                  37	33.29
15:18:                   7	33.30
15:18:                  37	33.31
15:19:                   7	33.31
15:19:                  37	33.30
15:20:                   7	33.30
15:20:                  37	33.30
15:21:                   7	33.30
15:21:                  37	33.27
15:22:                   7	33.30
15:22:                  37	33.29
15:23:                   7	33.29
15:23:                  37	33.28
15:24:                   7	33.26
15:24:                  37	33.27
15:25:                   7	33.26
15:25:                  37	33.26
15:26:                   7	33.26
15:26:                  37	33.27
15:27:                   7	33.26
15:27:                  37	33.27
15:28:                   8	33.27
15:28:                  38	33.27
15:29:                   8	33.28
15:29:                  38	33.30
15:30:                   8	33.27
15:30:                  38	33.27
15:31:                   8	33.25
15:31:                  38	33.26
15:32:                   8	33.25
15:32:                  38	33.26
15:33:                   8	33.25
15:33:                  38	33.22
15:34:                   8	33.23
15:34:                  38	33.24
15:35:                   8	33.24
15:35:                  38	33.22
15:36:                   8	33.22
15:36:                  38	33.23
15:37:                   8	33.22
15:37:                  38	33.24
15:38:                   8	33.23
15:38:                  38	33.24
15:39:                   8	33.23
15:39:                  38	33.23
15:40:                   8	33.22
15:40:                  38	33.22
15:41:                   8	33.22
15:41:                  38	33.21
15:42:                   8	33.21
15:42:                  38	33.19
15:43:                   8	33.19
15:43:                  38	33.18
15:44:                   8	33.19
15:44:                  38	33.19
15:45:                   8	33.17
15:45:                  38	33.17
15:46:                   8	33.13
15:46:                  38	33.14
15:47:                   8	33.12
15:47:                  38	33.13
15:48:                   8	33.15
15:48:                  38	33.14
15:49:                   8	33.16
15:49:                  38	33.16
15:50:                   8	33.15
15:50:                  38	33.14
15:51:                   8	33.14
15:51:                  38	33.14
15:52:                   8	33.14
15:52:                  38	33.12
15:53:                   8	33.09
15:53:                  38	33.09
15:54:                   8	33.08
15:54:                  38	33.09
15:55:                   8	33.08
15:55:                  38	33.08
15:56:                   8	33.08
15:56:                  38	33.06
15:57:                   8	33.05
15:57:                  38	33.04
15:58:                   8	33.04
15:58:                  38	33.04
15:59:                   8	33.05
15:59:                  38	33.06
16:00:                   8	33.05
16:00:                  38	33.04
16:01:                   8	33.02
16:01:                  38	33.03
16:02:                   9	33.03
16:02:                  39	33.01
16:03:                   9	33.03
16:03:                  39	33.07
16:04:                   9	33.04
16:04:                  39	33.05
16:05:                   9	33.04
16:05:                  39	33.04
16:06:                   9	33.04
16:06:                  39	33.02
16:07:                   9	33.02
16:07:                  39	33.02
16:08:                   9	33.04
16:08:                  39	33.05
16:09:                   9	33.03
16:09:                  39	33.02
16:10:                   9	33.01
16:10:                  39	33.01
16:11:                   9	33.02
16:11:                  39	33.01
16:12:                   9	32.99
16:12:                  39	32.98
16:13:                   9	32.97
16:13:                  39	32.98
16:14:                   9	32.96
16:14:                  39	32.94
16:15:                   9	32.94
16:15:                  39	32.93
16:16:                   9	32.91
16:16:                  39	32.89
16:17:                   9	32.89
16:17:                  39	32.87
16:18:                   9	32.87
16:18:                  39	32.89
16:19:                   9	32.88
16:19:                  39	32.87
16:20:                   9	32.88
16:20:                  39	32.85
16:21:                   9	32.86
16:21:                  39	32.85
16:22:                   9	32.82
16:22:                  39	32.81
16:23:                   9	32.80
16:23:                  39	32.81
16:24:                   9	32.80
16:24:                  39	32.78
16:25:                   9	32.77
16:25:                  39	32.75
16:26:                   9	32.76
16:26:                  39	32.75
16:27:                   9	32.74
16:27:                  39	32.74
16:28:                   9	32.73
16:28:                  39	32.74
16:29:                   9	32.74
16:29:                  39	32.73
16:30:                   9	32.74
16:30:                  40	32.73
16:31:                  10	32.74
16:31:                  40	32.73
16:32:                  10	32.71
16:32:                  40	32.72
16:33:                  10	32.70
16:33:                  40	32.70
16:34:                  10	32.70
16:34:                  40	32.67
16:35:                  10	32.66
16:35:                  40	32.66
16:36:                  10	32.64
16:36:                  40	32.64
16:37:                  10	32.62
16:37:                  40	32.62
16:38:                  10	32.62
16:38:                  40	32.61
16:39:                  10	32.63
16:39:                  40	32.65
16:40:                  10	32.61
16:40:                  40	32.60
16:41:                  10	32.60
16:41:                  40	32.60
16:42:                  10	32.59
16:42:                  40	32.57
16:43:                  10	32.57
16:43:                  40	32.57
16:44:                  10	32.56
16:44:                  40	32.54
16:45:                  10	32.55
16:45:                  40	32.53
16:46:                  10	32.52
16:46:                  40	32.51
16:47:                  10	32.50
16:47:                  41	32.50
16:48:                  11	32.49
16:48:                  41	32.47
16:49:                  11	32.48
16:49:                  41	32.50
16:50:                  11	32.49
16:50:                  41	32.49
16:51:                  11	32.49
16:51:                  41	32.48
16:52:                  11	32.49
16:52:                  41	32.46
16:53:                  11	32.44
16:53:                  41	32.43
16:54:                  11	32.44
16:54:                  41	32.41
16:55:                  11	32.41
16:55:                  41	32.40
16:56:                  11	32.39
16:56:                  41	32.38
16:57:                  11	32.38
16:57:                  41	32.38
16:58:                  11	32.37
16:58:                  41	32.38
16:59:                  11	32.37
16:59:                  41	32.38
17:00:                  11	32.37
17:00:                  41	32.35
17:01:                  11	32.35
17:01:                  41	32.34
17:02:                  11	32.33
17:02:                  41	32.32
17:03:                  11	32.31
17:03:                  41	32.31
17:04:                  11	32.31
17:04:                  41	32.30
17:05:                  11	32.29
17:05:                  41	32.29
17:06:                  11	32.28
17:06:                  41	32.27
17:07:                  11	32.25
17:07:                  41	32.25
17:08:                  11	32.24
17:08:                  41	32.24
17:09:                  11	32.23
17:09:                  41	32.24
17:10:                  11	32.25
17:10:                  41	32.22
17:11:                  11	32.22
17:11:                  41	32.22
17:12:                  11	32.21
17:12:                  41	32.20
17:13:                  11	32.20
17:13:                  41	32.20
17:14:                  11	32.19
17:14:                  41	32.17
17:15:                  11	32.15
17:15:                  41	32.15
17:16:                  11	32.15
17:16:                  41	32.15
17:17:                  11	32.14
17:17:                  41	32.12
17:18:                  11	32.12
17:18:                  41	32.10
17:19:                  11	32.12
17:19:                  41	32.12
17:20:                  11	32.11
17:20:                  41	32.10
17:21:                  11	32.08
17:21:                  41	32.10
17:22:                  11	32.10
17:22:                  41	32.08
17:23:                  11	32.08
17:23:                  41	32.06
17:24:                  11	32.07
17:24:                  41	32.06
17:25:                  11	32.05
17:25:                  41	32.05
17:26:                  11	32.05
17:26:                  41	32.03
17:27:                  11	32.01
17:27:                  41	32.00
17:28:                  11	31.99
17:28:                  41	31.98
17:29:                  11	31.99
17:29:                  42	31.95
17:30:                  12	31.94
17:30:                  42	31.93
17:31:                  12	31.94
17:31:                  42	31.94
17:32:                  12	31.94
17:32:                  42	31.94
17:33:                  12	31.95
17:33:                  42	31.91
17:34:                  12	31.92
17:34:                  42	31.91
17:35:                  12	31.90
17:35:                  42	31.89
17:36:                  12	31.88
17:36:                  42	31.87
17:37:                  12	31.84
17:37:                  42	31.81
17:38:                  12	31.83
17:38:                  42	31.81
17:39:                  12	31.84
17:39:                  42	31.85
17:40:                  12	31.85
17:40:                  42	31.85
17:41:                  12	31.83
17:41:                  42	31.82
17:42:                  12	31.81
17:42:                  42	31.79
17:43:                  12	31.78
17:43:                  42	31.78
17:44:                  12	31.78
17:44:                  42	31.77
17:45:                  12	31.74
17:45:                  42	31.74
17:46:                  12	31.73
17:46:                  42	31.73
17:47:                  12	31.71
17:47:                  42	31.70
17:48:                  12	31.69
17:48:                  42	31.69
17:49:                  12	31.69
17:49:                  42	31.69
17:50:                  12	31.69
17:50:                  42	31.70
17:51:                  12	31.69
17:51:                  42	31.70
17:52:                  12	31.70
17:52:                  42	31.70
17:53:                  12	31.69
17:53:                  42	31.69
17:54:                  12	31.68
17:54:                  42	31.67
17:55:                  12	31.67
17:55:                  42	31.66
17:56:                  12	31.64
17:56:                  42	31.63
17:57:                  12	31.62
17:57:                  42	31.61
17:58:                  12	31.60
17:58:                  42	31.59
17:59:                  13	31.58
17:59:                  43	31.57
18:00:                  13	31.57
18:00:                  43	31.58
18:01:                  13	31.55
18:01:                  43	31.55
18:02:                  13	31.54
18:02:                  43	31.54
18:03:                  13	31.53
18:03:                  43	31.52
18:04:                  13	31.51
18:04:                  43	31.48
18:05:                  13	31.48
18:05:                  43	31.47
18:06:                  13	31.46
18:06:                  43	31.45
18:07:                  13	31.45
18:07:                  43	31.45
18:08:                  13	31.42
18:08:                  43	31.42
18:09:                  13	31.41
18:09:                  43	31.40
18:10:                  13	31.42
18:10:                  43	31.42
18:11:                  13	31.41
18:11:                  43	31.40
18:12:                  13	31.41
18:12:                  43	31.41
18:13:                  13	31.39
18:13:                  43	31.39
18:14:                  13	31.39
18:14:                  43	31.38
18:15:                  13	31.37
18:15:                  43	31.36
18:16:                  13	31.35
18:16:                  43	31.32
18:17:                  13	31.32
18:17:                  43	31.31
18:18:                  13	31.31
18:18:                  43	31.32
18:19:                  13	31.31
18:19:                  43	31.31
18:20:                  13	31.31
18:20:                  43	31.32
18:21:                  13	31.32
18:21:                  43	31.30
18:22:                  13	31.30
18:22:                  43	31.29
18:23:                  13	31.29
18:23:                  44	31.29
18:24:                  14	31.28
18:24:                  44	31.27
18:25:                  14	31.26
18:25:                  44	31.26
18:26:                  14	31.26
18:26:                  44	31.25
18:27:                  14	31.23
18:27:                  44	31.24
18:28:                  14	31.23
18:28:                  44	31.21
18:29:                  14	31.20
18:29:                  44	31.20
18:30:                  14	31.21
18:30:                  44	31.21
18:31:                  14	31.20
18:31:                  44	31.20
18:32:                  14	31.20
18:32:                  44	31.20
18:33:                  14	31.20
18:33:                  44	31.20
18:34:                  14	31.17
18:34:                  44	31.16
18:35:                  14	31.16
18:35:                  44	31.16
18:36:                  14	31.16
18:36:                  44	31.15
18:37:                  14	31.14
18:37:                  44	31.14
18:38:                  14	31.13
18:38:                  44	31.11
18:39:                  14	31.10
18:39:                  44	31.12
18:40:                  14	31.11
18:40:                  44	31.11
18:41:                  14	31.11
18:41:                  44	31.10
18:42:                  14	31.10
18:42:                  44	31.09
18:43:                  14	31.09
18:43:                  44	31.10
18:44:                  14	31.08
18:44:                  44	31.05
18:45:                  14	31.07
18:45:                  44	31.07
18:46:                  14	31.06
18:46:                  44	31.04
18:47:                  14	31.04
18:47:                  44	31.02
18:48:                  14	31.02
18:48:                  44	31.01
18:49:                  14	31.01
18:49:                  44	31.01
18:50:                  14	31.02
18:50:                  44	31.04
18:51:                  14	31.04
18:51:                  44	31.04
18:52:                  14	31.04
18:52:                  44	31.05
18:53:                  14	31.03
18:53:                  44	31.03
18:54:                  14	31.02
18:54:                  44	31.02
18:55:                  14	31.02
18:55:                  45	31.02
18:56:                  15	31.01
18:56:                  45	31.02
18:57:                  15	31.03
18:57:                  45	31.02
18:58:                  15	31.00
18:58:                  45	31.00
18:59:                  15	31.01
18:59:                  45	30.99
19:00:                  15	31.00
19:00:                  45	31.01
19:01:                  15	31.01
19:01:                  45	31.01
19:02:                  15	31.01
19:02:                  45	31.01
19:03:                  15	31.00
19:03:                  45	31.00
19:04:                  15	31.00
19:04:                  45	30.98
19:05:                  15	30.98
19:05:                  45	30.99
19:06:                  15	30.99
19:06:                  45	30.97
19:07:                  15	30.97
19:07:                  45	30.97
19:08:                  15	30.97
19:08:                  45	30.97
19:09:                  15	30.97
19:09:                  45	30.96
19:10:                  15	30.95
19:10:                  45	30.95
19:11:                  15	30.97
19:11:                  45	30.98
19:12:                  15	30.94
19:12:                  45	30.95
19:13:                  15	30.95
19:13:                  45	30.94
19:14:                  15	30.92
19:14:                  45	30.92
19:15:                  15	30.90
19:15:                  45	30.91
19:16:                  15	30.90
19:16:                  45	30.90
19:17:                  15	30.89
19:17:                  45	30.90
19:18:                  15	30.90
19:18:                  45	30.89
19:19:                  15	30.89
19:19:                  45	30.90
19:20:                  15	30.90
19:20:                  45	30.89
19:21:                  15	30.89
19:21:                  45	30.88
19:22:                  15	30.89
19:22:                  45	30.90
19:23:                  15	30.90
19:23:                  45	30.89
19:24:                  15	30.88
19:24:                  45	30.88
19:25:                  15	30.90
19:25:                  45	30.89
19:26:                  15	30.88
19:26:                  45	30.88
19:27:                  15	30.88
19:27:                  45	30.86
19:28:                  15	30.86
19:28:                  45	30.85
19:29:                  15	30.86
19:29:                  46	30.84
19:30:                  16	30.83
19:30:                  46	30.85
19:31:                  16	30.85
19:31:                  46	30.86
19:32:                  16	30.87
19:32:                  46	30.88
19:33:                  16	30.86
19:33:                  46	30.85
19:34:                  16	30.85
19:34:                  46	30.87
19:35:                  16	30.86
19:35:                  46	30.84
19:36:                  16	30.84
19:36:                  46	30.86
19:37:                  16	30.84
19:37:                  46	30.84
19:38:                  16	30.84
19:38:                  46	30.85
19:39:                  16	30.83
19:39:                  46	30.83
19:40:                  16	30.83
19:40:                  46	30.84
19:41:                  16	30.84
19:41:                  46	30.84
19:42:                  16	30.85
19:42:                  46	30.86
19:43:                  16	30.85
19:43:                  46	30.85
19:44:                  16	30.85
19:44:                  46	30.84
19:45:                  16	30.85
19:45:                  46	30.84
19:46:                  16	30.85
19:46:                  46	30.83
19:47:                  16	30.84
19:47:                  46	30.83
19:48:                  16	30.83
19:48:                  46	30.82
19:49:                  16	30.82
19:49:                  46	30.80
19:50:                  16	30.81
19:50:                  46	30.80
19:51:                  16	30.82
19:51:                  46	30.82
19:52:                  16	30.82
19:52:                  46	30.81
19:53:                  16	30.81
19:53:                  46	30.81
19:54:                  16	30.81
19:54:                  46	30.79
19:55:                  16	30.80
19:55:                  46	30.79
19:56:                  16	30.79
19:56:                  46	30.78
19:57:                  16	30.78
19:57:                  46	30.77
19:58:                  16	30.77
19:58:                  46	30.76
19:59:                  16	30.75
19:59:                  46	30.76
20:00:                  16	30.75
20:00:                  46	30.76
20:01:                  16	30.76
20:01:                  46	30.78
20:02:                  16	30.77
20:02:                  46	30.77
20:03:                  16	30.76
20:03:                  46	30.75
20:04:                  16	30.76
20:04:                  46	30.77
20:05:                  16	30.75
20:05:                  46	30.74
20:06:                  16	30.73
20:06:                  46	30.73
20:07:                  16	30.74
20:07:                  46	30.74
20:08:                  16	30.73
20:08:                  46	30.73
20:09:                  16	30.74
20:09:                  46	30.72
20:10:                  16	30.72
20:10:                  47	30.71
20:11:                  17	30.72
20:11:                  47	30.73
20:12:                  17	30.74
20:12:                  47	30.73
20:13:                  17	30.73
20:13:                  47	30.73
20:14:                  17	30.72
20:14:                  47	30.72
20:15:                  17	30.72
20:15:                  47	30.71
20:16:                  17	30.71
20:16:                  47	30.70
20:17:                  17	30.70
20:17:                  47	30.70
20:18:                  17	30.69
20:18:                  47	30.70
20:19:                  17	30.70
20:19:                  47	30.68
20:20:                  17	30.68
20:20:                  47	30.68
20:21:                  17	30.68
20:21:                  47	30.69
20:22:                  17	30.68
20:22:                  47	30.69
20:23:                  17	30.68
20:23:                  47	30.68
20:24:                  17	30.68
20:24:                  47	30.68
20:25:                  17	30.67
20:25:                  47	30.67
20:26:                  17	30.66
20:26:                  47	30.66
20:27:                  17	30.66
20:27:                  47	30.66
20:28:                  17	30.66
20:28:                  47	30.64
20:29:                  17	30.64
20:29:                  47	30.63
20:30:                  17	30.65
20:30:                  47	30.63
20:31:                  17	30.63
20:31:                  47	30.64
20:32:                  17	30.65
20:32:                  47	30.65
20:33:                  17	30.65
20:33:                  47	30.65
20:34:                  17	30.65
20:34:                  47	30.65
20:35:                  17	30.65
20:35:                  47	30.64
20:36:                  17	30.64
20:36:                  47	30.63
20:37:                  17	30.64
20:37:                  47	30.64
20:38:                  17	30.64
20:38:                  47	30.63
20:39:                  17	30.62
20:39:                  47	30.63
20:40:                  17	30.63
20:40:                  47	30.62
20:41:                  17	30.62
20:41:                  47	30.64
20:42:                  17	30.65
20:42:                  47	30.64
20:43:                  17	30.66
20:43:                  47	30.65
20:44:                  17	30.64
20:44:                  47	30.65
20:45:                  18	30.64
20:45:                  48	30.64
20:46:                  18	30.63
20:46:                  48	30.63
20:47:                  18	30.62
20:47:                  48	30.63
20:48:                  18	30.61
20:48:                  48	30.62
20:49:                  18	30.61
20:49:                  48	30.61
20:50:                  18	30.60
20:50:                  48	30.59
20:51:                  18	30.60
20:51:                  48	30.61
20:52:                  18	30.62
20:52:                  48	30.62
20:53:                  18	30.61
20:53:                  48	30.60
20:54:                  18	30.61
20:54:                  48	30.60
20:55:                  18	30.61
20:55:                  48	30.59
20:56:                  18	30.59
20:56:                  48	30.59
20:57:                  18	30.60
20:57:                  48	30.58
20:58:                  18	30.58
20:58:                  48	30.58
20:59:                  18	30.59
20:59:                  48	30.58
21:00:                  18	30.57
21:00:                  48	30.56
21:01:                  18	30.57
21:01:                  48	30.57
21:02:                  18	30.58
21:02:                  48	30.59
21:03:                  18	30.58
21:03:                  48	30.59
21:04:                  18	30.58
21:04:                  48	30.59
21:05:                  18	30.58
21:05:                  48	30.59
21:06:                  18	30.58
21:06:                  48	30.58
21:07:                  19	30.58
21:07:                  49	30.58
21:08:                  19	30.58
21:08:                  49	30.57
21:09:                  19	30.58
21:09:                  49	30.57
21:10:                  19	30.58
21:10:                  49	30.57
21:11:                  19	30.56
21:11:                  49	30.56
21:12:                  19	30.58
21:12:                  49	30.60
21:13:                  19	30.61
21:13:                  49	30.60
21:14:                  19	30.59
21:14:                  49	30.60
21:15:                  19	30.59
21:15:                  49	30.60
21:16:                  19	30.59
21:16:                  49	30.59
21:17:                  19	30.58
21:17:                  49	30.59
21:18:                  19	30.59
21:18:                  49	30.59
21:19:                  19	30.58
21:19:                  49	30.58
21:20:                  19	30.58
21:20:                  49	30.57
21:21:                  19	30.58
21:21:                  49	30.56
21:22:                  19	30.57
21:22:                  49	30.57
21:23:                  19	30.59
21:23:                  49	30.58
21:24:                  19	30.58
21:24:                  49	30.60
21:25:                  19	30.59
21:25:                  49	30.59
21:26:                  19	30.58
21:26:                  49	30.59
21:27:                  19	30.59
21:27:                  49	30.59
21:28:                  19	30.58
21:28:                  49	30.58
21:29:                  19	30.59
21:29:                  49	30.58
21:30:                  19	30.58
21:30:                  49	30.58
21:31:                  19	30.57
21:31:                  49	30.57
21:32:                  19	30.58
21:32:                  49	30.57
21:33:                  19	30.58
21:33:                  49	30.58
21:34:                  19	30.58
21:34:                  49	30.59
21:35:                  19	30.58
21:35:                  49	30.58
21:36:                  20	30.58
21:36:                  50	30.58
21:37:                  20	30.56
21:37:                  50	30.58
21:38:                  20	30.57
21:38:                  50	30.56
21:39:                  20	30.54
21:39:                  50	30.56
21:40:                  20	30.53
21:40:                  50	30.54
21:41:                  20	30.54
21:41:                  50	30.54
21:42:                  20	30.54
21:42:                  50	30.56
21:43:                  20	30.58
21:43:                  50	30.58
21:44:                  20	30.57
21:44:                  50	30.56
21:45:                  20	30.57
21:45:                  50	30.56
21:46:                  20	30.56
21:46:                  50	30.56
21:47:                  20	30.56
21:47:                  50	30.54
21:48:                  20	30.56
21:48:                  50	30.54
21:49:                  20	30.54
21:49:                  50	30.53
21:50:                  20	30.53
21:50:                  50	30.53
21:51:                  20	30.52
21:51:                  50	30.52
21:52:                  20	30.52
21:52:                  50	30.53
21:53:                  20	30.54
21:53:                  50	30.54
21:54:                  20	30.56
21:54:                  50	30.56
21:55:                  20	30.56
21:55:                  50	30.54
21:56:                  20	30.56
21:56:                  50	30.56
21:57:                  20	30.56
21:57:                  50	30.54
21:58:                  20	30.54
21:58:                  50	30.53
21:59:                  20	30.52
21:59:                  50	30.53
22:00:                  20	30.54
22:00:                  50	30.53
22:01:                  20	30.51
22:01:                  50	30.51
22:02:                  20	30.51
22:02:                  50	30.52
22:03:                  20	30.52
22:03:                  50	30.53
22:04:                  20	30.53
22:04:                  50	30.53
22:05:                  20	30.53
22:05:                  51	30.52
22:06:                  21	30.53
22:06:                  51	30.53
22:07:                  21	30.52
22:07:                  51	30.52
22:08:                  21	30.51
22:08:                  51	30.51
22:09:                  21	30.51
22:09:                  51	30.51
22:10:                  21	30.50
22:10:                  51	30.51
22:11:                  21	30.50
22:11:                  51	30.51
22:12:                  21	30.50
22:12:                  51	30.50
22:13:                  21	30.52
22:13:                  51	30.51
22:14:                  21	30.52
22:14:                  51	30.52
22:15:                  21	30.52
22:15:                  51	30.52
22:16:                  21	30.50
22:16:                  51	30.51
22:17:                  21	30.51
22:17:                  51	30.50
22:18:                  21	30.51
22:18:                  51	30.50
22:19:                  21	30.50
22:19:                  51	30.50
22:20:                  21	30.50
22:20:                  51	30.50
22:21:                  21	30.49
22:21:                  51	30.49
22:22:                  21	30.49
22:22:                  51	30.49
22:23:                  21	30.49
22:23:                  51	30.49
22:24:                  21	30.50
22:24:                  51	30.50
22:25:                  21	30.50
22:25:                  51	30.51
22:26:                  21	30.51
22:26:                  51	30.50
22:27:                  21	30.50
22:27:                  51	30.50
22:28:                  21	30.49
22:28:                  51	30.47
22:29:                  21	30.47
22:29:                  51	30.48
22:30:                  21	30.47
22:30:                  51	30.48
22:31:                  21	30.46
22:31:                  51	30.46
22:32:                  21	30.46
22:32:                  51	30.46
22:33:                  21	30.47
22:33:                  51	30.47
22:34:                  21	30.47
22:34:                  51	30.47
22:35:                  21	30.48
22:35:                  51	30.49
22:36:                  21	30.47
22:36:                  51	30.48
22:37:                  21	30.48
22:37:                  51	30.48
22:38:                  21	30.48
22:38:                  51	30.48
22:39:                  21	30.47
22:39:                  51	30.48
22:40:                  21	30.47
22:40:                  51	30.46
22:41:                  21	30.47
22:41:                  51	30.47
22:42:                  21	30.46
22:42:                  52	30.46
22:43:                  22	30.45
22:43:                  52	30.47
22:44:                  22	30.47
22:44:                  52	30.47
22:45:                  22	30.48
22:45:                  52	30.47
22:46:                  22	30.48
22:46:                  52	30.47
22:47:                  22	30.48
22:47:                  52	30.46
22:48:                  22	30.46
22:48:                  52	30.47
22:49:                  22	30.46
22:49:                  52	30.45
22:50:                  22	30.44
22:50:                  52	30.46
22:51:                  22	30.45
22:51:                  52	30.44
22:52:                  22	30.44
22:52:                  52	30.43
22:53:                  22	30.44
22:53:                  52	30.45
22:54:                  22	30.44
22:54:                  52	30.43
22:55:                  22	30.44
22:55:                  52	30.43
22:56:                  22	30.43
22:56:                  52	30.44
22:57:                  22	30.42
22:57:                  52	30.42
22:58:                  22	30.42
22:58:                  52	30.42
22:59:                  22	30.43
22:59:                  52	30.41
23:00:                  22	30.42
23:00:                  52	30.42
23:01:                  22	30.41
23:01:                  52	30.41
23:02:                  22	30.41
23:02:                  52	30.41
23:03:                  22	30.41
23:03:                  52	30.42
23:04:                  22	30.43
23:04:                  52	30.43
23:05:                  22	30.44
23:05:                  52	30.44
23:06:                  22	30.44
23:06:                  52	30.43
23:07:                  22	30.44
23:07:                  52	30.45
23:08:                  22	30.44
23:08:                  52	30.44
23:09:                  22	30.44
23:09:                  52	30.43
23:10:                  22	30.42
23:10:                  52	30.42
23:11:                  22	30.43
23:11:                  52	30.41
23:12:                  22	30.42
23:12:                  52	30.42
23:13:                  22	30.41
23:13:                  52	30.42
23:14:                  22	30.42
23:14:                  52	30.44
23:15:                  23	30.44
23:15:                  53	30.43
23:16:                  23	30.44
23:16:                  53	30.43
23:17:                  23	30.44
23:17:                  53	30.43
23:18:                  23	30.44
23:18:                  53	30.43
23:19:                  23	30.42
23:19:                  53	30.42
23:20:                  23	30.42
23:20:                  53	30.42
23:21:                  23	30.42
23:21:                  53	30.41
23:22:                  23	30.42
23:22:                  53	30.42
23:23:                  23	30.41
23:23:                  53	30.42
23:24:                  23	30.42
23:24:                  53	30.43
23:25:                  23	30.44
23:25:                  53	30.44
23:26:                  23	30.44
23:26:                  53	30.43
23:27:                  23	30.45
23:27:                  53	30.44
23:28:                  23	30.43
23:28:                  53	30.43
23:29:                  23	30.43
23:29:                  53	30.41
23:30:                  23	30.41
23:30:                  53	30.41
23:31:                  23	30.40
23:31:                  53	30.40
23:32:                  23	30.39
23:32:                  53	30.38
23:33:                  23	30.38
23:33:                  53	30.39
23:34:                  23	30.38
23:34:                  53	30.39
23:35:                  23	30.40
23:35:                  53	30.40
23:36:                  23	30.40
23:36:                  53	30.39
23:37:                  23	30.39
23:37:                  53	30.37
23:38:                  23	30.38
23:38:                  53	30.37
23:39:                  23	30.37
23:39:                  53	30.37
23:40:                  23	30.37
23:40:                  53	30.38
23:41:                  23	30.37
23:41:                  53	30.36
23:42:                  23	30.37
23:42:                  53	30.37
23:43:                  23	30.37
23:43:                  53	30.36
23:44:                  23	30.38
23:44:                  53	30.38
23:45:                  23	30.39
23:45:                  53	30.39
23:46:                  23	30.39
23:46:                  53	30.38
23:47:                  23	30.39
23:47:                  53	30.39
23:48:                  23	30.38
23:48:                  53	30.38
23:49:                  23	30.38
23:49:                  53	30.37
23:50:                  23	30.37
23:50:                  53	30.36
23:51:                  23	30.37
23:51:                  53	30.36
23:52:                  23	30.36
23:52:                  53	30.36
23:53:                  23	30.36
23:53:                  53	30.35
23:54:                  23	30.36
23:54:                  53	30.38
23:55:                  23	30.38
23:55:                  53	30.38
23:56:                  23	30.38
23:56:                  53	30.38
23:57:                  23	30.38
23:57:                  53	30.38
23:58:                  23	30.38
23:58:                  53	30.37
23:59:                  23	30.37
23:59:                  53	30.37
