0:00:                  22	39.84
0:00:                  52	39.83
0:01:                  22	39.80
0:01:                  52	39.80
0:02:                  22	39.78
0:02:                  52	39.79
0:03:                  22	39.80
0:03:                  52	39.80
0:04:                  22	39.77
0:04:                  52	39.79
0:05:                  22	39.78
0:05:                  52	39.76
0:06:                  22	39.77
0:06:                  52	39.77
0:07:                  22	39.74
0:07:                  52	39.73
0:08:                  22	39.73
0:08:                  52	39.75
0:09:                  22	39.74
0:09:                  52	39.74
0:10:                  22	39.72
0:10:                  52	39.73
0:11:                  22	39.71
0:11:                  52	39.71
0:12:                  22	39.72
0:12:                  53	39.71
0:13:                  23	39.70
0:13:                  53	39.70
0:14:                  23	39.70
0:14:                  53	39.71
0:15:                  23	39.69
0:15:                  53	39.67
0:16:                  23	39.67
0:16:                  53	39.67
0:17:                  23	39.65
0:17:                  53	39.64
0:18:                  23	39.65
0:18:                  53	39.65
0:19:                  23	39.63
0:19:                  53	39.61
0:20:                  23	39.60
0:20:                  53	39.58
0:21:                  23	39.58
0:21:                  53	39.58
0:22:                  23	39.58
0:22:                  53	39.57
0:23:                  23	39.58
0:23:                  53	39.57
0:24:                  23	39.57
0:24:                  53	39.55
0:25:                  23	39.55
0:25:                  53	39.54
0:26:                  23	39.53
0:26:                  53	39.52
0:27:                  23	39.50
0:27:                  53	39.49
0:28:                  23	39.50
0:28:                  53	39.49
0:29:                  23	39.49
0:29:                  53	39.48
0:30:                  23	39.48
0:30:                  53	39.48
0:31:                  23	39.48
0:31:                  53	39.48
0:32:                  23	39.48
0:32:                  53	39.44
0:33:                  23	39.44
0:33:                  53	39.44
0:34:                  23	39.44
0:34:                  53	39.43
0:35:                  23	39.40
0:35:                  53	39.41
0:36:                  23	39.39
0:36:                  54	39.40
0:37:                  24	39.40
0:37:                  54	39.41
0:38:                  24	39.41
0:38:                  54	39.41
0:39:                  24	39.41
0:39:                  54	39.42
0:40:                  24	39.42
0:40:                  54	39.42
0:41:                  24	39.42
0:41:                  54	39.43
0:42:                  24	39.43
0:42:                  54	39.42
0:43:                  24	39.42
0:43:                  54	39.41
0:44:                  24	39.41
0:44:                  54	39.40
0:45:                  24	39.39
0:45:                  54	39.39
0:46:                  24	39.38
0:46:                  54	39.38
0:47:                  24	39.39
0:47:                  54	39.38
0:48:                  24	39.37
0:48:                  54	39.36
0:49:                  24	39.35
0:49:                  54	39.35
0:50:                  24	39.37
0:50:                  54	39.37
0:51:                  24	39.37
0:51:                  54	39.37
0:52:                  24	39.36
0:52:                  54	39.37
0:53:                  24	39.37
0:53:                  54	39.35
0:54:                  24	39.37
0:54:                  54	39.38
0:55:                  24	39.38
0:55:                  54	39.38
0:56:                  24	39.37
0:56:                  54	39.37
0:57:                  24	39.38
0:57:                  54	39.37
0:58:                  24	39.37
0:58:                  54	39.38
0:59:                  24	39.38
0:59:                  54	39.38
1:00:                  24	39.38
1:00:                  54	39.39
1:01:                  24	39.38
1:01:                  54	39.37
1:02:                  24	39.37
1:02:                  54	39.37
1:03:                  24	39.36
1:03:                  54	39.36
1:04:                  24	39.36
1:04:                  54	39.35
1:05:                  24	39.34
1:05:                  54	39.33
1:06:                  24	39.33
1:06:                  54	39.35
1:07:                  24	39.32
1:07:                  54	39.35
1:08:                  24	39.32
1:08:                  54	39.32
1:09:                  24	39.33
1:09:                  54	39.33
1:10:                  24	39.33
1:10:                  54	39.33
1:11:                  25	39.33
1:11:                  55	39.33
1:12:                  25	39.33
1:12:                  55	39.32
1:13:                  25	39.33
1:13:                  55	39.33
1:14:                  25	39.32
1:14:                  55	39.32
1:15:                  25	39.31
1:15:                  55	39.32
1:16:                  25	39.31
1:16:                  55	39.31
1:17:                  25	39.31
1:17:                  55	39.31
1:18:                  25	39.30
1:18:                  55	39.30
1:19:                  25	39.30
1:19:                  55	39.29
1:20:                  25	39.30
1:20:                  55	39.30
1:21:                  25	39.31
1:21:                  55	39.30
1:22:                  25	39.31
1:22:                  55	39.31
1:23:                  25	39.31
1:23:                  55	39.30
1:24:                  25	39.31
1:24:                  55	39.32
1:25:                  25	39.31
1:25:                  55	39.32
1:26:                  25	39.32
1:26:                  55	39.32
1:27:                  25	39.32
1:27:                  55	39.30
1:28:                  25	39.30
1:28:                  55	39.31
1:29:                  25	39.32
1:29:                  55	39.32
1:30:                  25	39.32
1:30:                  56	39.32
1:31:                  26	39.32
1:31:                  56	39.32
1:32:                  26	39.33
1:32:                  56	39.32
1:33:                  26	39.31
1:33:                  56	39.32
1:34:                  26	39.31
1:34:                  56	39.32
1:35:                  26	39.32
1:35:                  56	39.31
1:36:                  26	39.32
1:36:                  56	39.32
1:37:                  26	39.31
1:37:                  56	39.32
1:38:                  26	39.32
1:38:                  56	39.32
1:39:                  26	39.32
1:39:                  56	39.32
1:40:                  26	39.32
1:40:                  56	39.32
1:41:                  26	39.31
1:41:                  56	39.32
1:42:                  26	39.31
1:42:                  56	39.30
1:43:                  26	39.31
1:43:                  56	39.31
1:44:                  26	39.29
1:44:                  56	39.31
1:45:                  26	39.31
1:45:                  56	39.30
1:46:                  26	39.30
1:46:                  56	39.31
1:47:                  26	39.30
1:47:                  56	39.29
1:48:                  26	39.29
1:48:                  56	39.29
1:49:                  26	39.29
1:49:                  56	39.29
1:50:                  26	39.29
1:50:                  56	39.29
1:51:                  26	39.28
1:51:                  56	39.29
1:52:                  26	39.28
1:52:                  56	39.29
1:53:                  26	39.30
1:53:                  56	39.28
1:54:                  26	39.30
1:54:                  56	39.28
1:55:                  26	39.29
1:55:                  56	39.29
1:56:                  26	39.29
1:56:                  56	39.30
1:57:                  27	39.30
1:57:                  57	39.30
1:58:                  27	39.29
1:58:                  57	39.29
1:59:                  27	39.29
1:59:                  57	39.29
2:00:                  27	39.29
2:00:                  57	39.29
2:01:                  27	39.30
2:01:                  57	39.30
2:02:                  27	39.29
2:02:                  57	39.30
2:03:                  27	39.29
2:03:                  57	39.30
2:04:                  27	39.29
2:04:                  57	39.29
2:05:                  27	39.29
2:05:                  57	39.29
2:06:                  27	39.28
2:06:                  57	39.27
2:07:                  27	39.28
2:07:                  57	39.26
2:08:                  27	39.27
2:08:                  57	39.28
2:09:                  27	39.28
2:09:                  57	39.28
2:10:                  27	39.29
2:10:                  57	39.29
2:11:                  27	39.29
2:11:                  57	39.29
2:12:                  27	39.30
2:12:                  57	39.29
2:13:                  27	39.29
2:13:                  57	39.29
2:14:                  27	39.29
2:14:                  57	39.29
2:15:                  27	39.28
2:15:                  57	39.28
2:16:                  27	39.28
2:16:                  57	39.27
2:17:                  27	39.27
2:17:                  57	39.28
2:18:                  27	39.27
2:18:                  57	39.26
2:19:                  27	39.28
2:19:                  57	39.28
2:20:                  27	39.26
2:20:                  57	39.26
2:21:                  27	39.26
2:21:                  57	39.26
2:22:                  27	39.27
2:22:                  57	39.26
2:23:                  27	39.25
2:23:                  57	39.24
2:24:                  27	39.23
2:24:                  57	39.25
2:25:                  28	39.23
2:25:                  58	39.23
2:26:                  28	39.23
2:26:                  58	39.24
2:27:                  28	39.23
2:27:                  58	39.22
2:28:                  28	39.22
2:28:                  58	39.22
2:29:                  28	39.22
2:29:                  58	39.23
2:30:                  28	39.22
2:30:                  58	39.23
2:31:                  28	39.22
2:31:                  58	39.23
2:32:                  28	39.22
2:32:                  58	39.23
2:33:                  28	39.22
2:33:                  58	39.23
2:34:                  28	39.22
2:34:                  58	39.22
2:35:                  28	39.20
2:35:                  58	39.19
2:36:                  28	39.17
2:36:                  58	39.15
2:37:                  28	39.15
2:37:                  58	39.15
2:38:                  28	39.13
2:38:                  58	39.14
2:39:                  28	39.14
2:39:                  58	39.14
2:40:                  28	39.14
2:40:                  58	39.15
2:41:                  28	39.14
2:41:                  58	39.14
2:42:                  28	39.13
2:42:                  58	39.15
2:43:                  28	39.14
2:43:                  58	39.14
2:44:                  28	39.14
2:44:                  58	39.14
2:45:                  28	39.14
2:45:                  58	39.14
2:46:                  28	39.14
2:46:                  58	39.14
2:47:                  28	39.14
2:47:                  58	39.13
2:48:                  28	39.14
2:48:                  58	39.15
2:49:                  28	39.15
2:49:                  58	39.15
2:50:                  28	39.15
2:50:                  58	39.15
2:51:                  28	39.14
2:51:                  58	39.15
2:52:                  29	39.15
2:52:                  59	39.15
2:53:                  29	39.14
2:53:                  59	39.15
2:54:                  29	39.15
2:54:                  59	39.14
2:55:                  29	39.14
2:55:                  59	39.14
2:56:                  29	39.13
2:56:                  59	39.12
2:57:                  29	39.12
2:57:                  59	39.11
2:58:                  29	39.11
2:58:                  59	39.11
2:59:                  29	39.10
2:59:                  59	39.10
3:00:                  29	39.11
3:00:                  59	39.10
3:01:                  29	39.11
3:01:                  59	39.11
3:02:                  29	39.10
3:02:                  59	39.10
3:03:                  29	39.10
3:03:                  59	39.10
3:04:                  29	39.10
3:04:                  59	39.11
3:05:                  29	39.09
3:05:                  59	39.10
3:06:                  29	39.10
3:06:                  59	39.12
3:07:                  29	39.10
3:07:                  59	39.11
3:08:                  29	39.10
3:08:                  59	39.12
3:09:                  29	39.11
3:09:                  59	39.12
3:10:                  29	39.12
3:10:                  59	39.11
3:11:                  29	39.10
3:11:                  59	39.11
3:12:                  29	39.11
3:12:                  59	39.12
3:13:                  29	39.12
3:13:                  59	39.11
3:14:                  29	39.11
3:14:                  59	39.10
3:15:                  29	39.11
3:15:                  59	39.10
3:16:                  29	39.09
3:16:                  59	39.10
3:17:                  29	39.10
3:17:                  59	39.09
3:18:                  29	39.09
3:18:                  59	39.09
3:19:                  30	39.10
3:20:                   0	39.09
3:20:                  30	39.08
3:21:                   0	39.09
3:21:                  30	39.08
3:22:                   0	39.08
3:22:                  30	39.10
3:23:                   0	39.09
3:23:                  30	39.08
3:24:                   0	39.09
3:24:                  30	39.09
3:25:                   0	39.08
3:25:                  30	39.09
3:26:                   0	39.09
3:26:                  30	39.09
3:27:                   0	39.09
3:27:                  30	39.08
3:28:                   0	39.08
3:28:                  30	39.09
3:29:                   0	39.09
3:29:                  30	39.09
3:30:                   0	39.09
3:30:                  30	39.09
3:31:                   0	39.09
3:31:                  30	39.08
3:32:                   0	39.09
3:32:                  30	39.09
3:33:                   0	39.09
3:33:                  30	39.09
3:34:                   0	39.09
3:34:                  30	39.07
3:35:                   0	39.08
3:35:                  30	39.08
3:36:                   0	39.07
3:36:                  30	39.08
3:37:                   0	39.08
3:37:                  30	39.07
3:38:                   0	39.06
3:38:                  30	39.08
3:39:                   0	39.07
3:39:                  30	39.07
3:40:                   0	39.07
3:40:                  30	39.07
3:41:                   0	39.07
3:41:                  30	39.08
3:42:                   0	39.07
3:42:                  30	39.07
3:43:                   0	39.07
3:43:                  30	39.06
3:44:                   0	39.08
3:44:                  30	39.07
3:45:                   0	39.07
3:45:                  30	39.08
3:46:                   0	39.08
3:46:                  30	39.08
3:47:                   0	39.06
3:47:                  30	39.08
3:48:                   0	39.08
3:48:                  30	39.07
3:49:                   1	39.07
3:49:                  31	39.07
3:50:                   1	39.08
3:50:                  31	39.09
3:51:                   1	39.08
3:51:                  31	39.08
3:52:                   1	39.09
3:52:                  31	39.08
3:53:                   1	39.09
3:53:                  31	39.08
3:54:                   1	39.09
3:54:                  31	39.08
3:55:                   1	39.08
3:55:                  31	39.07
3:56:                   1	39.08
3:56:                  31	39.09
3:57:                   1	39.08
3:57:                  31	39.07
3:58:                   1	39.08
3:58:                  31	39.07
3:59:                   1	39.07
3:59:                  31	39.07
4:00:                   1	39.08
4:00:                  31	39.07
4:01:                   1	39.08
4:01:                  31	39.07
4:02:                   1	39.07
4:02:                  31	39.08
4:03:                   1	39.08
4:03:                  31	39.08
4:04:                   1	39.07
4:04:                  31	39.07
4:05:                   1	39.06
4:05:                  31	39.07
4:06:                   1	39.07
4:06:                  31	39.05
4:07:                   1	39.06
4:07:                  31	39.05
4:08:                   1	39.05
4:08:                  31	39.06
4:09:                   1	39.04
4:09:                  31	39.06
4:10:                   1	39.06
4:10:                  31	39.06
4:11:                   1	39.05
4:11:                  31	39.04
4:12:                   1	39.06
4:12:                  31	39.04
4:13:                   2	39.04
4:13:                  32	39.03
4:14:                   2	39.04
4:14:                  32	39.04
4:15:                   2	39.03
4:15:                  32	39.03
4:16:                   2	39.04
4:16:                  32	39.03
4:17:                   2	39.04
4:17:                  32	39.04
4:18:                   2	39.02
4:18:                  32	39.03
4:19:                   2	39.02
4:19:                  32	39.00
4:20:                   2	39.01
4:20:                  32	39.02
4:21:                   2	39.01
4:21:                  32	39.01
4:22:                   2	39.00
4:22:                  32	38.98
4:23:                   2	39.00
4:23:                  32	38.99
4:24:                   2	39.00
4:24:                  32	38.99
4:25:                   2	38.98
4:25:                  32	38.99
4:26:                   2	38.99
4:26:                  32	38.98
4:27:                   2	38.98
4:27:                  32	38.99
4:28:                   2	38.99
4:28:                  32	38.98
4:29:                   2	38.99
4:29:                  32	38.98
4:30:                   2	38.99
4:30:                  32	38.99
4:31:                   2	38.99
4:31:                  32	39.00
4:32:                   2	39.01
4:32:                  32	38.99
4:33:                   2	39.00
4:33:                  32	39.01
4:34:                   2	39.00
4:34:                  32	39.00
4:35:                   2	39.00
4:35:                  32	39.00
4:36:                   2	38.99
4:36:                  32	38.98
4:37:                   2	38.99
4:37:                  32	38.98
4:38:                   2	38.98
4:38:                  32	38.98
4:39:                   2	38.98
4:39:                  32	38.98
4:40:                   2	38.99
4:40:                  32	38.99
4:41:                   3	38.99
4:41:                  33	38.99
4:42:                   3	38.98
4:42:                  33	39.00
4:43:                   3	38.99
4:43:                  33	38.99
4:44:                   3	38.99
4:44:                  33	38.98
4:45:                   3	38.98
4:45:                  33	38.97
4:46:                   3	38.99
4:46:                  33	38.98
4:47:                   3	38.96
4:47:                  33	38.98
4:48:                   3	38.97
4:48:                  33	38.97
4:49:                   3	38.98
4:49:                  33	38.98
4:50:                   3	38.99
4:50:                  33	38.99
4:51:                   3	38.98
4:51:                  33	38.98
4:52:                   3	38.97
4:52:                  33	38.98
4:53:                   3	38.97
4:53:                  33	38.96
4:54:                   3	38.96
4:54:                  33	38.96
4:55:                   3	38.96
4:55:                  33	38.96
4:56:                   3	38.96
4:56:                  33	38.97
4:57:                   3	38.95
4:57:                  33	38.96
4:58:                   3	38.96
4:58:                  33	38.95
4:59:                   3	38.95
4:59:                  33	38.95
5:00:                   3	38.95
5:00:                  33	38.95
5:01:                   3	38.96
5:01:                  33	38.96
5:02:                   3	38.95
5:02:                  33	38.95
5:03:                   3	38.95
5:03:                  33	38.95
5:04:                   3	38.94
5:04:                  33	38.95
5:05:                   3	38.94
5:05:                  33	38.93
5:06:                   3	38.94
5:06:                  33	38.93
5:07:                   3	38.93
5:07:                  33	38.94
5:08:                   3	38.92
5:08:                  33	38.92
5:09:                   3	38.92
5:09:                  33	38.93
5:10:                   3	38.93
5:10:                  33	38.93
5:11:                   3	38.92
5:11:                  33	38.94
5:12:                   3	38.92
5:12:                  33	38.94
5:13:                   3	38.92
5:13:                  33	38.93
5:14:                   3	38.93
5:14:                  33	38.94
5:15:                   4	38.93
5:15:                  34	38.92
5:16:                   4	38.92
5:16:                  34	38.91
5:17:                   4	38.93
5:17:                  34	38.94
5:18:                   4	38.92
5:18:                  34	38.92
5:19:                   4	38.92
5:19:                  34	38.90
5:20:                   4	38.91
5:20:                  34	38.90
5:21:                   4	38.92
5:21:                  34	38.91
5:22:                   4	38.92
5:22:                  34	38.91
5:23:                   4	38.92
5:23:                  34	38.91
5:24:                   4	38.91
5:24:                  34	38.91
5:25:                   4	38.91
5:25:                  34	38.92
5:26:                   4	38.93
5:26:                  34	38.90
5:27:                   4	38.92
5:27:                  34	38.91
5:28:                   4	38.92
5:28:                  34	38.91
5:29:                   4	38.92
5:29:                  34	38.92
5:30:                   4	38.92
5:30:                  34	38.92
5:31:                   4	38.94
5:31:                  34	38.92
5:32:                   4	38.94
5:32:                  34	38.94
5:33:                   4	38.94
5:33:                  34	38.95
5:34:                   5	38.94
5:34:                  35	38.94
5:35:                   5	38.93
5:35:                  35	38.94
5:36:                   5	38.94
5:36:                  35	38.92
5:37:                   5	38.92
5:37:                  35	38.91
5:38:                   5	38.91
5:38:                  35	38.91
5:39:                   5	38.92
5:39:                  35	38.93
5:40:                   5	38.92
5:40:                  35	38.91
5:41:                   5	38.92
5:41:                  35	38.92
5:42:                   5	38.92
5:42:                  35	38.91
5:43:                   5	38.91
5:43:                  35	38.92
5:44:                   5	38.91
5:44:                  35	38.92
5:45:                   5	38.91
5:45:                  35	38.91
5:46:                   5	38.91
5:46:                  35	38.91
5:47:                   5	38.90
5:47:                  35	38.91
5:48:                   5	38.90
5:48:                  35	38.92
5:49:                   5	38.91
5:49:                  35	38.91
5:50:                   5	38.92
5:50:                  35	38.94
5:51:                   5	38.93
5:51:                  35	38.92
5:52:                   5	38.93
5:52:                  35	38.93
5:53:                   5	38.92
5:53:                  35	38.93
5:54:                   5	38.92
5:54:                  35	38.93
5:55:                   6	38.92
5:55:                  36	38.91
5:56:                   6	38.93
5:56:                  36	38.91
5:57:                   6	38.91
5:57:                  36	38.91
5:58:                   6	38.92
5:58:                  36	38.91
5:59:                   6	38.91
5:59:                  36	38.91
6:00:                   6	38.91
6:00:                  36	38.89
6:01:                   6	38.91
6:01:                  36	38.91
6:02:                   6	38.91
6:02:                  36	38.90
6:03:                   6	38.90
6:03:                  36	38.91
6:04:                   6	38.91
6:04:                  36	38.90
6:05:                   6	38.89
6:05:                  36	38.90
6:06:                   6	38.91
6:06:                  36	38.90
6:07:                   6	38.89
6:07:                  36	38.88
6:08:                   6	38.90
6:08:                  36	38.89
6:09:                   6	38.89
6:09:                  36	38.89
6:10:                   6	38.90
6:10:                  36	38.90
6:11:                   6	38.91
6:11:                  36	38.90
6:12:                   6	38.90
6:12:                  36	38.91
6:13:                   6	38.90
6:13:                  36	38.89
6:14:                   6	38.90
6:14:                  36	38.91
6:15:                   6	38.90
6:15:                  36	38.90
6:16:                   6	38.89
6:16:                  36	38.90
6:17:                   6	38.90
6:17:                  36	38.91
6:18:                   6	38.90
6:18:                  36	38.91
6:19:                   6	38.90
6:19:                  36	38.90
6:20:                   6	38.91
6:20:                  36	38.90
6:21:                   6	38.90
6:21:                  36	38.90
6:22:                   6	38.90
6:22:                  36	38.91
6:23:                   6	38.90
6:23:                  36	38.89
6:24:                   6	38.90
6:24:                  36	38.90
6:25:                   6	38.90
6:25:                  36	38.91
6:26:                   6	38.91
6:26:                  36	38.93
6:27:                   6	38.92
6:27:                  36	38.93
6:28:                   7	38.92
6:28:                  37	38.95
6:29:                   7	38.94
6:29:                  37	38.94
6:30:                   7	38.95
6:30:                  37	38.94
6:31:                   7	38.94
6:31:                  37	38.95
6:32:                   7	38.95
6:32:                  37	38.94
6:33:                   7	38.94
6:33:                  37	38.94
6:34:                   7	38.94
6:34:                  37	38.93
6:35:                   7	38.94
6:35:                  37	38.93
6:36:                   7	38.91
6:36:                  37	38.92
6:37:                   7	38.92
6:37:                  37	38.91
6:38:                   7	38.92
6:38:                  37	38.92
6:39:                   7	38.90
6:39:                  37	38.91
6:40:                   7	38.90
6:40:                  37	38.91
6:41:                   7	38.90
6:41:                  37	38.91
6:42:                   7	38.90
6:42:                  37	38.91
6:43:                   7	38.91
6:43:                  37	38.89
6:44:                   7	38.90
6:44:                  37	38.90
6:45:                   7	38.90
6:45:                  37	38.91
6:46:                   7	38.91
6:46:                  37	38.89
6:47:                   7	38.89
6:47:                  37	38.89
6:48:                   7	38.88
6:48:                  37	38.88
6:49:                   7	38.88
6:49:                  37	38.89
6:50:                   7	38.90
6:50:                  37	38.88
6:51:                   7	38.90
6:51:                  37	38.89
6:52:                   7	38.90
6:52:                  37	38.90
6:53:                   7	38.89
6:53:                  37	38.89
6:54:                   7	38.89
6:54:                  37	38.89
6:55:                   7	38.89
6:55:                  37	38.89
6:56:                   7	38.88
6:56:                  37	38.87
6:57:                   7	38.88
6:57:                  37	38.89
6:58:                   7	38.90
6:58:                  37	38.87
6:59:                   7	38.87
6:59:                  37	38.87
7:00:                   7	38.88
7:00:                  37	38.89
7:01:                   7	38.90
7:01:                  37	38.90
7:02:                   7	38.90
7:02:                  37	38.93
7:03:                   7	38.93
7:03:                  37	38.92
7:04:                   7	38.94
7:04:                  37	38.93
7:05:                   7	38.93
7:05:                  37	38.94
7:06:                   7	38.96
7:06:                  37	38.94
7:07:                   7	38.96
7:07:                  37	38.95
7:08:                   7	38.95
7:08:                  37	38.96
7:09:                   7	38.97
7:09:                  37	38.96
7:10:                   7	38.98
7:10:                  37	38.99
7:11:                   7	38.99
7:11:                  37	39.01
7:12:                   7	39.01
7:12:                  38	39.01
7:13:                   8	39.02
7:13:                  38	39.01
7:14:                   8	39.01
7:14:                  38	39.03
7:15:                   8	39.02
7:15:                  38	39.03
7:16:                   8	39.04
7:16:                  38	39.04
7:17:                   8	39.03
7:17:                  38	39.04
7:18:                   8	39.04
7:18:                  38	39.04
7:19:                   8	39.04
7:19:                  38	39.03
7:20:                   8	39.03
7:20:                  38	39.06
7:21:                   8	39.06
7:21:                  38	39.07
7:22:                   8	39.08
7:22:                  38	39.07
7:23:                   8	39.07
7:23:                  38	39.06
7:24:                   8	39.07
7:24:                  38	39.09
7:25:                   8	39.07
7:25:                  38	39.07
7:26:                   8	39.07
7:26:                  38	39.06
7:27:                   8	39.07
7:27:                  38	39.06
7:28:                   8	39.04
7:28:                  38	39.06
7:29:                   8	39.06
7:29:                  38	39.07
7:30:                   8	39.07
7:30:                  38	39.08
7:31:                   8	39.07
7:31:                  38	39.07
7:32:                   8	39.09
7:32:                  38	39.09
7:33:                   8	39.09
7:33:                  38	39.10
7:34:                   8	39.08
7:34:                  38	39.08
7:35:                   8	39.08
7:35:                  38	39.08
7:36:                   9	39.08
7:36:                  39	39.06
7:37:                   9	39.06
7:37:                  39	39.06
7:38:                   9	39.06
7:38:                  39	39.07
7:39:                   9	39.08
7:39:                  39	39.08
7:40:                   9	39.07
7:40:                  39	39.07
7:41:                   9	39.06
7:41:                  39	39.05
7:42:                   9	39.06
7:42:                  39	39.06
7:43:                   9	39.07
7:43:                  39	39.08
7:44:                   9	39.07
7:44:                  39	39.07
7:45:                   9	39.05
7:45:                  39	39.07
7:46:                   9	39.07
7:46:                  39	39.06
7:47:                   9	39.06
7:47:                  39	39.07
7:48:                   9	39.06
7:48:                  39	39.06
7:49:                   9	39.06
7:49:                  39	39.06
7:50:                   9	39.06
7:50:                  39	39.08
7:51:                   9	39.07
7:51:                  39	39.07
7:52:                   9	39.07
7:52:                  39	39.09
7:53:                   9	39.07
7:53:                  39	39.08
7:54:                   9	39.08
7:54:                  39	39.07
7:55:                   9	39.06
7:55:                  39	39.06
7:56:                   9	39.06
7:56:                  39	39.05
7:57:                   9	39.05
7:57:                  39	39.04
7:58:                   9	39.05
7:58:                  39	39.04
7:59:                   9	39.05
7:59:                  40	39.04
8:00:                  10	39.04
8:00:                  40	39.04
8:01:                  10	39.06
8:01:                  40	39.06
8:02:                  10	39.06
8:02:                  40	39.05
8:03:                  10	39.06
8:03:                  40	39.06
8:04:                  10	39.04
8:04:                  40	39.05
8:05:                  10	39.05
8:05:                  40	39.04
8:06:                  10	39.04
8:06:                  40	39.05
8:07:                  10	39.04
8:07:                  40	39.06
8:08:                  10	39.08
8:08:                  40	39.06
8:09:                  10	39.06
8:09:                  40	39.07
8:10:                  10	39.07
8:10:                  40	39.05
8:11:                  10	39.06
8:11:                  40	39.06
8:12:                  10	39.06
8:12:                  40	39.06
8:13:                  10	39.06
8:13:                  40	39.05
8:14:                  10	39.04
8:14:                  40	39.06
8:15:                  10	39.04
8:15:                  40	39.06
8:16:                  10	39.05
8:16:                  40	39.04
8:17:                  10	39.06
8:17:                  40	39.06
8:18:                  10	39.06
8:18:                  40	39.06
8:19:                  10	39.05
8:19:                  40	39.04
8:20:                  10	39.05
8:20:                  40	39.04
8:21:                  10	39.04
8:21:                  40	39.04
8:22:                  11	39.06
8:22:                  41	39.06
8:23:                  11	39.06
8:23:                  41	39.06
8:24:                  11	39.06
8:24:                  41	39.07
8:25:                  11	39.07
8:25:                  41	39.06
8:26:                  11	39.06
8:26:                  41	39.08
8:27:                  11	39.07
8:27:                  41	39.06
8:28:                  11	39.05
8:28:                  41	39.05
8:29:                  11	39.06
8:29:                  41	39.07
8:30:                  11	39.09
8:30:                  41	39.09
8:31:                  11	39.09
8:31:                  41	39.09
8:32:                  11	39.08
8:32:                  41	39.08
8:33:                  11	39.09
8:33:                  41	39.09
8:34:                  11	39.08
8:34:                  41	39.07
8:35:                  11	39.08
8:35:                  41	39.08
8:36:                  11	39.07
8:36:                  41	39.06
8:37:                  11	39.06
8:37:                  41	39.06
8:38:                  11	39.05
8:38:                  41	39.06
8:39:                  11	39.06
8:39:                  41	39.06
8:40:                  11	39.06
8:40:                  41	39.07
8:41:                  11	39.06
8:41:                  41	39.06
8:42:                  11	39.04
8:42:                  41	39.07
8:43:                  11	39.07
8:43:                  41	39.07
8:44:                  11	39.08
8:44:                  41	39.07
8:45:                  11	39.07
8:45:                  41	39.08
8:46:                  11	39.07
8:46:                  41	39.07
8:47:                  11	39.06
8:47:                  41	39.06
8:48:                  12	39.06
8:48:                  42	39.06
8:49:                  12	39.06
8:49:                  42	39.06
8:50:                  12	39.08
8:50:                  42	39.08
8:51:                  12	39.07
8:51:                  42	39.06
8:52:                  12	39.07
8:52:                  42	39.07
8:53:                  12	39.07
8:53:                  42	39.08
8:54:                  12	39.08
8:54:                  42	39.07
8:55:                  12	39.08
8:55:                  42	39.07
8:56:                  12	39.07
8:56:                  42	39.07
8:57:                  12	39.07
8:57:                  42	39.07
8:58:                  12	39.06
8:58:                  42	39.07
8:59:                  12	39.06
8:59:                  42	39.07
9:00:                  12	39.06
9:00:                  42	39.07
9:01:                  12	39.07
9:01:                  42	39.07
9:02:                  12	39.06
9:02:                  42	39.07
9:03:                  12	39.07
9:03:                  42	39.06
9:04:                  12	39.06
9:04:                  42	39.06
9:05:                  12	39.06
9:05:                  42	39.05
9:06:                  12	39.06
9:06:                  42	39.06
9:07:                  12	39.05
9:07:                  42	39.06
9:08:                  12	39.04
9:08:                  42	39.06
9:09:                  12	39.06
9:09:                  42	39.06
9:10:                  12	39.05
9:10:                  42	39.04
9:11:                  12	39.05
9:11:                  42	39.05
9:12:                  13	39.04
9:12:                  43	39.04
9:13:                  13	39.04
9:13:                  43	39.04
9:14:                  13	39.04
9:14:                  43	39.04
9:15:                  13	39.04
9:15:                  43	39.04
9:16:                  13	39.04
9:16:                  43	39.03
9:17:                  13	39.02
9:17:                  43	39.03
9:18:                  13	39.04
9:18:                  43	39.04
9:19:                  13	39.03
9:19:                  43	39.03
9:20:                  13	39.03
9:20:                  43	39.03
9:21:                  13	39.02
9:21:                  43	39.03
9:22:                  13	39.03
9:22:                  43	39.04
9:23:                  13	39.03
9:23:                  43	39.03
9:24:                  13	39.04
9:24:                  43	39.03
9:25:                  13	39.03
9:25:                  43	39.04
9:26:                  13	39.03
9:26:                  43	39.02
9:27:                  13	39.04
9:27:                  43	39.04
9:28:                  13	38.98
9:28:                  43	38.99
9:29:                  13	38.92
9:29:                  43	38.89
9:30:                  13	38.86
9:30:                  43	38.79
9:31:                  13	38.76
9:31:                  43	38.69
9:32:                  13	38.63
9:32:                  43	38.59
9:33:                  13	38.53
9:33:                  43	38.47
9:34:                  13	38.44
9:34:                  43	38.43
9:35:                  13	38.39
9:35:                  43	38.39
9:36:                  13	38.33
9:36:                  44	38.33
9:37:                  14	38.24
9:37:                  44	38.17
9:38:                  14	38.19
9:38:                  44	38.22
9:39:                  14	38.24
9:39:                  44	38.25
9:40:                  14	38.29
9:40:                  44	38.32
9:41:                  14	38.32
9:41:                  44	38.33
9:42:                  14	38.30
9:42:                  44	38.33
9:43:                  14	38.32
9:43:                  44	38.35
9:44:                  14	38.32
9:44:                  44	38.32
9:45:                  14	38.32
9:45:                  44	38.32
9:46:                  14	38.30
9:46:                  44	38.29
9:47:                  14	38.26
9:47:                  44	38.26
9:48:                  14	38.25
9:48:                  44	38.21
9:49:                  14	38.22
9:49:                  44	38.21
9:50:                  14	38.21
9:50:                  44	38.19
9:51:                  14	38.18
9:51:                  44	38.16
9:52:                  14	37.78
9:52:                  44	37.67
9:53:                  14	37.60
9:53:                  44	37.52
9:54:                  14	37.39
9:54:                  44	37.28
9:55:                  14	37.18
9:55:                  44	37.09
9:56:                  14	37.10
9:56:                  44	37.06
9:57:                  14	37.01
9:57:                  44	37.08
9:58:                  14	37.13
9:58:                  44	37.20
9:59:                  14	37.26
9:59:                  44	37.23
10:00:                  14	37.25
10:00:                  44	37.25
10:01:                  14	37.24
10:01:                  44	37.24
10:02:                  14	37.23
10:02:                  44	37.27
10:03:                  14	37.21
10:03:                  44	37.23
10:04:                  14	37.24
10:04:                  44	37.26
10:05:                  14	37.25
10:05:                  44	37.28
10:06:                  14	37.30
10:06:                  44	37.28
10:07:                  14	37.29
10:07:                  44	37.27
10:08:                  15	37.31
10:08:                  45	37.32
10:09:                  15	37.34
10:09:                  45	37.34
10:10:                  15	37.35
10:10:                  45	37.37
10:11:                  15	37.37
10:11:                  45	37.39
10:12:                  15	37.39
10:12:                  45	37.40
10:13:                  15	37.39
10:13:                  45	37.40
10:14:                  15	37.42
10:14:                  45	37.41
10:15:                  15	37.43
10:15:                  45	37.41
10:16:                  15	37.39
10:16:                  45	37.39
10:17:                  15	37.40
10:17:                  45	37.41
10:18:                  15	37.42
10:18:                  45	37.45
10:19:                  15	37.46
10:19:                  45	37.49
10:20:                  15	37.48
10:20:                  45	37.35
10:21:                  15	37.29
10:21:                  45	37.23
10:22:                  15	37.26
10:22:                  45	37.28
10:23:                  15	37.30
10:23:                  45	37.33
10:24:                  15	37.33
10:24:                  45	37.32
10:25:                  15	37.30
10:25:                  45	37.30
10:26:                  15	37.26
10:26:                  45	37.28
10:27:                  15	37.24
10:27:                  45	37.25
10:28:                  15	37.25
10:28:                  46	37.28
10:29:                  16	37.28
10:29:                  46	37.29
10:30:                  16	37.30
10:30:                  46	37.33
10:31:                  16	37.32
10:31:                  46	37.33
10:32:                  16	37.31
10:32:                  46	37.32
10:33:                  16	37.31
10:33:                  46	37.34
10:34:                  16	37.37
10:34:                  46	37.32
10:35:                  16	37.32
10:35:                  46	37.34
10:36:                  16	37.36
10:36:                  46	37.37
10:37:                  16	37.41
10:37:                  46	37.43
10:38:                  16	37.40
10:38:                  46	37.43
10:39:                  16	37.48
10:39:                  46	37.40
10:40:                  16	37.36
10:40:                  46	37.37
10:41:                  16	37.36
10:41:                  46	37.37
10:42:                  16	37.39
10:42:                  46	37.39
10:43:                  16	37.41
10:43:                  46	37.44
10:44:                  16	37.25
10:44:                  46	37.34
10:45:                  16	37.37
10:45:                  46	37.39
10:46:                  16	37.35
10:46:                  46	37.37
10:47:                  16	37.34
10:47:                  46	37.35
10:48:                  16	37.38
10:48:                  46	37.42
10:49:                  16	37.37
10:49:                  46	37.32
10:50:                  16	37.35
10:50:                  46	37.33
10:51:                  16	37.36
10:51:                  46	37.39
10:52:                  16	37.40
10:52:                  46	37.41
10:53:                  16	37.38
10:53:                  46	37.38
10:54:                  16	37.38
10:54:                  46	37.33
10:55:                  16	37.33
10:55:                  46	37.32
10:56:                  16	37.31
10:56:                  46	37.30
10:57:                  16	37.30
10:57:                  47	37.31
10:58:                  17	37.30
10:58:                  47	37.28
10:59:                  17	37.22
10:59:                  47	37.26
11:00:                  17	37.25
11:00:                  47	37.29
11:01:                  17	37.33
11:01:                  47	37.36
11:02:                  17	37.35
11:02:                  47	37.35
11:03:                  17	37.33
11:03:                  47	37.34
11:04:                  17	37.31
11:04:                  47	37.26
11:05:                  17	37.25
11:05:                  47	37.28
11:06:                  17	37.24
11:06:                  47	37.31
11:07:                  17	37.32
11:07:                  47	37.33
11:08:                  17	37.35
11:08:                  47	37.37
11:09:                  17	37.40
11:09:                  47	37.41
11:10:                  17	37.44
11:10:                  47	37.46
11:11:                  17	37.47
11:11:                  47	37.48
11:12:                  17	37.50
11:12:                  47	37.52
11:13:                  17	37.55
11:13:                  47	37.59
11:14:                  17	37.61
11:14:                  47	37.64
11:15:                  17	37.68
11:15:                  47	37.71
11:16:                  17	37.73
11:16:                  47	37.77
11:17:                  17	37.79
11:17:                  47	37.82
11:18:                  17	37.85
11:18:                  47	37.88
11:19:                  17	37.89
11:19:                  47	37.93
11:20:                  17	37.94
11:20:                  47	37.97
11:21:                  17	37.99
11:21:                  47	38.00
11:22:                  17	38.02
11:22:                  48	38.04
11:23:                  18	38.06
11:23:                  48	38.07
11:24:                  18	38.08
11:24:                  48	38.10
11:25:                  18	38.11
11:25:                  48	38.11
11:26:                  18	38.13
11:26:                  48	38.13
11:27:                  18	38.15
11:27:                  48	38.15
11:28:                  18	38.17
11:28:                  48	38.18
11:29:                  18	38.19
11:29:                  48	38.19
11:30:                  18	38.20
11:30:                  48	38.22
11:31:                  18	38.23
11:31:                  48	38.24
11:32:                  18	38.24
11:32:                  48	38.24
11:33:                  18	38.26
11:33:                  48	38.28
11:34:                  18	38.28
11:34:                  48	38.30
11:35:                  18	38.28
11:35:                  48	38.29
11:36:                  18	38.30
11:36:                  48	38.30
11:37:                  18	38.31
11:37:                  48	38.32
11:38:                  18	38.32
11:38:                  48	38.33
11:39:                  18	38.34
11:39:                  48	38.36
11:40:                  18	38.37
11:40:                  48	38.36
11:41:                  18	38.37
11:41:                  48	38.37
11:42:                  18	38.38
11:42:                  48	38.38
11:43:                  18	38.39
11:43:                  48	38.40
11:44:                  18	38.40
11:44:                  48	38.40
11:45:                  18	38.43
11:45:                  48	38.43
11:46:                  18	38.45
11:46:                  48	38.44
11:47:                  18	38.44
11:47:                  48	38.45
11:48:                  18	38.46
11:48:                  48	38.48
11:49:                  18	38.48
11:49:                  48	38.49
11:50:                  18	38.50
11:50:                  48	38.51
11:51:                  18	38.52
11:51:                  48	38.53
11:52:                  18	38.53
11:52:                  48	38.54
11:53:                  18	38.56
11:53:                  48	38.57
11:54:                  18	38.57
11:54:                  48	38.59
11:55:                  18	38.60
11:55:                  48	38.60
11:56:                  18	38.61
11:56:                  48	38.63
11:57:                  19	38.63
11:57:                  49	38.64
11:58:                  19	38.64
11:58:                  49	38.65
11:59:                  19	38.66
11:59:                  49	38.65
12:00:                  19	38.66
12:00:                  49	38.66
12:01:                  19	38.67
12:01:                  49	38.68
12:02:                  19	38.68
12:02:                  49	38.69
12:03:                  19	38.68
12:03:                  49	38.68
12:04:                  19	38.68
12:04:                  49	38.70
12:05:                  19	38.69
12:05:                  49	38.69
12:06:                  19	38.70
12:06:                  49	38.70
12:07:                  19	38.71
12:07:                  49	38.69
12:08:                  19	38.69
12:08:                  49	38.69
12:09:                  19	38.69
12:09:                  49	38.69
12:10:                  19	38.72
12:10:                  49	38.72
12:11:                  19	38.72
12:11:                  49	38.73
12:12:                  19	38.73
12:12:                  49	38.74
12:13:                  19	38.73
12:13:                  49	38.73
12:14:                  19	38.74
12:14:                  49	38.75
12:15:                  19	38.76
12:15:                  49	38.75
12:16:                  19	38.75
12:16:                  49	38.75
12:17:                  19	38.76
12:17:                  49	38.77
12:18:                  19	38.77
12:18:                  49	38.76
12:19:                  19	38.76
12:19:                  49	38.76
12:20:                  19	38.76
12:20:                  49	38.76
12:21:                  19	38.76
12:21:                  49	38.76
12:22:                  19	38.77
12:22:                  49	38.76
12:23:                  19	38.76
12:23:                  49	38.77
12:24:                  19	38.76
12:24:                  49	38.76
12:25:                  19	38.77
12:25:                  49	38.76
12:26:                  19	38.77
12:26:                  49	38.77
12:27:                  19	38.78
12:27:                  49	38.78
12:28:                  19	38.79
12:28:                  49	38.79
12:29:                  19	38.79
12:29:                  49	38.79
12:30:                  19	38.79
12:30:                  49	38.80
12:31:                  19	38.82
12:31:                  49	38.83
12:32:                  19	38.83
12:32:                  49	38.82
12:33:                  19	38.82
12:33:                  49	38.83
12:34:                  19	38.83
12:34:                  49	38.85
12:35:                  19	38.86
12:35:                  49	38.86
12:36:                  19	38.86
12:36:                  49	38.87
12:37:                  19	38.88
12:37:                  49	38.88
12:38:                  19	38.88
12:38:                  49	38.90
12:39:                  19	38.89
12:39:                  49	38.91
12:40:                  19	38.91
12:40:                  49	38.94
12:41:                  20	38.95
12:41:                  50	38.96
12:42:                  20	38.97
12:42:                  50	38.99
12:43:                  20	38.99
12:43:                  50	38.99
12:44:                  20	39.01
12:44:                  50	39.02
12:45:                  20	39.04
12:45:                  50	39.05
12:46:                  20	39.07
12:46:                  50	39.07
12:47:                  20	39.08
12:47:                  50	39.09
12:48:                  20	39.11
12:48:                  50	39.12
12:49:                  20	39.13
12:49:                  50	39.15
12:50:                  20	39.17
12:50:                  50	39.18
12:51:                  20	39.19
12:51:                  50	39.21
12:52:                  20	39.20
12:52:                  50	39.20
12:53:                  20	39.21
12:53:                  50	39.20
12:54:                  20	39.21
12:54:                  50	39.21
12:55:                  20	39.21
12:55:                  50	39.21
12:56:                  20	39.22
12:56:                  50	39.22
12:57:                  20	39.22
12:57:                  50	39.22
12:58:                  20	39.22
12:58:                  50	39.23
12:59:                  20	39.21
12:59:                  50	39.21
13:00:                  20	39.21
13:00:                  50	39.21
13:01:                  20	39.20
13:01:                  50	39.19
13:02:                  20	39.19
13:02:                  50	39.19
13:03:                  20	39.18
13:03:                  50	39.18
13:04:                  20	39.17
13:04:                  50	39.17
13:05:                  20	39.17
13:05:                  50	39.17
13:06:                  20	39.17
13:06:                  50	39.16
13:07:                  20	39.15
13:07:                  50	39.15
13:08:                  20	39.16
13:08:                  50	39.15
13:09:                  20	39.15
13:09:                  50	39.15
13:10:                  21	39.14
13:10:                  51	39.16
13:11:                  21	39.15
13:11:                  51	39.15
13:12:                  21	39.15
13:12:                  51	39.14
13:13:                  21	39.14
13:13:                  51	39.15
13:14:                  21	39.14
13:14:                  51	39.15
13:15:                  21	39.15
13:15:                  51	39.15
13:16:                  21	39.14
13:16:                  51	39.14
13:17:                  21	39.15
13:17:                  51	39.15
13:18:                  21	39.15
13:18:                  51	39.15
13:19:                  21	39.15
13:19:                  51	39.15
13:20:                  21	39.14
13:20:                  51	39.14
13:21:                  21	39.13
13:21:                  51	39.14
13:22:                  21	39.13
13:22:                  51	39.13
13:23:                  21	39.13
13:23:                  51	39.12
13:24:                  21	39.13
13:24:                  51	39.13
13:25:                  21	39.12
13:25:                  51	39.12
13:26:                  21	39.12
13:26:                  51	39.12
13:27:                  21	39.13
13:27:                  51	39.12
13:28:                  21	39.11
13:28:                  51	39.11
13:29:                  21	39.11
13:29:                  51	39.11
13:30:                  21	39.11
13:30:                  51	39.11
13:31:                  21	39.11
13:31:                  51	39.11
13:32:                  21	39.11
13:32:                  51	39.12
13:33:                  21	39.12
13:33:                  51	39.12
13:34:                  21	39.10
13:34:                  51	39.10
13:35:                  21	39.10
13:35:                  51	39.09
13:36:                  21	39.08
13:36:                  51	39.08
13:37:                  21	39.09
13:37:                  51	39.07
13:38:                  21	39.08
13:38:                  51	39.07
13:39:                  21	39.07
13:39:                  51	39.07
13:40:                  21	39.07
13:40:                  51	39.06
13:41:                  21	39.07
13:41:                  51	39.06
13:42:                  21	39.06
13:42:                  51	39.07
13:43:                  21	39.04
13:43:                  51	39.07
13:44:                  21	39.06
13:44:                  51	39.05
13:45:                  21	39.05
13:45:                  51	39.06
13:46:                  21	39.04
13:46:                  51	39.04
13:47:                  22	39.04
13:47:                  52	39.04
13:48:                  22	39.04
13:48:                  52	39.04
13:49:                  22	39.03
13:49:                  52	39.04
13:50:                  22	39.04
13:50:                  52	39.06
13:51:                  22	39.04
13:51:                  52	39.05
13:52:                  22	39.04
13:52:                  52	39.04
13:53:                  22	39.04
13:53:                  52	39.06
13:54:                  22	39.04
13:54:                  52	39.04
13:55:                  22	39.04
13:55:                  52	39.04
13:56:                  22	39.04
13:56:                  52	39.04
13:57:                  22	39.03
13:57:                  52	39.03
13:58:                  22	39.03
13:58:                  52	39.03
13:59:                  22	39.03
13:59:                  52	39.02
14:00:                  22	39.03
14:00:                  52	39.02
14:01:                  22	39.02
14:01:                  52	39.01
14:02:                  22	39.00
14:02:                  52	39.02
14:03:                  22	39.01
14:03:                  52	39.01
14:04:                  22	39.01
14:04:                  53	39.01
14:05:                  23	39.00
14:05:                  53	39.00
14:06:                  23	39.00
14:06:                  53	39.00
14:07:                  23	38.99
14:07:                  53	39.01
14:08:                  23	39.00
14:08:                  53	39.00
14:09:                  23	38.99
14:09:                  53	39.01
14:10:                  23	39.01
14:10:                  53	39.01
14:11:                  23	39.00
14:11:                  53	39.02
14:12:                  23	39.01
14:12:                  53	39.01
14:13:                  23	39.01
14:13:                  53	39.00
14:14:                  23	39.00
14:14:                  53	39.00
14:15:                  23	39.01
14:15:                  53	38.99
14:16:                  23	39.00
14:16:                  53	39.00
14:17:                  23	38.99
14:17:                  53	38.99
14:18:                  23	38.99
14:18:                  53	38.99
14:19:                  23	38.99
14:19:                  53	38.99
14:20:                  23	38.97
14:20:                  54	38.98
14:21:                  24	38.99
14:21:                  54	38.99
14:22:                  24	38.98
14:22:                  54	38.99
14:23:                  24	38.98
14:23:                  54	38.97
14:24:                  24	38.98
14:24:                  54	38.98
14:25:                  24	38.97
14:25:                  54	38.97
14:26:                  24	38.97
14:26:                  54	38.96
14:27:                  24	38.97
14:27:                  54	38.97
14:28:                  24	38.96
14:28:                  54	38.97
14:29:                  24	38.96
14:29:                  54	38.95
14:30:                  24	38.96
14:30:                  54	38.96
14:31:                  24	38.97
14:31:                  54	38.96
14:32:                  24	38.96
14:32:                  54	38.96
14:33:                  24	38.96
14:33:                  54	38.96
14:34:                  24	38.96
14:34:                  54	38.96
14:35:                  24	38.95
14:35:                  54	38.95
14:36:                  24	38.95
14:36:                  54	38.94
14:37:                  24	38.94
14:37:                  54	38.94
14:38:                  24	38.94
14:38:                  54	38.95
14:39:                  24	38.95
14:39:                  54	38.94
14:40:                  24	38.94
14:40:                  55	38.95
14:41:                  25	38.94
14:41:                  55	38.95
14:42:                  25	38.94
14:42:                  55	38.94
14:43:                  25	38.94
14:43:                  55	38.93
14:44:                  25	38.94
14:44:                  55	38.93
14:45:                  25	38.93
14:45:                  55	38.93
14:46:                  25	38.92
14:46:                  55	38.91
14:47:                  25	38.91
14:47:                  55	38.91
14:48:                  25	38.92
14:48:                  55	38.92
14:49:                  25	38.91
14:49:                  55	38.91
14:50:                  25	38.90
14:50:                  55	38.91
14:51:                  25	38.90
14:51:                  55	38.91
14:52:                  25	38.91
14:52:                  55	38.91
14:53:                  25	38.90
14:53:                  55	38.91
14:54:                  25	38.91
14:54:                  55	38.91
14:55:                  25	38.90
14:55:                  55	38.91
14:56:                  25	38.90
14:56:                  55	38.91
14:57:                  25	38.91
14:57:                  55	38.91
14:58:                  25	38.89
14:58:                  55	38.90
14:59:                  25	38.90
14:59:                  55	38.90
15:00:                  25	38.89
15:00:                  56	38.89
15:01:                  26	38.90
15:01:                  56	38.90
15:02:                  26	38.90
15:02:                  56	38.90
15:03:                  26	38.90
15:03:                  56	38.90
15:04:                  26	38.90
15:04:                  56	38.89
15:05:                  26	38.90
15:05:                  56	38.89
15:06:                  26	38.90
15:06:                  56	38.89
15:07:                  26	38.90
15:07:                  56	38.90
15:08:                  26	38.91
15:08:                  56	38.91
15:09:                  26	38.91
15:09:                  56	38.92
15:10:                  26	38.90
15:10:                  56	38.93
15:11:                  26	38.92
15:11:                  56	38.92
15:12:                  26	38.92
15:12:                  56	38.93
15:13:                  26	38.93
15:13:                  56	38.92
15:14:                  26	38.91
15:14:                  56	38.91
15:15:                  26	38.92
15:15:                  56	38.92
15:16:                  26	38.92
15:16:                  56	38.92
15:17:                  26	38.91
15:17:                  56	38.92
15:18:                  26	38.92
15:18:                  56	38.92
15:19:                  26	38.93
15:19:                  56	38.93
15:20:                  26	38.92
15:20:                  57	38.91
15:21:                  27	38.94
15:21:                  57	38.92
15:22:                  27	38.93
15:22:                  57	38.92
15:23:                  27	38.91
15:23:                  57	38.90
15:24:                  27	38.89
15:24:                  57	38.89
15:25:                  27	38.90
15:25:                  57	38.90
15:26:                  27	38.91
15:26:                  57	38.91
15:27:                  27	38.90
15:27:                  57	38.90
15:28:                  27	38.91
15:28:                  57	38.91
15:29:                  27	38.91
15:29:                  57	38.91
15:30:                  27	38.91
15:30:                  57	38.92
15:31:                  27	38.94
15:31:                  57	38.94
15:32:                  27	38.93
15:32:                  57	38.94
15:33:                  27	38.95
15:33:                  57	38.94
15:34:                  27	38.93
15:34:                  57	38.93
15:35:                  27	38.93
15:35:                  57	38.92
15:36:                  27	38.93
15:36:                  58	38.93
15:37:                  28	38.92
15:37:                  58	38.93
15:38:                  28	38.94
15:38:                  58	38.93
15:39:                  28	38.94
15:39:                  58	38.95
15:40:                  28	38.95
15:40:                  58	38.96
15:41:                  28	38.96
15:41:                  58	38.97
15:42:                  28	38.97
15:42:                  58	38.98
15:43:                  28	38.98
15:43:                  58	38.98
15:44:                  28	38.97
15:44:                  58	38.98
15:45:                  28	38.99
15:45:                  58	38.99
15:46:                  28	38.98
15:46:                  58	38.99
15:47:                  28	38.99
15:47:                  58	39.00
15:48:                  28	39.00
15:48:                  58	39.00
15:49:                  28	39.02
15:49:                  58	39.01
15:50:                  28	39.01
15:50:                  58	39.02
15:51:                  28	39.02
15:51:                  58	39.04
15:52:                  28	39.04
15:52:                  59	39.04
15:53:                  29	39.05
15:53:                  59	39.06
15:54:                  29	39.06
15:54:                  59	39.05
15:55:                  29	39.06
15:55:                  59	39.06
15:56:                  29	39.07
15:56:                  59	39.08
15:57:                  29	39.08
15:57:                  59	39.08
15:58:                  29	39.07
15:58:                  59	39.09
15:59:                  29	39.09
15:59:                  59	39.09
16:00:                  29	39.10
16:00:                  59	39.11
16:01:                  29	39.10
16:01:                  59	39.11
16:02:                  29	39.12
16:02:                  59	39.11
16:03:                  29	39.11
16:03:                  59	39.11
16:04:                  29	39.12
16:04:                  59	39.13
16:05:                  29	39.13
16:05:                  59	39.14
16:06:                  29	39.15
16:06:                  59	39.16
16:07:                  29	39.16
16:07:                  59	39.16
16:08:                  29	39.17
16:09:                   0	39.18
16:09:                  30	39.19
16:10:                   0	39.20
16:10:                  30	39.21
16:11:                   0	39.23
16:11:                  30	39.23
16:12:                   0	39.25
16:12:                  30	39.26
16:13:                   0	39.26
16:13:                  30	39.28
16:14:                   0	39.28
16:14:                  30	39.27
16:15:                   0	39.29
16:15:                  30	39.30
16:16:                   0	39.30
16:16:                  30	39.32
16:17:                   0	39.32
16:17:                  30	39.32
16:18:                   0	39.34
16:18:                  30	39.35
16:19:                   0	39.35
16:19:                  30	39.37
16:20:                   0	39.37
16:20:                  30	39.38
16:21:                   0	39.39
16:21:                  30	39.40
16:22:                   0	39.40
16:22:                  30	39.42
16:23:                   0	39.43
16:23:                  30	39.45
16:24:                   0	39.45
16:24:                  31	39.45
16:25:                   1	39.46
16:25:                  31	39.48
16:26:                   1	39.49
16:26:                  31	39.51
16:27:                   1	39.52
16:27:                  31	39.53
16:28:                   1	39.52
16:28:                  31	39.54
16:29:                   1	39.55
16:29:                  31	39.56
16:30:                   1	39.58
16:30:                  31	39.58
16:31:                   1	39.58
16:31:                  31	39.59
16:32:                   1	39.59
16:32:                  31	39.61
16:33:                   1	39.62
16:33:                  31	39.63
16:34:                   1	39.63
16:34:                  31	39.63
16:35:                   1	39.64
16:35:                  31	39.64
16:36:                   1	39.65
16:36:                  31	39.65
16:37:                   1	39.67
16:37:                  31	39.69
16:38:                   1	39.67
16:38:                  31	39.67
16:39:                   1	39.69
16:39:                  31	39.69
16:40:                   1	39.69
16:40:                  32	39.70
16:41:                   2	39.72
16:41:                  32	39.70
16:42:                   2	39.71
16:42:                  32	39.71
16:43:                   2	39.71
16:43:                  32	39.71
16:44:                   2	39.70
16:44:                  32	39.70
16:45:                   2	39.72
16:45:                  32	39.72
16:46:                   2	39.72
16:46:                  32	39.73
16:47:                   2	39.75
16:47:                  32	39.76
16:48:                   2	39.75
16:48:                  32	39.75
16:49:                   2	39.75
16:49:                  32	39.76
16:50:                   2	39.77
16:50:                  32	39.77
16:51:                   2	39.76
16:51:                  32	39.74
16:52:                   2	39.77
16:52:                  32	39.78
16:53:                   2	39.78
16:53:                  32	39.79
16:54:                   2	39.80
16:54:                  32	39.79
16:55:                   2	39.78
16:55:                  32	39.82
16:56:                   2	39.81
16:56:                  33	39.83
16:57:                   3	39.84
16:57:                  33	39.83
16:58:                   3	39.86
16:58:                  33	39.86
16:59:                   3	39.87
16:59:                  33	39.88
17:00:                   3	39.86
17:00:                  33	39.86
17:01:                   3	39.85
17:01:                  33	39.87
17:02:                   3	39.86
17:02:                  33	39.87
17:03:                   3	39.85
17:03:                  33	39.86
17:04:                   3	39.84
17:04:                  33	39.84
17:05:                   3	39.82
17:05:                  33	39.83
17:06:                   3	39.83
17:06:                  33	39.84
17:07:                   3	39.83
17:07:                  33	39.83
17:08:                   3	39.84
17:08:                  33	39.82
17:09:                   3	39.82
17:09:                  33	39.82
17:10:                   3	39.80
17:10:                  33	39.80
17:11:                   3	39.81
17:11:                  33	39.81
17:12:                   3	39.80
17:12:                  33	39.80
17:13:                   4	39.80
17:13:                  34	39.81
17:14:                   4	39.81
17:14:                  34	39.79
17:15:                   4	39.79
17:15:                  34	39.78
17:16:                   4	39.79
17:16:                  34	39.79
17:17:                   4	39.81
17:17:                  34	39.81
17:18:                   4	39.82
17:18:                  34	39.82
17:19:                   4	39.81
17:19:                  34	39.82
17:20:                   4	39.82
17:20:                  34	39.80
17:21:                   4	39.83
17:21:                  34	39.83
17:22:                   4	39.83
17:22:                  34	39.82
17:23:                   4	39.84
17:23:                  34	39.85
17:24:                   4	39.85
17:24:                  34	39.85
17:25:                   4	39.84
17:25:                  34	39.85
17:26:                   4	39.87
17:26:                  34	39.87
17:27:                   4	39.85
17:27:                  34	39.86
17:28:                   4	39.84
17:28:                  35	39.89
17:29:                   5	39.89
17:29:                  35	39.90
17:30:                   5	39.89
17:30:                  35	39.89
17:31:                   5	39.91
17:31:                  35	39.90
17:32:                   5	39.91
17:32:                  35	39.92
17:33:                   5	39.92
17:33:                  35	39.93
17:34:                   5	39.92
17:34:                  35	39.92
17:35:                   5	39.92
17:35:                  35	39.91
17:36:                   5	39.93
17:36:                  35	39.93
17:37:                   5	39.93
17:37:                  35	39.94
17:38:                   5	39.96
17:38:                  35	39.95
17:39:                   5	39.93
17:39:                  35	39.94
17:40:                   5	39.94
17:40:                  35	39.96
17:41:                   5	39.95
17:41:                  35	39.94
17:42:                   5	39.99
17:42:                  35	39.96
17:43:                   5	39.94
17:43:                  35	39.95
17:44:                   5	39.94
17:44:                  36	39.94
17:45:                   6	39.92
17:45:                  36	39.94
17:46:                   6	39.93
17:46:                  36	39.93
17:47:                   6	39.93
17:47:                  36	39.93
17:48:                   6	39.92
17:48:                  36	39.92
17:49:                   6	39.91
17:49:                  36	39.92
17:50:                   6	39.92
17:50:                  36	39.91
17:51:                   6	39.92
17:51:                  36	39.92
17:52:                   6	39.91
17:52:                  36	39.92
17:53:                   6	39.90
17:53:                  36	39.92
17:54:                   6	39.93
17:54:                  36	39.93
17:55:                   6	39.91
17:55:                  36	39.92
17:56:                   6	39.92
17:56:                  36	39.92
17:57:                   6	39.90
17:57:                  36	39.91
17:58:                   6	39.91
17:58:                  36	39.90
17:59:                   6	39.89
17:59:                  36	39.91
18:00:                   6	39.90
18:00:                  37	39.89
18:01:                   7	39.89
18:01:                  37	39.88
18:02:                   7	39.87
18:02:                  37	39.87
18:03:                   7	39.87
18:03:                  37	39.87
18:04:                   7	39.87
18:04:                  37	39.86
18:05:                   7	39.71
18:05:                  37	39.74
18:06:                   7	39.77
18:06:                  37	39.76
18:07:                   7	39.76
18:07:                  37	39.74
18:08:                   7	39.70
18:08:                  37	39.71
18:09:                   7	39.64
18:09:                  37	39.57
18:10:                   7	39.54
18:10:                  37	39.48
18:11:                   7	39.44
18:11:                  37	39.37
18:12:                   7	39.18
18:12:                  37	39.18
18:13:                   7	39.11
18:13:                  37	38.87
18:14:                   7	38.68
18:14:                  37	38.63
18:15:                   7	38.39
18:15:                  37	38.28
18:16:                   7	38.11
18:16:                  38	37.87
18:17:                   8	37.86
18:17:                  38	37.91
18:18:                   8	37.89
18:18:                  38	37.89
18:19:                   8	37.94
18:19:                  38	37.99
18:20:                   8	38.04
18:20:                  38	38.11
18:21:                   8	38.12
18:21:                  38	38.08
18:22:                   8	38.13
18:22:                  38	38.15
18:23:                   8	38.19
18:23:                  38	38.21
18:24:                   8	38.18
18:24:                  38	38.27
18:25:                   8	38.27
18:25:                  38	38.28
18:26:                   8	38.32
18:26:                  38	38.37
18:27:                   8	38.38
18:27:                  38	38.39
18:28:                   8	38.41
18:28:                  38	38.43
18:29:                   8	38.43
18:29:                  38	38.45
18:30:                   8	38.41
18:30:                  38	38.44
18:31:                   8	38.44
18:31:                  38	38.39
18:32:                   8	38.40
18:32:                  38	38.32
18:33:                   8	38.38
18:33:                  38	38.40
18:34:                   8	38.36
18:34:                  38	38.39
18:35:                   8	38.40
18:35:                  38	38.34
18:36:                   8	38.35
18:36:                  38	38.36
18:37:                   8	38.39
18:37:                  38	38.33
18:38:                   8	38.37
18:38:                  38	38.35
18:39:                   8	38.28
18:39:                  38	38.29
18:40:                   8	38.30
18:40:                  38	38.29
18:41:                   8	38.34
18:41:                  38	38.37
18:42:                   8	38.35
18:42:                  38	38.27
18:43:                   8	38.23
18:43:                  38	38.21
18:44:                   9	38.01
18:44:                  39	37.90
18:45:                   9	37.88
18:45:                  39	37.89
18:46:                   9	37.72
18:46:                  39	37.76
18:47:                   9	37.70
18:47:                  39	37.78
18:48:                   9	37.72
18:48:                  39	37.72
18:49:                   9	37.82
18:49:                  39	37.80
18:50:                   9	37.73
18:50:                  39	37.71
18:51:                   9	37.69
18:51:                  39	37.71
18:52:                   9	37.72
18:52:                  39	37.70
18:53:                   9	37.70
18:53:                  39	37.70
18:54:                   9	37.72
18:54:                  39	37.71
18:55:                   9	37.71
18:55:                  39	37.75
18:56:                   9	37.72
18:56:                  39	37.72
18:57:                   9	37.69
18:57:                  39	37.74
18:58:                   9	37.70
18:58:                  39	37.73
18:59:                   9	37.72
18:59:                  39	37.74
19:00:                   9	37.76
19:00:                  39	37.72
19:01:                   9	37.77
19:01:                  39	37.76
19:02:                   9	37.74
19:02:                  39	37.72
19:03:                   9	37.76
19:03:                  39	37.75
19:04:                   9	37.74
19:04:                  39	37.75
19:05:                   9	37.81
19:05:                  39	37.80
19:06:                   9	37.63
19:06:                  39	37.42
19:07:                   9	37.42
19:07:                  39	37.39
19:08:                   9	37.36
19:08:                  39	37.37
19:09:                   9	37.34
19:09:                  39	37.42
19:10:                   9	37.37
19:10:                  39	37.28
19:11:                   9	37.11
19:11:                  39	36.99
19:12:                   9	36.97
19:12:                  39	36.98
19:13:                  10	37.01
19:13:                  40	37.02
19:14:                  10	36.99
19:14:                  40	36.97
19:15:                  10	36.92
19:15:                  40	36.85
19:16:                  10	36.78
19:16:                  40	36.78
19:17:                  10	36.64
19:17:                  40	36.67
19:18:                  10	36.67
19:18:                  40	36.70
19:19:                  10	36.59
19:19:                  40	36.62
19:20:                  10	36.54
19:20:                  40	36.27
19:21:                  10	36.18
19:21:                  40	36.24
19:22:                  10	36.21
19:22:                  40	36.05
19:23:                  10	35.83
19:23:                  40	35.67
19:24:                  10	35.73
19:24:                  40	35.86
19:25:                  10	35.95
19:25:                  40	36.00
19:26:                  10	36.09
19:26:                  40	36.14
19:27:                  10	36.11
19:27:                  40	36.10
19:28:                  10	36.13
19:28:                  40	36.12
19:29:                  10	36.12
19:29:                  40	36.18
19:30:                  10	36.16
19:30:                  40	36.22
19:31:                  10	36.25
19:31:                  40	36.30
19:32:                  10	36.34
19:32:                  40	36.49
19:33:                  10	36.59
19:33:                  40	36.55
19:34:                  10	36.44
19:34:                  40	36.39
19:35:                  10	36.39
19:35:                  40	36.18
19:36:                  10	36.12
19:36:                  40	36.03
19:37:                  10	35.77
19:37:                  40	35.65
19:38:                  10	35.69
19:38:                  40	35.70
19:39:                  10	35.75
19:39:                  40	35.74
19:40:                  10	35.77
19:40:                  40	35.82
19:41:                  10	35.90
19:41:                  40	35.97
19:42:                  10	36.06
19:42:                  40	36.08
19:43:                  10	36.17
19:43:                  40	36.21
19:44:                  10	36.23
19:44:                  40	36.34
19:45:                  11	36.38
19:45:                  41	36.43
19:46:                  11	36.49
19:46:                  41	36.50
19:47:                  11	36.37
19:47:                  41	36.26
19:48:                  11	36.13
19:48:                  41	36.15
19:49:                  11	36.22
19:49:                  41	36.23
19:50:                  11	36.31
19:50:                  41	36.28
19:51:                  11	36.32
19:51:                  41	36.24
19:52:                  11	36.17
19:52:                  41	36.10
19:53:                  11	35.96
19:53:                  41	35.96
19:54:                  11	36.04
19:54:                  41	36.09
19:55:                  11	36.10
19:55:                  41	36.12
19:56:                  11	36.03
19:56:                  41	36.04
19:57:                  11	36.03
19:57:                  41	36.08
19:58:                  11	36.13
19:58:                  41	36.12
19:59:                  11	36.13
19:59:                  41	36.05
20:00:                  11	36.01
20:00:                  41	35.99
20:01:                  11	35.99
20:01:                  41	35.99
20:02:                  11	36.04
20:02:                  41	36.07
20:03:                  11	36.15
20:03:                  41	36.19
20:04:                  11	36.20
20:04:                  41	36.24
20:05:                  11	36.27
20:05:                  41	36.22
20:06:                  11	36.26
20:06:                  41	36.23
20:07:                  11	36.24
20:07:                  41	36.18
20:08:                  11	36.20
20:08:                  41	36.23
20:09:                  11	36.24
20:09:                  41	36.31
20:10:                  11	36.30
20:10:                  41	36.38
20:11:                  11	36.35
20:11:                  41	36.19
20:12:                  11	36.12
20:12:                  42	35.97
20:13:                  12	35.89
20:13:                  42	35.76
20:14:                  12	35.77
20:14:                  42	35.75
20:15:                  12	35.75
20:15:                  42	35.84
20:16:                  12	35.85
20:16:                  42	35.83
20:17:                  12	35.86
20:17:                  42	35.94
20:18:                  12	35.95
20:18:                  42	36.01
20:19:                  12	36.06
20:19:                  42	36.10
20:20:                  12	36.13
20:20:                  42	36.17
20:21:                  12	36.22
20:21:                  42	36.26
20:22:                  12	36.29
20:22:                  42	36.33
20:23:                  12	36.38
20:23:                  42	36.37
20:24:                  12	36.39
20:24:                  42	36.46
20:25:                  12	36.49
20:25:                  42	36.55
20:26:                  12	36.58
20:26:                  42	36.63
20:27:                  12	36.65
20:27:                  42	36.69
20:28:                  12	36.72
20:28:                  42	36.72
20:29:                  12	36.67
20:29:                  42	36.72
20:30:                  12	36.77
20:30:                  42	36.83
20:31:                  12	36.85
20:31:                  42	36.90
20:32:                  12	36.94
20:32:                  42	36.97
20:33:                  12	37.00
20:33:                  42	37.05
20:34:                  12	37.09
20:34:                  42	37.13
20:35:                  12	37.18
20:35:                  42	37.21
20:36:                  12	37.24
20:36:                  42	37.25
20:37:                  12	37.28
20:37:                  42	37.31
20:38:                  12	37.34
20:38:                  42	37.37
20:39:                  12	37.40
20:39:                  42	37.42
20:40:                  12	37.47
20:40:                  42	37.48
20:41:                  12	37.51
20:41:                  42	37.52
20:42:                  12	37.55
20:42:                  42	37.57
20:43:                  12	37.58
20:43:                  42	37.60
20:44:                  12	37.62
20:44:                  42	37.62
20:45:                  12	37.64
20:45:                  42	37.65
20:46:                  12	37.66
20:46:                  42	37.65
20:47:                  12	37.66
20:47:                  42	37.65
20:48:                  12	37.67
20:48:                  42	37.66
20:49:                  12	37.69
20:49:                  42	37.71
20:50:                  13	37.71
20:50:                  43	37.62
20:51:                  13	37.60
20:51:                  43	37.63
20:52:                  13	37.61
20:52:                  43	37.62
20:53:                  13	37.65
20:53:                  43	37.66
20:54:                  13	37.67
20:54:                  43	37.68
20:55:                  13	37.69
20:55:                  43	37.68
20:56:                  13	37.69
20:56:                  43	37.67
20:57:                  13	37.69
20:57:                  43	37.70
20:58:                  13	37.72
20:58:                  43	37.72
20:59:                  13	37.75
20:59:                  43	37.76
21:00:                  13	37.77
21:00:                  43	37.78
21:01:                  13	37.81
21:01:                  43	37.83
21:02:                  13	37.84
21:02:                  43	37.85
21:03:                  13	37.86
21:03:                  43	37.87
21:04:                  13	37.83
21:04:                  43	37.91
21:05:                  13	37.92
21:05:                  43	37.93
21:06:                  13	37.97
21:06:                  43	38.01
21:07:                  13	38.05
21:07:                  43	38.11
21:08:                  14	38.15
21:08:                  44	38.20
21:09:                  14	38.25
21:09:                  44	38.28
21:10:                  14	38.32
21:10:                  44	38.34
21:11:                  14	38.38
21:11:                  44	38.41
21:12:                  14	38.42
21:12:                  44	38.38
21:13:                  14	38.45
21:13:                  44	38.46
21:14:                  14	38.46
21:14:                  44	38.46
21:15:                  14	38.45
21:15:                  44	38.44
21:16:                  14	38.41
21:16:                  44	38.40
21:17:                  14	38.41
21:17:                  44	38.40
21:18:                  14	38.39
21:18:                  44	38.38
21:19:                  14	38.39
21:19:                  44	38.37
21:20:                  14	38.37
21:20:                  44	38.35
21:21:                  14	38.36
21:21:                  44	38.35
21:22:                  14	38.35
21:22:                  44	38.36
21:23:                  14	38.34
21:23:                  44	38.33
21:24:                  14	38.33
21:24:                  44	38.33
21:25:                  14	38.33
21:25:                  44	38.33
21:26:                  14	38.33
21:26:                  44	38.35
21:27:                  14	38.35
21:27:                  44	38.35
21:28:                  14	38.32
21:28:                  44	38.29
21:29:                  14	38.29
21:29:                  44	38.27
21:30:                  14	38.28
21:30:                  44	38.27
21:31:                  14	38.27
21:31:                  44	38.26
21:32:                  14	38.28
21:32:                  44	38.27
21:33:                  14	38.27
21:33:                  44	38.26
21:34:                  14	38.25
21:34:                  44	38.26
21:35:                  14	38.27
21:35:                  44	38.27
21:36:                  15	38.25
21:36:                  45	38.26
21:37:                  15	38.28
21:37:                  45	38.28
21:38:                  15	38.29
21:38:                  45	38.28
21:39:                  15	38.28
21:39:                  45	38.28
21:40:                  15	38.28
21:40:                  45	38.27
21:41:                  15	38.27
21:41:                  45	38.29
21:42:                  15	38.30
21:42:                  45	38.30
21:43:                  15	38.28
21:43:                  45	38.27
21:44:                  15	38.24
21:44:                  45	38.20
21:45:                  15	38.23
21:45:                  45	38.28
21:46:                  15	38.23
21:46:                  45	38.16
21:47:                  15	38.13
21:47:                  45	38.11
21:48:                  15	38.13
21:48:                  45	38.06
21:49:                  15	38.15
21:49:                  45	38.14
21:50:                  15	38.10
21:50:                  45	38.05
23:18:                  56	20.18
23:19:                  26	20.06
23:19:                  57	19.87
23:20:                  27	19.87
23:20:                  57	19.72
23:21:                  27	19.71
23:21:                  57	19.68
