0:00:                  20	32.57
0:00:                  50	32.60
0:01:                  20	32.59
0:01:                  50	32.59
0:02:                  20	32.58
0:02:                  50	32.59
0:03:                  20	32.60
0:03:                  50	32.60
0:04:                  20	32.60
0:04:                  50	32.61
0:05:                  20	32.60
0:05:                  50	32.60
0:06:                  20	32.60
0:06:                  50	32.59
0:07:                  20	32.59
0:07:                  50	32.59
0:08:                  20	32.59
0:08:                  51	32.60
0:09:                  21	32.59
0:09:                  51	32.61
0:10:                  21	32.62
0:10:                  51	32.61
0:11:                  21	32.61
0:11:                  51	32.63
0:12:                  21	32.63
0:12:                  51	32.62
0:13:                  21	32.61
0:13:                  51	32.59
0:14:                  21	32.60
0:14:                  51	32.60
0:15:                  21	32.60
0:15:                  51	32.62
0:16:                  21	32.65
0:16:                  51	32.64
0:17:                  21	32.65
0:17:                  51	32.65
0:18:                  21	32.65
0:18:                  51	32.66
0:19:                  21	32.65
0:19:                  51	32.65
0:20:                  21	32.66
0:20:                  51	32.65
0:21:                  21	32.65
0:21:                  51	32.66
0:22:                  21	32.66
0:22:                  51	32.67
0:23:                  21	32.67
0:23:                  51	32.67
0:24:                  21	32.69
0:24:                  51	32.68
0:25:                  21	32.69
0:25:                  52	32.70
0:26:                  22	32.70
0:26:                  52	32.69
0:27:                  22	32.69
0:27:                  52	32.69
0:28:                  22	32.67
0:28:                  52	32.67
0:29:                  22	32.67
0:29:                  52	32.67
0:30:                  22	32.66
0:30:                  52	32.66
0:31:                  22	32.66
0:31:                  52	32.65
0:32:                  22	32.65
0:32:                  52	32.66
0:33:                  22	32.66
0:33:                  52	32.66
0:34:                  22	32.68
0:34:                  52	32.69
0:35:                  22	32.69
0:35:                  52	32.69
0:36:                  22	32.69
0:36:                  52	32.68
0:37:                  22	32.68
0:37:                  52	32.66
0:38:                  22	32.65
0:38:                  52	32.63
0:39:                  22	32.63
0:39:                  52	32.63
0:40:                  22	32.64
0:40:                  52	32.63
0:41:                  22	32.63
0:41:                  52	32.62
0:42:                  22	32.61
0:42:                  52	32.61
0:43:                  22	32.60
0:43:                  53	32.59
0:44:                  23	32.59
0:44:                  53	32.58
0:45:                  23	32.58
0:45:                  53	32.58
0:46:                  23	32.57
0:46:                  53	32.57
0:47:                  23	32.57
0:47:                  53	32.56
0:48:                  23	32.56
0:48:                  53	32.57
0:49:                  23	32.57
0:49:                  53	32.57
0:50:                  23	32.56
0:50:                  53	32.56
0:51:                  23	32.56
0:51:                  53	32.56
0:52:                  23	32.56
0:52:                  53	32.56
0:53:                  23	32.57
0:53:                  53	32.56
0:54:                  23	32.56
0:54:                  53	32.56
0:55:                  23	32.56
0:55:                  53	32.56
0:56:                  23	32.56
0:56:                  53	32.56
0:57:                  23	32.56
0:57:                  53	32.55
0:58:                  23	32.55
0:58:                  53	32.55
0:59:                  23	32.54
0:59:                  53	32.54
1:00:                  23	32.53
1:00:                  53	32.53
1:01:                  23	32.53
1:01:                  54	32.55
1:02:                  24	32.53
1:02:                  54	32.54
1:03:                  24	32.54
1:03:                  54	32.53
1:04:                  24	32.54
1:04:                  54	32.53
1:05:                  24	32.53
1:05:                  54	32.53
1:06:                  24	32.53
1:06:                  54	32.52
1:07:                  24	32.53
1:07:                  54	32.53
1:08:                  24	32.54
1:08:                  54	32.53
1:09:                  24	32.53
1:09:                  54	32.52
1:10:                  24	32.52
1:10:                  54	32.52
1:11:                  24	32.53
1:11:                  54	32.52
1:12:                  24	32.52
1:12:                  54	32.52
1:13:                  24	32.51
1:13:                  54	32.51
1:14:                  24	32.51
1:14:                  54	32.52
1:15:                  24	32.51
1:15:                  54	32.52
1:16:                  24	32.52
1:16:                  54	32.52
1:17:                  24	32.52
1:17:                  55	32.53
1:18:                  25	32.53
1:18:                  55	32.53
1:19:                  25	32.53
1:19:                  55	32.53
1:20:                  25	32.52
1:20:                  55	32.52
1:21:                  25	32.53
1:21:                  55	32.52
1:22:                  25	32.53
1:22:                  55	32.53
1:23:                  25	32.53
1:23:                  55	32.52
1:24:                  25	32.53
1:24:                  55	32.52
1:25:                  25	32.52
1:25:                  55	32.52
1:26:                  25	32.51
1:26:                  55	32.51
1:27:                  25	32.52
1:27:                  55	32.52
1:28:                  25	32.51
1:28:                  55	32.53
1:29:                  25	32.52
1:29:                  55	32.52
1:30:                  25	32.53
1:30:                  55	32.53
1:31:                  25	32.52
1:31:                  55	32.54
1:32:                  25	32.54
1:32:                  55	32.54
1:33:                  25	32.55
1:33:                  55	32.54
1:34:                  25	32.53
1:34:                  55	32.53
1:35:                  25	32.53
1:35:                  55	32.54
1:36:                  25	32.53
1:36:                  56	32.54
1:37:                  26	32.54
1:37:                  56	32.55
1:38:                  26	32.54
1:38:                  56	32.55
1:39:                  26	32.56
1:39:                  56	32.55
1:40:                  26	32.56
1:40:                  56	32.56
1:41:                  26	32.56
1:41:                  56	32.56
1:42:                  26	32.57
1:42:                  56	32.56
1:43:                  26	32.56
1:43:                  56	32.57
1:44:                  26	32.57
1:44:                  56	32.56
1:45:                  26	32.56
1:45:                  56	32.55
1:46:                  26	32.55
1:46:                  56	32.55
1:47:                  26	32.55
1:47:                  56	32.55
1:48:                  26	32.55
1:48:                  56	32.55
1:49:                  26	32.54
1:49:                  56	32.53
1:50:                  26	32.54
1:50:                  56	32.55
1:51:                  26	32.54
1:51:                  56	32.55
1:52:                  26	32.55
1:52:                  57	32.55
1:53:                  27	32.56
1:53:                  57	32.54
1:54:                  27	32.54
1:54:                  57	32.55
1:55:                  27	32.56
1:55:                  57	32.57
1:56:                  27	32.57
1:56:                  57	32.56
1:57:                  27	32.57
1:57:                  57	32.56
1:58:                  27	32.55
1:58:                  57	32.56
1:59:                  27	32.56
1:59:                  57	32.57
2:00:                  27	32.57
2:00:                  57	32.57
2:01:                  27	32.57
2:01:                  57	32.58
2:02:                  27	32.58
2:02:                  57	32.58
2:03:                  27	32.59
2:03:                  57	32.58
2:04:                  27	32.58
2:04:                  57	32.58
2:05:                  27	32.58
2:05:                  57	32.59
2:06:                  27	32.58
2:06:                  57	32.58
2:07:                  27	32.58
2:07:                  57	32.58
2:08:                  27	32.59
2:08:                  57	32.59
2:09:                  27	32.58
2:09:                  58	32.58
2:10:                  28	32.60
2:10:                  58	32.60
2:11:                  28	32.59
2:11:                  58	32.58
2:12:                  28	32.59
2:12:                  58	32.59
2:13:                  28	32.61
2:13:                  58	32.61
2:14:                  28	32.61
2:14:                  58	32.60
2:15:                  28	32.59
2:15:                  58	32.60
2:16:                  28	32.62
2:16:                  58	32.62
2:17:                  28	32.62
2:17:                  58	32.64
2:18:                  28	32.63
2:18:                  58	32.63
2:19:                  28	32.61
2:19:                  58	32.60
2:20:                  28	32.59
2:20:                  58	32.58
2:21:                  28	32.60
2:21:                  58	32.58
2:22:                  28	32.59
2:22:                  58	32.60
2:23:                  28	32.59
2:23:                  58	32.60
2:24:                  28	32.60
2:24:                  58	32.61
2:25:                  28	32.62
2:25:                  59	32.62
2:26:                  29	32.65
2:26:                  59	32.64
2:27:                  29	32.65
2:27:                  59	32.65
2:28:                  29	32.64
2:28:                  59	32.63
2:29:                  29	32.62
2:29:                  59	32.62
2:30:                  29	32.62
2:30:                  59	32.62
2:31:                  29	32.62
2:31:                  59	32.60
2:32:                  29	32.62
2:32:                  59	32.62
2:33:                  29	32.64
2:33:                  59	32.64
2:34:                  29	32.62
2:34:                  59	32.63
2:35:                  29	32.63
2:35:                  59	32.63
2:36:                  29	32.64
2:36:                  59	32.64
2:37:                  29	32.63
2:37:                  59	32.62
2:38:                  29	32.61
2:38:                  59	32.61
2:39:                  29	32.61
2:39:                  59	32.62
2:40:                  29	32.63
2:40:                  59	32.64
2:41:                  29	32.64
2:41:                  59	32.65
2:42:                  29	32.66
2:42:                  59	32.67
2:43:                  29	32.66
2:43:                  59	32.67
2:44:                  29	32.66
2:45:                   0	32.66
2:45:                  30	32.66
2:46:                   0	32.65
2:46:                  30	32.66
2:47:                   0	32.66
2:47:                  30	32.67
2:48:                   0	32.66
2:48:                  30	32.67
2:49:                   0	32.67
2:49:                  30	32.67
2:50:                   0	32.66
2:50:                  30	32.66
2:51:                   0	32.66
2:51:                  30	32.66
2:52:                   0	32.66
2:52:                  30	32.68
2:53:                   0	32.67
2:53:                  30	32.67
2:54:                   0	32.67
2:54:                  30	32.66
2:55:                   0	32.68
2:55:                  30	32.68
2:56:                   0	32.71
2:56:                  30	32.71
2:57:                   0	32.71
2:57:                  30	32.70
2:58:                   0	32.70
2:58:                  30	32.70
2:59:                   0	32.69
2:59:                  30	32.68
3:00:                   0	32.68
3:00:                  30	32.68
3:01:                   0	32.68
3:01:                  30	32.66
3:02:                   0	32.67
3:02:                  30	32.68
3:03:                   0	32.67
3:03:                  30	32.69
3:04:                   0	32.69
3:04:                  30	32.70
3:05:                   0	32.68
3:05:                  30	32.68
3:06:                   0	32.69
3:06:                  30	32.69
3:07:                   0	32.70
3:07:                  30	32.70
3:08:                   1	32.70
3:08:                  31	32.70
3:09:                   1	32.70
3:09:                  31	32.68
3:10:                   1	32.68
3:10:                  31	32.67
3:11:                   1	32.67
3:11:                  31	32.67
3:12:                   1	32.68
3:12:                  31	32.67
3:13:                   1	32.67
3:13:                  31	32.67
3:14:                   1	32.66
3:14:                  31	32.66
3:15:                   1	32.66
3:15:                  31	32.67
3:16:                   1	32.67
3:16:                  31	32.67
3:17:                   1	32.68
3:17:                  31	32.67
3:18:                   1	32.68
3:18:                  31	32.68
3:19:                   1	32.68
3:19:                  31	32.68
3:20:                   1	32.68
3:20:                  31	32.67
3:21:                   1	32.66
3:21:                  31	32.65
3:22:                   1	32.65
3:22:                  31	32.65
3:23:                   1	32.65
3:23:                  31	32.66
3:24:                   1	32.66
3:24:                  32	32.66
3:25:                   2	32.66
3:25:                  32	32.67
3:26:                   2	32.66
3:26:                  32	32.65
3:27:                   2	32.67
3:27:                  32	32.68
3:28:                   2	32.68
3:28:                  32	32.69
3:29:                   2	32.68
3:29:                  32	32.68
3:30:                   2	32.67
3:30:                  32	32.68
3:31:                   2	32.66
3:31:                  32	32.67
3:32:                   2	32.66
3:32:                  32	32.67
3:33:                   2	32.65
3:33:                  32	32.66
3:34:                   2	32.66
3:34:                  32	32.66
3:35:                   2	32.67
3:35:                  32	32.68
3:36:                   2	32.69
3:36:                  32	32.69
3:37:                   2	32.67
3:37:                  32	32.66
3:38:                   2	32.64
3:38:                  32	32.65
3:39:                   2	32.64
3:39:                  32	32.63
3:40:                   2	32.61
3:40:                  32	32.61
3:41:                   3	32.60
3:41:                  33	32.59
3:42:                   3	32.59
3:42:                  33	32.59
3:43:                   3	32.59
3:43:                  33	32.58
3:44:                   3	32.59
3:44:                  33	32.57
3:45:                   3	32.58
3:45:                  33	32.59
3:46:                   3	32.58
3:46:                  33	32.58
3:47:                   3	32.59
3:47:                  33	32.58
3:48:                   3	32.57
3:48:                  33	32.56
3:49:                   3	32.56
3:49:                  33	32.56
3:50:                   3	32.55
3:50:                  33	32.54
3:51:                   3	32.53
3:51:                  33	32.54
3:52:                   3	32.53
3:52:                  33	32.54
3:53:                   3	32.55
3:53:                  33	32.56
3:54:                   3	32.55
3:54:                  33	32.55
3:55:                   3	32.54
3:55:                  33	32.53
3:56:                   3	32.54
3:56:                  33	32.54
3:57:                   3	32.54
3:57:                  33	32.54
3:58:                   3	32.54
3:58:                  33	32.54
3:59:                   3	32.54
3:59:                  33	32.55
4:00:                   3	32.56
4:00:                  33	32.55
4:01:                   3	32.56
4:01:                  33	32.57
4:02:                   4	32.55
4:02:                  34	32.56
4:03:                   4	32.56
4:03:                  34	32.57
4:04:                   4	32.57
4:04:                  34	32.58
4:05:                   4	32.57
4:05:                  34	32.56
4:06:                   4	32.56
4:06:                  34	32.55
4:07:                   4	32.54
4:07:                  34	32.54
4:08:                   4	32.54
4:08:                  34	32.54
4:09:                   4	32.53
4:09:                  34	32.54
4:10:                   4	32.55
4:10:                  34	32.56
4:11:                   4	32.55
4:11:                  34	32.55
4:12:                   4	32.55
4:12:                  34	32.56
4:13:                   4	32.56
4:13:                  34	32.57
4:14:                   4	32.56
4:14:                  34	32.56
4:15:                   4	32.57
4:15:                  34	32.57
4:16:                   4	32.58
4:16:                  34	32.58
4:17:                   4	32.59
4:17:                  34	32.59
4:18:                   4	32.57
4:18:                  34	32.57
4:19:                   4	32.56
4:19:                  34	32.56
4:20:                   5	32.56
4:20:                  35	32.54
4:21:                   5	32.53
4:21:                  35	32.53
4:22:                   5	32.54
4:22:                  35	32.52
4:23:                   5	32.52
4:23:                  35	32.52
4:24:                   5	32.51
4:24:                  35	32.50
4:25:                   5	32.50
4:25:                  35	32.49
4:26:                   5	32.49
4:26:                  35	32.49
4:27:                   5	32.49
4:27:                  35	32.50
4:28:                   5	32.49
4:28:                  35	32.49
4:29:                   5	32.48
4:29:                  35	32.48
4:30:                   5	32.48
4:30:                  35	32.48
4:31:                   5	32.48
4:31:                  35	32.48
4:32:                   5	32.49
4:32:                  35	32.51
4:33:                   5	32.50
4:33:                  35	32.49
4:34:                   5	32.50
4:34:                  35	32.50
4:35:                   5	32.49
4:35:                  35	32.49
4:36:                   5	32.50
4:36:                  35	32.48
4:37:                   5	32.48
4:37:                  35	32.48
4:38:                   5	32.48
4:38:                  35	32.49
4:39:                   6	32.48
4:39:                  36	32.48
4:40:                   6	32.48
4:40:                  36	32.49
4:41:                   6	32.49
4:41:                  36	32.49
4:42:                   6	32.49
4:42:                  36	32.48
4:43:                   6	32.49
4:43:                  36	32.49
4:44:                   6	32.49
4:44:                  36	32.49
4:45:                   6	32.49
4:45:                  36	32.49
4:46:                   6	32.49
4:46:                  36	32.49
4:47:                   6	32.49
4:47:                  36	32.50
4:48:                   6	32.48
4:48:                  36	32.50
4:49:                   6	32.50
4:49:                  36	32.50
4:50:                   6	32.52
4:50:                  36	32.52
4:51:                   6	32.53
4:51:                  36	32.52
4:52:                   6	32.53
4:52:                  36	32.53
4:53:                   6	32.55
4:53:                  36	32.56
4:54:                   6	32.57
4:54:                  36	32.57
4:55:                   6	32.56
4:55:                  37	32.56
4:56:                   7	32.55
4:56:                  37	32.56
4:57:                   7	32.56
4:57:                  37	32.56
4:58:                   7	32.56
4:58:                  37	32.57
4:59:                   7	32.56
4:59:                  37	32.55
5:00:                   7	32.57
5:00:                  37	32.57
5:01:                   7	32.57
5:01:                  37	32.58
5:02:                   7	32.59
5:02:                  37	32.59
5:03:                   7	32.59
5:03:                  37	32.60
5:04:                   7	32.60
5:04:                  37	32.63
5:05:                   7	32.62
5:05:                  37	32.62
5:06:                   7	32.59
5:06:                  37	32.60
5:07:                   7	32.60
5:07:                  37	32.61
5:08:                   7	32.61
5:08:                  37	32.62
5:09:                   7	32.63
5:09:                  37	32.64
5:10:                   7	32.63
5:10:                  37	32.63
5:11:                   7	32.63
5:11:                  37	32.62
5:12:                   8	32.60
5:12:                  38	32.58
5:13:                   8	32.57
5:13:                  38	32.57
5:14:                   8	32.55
5:14:                  38	32.55
5:15:                   8	32.54
5:15:                  38	32.54
5:16:                   8	32.53
5:16:                  38	32.53
5:17:                   8	32.52
5:17:                  38	32.52
5:18:                   8	32.52
5:18:                  38	32.52
5:19:                   8	32.51
5:19:                  38	32.51
5:20:                   8	32.51
5:20:                  38	32.50
5:21:                   8	32.51
5:21:                  38	32.50
5:22:                   8	32.50
5:22:                  38	32.49
5:23:                   8	32.50
5:23:                  38	32.54
5:24:                   8	32.53
5:24:                  38	32.54
5:25:                   8	32.52
5:25:                  38	32.52
5:26:                   8	32.52
5:26:                  38	32.52
5:27:                   8	32.52
5:27:                  38	32.52
5:28:                   8	32.52
5:28:                  39	32.52
5:29:                   9	32.50
5:29:                  39	32.52
5:30:                   9	32.51
5:30:                  39	32.51
5:31:                   9	32.51
5:31:                  39	32.51
5:32:                   9	32.51
5:32:                  39	32.53
5:33:                   9	32.52
5:33:                  39	32.53
5:34:                   9	32.52
5:34:                  39	32.53
5:35:                   9	32.53
5:35:                  39	32.53
5:36:                   9	32.53
5:36:                  39	32.54
5:37:                   9	32.55
5:37:                  39	32.54
5:38:                   9	32.55
5:38:                  39	32.55
5:39:                   9	32.55
5:39:                  39	32.55
5:40:                   9	32.55
5:40:                  39	32.55
5:41:                   9	32.54
5:41:                  39	32.53
5:42:                   9	32.53
5:42:                  39	32.53
5:43:                   9	32.55
5:43:                  39	32.55
5:44:                   9	32.56
5:44:                  39	32.56
5:45:                  10	32.57
5:45:                  40	32.56
5:46:                  10	32.57
5:46:                  40	32.55
5:47:                  10	32.54
5:47:                  40	32.54
5:48:                  10	32.54
5:48:                  40	32.54
5:49:                  10	32.54
5:49:                  40	32.55
5:50:                  10	32.55
5:50:                  40	32.55
5:51:                  10	32.56
5:51:                  40	32.54
5:52:                  10	32.54
5:52:                  40	32.54
5:53:                  10	32.55
5:53:                  40	32.56
5:54:                  10	32.57
5:54:                  40	32.56
5:55:                  10	32.55
5:55:                  40	32.53
5:56:                  10	32.52
5:56:                  40	32.51
5:57:                  10	32.49
5:57:                  40	32.49
5:58:                  10	32.50
5:58:                  40	32.49
5:59:                  10	32.48
5:59:                  40	32.48
6:00:                  10	32.46
6:00:                  40	32.46
6:01:                  10	32.46
6:01:                  41	32.45
6:02:                  11	32.44
6:02:                  41	32.44
6:03:                  11	32.43
6:03:                  41	32.42
6:04:                  11	32.42
6:04:                  41	32.42
6:05:                  11	32.42
6:05:                  41	32.42
6:06:                  11	32.41
6:06:                  41	32.41
6:07:                  11	32.41
6:07:                  41	32.41
6:08:                  11	32.41
6:08:                  41	32.40
6:09:                  11	32.41
6:09:                  41	32.40
6:10:                  11	32.41
6:10:                  41	32.40
6:11:                  11	32.40
6:11:                  41	32.40
6:12:                  11	32.40
6:12:                  41	32.38
6:13:                  11	32.38
6:13:                  41	32.38
6:14:                  11	32.38
6:14:                  41	32.37
6:15:                  11	32.36
6:15:                  41	32.37
6:16:                  11	32.35
6:16:                  41	32.37
6:17:                  11	32.36
6:17:                  41	32.36
6:18:                  11	32.35
6:18:                  42	32.36
6:19:                  12	32.37
6:19:                  42	32.37
6:20:                  12	32.37
6:20:                  42	32.36
6:21:                  12	32.37
6:21:                  42	32.36
6:22:                  12	32.36
6:22:                  42	32.35
6:23:                  12	32.34
6:23:                  42	32.36
6:24:                  12	32.35
6:24:                  42	32.35
6:25:                  12	32.35
6:25:                  42	32.35
6:26:                  12	32.35
6:26:                  42	32.36
6:27:                  12	32.35
6:27:                  42	32.36
6:28:                  12	32.36
6:28:                  42	32.36
6:29:                  12	32.36
6:29:                  42	32.36
6:30:                  12	32.37
6:30:                  42	32.36
6:31:                  12	32.36
6:31:                  42	32.36
6:32:                  12	32.37
6:32:                  42	32.38
6:33:                  12	32.37
6:33:                  42	32.37
6:34:                  12	32.37
6:34:                  42	32.38
6:35:                  12	32.39
6:35:                  42	32.38
6:36:                  12	32.38
6:36:                  42	32.39
6:37:                  12	32.37
6:37:                  42	32.38
6:38:                  13	32.36
6:38:                  43	32.37
6:39:                  13	32.36
6:39:                  43	32.37
6:40:                  13	32.37
6:40:                  43	32.37
6:41:                  13	32.37
6:41:                  43	32.38
6:42:                  13	32.38
6:42:                  43	32.39
6:43:                  13	32.38
6:43:                  43	32.38
6:44:                  13	32.38
6:44:                  43	32.38
6:45:                  13	32.38
6:45:                  43	32.38
6:46:                  13	32.38
6:46:                  43	32.39
6:47:                  13	32.40
6:47:                  43	32.40
6:48:                  13	32.39
6:48:                  43	32.40
6:49:                  13	32.40
6:49:                  43	32.41
6:50:                  13	32.41
6:50:                  43	32.42
6:51:                  13	32.41
6:51:                  43	32.42
6:52:                  13	32.42
6:52:                  43	32.43
6:53:                  13	32.45
6:53:                  43	32.44
6:54:                  13	32.43
6:54:                  43	32.43
6:55:                  13	32.42
6:55:                  43	32.42
6:56:                  13	32.42
6:56:                  43	32.42
6:57:                  13	32.41
6:57:                  44	32.41
6:58:                  14	32.41
6:58:                  44	32.42
6:59:                  14	32.41
6:59:                  44	32.41
7:00:                  14	32.42
7:00:                  44	32.41
7:01:                  14	32.41
7:01:                  44	32.41
7:02:                  14	32.41
7:02:                  44	32.40
7:03:                  14	32.39
7:03:                  44	32.40
7:04:                  14	32.39
7:04:                  44	32.40
7:05:                  14	32.39
7:05:                  44	32.38
7:06:                  14	32.39
7:06:                  44	32.37
7:07:                  14	32.38
7:07:                  44	32.40
7:08:                  14	32.39
7:08:                  44	32.40
7:09:                  14	32.41
7:09:                  44	32.41
7:10:                  14	32.41
7:10:                  44	32.41
7:11:                  14	32.41
7:11:                  44	32.42
7:12:                  14	32.40
7:12:                  44	32.41
7:13:                  14	32.42
7:13:                  44	32.41
7:14:                  15	32.41
7:14:                  45	32.42
7:15:                  15	32.42
7:15:                  45	32.43
7:16:                  15	32.44
7:16:                  45	32.44
7:17:                  15	32.45
7:17:                  45	32.46
7:18:                  15	32.45
7:18:                  45	32.45
7:19:                  15	32.44
7:19:                  45	32.42
7:20:                  15	32.43
7:20:                  45	32.44
7:21:                  15	32.42
7:21:                  45	32.42
7:22:                  15	32.42
7:22:                  45	32.42
7:23:                  15	32.42
7:23:                  45	32.42
7:24:                  15	32.44
7:24:                  45	32.45
7:25:                  15	32.47
7:25:                  45	32.48
7:26:                  15	32.48
7:26:                  45	32.48
7:27:                  15	32.49
7:27:                  45	32.48
7:28:                  15	32.47
7:28:                  45	32.48
7:29:                  15	32.48
7:29:                  45	32.47
7:30:                  15	32.46
7:30:                  46	32.47
7:31:                  16	32.46
7:31:                  46	32.45
7:32:                  16	32.45
7:32:                  46	32.45
7:33:                  16	32.44
7:33:                  46	32.45
7:34:                  16	32.44
7:34:                  46	32.44
7:35:                  16	32.42
7:35:                  46	32.42
7:36:                  16	32.42
7:36:                  46	32.41
7:37:                  16	32.42
7:37:                  46	32.40
7:38:                  16	32.40
7:38:                  46	32.39
7:39:                  16	32.39
7:39:                  46	32.40
7:40:                  16	32.39
7:40:                  46	32.39
7:41:                  16	32.39
7:41:                  46	32.40
7:42:                  16	32.38
7:42:                  46	32.38
7:43:                  16	32.39
7:43:                  46	32.39
7:44:                  16	32.38
7:44:                  46	32.38
7:45:                  16	32.38
7:45:                  46	32.39
7:46:                  16	32.38
7:46:                  46	32.39
7:47:                  17	32.38
7:47:                  47	32.38
7:48:                  17	32.37
7:48:                  47	32.37
7:49:                  17	32.36
7:49:                  47	32.37
7:50:                  17	32.36
7:50:                  47	32.35
7:51:                  17	32.35
7:51:                  47	32.34
7:52:                  17	32.33
7:52:                  47	32.33
7:53:                  17	32.34
7:53:                  47	32.33
7:54:                  17	32.33
7:54:                  47	32.33
7:55:                  17	32.33
7:55:                  47	32.32
7:56:                  17	32.33
7:56:                  47	32.32
7:57:                  17	32.31
7:57:                  47	32.31
7:58:                  17	32.31
7:58:                  47	32.32
7:59:                  17	32.31
7:59:                  47	32.33
8:00:                  17	32.33
8:00:                  47	32.33
8:01:                  17	32.34
8:01:                  47	32.35
8:02:                  17	32.35
8:02:                  47	32.35
8:03:                  17	32.34
8:03:                  47	32.34
8:04:                  18	32.34
8:04:                  48	32.34
8:05:                  18	32.34
8:05:                  48	32.35
8:06:                  18	32.33
8:06:                  48	32.32
8:07:                  18	32.33
8:07:                  48	32.34
8:08:                  18	32.33
8:08:                  48	32.33
8:09:                  18	32.33
8:09:                  48	32.33
8:10:                  18	32.33
8:10:                  48	32.35
8:11:                  18	32.34
8:11:                  48	32.36
8:12:                  18	32.36
8:12:                  48	32.36
8:13:                  18	32.36
8:13:                  48	32.38
8:14:                  18	32.36
8:14:                  48	32.36
8:15:                  18	32.36
8:15:                  48	32.36
8:16:                  18	32.36
8:16:                  48	32.36
8:17:                  18	32.36
8:17:                  48	32.35
8:18:                  18	32.35
8:18:                  48	32.35
8:19:                  18	32.34
8:19:                  48	32.34
8:20:                  18	32.35
8:20:                  49	32.34
8:21:                  19	32.34
8:21:                  49	32.35
8:22:                  19	32.37
8:22:                  49	32.38
8:23:                  19	32.39
8:23:                  49	32.39
8:24:                  19	32.39
8:24:                  49	32.39
8:25:                  19	32.39
8:25:                  49	32.39
8:26:                  19	32.37
8:26:                  49	32.38
8:27:                  19	32.39
8:27:                  49	32.40
8:28:                  19	32.40
8:28:                  49	32.41
8:29:                  19	32.39
8:29:                  49	32.38
8:30:                  19	32.38
8:30:                  49	32.38
8:31:                  19	32.37
8:31:                  49	32.37
8:32:                  19	32.37
8:32:                  49	32.37
8:33:                  19	32.37
8:33:                  49	32.37
8:34:                  19	32.36
8:34:                  49	32.37
8:35:                  19	32.38
8:35:                  49	32.40
8:36:                  19	32.40
8:36:                  50	32.40
8:37:                  20	32.39
8:37:                  50	32.39
8:38:                  20	32.38
8:38:                  50	32.37
8:39:                  20	32.37
8:39:                  50	32.36
8:40:                  20	32.38
8:40:                  50	32.38
8:41:                  20	32.37
8:41:                  50	32.38
8:42:                  20	32.38
8:42:                  50	32.38
8:43:                  20	32.38
8:43:                  50	32.38
8:44:                  20	32.39
8:44:                  50	32.39
8:45:                  20	32.38
8:45:                  50	32.39
8:46:                  20	32.40
8:46:                  50	32.42
8:47:                  20	32.42
8:47:                  50	32.42
8:48:                  20	32.42
8:48:                  50	32.42
8:49:                  20	32.40
8:49:                  50	32.40
8:50:                  20	32.40
8:50:                  50	32.42
8:51:                  20	32.42
8:51:                  50	32.44
8:52:                  20	32.45
8:52:                  50	32.44
8:53:                  21	32.44
8:53:                  51	32.46
8:54:                  21	32.46
8:54:                  51	32.43
8:55:                  21	32.44
8:55:                  51	32.41
8:56:                  21	32.41
8:56:                  51	32.41
8:57:                  21	32.41
8:57:                  51	32.40
8:58:                  21	32.40
8:58:                  51	32.40
8:59:                  21	32.40
8:59:                  51	32.39
9:00:                  21	32.40
9:00:                  51	32.41
9:01:                  21	32.40
9:01:                  51	32.41
9:02:                  21	32.40
9:02:                  51	32.39
9:03:                  21	32.38
9:03:                  51	32.38
9:04:                  21	32.37
9:04:                  51	32.34
9:05:                  21	32.34
9:05:                  51	32.35
9:06:                  21	32.35
9:06:                  51	32.34
9:07:                  21	32.35
9:07:                  51	32.34
9:08:                  21	32.33
9:08:                  51	32.32
9:09:                  21	32.32
9:09:                  51	32.31
9:10:                  22	32.30
9:10:                  52	32.30
9:11:                  22	32.30
9:11:                  52	32.29
9:12:                  22	32.28
9:12:                  52	32.29
9:13:                  22	32.29
9:13:                  52	32.28
9:14:                  22	32.28
9:14:                  52	32.27
9:15:                  22	32.27
9:15:                  52	32.28
9:16:                  22	32.28
9:16:                  52	32.28
9:17:                  22	32.26
9:17:                  52	32.26
9:18:                  22	32.24
9:18:                  52	32.25
9:19:                  22	32.25
9:19:                  52	32.25
9:20:                  22	32.24
9:20:                  52	32.25
9:21:                  22	32.24
9:21:                  52	32.23
9:22:                  22	32.23
9:22:                  52	32.23
9:23:                  22	32.22
9:23:                  52	32.22
9:24:                  22	32.22
9:24:                  52	32.22
9:25:                  22	32.21
9:25:                  52	32.21
9:26:                  22	32.21
9:26:                  53	32.21
9:27:                  23	32.20
9:27:                  53	32.22
9:28:                  23	32.20
9:28:                  53	32.21
9:29:                  23	32.20
9:29:                  53	32.20
9:30:                  23	32.18
9:30:                  53	32.19
9:31:                  23	32.19
9:31:                  53	32.19
9:32:                  23	32.20
9:32:                  53	32.22
9:33:                  23	32.22
9:33:                  53	32.23
9:34:                  23	32.24
9:34:                  53	32.26
9:35:                  23	32.25
9:35:                  53	32.25
9:36:                  23	32.24
9:36:                  53	32.25
9:37:                  23	32.23
9:37:                  53	32.23
9:38:                  23	32.23
9:38:                  53	32.23
9:39:                  23	32.24
9:39:                  53	32.22
9:40:                  23	32.23
9:40:                  53	32.22
9:41:                  23	32.22
9:41:                  53	32.21
9:42:                  23	32.20
9:42:                  53	32.21
9:43:                  23	32.21
9:43:                  54	32.19
9:44:                  24	32.19
9:44:                  54	32.20
9:45:                  24	32.20
9:45:                  54	32.20
9:46:                  24	32.20
9:46:                  54	32.20
9:47:                  24	32.18
9:47:                  54	32.18
9:48:                  24	32.21
9:48:                  54	32.20
9:49:                  24	32.19
9:49:                  54	32.20
9:50:                  24	32.18
9:50:                  54	32.19
9:51:                  24	32.21
9:51:                  54	32.20
9:52:                  24	32.20
9:52:                  54	32.21
9:53:                  24	32.20
9:53:                  54	32.22
9:54:                  24	32.21
9:54:                  54	32.20
9:55:                  24	32.17
9:55:                  54	32.17
9:56:                  24	32.17
9:56:                  54	32.17
9:57:                  24	32.19
9:57:                  54	32.20
9:58:                  24	32.21
9:58:                  54	32.20
9:59:                  24	32.22
9:59:                  54	32.20
10:00:                  24	32.19
10:00:                  54	32.19
10:01:                  24	32.18
10:01:                  55	32.18
10:02:                  25	32.17
10:02:                  55	32.18
10:03:                  25	32.18
10:03:                  55	32.17
10:04:                  25	32.16
10:04:                  55	32.16
10:05:                  25	32.17
10:05:                  55	32.16
10:06:                  25	32.17
10:06:                  55	32.17
10:07:                  25	32.16
10:07:                  55	32.15
10:08:                  25	32.16
10:08:                  55	32.16
10:09:                  25	32.15
10:09:                  55	32.15
10:10:                  25	32.14
10:10:                  55	32.15
10:11:                  25	32.16
10:11:                  55	32.17
10:12:                  25	32.18
10:12:                  55	32.18
10:13:                  25	32.16
10:13:                  55	32.16
10:14:                  25	32.15
10:14:                  55	32.15
10:15:                  25	32.16
10:15:                  55	32.18
10:16:                  25	32.18
10:16:                  55	32.20
10:17:                  25	32.21
10:17:                  56	32.20
10:18:                  26	32.20
10:18:                  56	32.21
10:19:                  26	32.19
10:19:                  56	32.20
10:20:                  26	32.21
10:20:                  56	32.18
10:21:                  26	32.19
10:21:                  56	32.19
10:22:                  26	32.20
10:22:                  56	32.20
10:23:                  26	32.21
10:23:                  56	32.21
10:24:                  26	32.21
10:24:                  56	32.22
10:25:                  26	32.21
10:25:                  56	32.20
10:26:                  26	32.17
10:26:                  56	32.17
10:27:                  26	32.19
10:27:                  56	32.19
10:28:                  26	32.20
10:28:                  56	32.20
10:29:                  26	32.20
10:29:                  56	32.21
10:30:                  26	32.21
10:30:                  56	32.21
10:31:                  26	32.22
10:31:                  56	32.22
10:32:                  26	32.21
10:32:                  56	32.21
10:33:                  26	32.21
10:33:                  56	32.21
10:34:                  27	32.21
10:34:                  57	32.21
10:35:                  27	32.21
10:35:                  57	32.20
10:36:                  27	32.18
10:36:                  57	32.18
10:37:                  27	32.18
10:37:                  57	32.19
10:38:                  27	32.20
10:38:                  57	32.21
10:39:                  27	32.22
10:39:                  57	32.23
10:40:                  27	32.22
10:40:                  57	32.22
10:41:                  27	32.23
10:41:                  57	32.23
10:42:                  27	32.23
10:42:                  57	32.24
10:43:                  27	32.23
10:43:                  57	32.22
10:44:                  27	32.21
10:44:                  57	32.22
10:45:                  27	32.21
10:45:                  57	32.20
10:46:                  27	32.20
10:46:                  57	32.21
10:47:                  27	32.23
10:47:                  57	32.25
10:48:                  27	32.27
10:48:                  57	32.28
10:49:                  27	32.28
10:49:                  57	32.28
10:50:                  27	32.27
10:50:                  57	32.26
10:51:                  27	32.26
10:51:                  57	32.27
10:52:                  28	32.25
10:52:                  58	32.26
10:53:                  28	32.26
10:53:                  58	32.26
10:54:                  28	32.25
10:54:                  58	32.24
10:55:                  28	32.23
10:55:                  58	32.24
10:56:                  28	32.24
10:56:                  58	32.24
10:57:                  28	32.24
10:57:                  58	32.26
10:58:                  28	32.26
10:58:                  58	32.26
10:59:                  28	32.26
10:59:                  58	32.24
11:00:                  28	32.25
11:00:                  58	32.24
11:01:                  28	32.24
11:01:                  58	32.24
11:02:                  28	32.24
11:02:                  58	32.24
11:03:                  28	32.25
11:03:                  58	32.25
11:04:                  28	32.24
11:04:                  58	32.23
11:05:                  28	32.23
11:05:                  58	32.23
11:06:                  28	32.24
11:06:                  58	32.24
11:07:                  28	32.23
11:07:                  58	32.22
11:08:                  28	32.22
11:08:                  58	32.21
11:09:                  28	32.21
11:09:                  58	32.23
11:10:                  28	32.22
11:10:                  58	32.22
11:11:                  29	32.23
11:11:                  59	32.22
11:12:                  29	32.22
11:12:                  59	32.22
11:13:                  29	32.21
11:13:                  59	32.23
11:14:                  29	32.21
11:14:                  59	32.22
11:15:                  29	32.21
11:15:                  59	32.22
11:16:                  29	32.21
11:16:                  59	32.23
11:17:                  29	32.23
11:17:                  59	32.23
11:18:                  29	32.25
11:18:                  59	32.23
11:19:                  29	32.24
11:19:                  59	32.26
11:20:                  29	32.28
11:20:                  59	32.29
11:21:                  29	32.30
11:21:                  59	32.31
11:22:                  29	32.31
11:22:                  59	32.31
11:23:                  29	32.30
11:23:                  59	32.31
11:24:                  29	32.31
11:24:                  59	32.32
11:25:                  29	32.33
11:25:                  59	32.32
11:26:                  29	32.32
11:27:                   0	32.32
11:27:                  30	32.32
11:28:                   0	32.31
11:28:                  30	32.32
11:29:                   0	32.33
11:29:                  30	32.32
11:30:                   0	32.32
11:30:                  30	32.32
11:31:                   0	32.33
11:31:                  30	32.33
11:32:                   0	32.34
11:32:                  30	32.33
11:33:                   0	32.33
11:33:                  30	32.33
11:34:                   0	32.34
11:34:                  30	32.33
11:35:                   0	32.34
11:35:                  30	32.33
11:36:                   0	32.33
11:36:                  30	32.34
11:37:                   0	32.34
11:37:                  30	32.34
11:38:                   0	32.35
11:38:                  30	32.35
11:39:                   0	32.37
11:39:                  30	32.36
11:40:                   0	32.38
11:40:                  30	32.38
11:41:                   0	32.39
11:41:                  30	32.39
11:42:                   0	32.40
11:42:                  30	32.39
11:43:                   0	32.40
11:43:                  30	32.40
11:44:                   0	32.41
11:44:                  30	32.42
11:45:                   0	32.42
11:45:                  30	32.41
11:46:                   1	32.44
11:46:                  31	32.42
11:47:                   1	32.42
11:47:                  31	32.44
11:48:                   1	32.43
11:48:                  31	32.44
11:49:                   1	32.43
11:49:                  31	32.45
11:50:                   1	32.46
11:50:                  31	32.47
11:51:                   1	32.46
11:51:                  31	32.47
11:52:                   1	32.48
11:52:                  31	32.47
11:53:                   1	32.48
11:53:                  31	32.48
11:54:                   1	32.49
11:54:                  31	32.48
11:55:                   1	32.48
11:55:                  31	32.49
11:56:                   1	32.49
11:56:                  31	32.49
11:57:                   1	32.51
11:57:                  31	32.49
11:58:                   1	32.51
11:58:                  31	32.51
11:59:                   1	32.51
11:59:                  31	32.51
12:00:                   1	32.51
12:00:                  31	32.53
12:01:                   1	32.51
12:01:                  31	32.51
12:02:                   1	32.51
12:02:                  32	32.52
12:03:                   2	32.54
12:03:                  32	32.55
12:04:                   2	32.55
12:04:                  32	32.57
12:05:                   2	32.56
12:05:                  32	32.56
12:06:                   2	32.55
12:06:                  32	32.56
12:07:                   2	32.56
12:07:                  32	32.55
12:08:                   2	32.56
12:08:                  32	32.56
12:09:                   2	32.57
12:09:                  32	32.57
12:10:                   2	32.57
12:10:                  32	32.57
12:11:                   2	32.56
12:11:                  32	32.57
12:12:                   2	32.57
12:12:                  32	32.57
12:13:                   2	32.57
12:13:                  32	32.57
12:14:                   2	32.59
12:14:                  32	32.59
12:15:                   2	32.61
12:15:                  32	32.61
12:16:                   2	32.61
12:16:                  32	32.61
12:17:                   2	32.61
12:17:                  32	32.61
12:18:                   2	32.63
12:18:                  32	32.64
12:19:                   2	32.63
12:19:                  33	32.61
12:20:                   3	32.62
12:20:                  33	32.63
12:21:                   3	32.61
12:21:                  33	32.63
12:22:                   3	32.65
12:22:                  33	32.65
12:23:                   3	32.65
12:23:                  33	32.65
12:24:                   3	32.64
12:24:                  33	32.66
12:25:                   3	32.65
12:25:                  33	32.66
12:26:                   3	32.65
12:26:                  33	32.66
12:27:                   3	32.68
12:27:                  33	32.67
12:28:                   3	32.67
12:28:                  33	32.66
12:29:                   3	32.66
12:29:                  33	32.67
12:30:                   3	32.67
12:30:                  33	32.68
12:31:                   3	32.68
12:31:                  33	32.68
12:32:                   3	32.67
12:32:                  33	32.68
12:33:                   3	32.67
12:33:                  33	32.67
12:34:                   3	32.67
12:34:                  33	32.68
12:35:                   3	32.69
12:35:                  33	32.69
12:36:                   4	32.69
12:36:                  34	32.70
12:37:                   4	32.70
12:37:                  34	32.71
12:38:                   4	32.72
12:38:                  34	32.71
12:39:                   4	32.72
12:39:                  34	32.72
12:40:                   4	32.73
12:40:                  34	32.72
12:41:                   4	32.72
12:41:                  34	32.70
12:42:                   4	32.70
12:42:                  34	32.73
12:43:                   4	32.74
12:43:                  34	32.74
12:44:                   4	32.74
12:44:                  34	32.74
12:45:                   4	32.74
12:45:                  34	32.75
12:46:                   4	32.75
12:46:                  34	32.77
12:47:                   4	32.75
12:47:                  34	32.75
12:48:                   4	32.74
12:48:                  34	32.75
12:49:                   4	32.76
12:49:                  34	32.75
12:50:                   4	32.74
12:50:                  34	32.77
12:51:                   4	32.78
12:51:                  34	32.78
12:52:                   5	32.79
12:52:                  35	32.78
12:53:                   5	32.79
12:53:                  35	32.78
12:54:                   5	32.78
12:54:                  35	32.78
12:55:                   5	32.79
12:55:                  35	32.79
12:56:                   5	32.78
12:56:                  35	32.77
12:57:                   5	32.77
12:57:                  35	32.77
12:58:                   5	32.78
12:58:                  35	32.77
12:59:                   5	32.78
12:59:                  35	32.77
13:00:                   5	32.78
13:00:                  35	32.80
13:01:                   5	32.79
13:01:                  35	32.80
13:02:                   5	32.80
13:02:                  35	32.80
13:03:                   5	32.80
13:03:                  35	32.80
13:04:                   5	32.79
13:04:                  35	32.80
13:05:                   5	32.81
13:05:                  35	32.81
13:06:                   5	32.80
13:06:                  35	32.80
13:07:                   5	32.80
13:07:                  35	32.81
13:08:                   5	32.81
13:08:                  36	32.81
13:09:                   6	32.82
13:09:                  36	32.81
13:10:                   6	32.82
13:10:                  36	32.81
13:11:                   6	32.83
13:11:                  36	32.81
13:12:                   6	32.81
13:12:                  36	32.82
13:13:                   6	32.82
13:13:                  36	32.82
13:14:                   6	32.83
13:14:                  36	32.83
13:15:                   6	32.83
13:15:                  36	32.83
13:16:                   6	32.83
13:16:                  36	32.82
13:17:                   6	32.82
13:17:                  36	32.83
13:18:                   6	32.83
13:18:                  36	32.83
13:19:                   6	32.83
13:19:                  36	32.84
13:20:                   6	32.84
13:20:                  36	32.84
13:21:                   6	32.85
13:21:                  36	32.83
13:22:                   6	32.83
13:22:                  36	32.85
13:23:                   6	32.85
13:23:                  36	32.85
13:24:                   6	32.85
13:24:                  36	32.86
13:25:                   7	32.87
13:25:                  37	32.88
13:26:                   7	32.87
13:26:                  37	32.87
13:27:                   7	32.87
13:27:                  37	32.87
13:28:                   7	32.86
13:28:                  37	32.86
13:29:                   7	32.86
13:29:                  37	32.86
13:30:                   7	32.86
13:30:                  37	32.86
13:31:                   7	32.87
13:31:                  37	32.86
13:32:                   7	32.86
13:32:                  37	32.88
13:33:                   7	32.87
13:33:                  37	32.87
13:34:                   7	32.89
13:34:                  37	32.88
13:35:                   7	32.88
13:35:                  37	32.88
13:36:                   7	32.87
13:36:                  37	32.89
13:37:                   7	32.89
13:37:                  37	32.89
13:38:                   7	32.88
13:38:                  37	32.89
13:39:                   7	32.90
13:39:                  37	32.91
13:40:                   7	32.91
13:40:                  38	32.92
13:41:                   8	32.93
13:41:                  38	32.92
13:42:                   8	32.92
13:42:                  38	32.93
13:43:                   8	32.93
13:43:                  38	32.94
13:44:                   8	32.94
13:44:                  38	32.94
13:45:                   8	32.93
13:45:                  38	32.93
13:46:                   8	32.92
13:46:                  38	32.93
13:47:                   8	32.92
13:47:                  38	32.92
13:48:                   8	32.94
13:48:                  38	32.94
13:49:                   8	32.94
13:49:                  38	32.96
13:50:                   8	32.95
13:50:                  38	32.95
13:51:                   8	32.96
13:51:                  38	32.97
13:52:                   8	32.96
13:52:                  38	32.95
13:53:                   8	32.96
13:53:                  38	32.98
13:54:                   8	32.97
13:54:                  38	32.97
13:55:                   8	32.97
13:55:                  38	32.97
13:56:                   8	32.99
13:56:                  38	32.98
13:57:                   8	32.97
13:57:                  38	32.97
13:58:                   8	32.96
13:58:                  38	32.95
13:59:                   8	32.96
13:59:                  38	32.97
14:00:                   8	32.97
14:00:                  38	32.97
14:01:                   8	32.98
14:01:                  38	32.96
14:02:                   8	32.98
14:02:                  38	32.98
14:03:                   9	32.98
14:03:                  39	32.97
14:04:                   9	32.97
14:04:                  39	32.98
14:05:                   9	33.01
14:05:                  39	33.00
14:06:                   9	32.99
14:06:                  39	32.99
14:07:                   9	32.99
14:07:                  39	32.99
14:08:                   9	33.00
14:08:                  39	32.99
14:09:                   9	32.99
14:09:                  39	32.97
14:10:                   9	32.99
14:10:                  39	32.99
14:11:                   9	32.99
14:11:                  39	32.99
14:12:                   9	32.99
14:12:                  39	32.99
14:13:                   9	33.00
14:13:                  39	33.01
14:14:                   9	33.02
14:14:                  39	33.01
14:15:                   9	33.01
14:15:                  39	33.01
14:16:                   9	33.00
14:16:                  39	33.01
14:17:                   9	33.00
14:17:                  39	33.00
14:18:                   9	32.99
14:18:                  39	33.00
14:19:                   9	33.00
14:19:                  39	33.01
14:20:                   9	33.00
14:20:                  39	33.01
14:21:                  10	33.02
14:21:                  40	33.01
14:22:                  10	32.99
14:22:                  40	32.99
14:23:                  10	32.99
14:23:                  40	32.99
14:24:                  10	32.99
14:24:                  40	32.98
14:25:                  10	32.99
14:25:                  40	33.00
14:26:                  10	33.01
14:26:                  40	33.01
14:27:                  10	33.02
14:27:                  40	33.03
14:28:                  10	33.04
14:28:                  40	33.04
14:29:                  10	33.05
14:29:                  40	33.03
14:30:                  10	33.02
14:30:                  40	33.03
14:31:                  10	33.03
14:31:                  40	33.03
14:32:                  10	33.03
14:32:                  40	33.03
14:33:                  10	33.02
14:33:                  40	33.02
14:34:                  10	33.02
14:34:                  40	33.04
14:35:                  10	33.05
14:35:                  40	33.05
14:36:                  10	33.05
14:36:                  40	33.05
14:37:                  10	33.05
14:37:                  40	33.08
14:38:                  10	33.05
14:38:                  40	33.06
14:39:                  10	33.05
14:39:                  41	33.05
14:40:                  11	33.05
14:40:                  41	33.06
14:41:                  11	33.07
14:41:                  41	33.08
14:42:                  11	33.08
14:42:                  41	33.08
14:43:                  11	33.06
14:43:                  41	33.08
14:44:                  11	33.08
14:44:                  41	33.08
14:45:                  11	33.08
14:45:                  41	33.08
14:46:                  11	33.09
14:46:                  41	33.10
14:47:                  11	33.10
14:47:                  41	33.10
14:48:                  11	33.09
14:48:                  41	33.09
14:49:                  11	33.08
14:49:                  41	33.09
14:50:                  11	33.10
14:50:                  41	33.10
14:51:                  11	33.11
14:51:                  41	33.11
14:52:                  11	33.12
14:52:                  41	33.11
14:53:                  11	33.09
14:53:                  41	33.09
14:54:                  11	33.09
14:54:                  41	33.08
14:55:                  11	33.10
14:55:                  41	33.11
14:56:                  11	33.12
14:56:                  41	33.12
14:57:                  11	33.10
14:57:                  41	33.11
14:58:                  11	33.11
14:58:                  42	33.11
14:59:                  12	33.11
14:59:                  42	33.13
15:00:                  12	33.15
15:00:                  42	33.13
15:01:                  12	33.14
15:01:                  42	33.14
15:02:                  12	33.14
15:02:                  42	33.14
15:03:                  12	33.14
15:03:                  42	33.16
15:04:                  12	33.16
15:04:                  42	33.16
15:05:                  12	33.14
15:05:                  42	33.13
15:06:                  12	33.11
15:06:                  42	33.10
15:07:                  12	33.09
15:07:                  42	33.09
15:08:                  12	33.08
15:08:                  42	33.07
15:09:                  12	33.07
15:09:                  42	33.07
15:10:                  12	33.07
15:10:                  42	33.07
15:11:                  12	33.07
15:11:                  42	33.06
15:12:                  12	33.04
15:12:                  42	33.05
15:13:                  12	33.07
15:13:                  42	33.05
15:14:                  12	33.04
15:14:                  42	33.04
15:15:                  13	33.05
15:15:                  43	33.04
15:16:                  13	33.05
15:16:                  43	33.04
15:17:                  13	33.03
15:17:                  43	33.04
15:18:                  13	33.03
15:18:                  43	33.03
15:19:                  13	33.03
15:19:                  43	33.02
15:20:                  13	33.02
15:20:                  43	33.01
15:21:                  13	33.00
15:21:                  43	33.00
15:22:                  13	32.98
15:22:                  43	32.99
15:23:                  13	32.99
15:23:                  43	32.98
15:24:                  13	32.99
15:24:                  43	32.99
15:25:                  13	32.97
15:25:                  43	32.96
15:26:                  13	32.96
15:26:                  43	32.94
15:27:                  13	32.95
15:27:                  43	32.94
15:28:                  13	32.92
15:28:                  43	32.91
15:29:                  13	32.92
15:29:                  43	32.92
15:30:                  13	32.91
15:30:                  43	32.91
15:31:                  13	32.90
15:31:                  43	32.90
15:32:                  14	32.90
15:32:                  44	32.88
15:33:                  14	32.87
15:33:                  44	32.86
15:34:                  14	32.85
15:34:                  44	32.85
15:35:                  14	32.84
15:35:                  44	32.83
15:36:                  14	32.83
15:36:                  44	32.81
15:37:                  14	32.80
15:37:                  44	32.79
15:38:                  14	32.79
15:38:                  44	32.78
15:39:                  14	32.77
15:39:                  44	32.76
15:40:                  14	32.76
15:40:                  44	32.74
15:41:                  14	32.73
15:41:                  44	32.72
15:42:                  14	32.72
15:42:                  44	32.72
15:43:                  14	32.70
15:43:                  44	32.71
15:44:                  14	32.70
15:44:                  44	32.70
15:45:                  14	32.69
15:45:                  44	32.69
15:46:                  14	32.68
15:46:                  44	32.68
15:47:                  14	32.68
15:47:                  44	32.67
15:48:                  14	32.66
15:48:                  45	32.65
15:49:                  15	32.64
15:49:                  45	32.63
15:50:                  15	32.62
15:50:                  45	32.61
15:51:                  15	32.60
15:51:                  45	32.60
15:52:                  15	32.59
15:52:                  45	32.58
15:53:                  15	32.58
15:53:                  45	32.57
15:54:                  15	32.57
15:54:                  45	32.56
15:55:                  15	32.55
15:55:                  45	32.55
15:56:                  15	32.53
15:56:                  45	32.52
15:57:                  15	32.51
15:57:                  45	32.50
15:58:                  15	32.50
15:58:                  45	32.49
15:59:                  15	32.49
15:59:                  45	32.49
16:00:                  15	32.47
16:00:                  45	32.47
16:01:                  15	32.45
16:01:                  45	32.46
16:02:                  15	32.42
16:02:                  45	32.41
16:03:                  15	32.41
16:03:                  45	32.41
16:04:                  15	32.41
16:04:                  45	32.40
16:05:                  16	32.39
16:05:                  46	32.38
16:06:                  16	32.38
16:06:                  46	32.37
16:07:                  16	32.36
16:07:                  46	32.36
16:08:                  16	32.35
16:08:                  46	32.35
16:09:                  16	32.35
16:09:                  46	32.35
16:10:                  16	32.34
16:10:                  46	32.32
16:11:                  16	32.32
16:11:                  46	32.33
16:12:                  16	32.32
16:12:                  46	32.33
16:13:                  16	32.32
16:13:                  46	32.34
16:14:                  16	32.34
16:14:                  46	32.34
16:15:                  16	32.33
16:15:                  46	32.32
16:16:                  16	32.32
16:16:                  46	32.30
16:17:                  16	32.32
16:17:                  46	32.32
16:18:                  16	32.32
16:18:                  46	32.32
16:19:                  16	32.31
16:19:                  46	32.32
16:20:                  16	32.32
16:20:                  46	32.33
16:21:                  16	32.32
16:21:                  46	32.33
16:22:                  16	32.35
16:22:                  47	32.34
16:23:                  17	32.33
16:23:                  47	32.33
16:24:                  17	32.33
16:24:                  47	32.34
16:25:                  17	32.33
16:25:                  47	32.35
16:26:                  17	32.35
16:26:                  47	32.34
16:27:                  17	32.35
16:27:                  47	32.34
16:28:                  17	32.35
16:28:                  47	32.34
16:29:                  17	32.35
16:29:                  47	32.34
16:30:                  17	32.34
16:30:                  47	32.33
16:31:                  17	32.33
16:31:                  47	32.32
16:32:                  17	32.33
16:32:                  47	32.33
16:33:                  17	32.33
16:33:                  47	32.34
16:34:                  17	32.33
16:34:                  47	32.34
16:35:                  17	32.33
16:35:                  47	32.33
16:36:                  17	32.33
16:36:                  47	32.33
16:37:                  17	32.33
16:37:                  47	32.34
16:38:                  17	32.32
16:38:                  47	32.34
16:39:                  17	32.32
16:39:                  47	32.32
16:40:                  17	32.32
16:40:                  47	32.32
16:41:                  18	32.33
16:41:                  48	32.32
16:42:                  18	32.32
16:42:                  48	32.31
16:43:                  18	32.32
16:43:                  48	32.32
16:44:                  18	32.31
16:44:                  48	32.32
16:45:                  18	32.32
16:45:                  48	32.32
16:46:                  18	32.31
16:46:                  48	32.31
16:47:                  18	32.31
16:47:                  48	32.31
16:48:                  18	32.29
16:48:                  48	32.29
16:49:                  18	32.31
16:49:                  48	32.29
16:50:                  18	32.30
16:50:                  48	32.30
16:51:                  18	32.30
16:51:                  48	32.30
16:52:                  18	32.29
16:52:                  48	32.28
16:53:                  18	32.29
16:53:                  48	32.30
16:54:                  18	32.29
16:54:                  48	32.30
16:55:                  18	32.29
16:55:                  48	32.29
16:56:                  18	32.28
16:56:                  48	32.29
16:57:                  18	32.29
16:57:                  49	32.28
16:58:                  19	32.28
16:58:                  49	32.27
16:59:                  19	32.26
16:59:                  49	32.25
17:00:                  19	32.26
17:00:                  49	32.26
17:01:                  19	32.26
17:01:                  49	32.26
17:02:                  19	32.25
17:02:                  49	32.26
17:03:                  19	32.25
17:03:                  49	32.25
17:04:                  19	32.25
17:04:                  49	32.24
17:05:                  19	32.24
17:05:                  49	32.24
17:06:                  19	32.23
17:06:                  49	32.22
17:07:                  19	32.23
17:07:                  49	32.22
17:08:                  19	32.23
17:08:                  49	32.22
17:09:                  19	32.22
17:09:                  49	32.21
17:10:                  19	32.22
17:10:                  49	32.22
17:11:                  19	32.21
17:11:                  49	32.20
17:12:                  19	32.21
17:12:                  49	32.21
17:13:                  19	32.20
17:13:                  49	32.19
17:14:                  20	32.19
17:14:                  50	32.18
17:15:                  20	32.18
17:15:                  50	32.18
17:16:                  20	32.19
17:16:                  50	32.21
17:17:                  20	32.19
17:17:                  50	32.20
17:18:                  20	32.19
17:18:                  50	32.17
17:19:                  20	32.17
17:19:                  50	32.16
17:20:                  20	32.17
17:20:                  50	32.17
17:21:                  20	32.16
17:21:                  50	32.15
17:22:                  20	32.14
17:22:                  50	32.15
17:23:                  20	32.14
17:23:                  50	32.14
17:24:                  20	32.14
17:24:                  50	32.14
17:25:                  20	32.13
17:25:                  50	32.11
17:26:                  20	32.11
17:26:                  50	32.11
17:27:                  20	32.10
17:27:                  50	32.10
17:28:                  20	32.10
17:28:                  50	32.08
17:29:                  20	32.08
17:29:                  50	32.09
17:30:                  20	32.09
17:30:                  50	32.09
17:31:                  21	32.08
17:31:                  51	32.09
17:32:                  21	32.08
17:32:                  51	32.07
17:33:                  21	32.07
17:33:                  51	32.07
17:34:                  21	32.07
17:34:                  51	32.06
17:35:                  21	32.05
17:35:                  51	32.05
17:36:                  21	32.05
17:36:                  51	32.05
17:37:                  21	32.05
17:37:                  51	32.04
17:38:                  21	32.03
17:38:                  51	32.02
17:39:                  21	32.02
17:39:                  51	32.02
17:40:                  21	32.03
17:40:                  51	32.02
17:41:                  21	32.01
17:41:                  51	32.01
17:42:                  21	32.01
17:42:                  51	32.01
17:43:                  21	32.00
17:43:                  51	32.00
17:44:                  21	32.00
17:44:                  51	32.00
17:45:                  21	31.99
17:45:                  51	31.98
17:46:                  21	31.98
17:46:                  51	31.99
17:47:                  21	31.98
17:47:                  51	31.98
17:48:                  21	31.98
17:48:                  51	31.98
17:49:                  22	31.98
17:49:                  52	31.96
17:50:                  22	31.98
17:50:                  52	31.97
17:51:                  22	31.98
17:51:                  52	31.97
17:52:                  22	31.97
17:52:                  52	31.95
17:53:                  22	31.96
17:53:                  52	31.95
17:54:                  22	31.95
17:54:                  52	31.95
17:55:                  22	31.94
17:55:                  52	31.94
17:56:                  22	31.94
17:56:                  52	31.95
17:57:                  22	31.94
17:57:                  52	31.94
17:58:                  22	31.94
17:58:                  52	31.94
17:59:                  22	31.93
17:59:                  52	31.93
18:00:                  22	31.93
18:00:                  52	31.92
18:01:                  22	31.93
18:01:                  52	31.94
18:02:                  22	31.92
18:02:                  52	31.92
18:03:                  22	31.92
18:03:                  52	31.92
18:04:                  22	31.92
18:04:                  52	31.91
18:05:                  22	31.91
18:05:                  52	31.92
18:06:                  22	31.91
18:06:                  53	31.91
18:07:                  23	31.92
18:07:                  53	31.92
18:08:                  23	31.90
18:08:                  53	31.91
18:09:                  23	31.91
18:09:                  53	31.92
18:10:                  23	31.92
18:10:                  53	31.91
18:11:                  23	31.90
18:11:                  53	31.91
18:12:                  23	31.91
18:12:                  53	31.91
18:13:                  23	31.92
18:13:                  53	31.91
18:14:                  23	31.89
18:14:                  53	31.90
18:15:                  23	31.93
18:15:                  53	31.95
18:16:                  23	31.96
18:16:                  53	31.97
18:17:                  23	31.98
18:17:                  53	31.98
18:18:                  23	31.98
18:18:                  53	31.98
18:19:                  23	31.97
18:19:                  53	31.97
18:20:                  23	31.97
18:20:                  53	31.97
18:21:                  23	31.97
18:21:                  53	31.97
18:22:                  23	31.97
18:22:                  53	31.96
18:23:                  23	31.96
18:23:                  54	31.96
18:24:                  24	31.97
18:24:                  54	31.97
18:25:                  24	31.96
18:25:                  54	31.96
18:26:                  24	31.97
18:26:                  54	31.97
18:27:                  24	31.97
18:27:                  54	31.97
18:28:                  24	31.96
18:28:                  54	31.96
18:29:                  24	31.96
18:29:                  54	31.96
18:30:                  24	31.97
18:30:                  54	31.96
18:31:                  24	31.95
18:31:                  54	31.96
18:32:                  24	31.94
18:32:                  54	31.93
18:33:                  24	31.93
18:33:                  54	31.96
18:34:                  24	31.97
18:34:                  54	32.00
18:35:                  24	32.00
18:35:                  54	32.01
18:36:                  24	32.01
18:36:                  54	32.02
18:37:                  24	32.01
18:37:                  54	32.01
18:38:                  24	32.01
18:38:                  54	31.99
18:39:                  24	31.97
18:39:                  54	31.96
18:40:                  25	31.96
18:40:                  55	31.95
18:41:                  25	31.96
18:41:                  55	31.99
18:42:                  25	32.01
18:42:                  55	32.02
18:43:                  25	32.02
18:43:                  55	32.01
18:44:                  25	32.03
18:44:                  55	32.02
18:45:                  25	32.04
18:45:                  55	32.05
18:46:                  25	32.04
18:46:                  55	32.05
18:47:                  25	32.05
18:47:                  55	32.03
18:48:                  25	32.01
18:48:                  55	32.01
18:49:                  25	32.02
18:49:                  55	32.02
18:50:                  25	32.02
18:50:                  55	32.05
18:51:                  25	32.04
18:51:                  55	32.05
18:52:                  25	32.03
18:52:                  55	32.01
18:53:                  25	32.03
18:53:                  55	32.02
18:54:                  25	32.04
18:54:                  55	32.02
18:55:                  25	32.04
18:55:                  55	32.05
18:56:                  25	32.04
18:56:                  56	32.08
18:57:                  26	32.08
18:57:                  56	32.10
18:58:                  26	32.11
18:58:                  56	32.09
18:59:                  26	32.11
18:59:                  56	32.13
19:00:                  26	32.12
19:00:                  56	32.12
19:01:                  26	32.15
19:01:                  56	32.16
19:02:                  26	32.14
19:02:                  56	32.12
19:03:                  26	32.15
19:03:                  56	32.18
19:04:                  26	32.20
19:04:                  56	32.20
19:05:                  26	32.20
19:05:                  56	32.21
19:06:                  26	32.25
19:06:                  56	32.27
19:07:                  26	32.25
19:07:                  56	32.25
19:08:                  26	32.23
19:08:                  56	32.21
19:09:                  26	32.20
19:09:                  56	32.20
19:10:                  26	32.21
19:10:                  56	32.25
19:11:                  26	32.27
19:11:                  56	32.27
19:12:                  26	32.27
19:12:                  56	32.27
19:13:                  26	32.27
19:13:                  57	32.26
19:14:                  27	32.25
19:14:                  57	32.25
19:15:                  27	32.26
19:15:                  57	32.26
19:16:                  27	32.28
19:16:                  57	32.29
19:17:                  27	32.29
19:17:                  57	32.29
19:18:                  27	32.30
19:18:                  57	32.31
19:19:                  27	32.30
19:19:                  57	32.28
19:20:                  27	32.29
19:20:                  57	32.31
19:21:                  27	32.31
19:21:                  57	32.31
19:22:                  27	32.32
19:22:                  57	32.32
19:23:                  27	32.33
19:23:                  57	32.32
19:24:                  27	32.33
19:24:                  57	32.33
19:25:                  27	32.33
19:25:                  57	32.32
19:26:                  27	32.33
19:26:                  57	32.33
19:27:                  27	32.31
19:27:                  57	32.32
19:28:                  27	32.30
19:28:                  57	32.31
19:29:                  27	32.29
19:29:                  57	32.30
19:30:                  28	32.30
19:30:                  58	32.30
19:31:                  28	32.30
19:31:                  58	32.31
19:32:                  28	32.30
19:32:                  58	32.30
19:33:                  28	32.31
19:33:                  58	32.30
19:34:                  28	32.30
19:34:                  58	32.31
19:35:                  28	32.30
19:35:                  58	32.31
19:36:                  28	32.31
19:36:                  58	32.31
19:37:                  28	32.32
19:37:                  58	32.32
19:38:                  28	32.32
19:38:                  58	32.34
19:39:                  28	32.32
19:39:                  58	32.32
19:40:                  28	32.32
19:40:                  58	32.33
19:41:                  28	32.33
19:41:                  58	32.33
19:42:                  28	32.34
19:42:                  58	32.35
19:43:                  28	32.35
19:43:                  58	32.36
19:44:                  28	32.37
19:44:                  58	32.37
19:45:                  28	32.38
19:45:                  58	32.39
19:46:                  28	32.38
19:46:                  59	32.38
19:47:                  29	32.38
19:47:                  59	32.38
19:48:                  29	32.38
19:48:                  59	32.37
19:49:                  29	32.38
19:49:                  59	32.37
19:50:                  29	32.38
19:50:                  59	32.38
19:51:                  29	32.39
19:51:                  59	32.40
19:52:                  29	32.41
19:52:                  59	32.40
19:53:                  29	32.41
19:53:                  59	32.41
19:54:                  29	32.41
19:54:                  59	32.41
19:55:                  29	32.42
19:55:                  59	32.43
19:56:                  29	32.42
19:56:                  59	32.42
19:57:                  29	32.42
19:57:                  59	32.42
19:58:                  29	32.42
19:58:                  59	32.44
19:59:                  29	32.45
19:59:                  59	32.44
20:00:                  29	32.44
20:00:                  59	32.45
20:01:                  29	32.45
20:01:                  59	32.44
20:02:                  29	32.46
20:02:                  59	32.46
20:03:                  30	32.48
20:04:                   0	32.48
20:04:                  30	32.48
20:05:                   0	32.47
20:05:                  30	32.47
20:06:                   0	32.46
20:06:                  30	32.46
20:07:                   0	32.48
20:07:                  30	32.48
20:08:                   0	32.49
20:08:                  30	32.48
20:09:                   0	32.48
20:09:                  30	32.49
20:10:                   0	32.48
20:10:                  30	32.49
20:11:                   0	32.49
20:11:                  30	32.49
20:12:                   0	32.50
20:12:                  30	32.51
20:13:                   0	32.53
20:13:                  30	32.52
20:14:                   0	32.52
20:14:                  30	32.52
20:15:                   0	32.52
20:15:                  30	32.52
20:16:                   0	32.53
20:16:                  30	32.54
20:17:                   0	32.55
20:17:                  30	32.53
20:18:                   0	32.55
20:18:                  30	32.54
20:19:                   0	32.55
20:19:                  30	32.56
20:20:                   1	32.55
20:20:                  31	32.56
20:21:                   1	32.55
20:21:                  31	32.55
20:22:                   1	32.55
20:22:                  31	32.55
20:23:                   1	32.55
20:23:                  31	32.55
20:24:                   1	32.54
20:24:                  31	32.54
20:25:                   1	32.54
20:25:                  31	32.55
20:26:                   1	32.56
20:26:                  31	32.57
20:27:                   1	32.56
20:27:                  31	32.55
20:28:                   1	32.55
20:28:                  31	32.55
20:29:                   1	32.54
20:29:                  31	32.54
20:30:                   1	32.55
20:30:                  31	32.54
20:31:                   1	32.55
20:31:                  31	32.54
20:32:                   1	32.54
20:32:                  31	32.55
20:33:                   1	32.55
20:33:                  31	32.57
20:34:                   1	32.57
20:34:                  31	32.57
20:35:                   1	32.57
20:35:                  31	32.57
20:36:                   1	32.58
20:36:                  32	32.57
20:37:                   2	32.58
20:37:                  32	32.60
20:38:                   2	32.60
20:38:                  32	32.61
20:39:                   2	32.62
20:39:                  32	32.61
20:40:                   2	32.62
20:40:                  32	32.62
20:41:                   2	32.61
20:41:                  32	32.61
20:42:                   2	32.62
20:42:                  32	32.60
20:43:                   2	32.62
20:43:                  32	32.60
20:44:                   2	32.61
20:44:                  32	32.61
20:45:                   2	32.61
20:45:                  32	32.61
20:46:                   2	32.61
20:46:                  32	32.62
20:47:                   2	32.61
20:47:                  32	32.61
20:48:                   2	32.61
20:48:                  32	32.60
20:49:                   2	32.60
20:49:                  32	32.61
20:50:                   2	32.63
20:50:                  32	32.63
20:51:                   2	32.63
20:51:                  32	32.62
20:52:                   2	32.61
20:52:                  32	32.60
20:53:                   3	32.60
20:53:                  33	32.60
20:54:                   3	32.60
20:54:                  33	32.60
20:55:                   3	32.61
20:55:                  33	32.62
20:56:                   3	32.62
20:56:                  33	32.63
20:57:                   3	32.64
20:57:                  33	32.64
20:58:                   3	32.64
20:58:                  33	32.62
20:59:                   3	32.65
20:59:                  33	32.64
21:00:                   3	32.64
21:00:                  33	32.64
21:01:                   3	32.65
21:01:                  33	32.65
21:02:                   3	32.65
21:02:                  33	32.65
21:03:                   3	32.66
21:03:                  33	32.66
21:04:                   3	32.66
21:04:                  33	32.66
21:05:                   3	32.66
21:05:                  33	32.67
21:06:                   3	32.67
21:06:                  33	32.68
21:07:                   3	32.68
21:07:                  33	32.68
21:08:                   3	32.69
21:08:                  33	32.68
21:09:                   3	32.69
21:09:                  34	32.68
21:10:                   4	32.69
21:10:                  34	32.68
21:11:                   4	32.68
21:11:                  34	32.69
21:12:                   4	32.69
21:12:                  34	32.70
21:13:                   4	32.70
21:13:                  34	32.70
21:14:                   4	32.71
21:14:                  34	32.70
21:15:                   4	32.71
21:15:                  34	32.73
21:16:                   4	32.73
21:16:                  34	32.75
21:17:                   4	32.73
21:17:                  34	32.73
21:18:                   4	32.73
21:18:                  34	32.72
21:19:                   4	32.73
21:19:                  34	32.73
21:20:                   4	32.72
21:20:                  34	32.72
21:21:                   4	32.71
21:21:                  34	32.72
21:22:                   4	32.72
21:22:                  34	32.73
21:23:                   4	32.73
21:23:                  34	32.74
21:24:                   4	32.74
21:24:                  34	32.74
21:25:                   4	32.75
21:25:                  34	32.75
21:26:                   5	32.75
21:26:                  35	32.77
21:27:                   5	32.77
21:27:                  35	32.76
21:28:                   5	32.76
21:28:                  35	32.79
21:29:                   5	32.79
21:29:                  35	32.79
21:30:                   5	32.79
21:30:                  35	32.79
21:31:                   5	32.81
21:31:                  35	32.80
21:32:                   5	32.80
21:32:                  35	32.81
21:33:                   5	32.81
21:33:                  35	32.81
21:34:                   5	32.80
21:34:                  35	32.80
21:35:                   5	32.79
21:35:                  35	32.80
21:36:                   5	32.80
21:36:                  35	32.81
21:37:                   5	32.81
21:37:                  35	32.81
21:38:                   5	32.82
21:38:                  35	32.82
21:39:                   5	32.82
21:39:                  35	32.83
21:40:                   5	32.83
21:40:                  35	32.84
21:41:                   5	32.83
21:41:                  35	32.84
21:42:                   5	32.84
21:42:                  36	32.84
21:43:                   6	32.84
21:43:                  36	32.85
21:44:                   6	32.85
21:44:                  36	32.86
21:45:                   6	32.85
21:45:                  36	32.84
21:46:                   6	32.84
21:46:                  36	32.83
21:47:                   6	32.84
21:47:                  36	32.84
21:48:                   6	32.87
21:48:                  36	32.84
21:49:                   6	32.84
21:49:                  36	32.83
21:50:                   6	32.84
21:50:                  36	32.84
21:51:                   6	32.84
21:51:                  36	32.84
21:52:                   6	32.85
21:52:                  36	32.85
21:53:                   6	32.85
21:53:                  36	32.87
21:54:                   6	32.87
21:54:                  36	32.86
21:55:                   6	32.86
21:55:                  36	32.87
21:56:                   6	32.88
21:56:                  36	32.87
21:57:                   6	32.88
21:57:                  36	32.87
21:58:                   6	32.87
21:58:                  36	32.87
21:59:                   6	32.87
21:59:                  37	32.87
22:00:                   7	32.86
22:00:                  37	32.85
22:01:                   7	32.86
22:01:                  37	32.87
22:02:                   7	32.86
22:02:                  37	32.86
22:03:                   7	32.86
22:03:                  37	32.87
22:04:                   7	32.88
22:04:                  37	32.87
22:05:                   7	32.87
22:05:                  37	32.89
22:06:                   7	32.89
22:06:                  37	32.90
22:07:                   7	32.90
22:07:                  37	32.89
22:08:                   7	32.89
22:08:                  37	32.89
22:09:                   7	32.89
22:09:                  37	32.90
22:10:                   7	32.91
22:10:                  37	32.90
22:11:                   7	32.91
22:11:                  37	32.90
22:12:                   7	32.90
22:12:                  37	32.92
22:13:                   7	32.91
22:13:                  37	32.92
22:14:                   7	32.94
22:14:                  37	32.93
22:15:                   7	32.93
22:15:                  38	32.94
22:16:                   8	32.94
22:16:                  38	32.95
22:17:                   8	32.95
22:17:                  38	32.94
22:18:                   8	32.94
22:18:                  38	32.95
22:19:                   8	32.95
22:19:                  38	32.96
22:20:                   8	32.96
22:20:                  38	32.96
22:21:                   8	32.96
22:21:                  38	32.96
22:22:                   8	32.95
22:22:                  38	32.97
22:23:                   8	32.96
22:23:                  38	32.96
22:24:                   8	32.96
22:24:                  38	32.97
22:25:                   8	32.97
22:25:                  38	32.96
22:26:                   8	32.96
22:26:                  38	32.97
22:27:                   8	32.96
22:27:                  38	32.96
22:28:                   8	32.94
22:28:                  38	32.95
22:29:                   8	32.95
22:29:                  38	32.96
22:30:                   8	32.96
22:30:                  38	32.95
22:31:                   8	32.95
22:31:                  39	32.95
22:32:                   9	32.96
22:32:                  39	32.96
22:33:                   9	32.96
22:33:                  39	32.96
22:34:                   9	32.96
22:34:                  39	32.96
22:35:                   9	32.96
22:35:                  39	32.95
22:36:                   9	32.95
22:36:                  39	32.95
22:37:                   9	32.96
22:37:                  39	32.95
22:38:                   9	32.96
22:38:                  39	32.96
22:39:                   9	32.95
22:39:                  39	32.97
22:40:                   9	32.97
22:40:                  39	32.97
22:41:                   9	32.97
22:41:                  39	32.97
22:42:                   9	32.97
22:42:                  39	32.97
22:43:                   9	32.96
22:43:                  39	32.97
22:44:                   9	32.95
22:44:                  39	32.96
22:45:                   9	32.96
22:45:                  39	32.97
22:46:                   9	32.97
22:46:                  39	32.97
22:47:                   9	32.97
22:47:                  39	32.98
22:48:                   9	32.99
22:48:                  39	32.98
22:49:                   9	32.98
22:49:                  39	32.98
22:50:                   9	32.97
22:50:                  39	32.96
22:51:                   9	32.95
22:51:                  39	32.95
22:52:                   9	32.96
22:52:                  39	32.96
22:53:                   9	32.95
22:53:                  39	32.95
22:54:                   9	32.94
22:54:                  40	32.95
22:55:                  10	32.95
22:55:                  40	32.94
22:56:                  10	32.94
22:56:                  40	32.94
22:57:                  10	32.95
22:57:                  40	32.94
22:58:                  10	32.94
22:58:                  40	32.94
22:59:                  10	32.94
22:59:                  40	32.94
23:00:                  10	32.93
23:00:                  40	32.95
23:01:                  10	32.95
23:01:                  40	32.94
23:02:                  10	32.94
23:02:                  40	32.95
23:03:                  10	32.97
23:03:                  40	32.97
23:04:                  10	32.98
23:04:                  40	32.98
23:05:                  10	32.98
23:05:                  40	32.98
23:06:                  10	32.98
23:06:                  40	32.96
23:07:                  10	32.96
23:07:                  40	32.95
23:08:                  10	32.95
23:08:                  40	32.94
23:09:                  10	32.94
23:09:                  40	32.94
23:10:                  10	32.94
23:10:                  40	32.93
23:11:                  10	32.93
23:11:                  40	32.92
23:12:                  10	32.92
23:12:                  40	32.92
23:13:                  10	32.91
23:13:                  40	32.91
23:14:                  10	32.91
23:14:                  40	32.91
23:15:                  10	32.91
23:15:                  40	32.91
23:16:                  10	32.90
23:16:                  40	32.90
23:17:                  11	32.91
23:17:                  41	32.91
23:18:                  11	32.90
23:18:                  41	32.91
23:19:                  11	32.92
23:19:                  41	32.92
23:20:                  11	32.92
23:20:                  41	32.92
23:21:                  11	32.91
23:21:                  41	32.91
23:22:                  11	32.91
23:22:                  41	32.91
23:23:                  11	32.91
23:23:                  41	32.92
23:24:                  11	32.92
23:24:                  41	32.90
23:25:                  11	32.90
23:25:                  41	32.90
23:26:                  11	32.89
23:26:                  41	32.91
23:27:                  11	32.90
23:27:                  41	32.91
23:28:                  11	32.92
23:28:                  41	32.93
23:29:                  11	32.93
23:29:                  41	32.94
23:30:                  11	32.93
23:30:                  41	32.93
23:31:                  11	32.94
23:31:                  41	32.92
23:32:                  11	32.93
23:32:                  41	32.93
23:33:                  11	32.93
23:33:                  41	32.94
23:34:                  11	32.94
23:34:                  41	32.93
23:35:                  11	32.94
23:35:                  41	32.93
23:36:                  11	32.95
23:36:                  41	32.95
23:37:                  11	32.94
23:37:                  41	32.94
23:38:                  11	32.94
23:38:                  41	32.94
23:39:                  11	32.93
23:39:                  42	32.93
23:40:                  12	32.93
23:40:                  42	32.93
23:41:                  12	32.92
23:41:                  42	32.93
23:42:                  12	32.93
23:42:                  42	32.93
23:43:                  12	32.92
23:43:                  42	32.92
23:44:                  12	32.92
23:44:                  42	32.93
23:45:                  12	32.92
23:45:                  42	32.92
23:46:                  12	32.92
23:46:                  42	32.93
23:47:                  12	32.93
23:47:                  42	32.93
23:48:                  12	32.93
23:48:                  42	32.92
23:49:                  12	32.93
23:49:                  42	32.93
23:50:                  12	32.93
23:50:                  42	32.93
23:51:                  12	32.93
23:51:                  42	32.93
23:52:                  12	32.92
23:52:                  42	32.95
23:53:                  12	32.93
23:53:                  42	32.93
23:54:                  12	32.92
23:54:                  42	32.94
23:55:                  12	32.94
23:55:                  42	32.94
23:56:                  12	32.95
23:56:                  42	32.94
23:57:                  12	32.95
23:57:                  42	32.95
23:58:                  12	32.93
23:58:                  42	32.94
23:59:                  12	32.94
23:59:                  42	32.94
