0:00:                   8	30.41
0:00:                  38	30.41
0:01:                   8	30.41
0:01:                  38	30.40
0:02:                   8	30.39
0:02:                  38	30.39
0:03:                   8	30.39
0:03:                  38	30.38
0:04:                   8	30.38
0:04:                  38	30.38
0:05:                   8	30.36
0:05:                  38	30.36
0:06:                   8	30.37
0:06:                  38	30.38
0:07:                   8	30.39
0:07:                  38	30.39
0:08:                   8	30.38
0:08:                  38	30.39
0:09:                   8	30.39
0:09:                  38	30.38
0:10:                   8	30.37
0:10:                  38	30.37
0:11:                   8	30.37
0:11:                  38	30.36
0:12:                   8	30.37
0:12:                  38	30.36
0:13:                   8	30.36
0:13:                  38	30.35
0:14:                   8	30.34
0:14:                  38	30.34
0:15:                   9	30.33
0:15:                  39	30.34
0:16:                   9	30.35
0:16:                  39	30.35
0:17:                   9	30.36
0:17:                  39	30.36
0:18:                   9	30.36
0:18:                  39	30.36
0:19:                   9	30.35
0:19:                  39	30.35
0:20:                   9	30.35
0:20:                  39	30.35
0:21:                   9	30.34
0:21:                  39	30.35
0:22:                   9	30.34
0:22:                  39	30.34
0:23:                   9	30.33
0:23:                  39	30.32
0:24:                   9	30.32
0:24:                  39	30.33
0:25:                   9	30.32
0:25:                  39	30.32
0:26:                   9	30.32
0:26:                  39	30.32
0:27:                   9	30.33
0:27:                  39	30.33
0:28:                   9	30.34
0:28:                  39	30.34
0:29:                   9	30.34
0:29:                  39	30.33
0:30:                   9	30.33
0:30:                  39	30.33
0:31:                   9	30.32
0:31:                  39	30.31
0:32:                   9	30.30
0:32:                  39	30.30
0:33:                   9	30.31
0:33:                  39	30.29
0:34:                   9	30.30
0:34:                  39	30.30
0:35:                   9	30.29
0:35:                  39	30.29
0:36:                   9	30.29
0:36:                  39	30.31
0:37:                   9	30.32
0:37:                  39	30.32
0:38:                   9	30.32
0:38:                  39	30.32
0:39:                   9	30.31
0:39:                  39	30.31
0:40:                   9	30.31
0:40:                  39	30.30
0:41:                   9	30.30
0:41:                  39	30.31
0:42:                  10	30.31
0:42:                  40	30.30
0:43:                  10	30.30
0:43:                  40	30.29
0:44:                  10	30.29
0:44:                  40	30.28
0:45:                  10	30.28
0:45:                  40	30.28
0:46:                  10	30.27
0:46:                  40	30.29
0:47:                  10	30.29
0:47:                  40	30.30
0:48:                  10	30.30
0:48:                  40	30.29
0:49:                  10	30.30
0:49:                  40	30.30
0:50:                  10	30.30
0:50:                  40	30.29
0:51:                  10	30.29
0:51:                  40	30.30
0:52:                  10	30.29
0:52:                  40	30.29
0:53:                  10	30.27
0:53:                  40	30.26
0:54:                  10	30.26
0:54:                  40	30.26
0:55:                  10	30.26
0:55:                  40	30.27
0:56:                  10	30.26
0:56:                  40	30.26
0:57:                  10	30.26
0:57:                  40	30.27
0:58:                  10	30.28
0:58:                  40	30.28
0:59:                  10	30.28
0:59:                  40	30.28
1:00:                  10	30.28
1:00:                  40	30.28
1:01:                  10	30.27
1:01:                  40	30.27
1:02:                  10	30.27
1:02:                  40	30.27
1:03:                  10	30.25
1:03:                  40	30.25
1:04:                  10	30.25
1:04:                  40	30.25
1:05:                  10	30.25
1:05:                  40	30.25
1:06:                  10	30.24
1:06:                  40	30.24
1:07:                  10	30.24
1:07:                  40	30.26
1:08:                  10	30.25
1:08:                  40	30.27
1:09:                  10	30.25
1:09:                  40	30.25
1:10:                  10	30.26
1:10:                  40	30.27
1:11:                  10	30.25
1:11:                  40	30.26
1:12:                  10	30.25
1:12:                  40	30.24
1:13:                  10	30.24
1:13:                  40	30.23
1:14:                  10	30.25
1:14:                  40	30.24
1:15:                  10	30.23
1:15:                  41	30.23
1:16:                  11	30.23
1:16:                  41	30.21
1:17:                  11	30.23
1:17:                  41	30.24
1:18:                  11	30.23
1:18:                  41	30.24
1:19:                  11	30.24
1:19:                  41	30.24
1:20:                  11	30.24
1:20:                  41	30.24
1:21:                  11	30.25
1:21:                  41	30.24
1:22:                  11	30.23
1:22:                  41	30.23
1:23:                  11	30.23
1:23:                  41	30.24
1:24:                  11	30.22
1:24:                  41	30.21
1:25:                  11	30.22
1:25:                  41	30.22
1:26:                  11	30.21
1:26:                  41	30.21
1:27:                  11	30.21
1:27:                  41	30.23
1:28:                  11	30.23
1:28:                  41	30.23
1:29:                  11	30.23
1:29:                  41	30.24
1:30:                  11	30.23
1:30:                  41	30.23
1:31:                  11	30.24
1:31:                  41	30.23
1:32:                  11	30.24
1:32:                  41	30.23
1:33:                  11	30.22
1:33:                  41	30.22
1:34:                  11	30.22
1:34:                  41	30.22
1:35:                  11	30.21
1:35:                  41	30.20
1:36:                  11	30.20
1:36:                  41	30.19
1:37:                  11	30.20
1:37:                  41	30.21
1:38:                  11	30.23
1:38:                  41	30.21
1:39:                  11	30.23
1:39:                  41	30.23
1:40:                  11	30.22
1:40:                  41	30.23
1:41:                  11	30.22
1:41:                  41	30.21
1:42:                  11	30.21
1:42:                  41	30.22
1:43:                  11	30.21
1:43:                  41	30.21
1:44:                  11	30.20
1:44:                  41	30.20
1:45:                  11	30.20
1:45:                  41	30.20
1:46:                  11	30.19
1:46:                  41	30.19
1:47:                  11	30.18
1:47:                  41	30.20
1:48:                  11	30.21
1:48:                  41	30.21
1:49:                  11	30.20
1:49:                  41	30.20
1:50:                  11	30.20
1:50:                  41	30.19
1:51:                  11	30.19
1:51:                  41	30.20
1:52:                  12	30.19
1:52:                  42	30.19
1:53:                  12	30.19
1:53:                  42	30.18
1:54:                  12	30.18
1:54:                  42	30.18
1:55:                  12	30.18
1:55:                  42	30.17
1:56:                  12	30.17
1:56:                  42	30.17
1:57:                  12	30.17
1:57:                  42	30.16
1:58:                  12	30.18
1:58:                  42	30.19
1:59:                  12	30.20
1:59:                  42	30.19
2:00:                  12	30.19
2:00:                  42	30.18
2:01:                  12	30.18
2:01:                  42	30.17
2:02:                  12	30.17
2:02:                  42	30.17
2:03:                  12	30.17
2:03:                  42	30.16
2:04:                  12	30.16
2:04:                  42	30.16
2:05:                  12	30.15
2:05:                  42	30.15
2:06:                  12	30.14
2:06:                  42	30.14
2:07:                  12	30.14
2:07:                  42	30.14
2:08:                  12	30.17
2:08:                  42	30.16
2:09:                  12	30.17
2:09:                  42	30.17
2:10:                  12	30.17
2:10:                  42	30.17
2:11:                  12	30.17
2:11:                  42	30.17
2:12:                  12	30.17
2:12:                  42	30.16
2:13:                  12	30.17
2:13:                  42	30.16
2:14:                  12	30.15
2:14:                  42	30.15
2:15:                  12	30.15
2:15:                  42	30.15
2:16:                  12	30.15
2:16:                  42	30.14
2:17:                  12	30.14
2:17:                  42	30.15
2:18:                  12	30.15
2:18:                  42	30.16
2:19:                  12	30.17
2:19:                  42	30.17
2:20:                  12	30.17
2:20:                  42	30.16
2:21:                  12	30.17
2:21:                  42	30.16
2:22:                  12	30.17
2:22:                  43	30.16
2:23:                  13	30.16
2:23:                  43	30.16
2:24:                  13	30.16
2:24:                  43	30.15
2:25:                  13	30.14
2:25:                  43	30.14
2:26:                  13	30.14
2:26:                  43	30.13
2:27:                  13	30.13
2:27:                  43	30.14
2:28:                  13	30.14
2:28:                  43	30.16
2:29:                  13	30.16
2:29:                  43	30.16
2:30:                  13	30.15
2:30:                  43	30.15
2:31:                  13	30.15
2:31:                  43	30.15
2:32:                  13	30.14
2:32:                  43	30.15
2:33:                  13	30.14
2:33:                  43	30.14
2:34:                  13	30.14
2:34:                  43	30.13
2:35:                  13	30.13
2:35:                  43	30.13
2:36:                  13	30.13
2:36:                  43	30.12
2:37:                  13	30.12
2:37:                  43	30.11
2:38:                  13	30.12
2:38:                  43	30.14
2:39:                  14	30.14
2:39:                  44	30.14
2:40:                  14	30.14
2:40:                  44	30.13
2:41:                  14	30.14
2:41:                  44	30.14
2:42:                  14	30.13
2:42:                  44	30.13
2:43:                  14	30.13
2:43:                  44	30.12
2:44:                  14	30.12
2:44:                  44	30.12
2:45:                  14	30.10
2:45:                  44	30.11
2:46:                  14	30.09
2:46:                  44	30.10
2:47:                  14	30.10
2:47:                  44	30.09
2:48:                  14	30.09
2:48:                  44	30.09
2:49:                  14	30.12
2:49:                  44	30.13
2:50:                  14	30.13
2:50:                  44	30.12
2:51:                  14	30.13
2:51:                  44	30.12
2:52:                  14	30.12
2:52:                  44	30.12
2:53:                  14	30.11
2:53:                  44	30.10
2:54:                  14	30.10
2:54:                  44	30.10
2:55:                  14	30.10
2:55:                  44	30.10
2:56:                  14	30.09
2:56:                  44	30.09
2:57:                  14	30.09
2:57:                  44	30.09
2:58:                  14	30.09
2:58:                  44	30.09
2:59:                  14	30.11
2:59:                  44	30.12
3:00:                  14	30.10
3:00:                  44	30.12
3:01:                  14	30.11
3:01:                  44	30.12
3:02:                  14	30.10
3:02:                  44	30.12
3:03:                  14	30.11
3:03:                  44	30.10
3:04:                  14	30.10
3:04:                  44	30.09
3:05:                  14	30.09
3:05:                  44	30.09
3:06:                  14	30.09
3:06:                  44	30.08
3:07:                  14	30.07
3:07:                  44	30.07
3:08:                  14	30.08
3:08:                  44	30.07
3:09:                  14	30.09
3:09:                  44	30.09
3:10:                  15	30.10
3:10:                  45	30.08
3:11:                  15	30.08
3:11:                  45	30.08
3:12:                  15	30.07
3:12:                  45	30.09
3:13:                  15	30.08
3:13:                  45	30.07
3:14:                  15	30.08
3:14:                  45	30.07
3:15:                  15	30.06
3:15:                  45	30.06
3:16:                  15	30.06
3:16:                  45	30.06
3:17:                  15	30.05
3:17:                  45	30.05
3:18:                  15	30.04
3:18:                  45	30.04
3:19:                  15	30.04
3:19:                  45	30.06
3:20:                  15	30.06
3:20:                  45	30.06
3:21:                  15	30.07
3:21:                  45	30.06
3:22:                  15	30.06
3:22:                  45	30.06
3:23:                  15	30.06
3:23:                  45	30.06
3:24:                  15	30.05
3:24:                  45	30.05
3:25:                  15	30.06
3:25:                  45	30.05
3:26:                  15	30.04
3:26:                  45	30.03
3:27:                  15	30.04
3:27:                  45	30.03
3:28:                  16	30.04
3:28:                  46	30.02
3:29:                  16	30.03
3:29:                  46	30.03
3:30:                  16	30.04
3:30:                  46	30.03
3:31:                  16	30.04
3:31:                  46	30.04
3:32:                  16	30.05
3:32:                  46	30.04
3:33:                  16	30.04
3:33:                  46	30.03
3:34:                  16	30.03
3:34:                  46	30.03
3:35:                  16	30.03
3:35:                  46	30.02
3:36:                  16	30.02
3:36:                  46	30.02
3:37:                  16	30.01
3:37:                  46	30.00
3:38:                  16	30.01
3:38:                  46	30.01
3:39:                  16	30.02
3:39:                  46	30.01
3:40:                  16	30.02
3:40:                  46	30.03
3:41:                  16	30.03
3:41:                  46	30.02
3:42:                  16	30.03
3:42:                  46	30.03
3:43:                  16	30.03
3:43:                  46	30.04
3:44:                  16	30.02
3:44:                  46	30.02
3:45:                  16	30.02
3:45:                  46	30.02
3:46:                  16	30.01
3:46:                  46	30.02
3:47:                  16	30.01
3:47:                  46	30.01
3:48:                  16	30.03
3:48:                  46	30.01
3:49:                  16	30.00
3:49:                  46	30.03
3:50:                  16	30.03
3:50:                  46	30.03
3:51:                  16	30.03
3:51:                  46	30.04
3:52:                  16	30.06
3:52:                  46	30.06
3:53:                  16	30.08
3:53:                  46	30.08
3:54:                  16	30.09
3:54:                  46	30.11
3:55:                  16	30.11
3:55:                  46	30.12
3:56:                  16	30.12
3:56:                  46	30.11
3:57:                  16	30.12
3:57:                  46	30.09
3:58:                  17	30.09
3:58:                  47	30.09
3:59:                  17	30.08
3:59:                  47	30.09
4:00:                  17	30.09
4:00:                  47	30.10
4:01:                  17	30.10
4:01:                  47	30.09
4:02:                  17	30.09
4:02:                  47	30.08
4:03:                  17	30.07
4:03:                  47	30.06
4:04:                  17	30.06
4:04:                  47	30.06
4:05:                  17	30.06
4:05:                  47	30.06
4:06:                  17	30.05
4:06:                  47	30.05
4:07:                  17	30.03
4:07:                  47	30.03
4:08:                  17	30.03
4:08:                  47	30.03
4:09:                  17	30.02
4:09:                  47	30.03
4:10:                  17	30.03
4:10:                  47	30.03
4:11:                  17	30.04
4:11:                  47	30.04
4:12:                  17	30.04
4:12:                  47	30.03
4:13:                  17	30.02
4:13:                  47	30.02
4:14:                  17	30.03
4:14:                  47	30.02
4:15:                  17	30.01
4:15:                  47	30.01
4:16:                  17	30.03
4:16:                  47	30.01
4:17:                  17	30.00
4:17:                  47	30.00
4:18:                  17	30.00
4:18:                  47	30.00
4:19:                  17	29.99
4:19:                  47	29.99
4:20:                  17	30.01
4:20:                  47	30.00
4:21:                  17	30.01
4:21:                  47	30.02
4:22:                  17	30.01
4:22:                  47	30.01
4:23:                  17	30.00
4:23:                  47	30.00
4:24:                  17	29.99
4:24:                  47	30.00
4:25:                  17	29.99
4:25:                  47	29.99
4:26:                  18	29.99
4:26:                  48	29.99
4:27:                  18	29.98
4:27:                  48	29.98
4:28:                  18	29.98
4:28:                  48	29.98
4:29:                  18	29.98
4:29:                  48	29.97
4:30:                  18	29.98
4:30:                  48	29.98
4:31:                  18	30.00
4:31:                  48	29.99
4:32:                  18	29.99
4:32:                  48	29.98
4:33:                  18	29.97
4:33:                  48	29.98
4:34:                  18	29.97
4:34:                  48	29.97
4:35:                  18	29.97
4:35:                  48	29.96
4:36:                  18	29.97
4:36:                  48	29.95
4:37:                  18	29.95
4:37:                  48	29.94
4:38:                  18	29.94
4:38:                  48	29.95
4:39:                  18	29.94
4:39:                  48	29.94
4:40:                  18	29.95
4:40:                  48	29.96
4:41:                  18	29.97
4:41:                  48	29.96
4:42:                  18	29.96
4:42:                  48	29.96
4:43:                  18	29.95
4:43:                  48	29.94
4:44:                  18	29.95
4:44:                  48	29.94
4:45:                  18	29.95
4:45:                  48	29.93
4:46:                  18	29.92
4:46:                  48	29.92
4:47:                  18	29.91
4:47:                  48	29.91
4:48:                  18	29.90
4:48:                  48	29.91
4:49:                  18	29.90
4:49:                  48	29.90
4:50:                  18	29.90
4:50:                  48	29.91
4:51:                  18	29.92
4:51:                  48	29.93
4:52:                  18	29.94
4:52:                  48	29.93
4:53:                  18	29.93
4:53:                  48	29.93
4:54:                  18	29.93
4:54:                  48	29.92
4:55:                  18	29.93
4:55:                  48	29.93
4:56:                  18	29.93
4:56:                  48	29.92
4:57:                  18	29.91
4:57:                  48	29.91
4:58:                  18	29.90
4:58:                  48	29.90
4:59:                  18	29.90
4:59:                  49	29.89
5:00:                  19	29.89
5:00:                  49	29.90
5:01:                  19	29.90
5:01:                  49	29.90
5:02:                  19	29.91
5:02:                  49	29.91
5:03:                  19	29.91
5:03:                  49	29.90
5:04:                  19	29.89
5:04:                  49	29.89
5:05:                  19	29.88
5:05:                  49	29.88
5:06:                  19	29.88
5:06:                  49	29.88
5:07:                  19	29.86
5:07:                  49	29.87
5:08:                  19	29.86
5:08:                  49	29.86
5:09:                  19	29.86
5:09:                  49	29.85
5:10:                  19	29.85
5:10:                  49	29.84
5:11:                  19	29.86
5:11:                  49	29.87
5:12:                  19	29.86
5:12:                  49	29.87
5:13:                  19	29.87
5:13:                  49	29.87
5:14:                  19	29.87
5:14:                  49	29.86
5:15:                  19	29.86
5:15:                  49	29.86
5:16:                  19	29.85
5:16:                  49	29.85
5:17:                  19	29.84
5:17:                  49	29.85
5:18:                  19	29.84
5:18:                  49	29.84
5:19:                  19	29.83
5:19:                  49	29.83
5:20:                  19	29.83
5:20:                  49	29.84
5:21:                  19	29.84
5:21:                  49	29.85
5:22:                  19	29.85
5:22:                  49	29.85
5:23:                  19	29.85
5:23:                  49	29.85
5:24:                  19	29.84
5:24:                  49	29.84
5:25:                  19	29.84
5:25:                  49	29.83
5:26:                  20	29.83
5:26:                  50	29.83
5:27:                  20	29.83
5:27:                  50	29.82
5:28:                  20	29.82
5:28:                  50	29.82
5:29:                  20	29.81
5:29:                  50	29.81
5:30:                  20	29.80
5:30:                  50	29.81
5:31:                  20	29.81
5:31:                  50	29.82
5:32:                  20	29.82
5:32:                  50	29.83
5:33:                  20	29.81
5:33:                  50	29.82
5:34:                  20	29.81
5:34:                  50	29.82
5:35:                  20	29.81
5:35:                  50	29.81
5:36:                  20	29.81
5:36:                  50	29.81
5:37:                  20	29.80
5:37:                  50	29.80
5:38:                  20	29.80
5:38:                  50	29.79
5:39:                  20	29.79
5:39:                  50	29.79
5:40:                  20	29.79
5:40:                  50	29.79
5:41:                  20	29.79
5:41:                  50	29.81
5:42:                  21	29.82
5:42:                  51	29.81
5:43:                  21	29.81
5:43:                  51	29.81
5:44:                  21	29.80
5:44:                  51	29.80
5:45:                  21	29.80
5:45:                  51	29.79
5:46:                  21	29.79
5:46:                  51	29.78
5:47:                  21	29.78
5:47:                  51	29.79
5:48:                  21	29.77
5:48:                  51	29.77
5:49:                  21	29.77
5:49:                  51	29.76
5:50:                  21	29.77
5:50:                  51	29.76
5:51:                  21	29.76
5:51:                  51	29.76
5:52:                  21	29.77
5:52:                  51	29.78
5:53:                  21	29.77
5:53:                  51	29.78
5:54:                  21	29.77
5:54:                  51	29.77
5:55:                  21	29.77
5:55:                  51	29.77
5:56:                  21	29.76
5:56:                  51	29.76
5:57:                  21	29.76
5:57:                  51	29.76
5:58:                  22	29.75
5:58:                  52	29.76
5:59:                  22	29.75
5:59:                  52	29.75
6:00:                  22	29.74
6:00:                  52	29.73
6:01:                  22	29.73
6:01:                  52	29.74
6:02:                  22	29.75
6:02:                  52	29.76
6:03:                  22	29.76
6:03:                  52	29.76
6:04:                  22	29.75
6:04:                  52	29.76
6:05:                  22	29.75
6:05:                  52	29.76
6:06:                  22	29.75
6:06:                  52	29.74
6:07:                  22	29.75
6:07:                  52	29.74
6:08:                  22	29.75
6:08:                  52	29.74
6:09:                  22	29.74
6:09:                  52	29.73
6:10:                  22	29.74
6:10:                  52	29.73
6:11:                  22	29.72
6:11:                  52	29.74
6:12:                  22	29.75
6:12:                  52	29.76
6:13:                  22	29.76
6:13:                  52	29.77
6:14:                  23	29.75
6:14:                  53	29.75
6:15:                  23	29.75
6:15:                  53	29.75
6:16:                  23	29.76
6:16:                  53	29.75
6:17:                  23	29.75
6:17:                  53	29.74
6:18:                  23	29.73
6:18:                  53	29.74
6:19:                  23	29.73
6:19:                  53	29.72
6:20:                  23	29.73
6:20:                  53	29.72
6:21:                  23	29.72
6:21:                  53	29.73
6:22:                  23	29.74
6:22:                  53	29.73
6:23:                  23	29.73
6:23:                  53	29.74
6:24:                  23	29.73
6:24:                  53	29.73
6:25:                  23	29.74
6:25:                  53	29.73
6:26:                  23	29.73
6:26:                  53	29.73
6:27:                  23	29.73
6:27:                  53	29.72
6:28:                  23	29.72
6:28:                  53	29.72
6:29:                  23	29.72
6:29:                  53	29.72
6:30:                  24	29.72
6:30:                  54	29.72
6:31:                  24	29.71
6:31:                  54	29.71
6:32:                  24	29.72
6:32:                  54	29.73
6:33:                  24	29.74
6:33:                  54	29.73
6:34:                  24	29.73
6:34:                  54	29.72
6:35:                  24	29.73
6:35:                  54	29.72
6:36:                  24	29.72
6:36:                  54	29.72
6:37:                  24	29.72
6:37:                  54	29.72
6:38:                  24	29.71
6:38:                  54	29.71
6:39:                  24	29.71
6:39:                  54	29.71
6:40:                  24	29.70
6:40:                  54	29.69
6:41:                  24	29.69
6:41:                  54	29.68
6:42:                  24	29.70
6:42:                  54	29.70
6:43:                  24	29.71
6:43:                  54	29.71
6:44:                  24	29.72
6:44:                  54	29.72
6:45:                  24	29.72
6:45:                  55	29.72
6:46:                  25	29.71
6:46:                  55	29.71
6:47:                  25	29.71
6:47:                  55	29.71
6:48:                  25	29.69
6:48:                  55	29.68
6:49:                  25	29.69
6:49:                  55	29.67
6:50:                  25	29.67
6:50:                  55	29.66
6:51:                  25	29.67
6:51:                  55	29.66
6:52:                  25	29.67
6:52:                  55	29.69
6:53:                  25	29.69
6:53:                  55	29.70
6:54:                  25	29.69
6:54:                  55	29.68
6:55:                  25	29.69
6:55:                  55	29.69
6:56:                  25	29.69
6:56:                  55	29.67
6:57:                  25	29.67
6:57:                  55	29.67
6:58:                  25	29.66
6:58:                  55	29.66
6:59:                  25	29.66
6:59:                  55	29.65
7:00:                  25	29.65
7:00:                  55	29.64
7:01:                  25	29.65
7:01:                  55	29.65
7:02:                  25	29.65
7:02:                  56	29.65
7:03:                  26	29.67
7:03:                  56	29.67
7:04:                  26	29.68
7:04:                  56	29.67
7:05:                  26	29.67
7:05:                  56	29.66
7:06:                  26	29.67
7:06:                  56	29.67
7:07:                  26	29.66
7:07:                  56	29.65
7:08:                  26	29.66
7:08:                  56	29.65
7:09:                  26	29.65
7:09:                  56	29.65
7:10:                  26	29.64
7:10:                  56	29.64
7:11:                  26	29.64
7:11:                  56	29.63
7:12:                  26	29.64
7:12:                  56	29.64
7:13:                  26	29.65
7:13:                  56	29.65
7:14:                  26	29.66
7:14:                  56	29.66
7:15:                  26	29.65
7:15:                  56	29.65
7:16:                  26	29.65
7:16:                  56	29.65
7:17:                  26	29.64
7:17:                  56	29.64
7:18:                  26	29.63
7:18:                  56	29.63
7:19:                  26	29.63
7:19:                  56	29.63
7:20:                  26	29.63
7:20:                  56	29.62
7:21:                  26	29.62
7:21:                  56	29.62
7:22:                  26	29.61
7:22:                  56	29.62
7:23:                  26	29.64
7:23:                  56	29.63
7:24:                  26	29.64
7:24:                  56	29.64
7:25:                  26	29.64
7:25:                  56	29.63
7:26:                  26	29.63
7:26:                  56	29.63
7:27:                  26	29.62
7:27:                  56	29.63
7:28:                  26	29.63
7:28:                  56	29.61
7:29:                  26	29.60
7:29:                  56	29.60
7:30:                  26	29.60
7:30:                  56	29.60
7:31:                  27	29.60
7:31:                  57	29.58
7:32:                  27	29.59
7:32:                  57	29.58
7:33:                  27	29.60
7:33:                  57	29.63
7:34:                  27	29.57
7:34:                  57	29.59
7:35:                  27	29.61
7:35:                  57	29.60
7:36:                  27	29.59
7:36:                  57	29.55
7:37:                  27	29.57
7:37:                  57	29.57
7:38:                  27	29.56
7:38:                  57	29.55
7:39:                  27	29.54
7:39:                  57	29.53
7:40:                  27	29.54
7:40:                  57	29.53
7:41:                  27	29.53
7:41:                  57	29.53
7:42:                  27	29.52
7:42:                  57	29.53
7:43:                  27	29.54
7:43:                  57	29.55
7:44:                  27	29.56
7:44:                  57	29.57
7:45:                  27	29.56
7:45:                  57	29.56
7:46:                  27	29.56
7:46:                  57	29.56
7:47:                  27	29.55
7:47:                  57	29.55
7:48:                  27	29.55
7:48:                  57	29.54
7:49:                  27	29.53
7:49:                  57	29.54
7:50:                  27	29.53
7:50:                  57	29.52
7:51:                  27	29.52
7:51:                  57	29.52
7:52:                  27	29.51
7:52:                  57	29.52
7:53:                  28	29.52
7:53:                  58	29.53
7:54:                  28	29.53
7:54:                  58	29.53
7:55:                  28	29.53
7:55:                  58	29.53
7:56:                  28	29.53
7:56:                  58	29.52
7:57:                  28	29.52
7:57:                  58	29.51
7:58:                  28	29.51
7:58:                  58	29.51
7:59:                  28	29.50
7:59:                  58	29.51
8:00:                  28	29.50
8:00:                  58	29.48
8:01:                  28	29.48
8:01:                  58	29.48
8:02:                  28	29.48
8:02:                  58	29.46
8:03:                  28	29.47
8:03:                  58	29.49
8:04:                  28	29.50
8:04:                  58	29.49
8:05:                  28	29.48
8:05:                  58	29.48
8:06:                  28	29.49
8:06:                  58	29.48
8:07:                  28	29.47
8:07:                  58	29.47
8:08:                  28	29.46
8:08:                  58	29.47
8:09:                  28	29.46
8:09:                  58	29.46
8:10:                  28	29.46
8:10:                  58	29.45
8:11:                  28	29.46
8:11:                  58	29.45
8:12:                  28	29.45
8:12:                  58	29.44
8:13:                  28	29.45
8:13:                  59	29.46
8:14:                  29	29.46
8:14:                  59	29.46
8:15:                  29	29.46
8:15:                  59	29.45
8:16:                  29	29.45
8:16:                  59	29.45
8:17:                  29	29.44
8:17:                  59	29.45
8:18:                  29	29.44
8:18:                  59	29.43
8:19:                  29	29.43
8:19:                  59	29.42
8:20:                  29	29.42
8:20:                  59	29.41
8:21:                  29	29.40
8:21:                  59	29.39
8:22:                  29	29.40
8:22:                  59	29.39
8:23:                  29	29.40
8:23:                  59	29.40
8:24:                  29	29.39
8:24:                  59	29.40
8:25:                  29	29.41
8:25:                  59	29.41
8:26:                  29	29.40
8:26:                  59	29.41
8:27:                  29	29.41
8:27:                  59	29.40
8:28:                  29	29.39
8:28:                  59	29.39
8:29:                  29	29.39
8:29:                  59	29.39
8:30:                  29	29.39
8:30:                  59	29.39
8:31:                  29	29.39
8:31:                  59	29.39
8:32:                  29	29.39
8:32:                  59	29.39
8:33:                  30	29.38
8:34:                   0	29.39
8:34:                  30	29.40
8:35:                   0	29.41
8:35:                  30	29.42
8:36:                   0	29.42
8:36:                  30	29.42
8:37:                   0	29.42
8:37:                  30	29.42
8:38:                   0	29.41
8:38:                  30	29.42
8:39:                   0	29.42
8:39:                  30	29.44
8:40:                   0	29.43
8:40:                  30	29.44
8:41:                   0	29.46
8:41:                  30	29.46
8:42:                   0	29.46
8:42:                  30	29.47
8:43:                   0	29.48
8:43:                  30	29.48
8:44:                   0	29.50
8:44:                  30	29.52
8:45:                   0	29.52
8:45:                  30	29.54
8:46:                   0	29.55
8:46:                  30	29.56
8:47:                   0	29.56
8:47:                  30	29.56
8:48:                   0	29.56
8:48:                  30	29.57
8:49:                   0	29.59
8:49:                  30	29.60
8:50:                   0	29.61
8:50:                  30	29.62
8:51:                   0	29.64
8:51:                  30	29.65
8:52:                   0	29.67
8:52:                  30	29.69
8:53:                   0	29.70
8:53:                  30	29.72
8:54:                   0	29.74
8:54:                  30	29.76
8:55:                   0	29.78
8:55:                  30	29.79
8:56:                   0	29.84
8:56:                  30	29.86
8:57:                   0	29.88
8:57:                  30	29.90
8:58:                   0	29.93
8:58:                  30	29.96
8:59:                   0	29.97
8:59:                  30	29.99
9:00:                   0	30.03
9:00:                  30	30.05
9:01:                   0	30.07
9:01:                  30	30.08
9:02:                   0	30.11
9:02:                  30	30.12
9:03:                   0	30.15
9:03:                  30	30.17
9:04:                   0	30.19
9:04:                  30	30.23
9:05:                   0	30.26
9:05:                  30	30.31
9:06:                   0	30.34
9:06:                  30	30.38
9:07:                   0	30.43
9:07:                  30	30.47
9:08:                   0	30.50
9:08:                  30	30.54
9:09:                   0	30.59
9:09:                  30	30.64
9:10:                   1	30.67
9:10:                  31	30.71
9:11:                   1	30.76
9:11:                  31	30.79
9:12:                   1	30.81
9:12:                  31	30.85
9:13:                   1	30.89
9:13:                  31	30.92
9:14:                   1	30.97
9:14:                  31	31.00
9:15:                   1	31.02
9:15:                  31	31.06
9:16:                   1	31.11
9:16:                  31	31.13
9:17:                   1	31.16
9:17:                  31	31.21
9:18:                   1	31.23
9:18:                  31	31.29
9:19:                   1	31.30
9:19:                  31	31.35
9:20:                   1	31.40
9:20:                  31	31.42
9:21:                   1	31.44
9:21:                  31	31.48
9:22:                   1	31.52
9:22:                  31	31.55
9:23:                   1	31.58
9:23:                  31	31.60
9:24:                   1	31.63
9:24:                  31	31.65
9:25:                   1	31.69
9:25:                  31	31.74
9:26:                   1	31.77
9:26:                  31	31.81
9:27:                   1	31.82
9:27:                  31	31.86
9:28:                   1	31.87
9:28:                  31	31.90
9:29:                   1	31.94
9:29:                  31	31.97
9:30:                   1	32.00
9:30:                  31	32.03
9:31:                   1	32.05
9:31:                  31	32.10
9:32:                   1	32.10
9:32:                  31	32.12
9:33:                   1	32.16
9:33:                  31	32.18
9:34:                   1	32.21
9:34:                  31	32.21
9:35:                   1	32.27
9:35:                  31	32.30
9:36:                   1	32.34
9:36:                  32	32.38
9:37:                   2	32.47
9:37:                  32	32.51
9:38:                   2	32.54
9:38:                  32	32.58
9:39:                   2	32.61
9:39:                  32	32.64
9:40:                   2	32.66
9:40:                  32	32.69
9:41:                   2	32.74
9:41:                  32	32.78
9:42:                   2	32.83
9:42:                  32	32.86
9:43:                   2	32.91
9:43:                  32	32.91
9:44:                   2	32.90
9:44:                  32	32.93
9:45:                   2	32.95
9:45:                  32	32.96
9:46:                   2	32.99
9:46:                  32	33.01
9:47:                   2	33.02
9:47:                  32	33.07
9:48:                   2	33.10
9:48:                  32	33.11
9:49:                   2	33.14
9:49:                  32	33.11
9:50:                   2	33.12
9:50:                  32	33.15
9:51:                   2	33.15
9:51:                  32	33.17
9:52:                   2	33.20
9:52:                  32	33.22
9:53:                   2	33.27
9:53:                  32	33.26
9:54:                   2	33.25
9:54:                  32	33.27
9:55:                   2	33.30
9:55:                  32	33.32
9:56:                   2	33.32
9:56:                  32	33.33
9:57:                   2	33.37
9:57:                  32	33.41
9:58:                   2	33.40
9:58:                  32	33.42
9:59:                   2	33.43
9:59:                  33	33.46
10:00:                   3	33.44
10:00:                  33	33.44
10:01:                   3	33.45
10:01:                  33	33.49
10:02:                   3	33.50
10:02:                  33	33.52
10:03:                   3	33.53
10:03:                  33	33.54
10:04:                   3	33.54
10:04:                  33	33.55
10:05:                   3	33.58
10:05:                  33	33.60
10:06:                   3	33.64
10:06:                  33	33.71
10:07:                   3	33.67
10:07:                  33	33.70
10:08:                   3	33.73
10:08:                  33	33.75
10:09:                   3	33.77
10:09:                  33	33.78
10:10:                   3	33.81
10:10:                  33	33.82
10:11:                   3	33.87
10:11:                  33	33.89
10:12:                   3	33.92
10:12:                  33	33.95
10:13:                   3	33.96
10:13:                  33	33.96
10:14:                   3	33.98
10:14:                  33	34.04
10:15:                   3	34.03
10:15:                  33	34.08
10:16:                   3	34.11
10:16:                  33	34.14
10:17:                   3	34.16
10:17:                  33	34.19
10:18:                   3	34.21
10:18:                  33	34.23
10:19:                   3	34.25
10:19:                  33	34.28
10:20:                   3	34.30
10:20:                  33	34.35
10:21:                   3	34.34
10:21:                  33	34.34
10:22:                   3	34.35
10:22:                  33	34.34
10:23:                   3	34.36
10:23:                  33	34.38
10:24:                   3	34.41
10:24:                  33	34.41
10:25:                   3	34.44
10:25:                  33	34.47
10:26:                   3	34.49
10:26:                  33	34.50
10:27:                   3	34.50
10:27:                  33	34.51
10:28:                   3	34.49
10:28:                  33	34.53
10:29:                   3	34.56
10:29:                  33	34.61
10:30:                   3	34.61
10:30:                  33	34.64
10:31:                   3	34.59
10:31:                  33	34.63
10:32:                   3	34.64
10:32:                  33	34.67
10:33:                   3	34.66
10:33:                  33	34.69
10:34:                   3	34.68
10:34:                  33	34.69
10:35:                   4	34.73
10:35:                  34	34.70
10:36:                   4	34.72
10:36:                  34	34.72
10:37:                   4	34.72
10:37:                  34	34.74
10:38:                   4	34.78
10:38:                  34	34.83
10:39:                   4	34.88
10:39:                  34	34.88
10:40:                   4	34.90
10:40:                  34	34.93
10:41:                   4	34.93
10:41:                  34	34.91
10:42:                   4	34.96
10:42:                  34	35.00
10:43:                   4	34.99
10:43:                  34	35.04
10:44:                   4	35.05
10:44:                  34	35.08
10:45:                   4	35.11
10:45:                  34	35.09
10:46:                   4	35.14
10:46:                  34	35.20
10:47:                   4	35.22
10:47:                  34	35.26
10:48:                   4	35.25
10:48:                  34	35.31
10:49:                   4	35.31
10:49:                  34	35.35
10:50:                   4	35.37
10:50:                  34	35.42
10:51:                   4	35.45
10:51:                  34	35.47
10:52:                   4	35.48
10:52:                  34	35.46
10:53:                   4	35.47
10:53:                  34	35.51
10:54:                   4	35.54
10:54:                  34	35.55
10:55:                   4	35.54
10:55:                  34	35.53
10:56:                   4	35.60
10:56:                  34	35.65
10:57:                   4	35.66
10:57:                  34	35.70
10:58:                   4	35.70
10:58:                  34	35.72
10:59:                   4	35.73
10:59:                  34	35.71
11:00:                   4	35.77
11:00:                  34	35.75
11:01:                   4	35.79
11:01:                  34	35.80
11:02:                   4	35.78
11:02:                  34	35.83
11:03:                   4	35.85
11:03:                  34	35.88
11:04:                   4	35.89
11:04:                  34	35.91
11:05:                   4	35.90
11:05:                  34	35.93
11:06:                   4	35.95
11:06:                  34	36.00
11:07:                   4	36.01
11:07:                  35	36.04
11:08:                   5	36.03
11:08:                  35	36.08
11:09:                   5	36.10
11:09:                  35	36.10
11:10:                   5	36.12
11:10:                  35	36.10
11:11:                   5	36.12
11:11:                  35	36.18
11:12:                   5	36.17
11:12:                  35	36.23
11:13:                   5	36.25
11:13:                  35	36.27
11:14:                   5	36.27
11:14:                  35	36.29
11:15:                   5	36.30
11:15:                  35	36.29
11:16:                   5	36.32
11:16:                  35	36.37
11:17:                   5	36.41
11:17:                  35	36.42
11:18:                   5	36.43
11:18:                  35	36.44
11:19:                   5	36.49
11:19:                  35	36.52
11:20:                   5	36.56
11:20:                  35	36.56
11:21:                   5	36.56
11:21:                  35	36.57
11:22:                   5	36.58
11:22:                  35	36.55
11:23:                   5	36.57
11:23:                  35	36.59
11:24:                   5	36.65
11:24:                  35	36.68
11:25:                   5	36.65
11:25:                  35	36.70
11:26:                   5	36.72
11:26:                  36	36.73
11:27:                   6	36.76
11:27:                  36	36.74
11:28:                   6	36.76
11:28:                  36	36.82
11:29:                   6	36.82
11:29:                  36	36.85
11:30:                   6	36.85
11:30:                  36	36.86
11:31:                   6	36.87
11:31:                  36	36.88
11:32:                   6	36.90
11:32:                  36	36.89
11:33:                   6	36.86
11:33:                  36	36.89
11:34:                   6	36.93
11:34:                  36	36.91
11:35:                   6	36.94
11:35:                  36	36.94
11:36:                   6	36.92
11:36:                  36	36.92
11:37:                   6	36.95
11:37:                  36	36.98
11:38:                   6	37.00
11:38:                  36	37.00
11:39:                   6	37.01
11:39:                  36	37.02
11:40:                   6	37.04
11:40:                  36	37.06
11:41:                   6	37.04
11:41:                  36	37.09
11:42:                   6	37.07
11:42:                  36	37.06
11:43:                   6	37.04
11:43:                  36	37.09
11:44:                   6	37.10
11:44:                  36	37.07
11:45:                   6	37.08
11:45:                  36	37.08
11:46:                   6	37.07
11:46:                  36	37.08
11:47:                   6	37.07
11:47:                  36	37.12
11:48:                   6	37.13
11:48:                  36	37.13
11:49:                   6	37.12
11:49:                  36	37.12
11:50:                   6	37.13
11:50:                  36	37.11
11:51:                   6	37.14
11:51:                  36	37.17
11:52:                   6	37.14
11:52:                  36	37.16
11:53:                   6	37.17
11:53:                  36	37.15
11:54:                   6	37.10
11:54:                  36	37.14
11:55:                   6	37.17
11:55:                  36	37.17
11:56:                   6	37.15
11:56:                  36	37.16
11:57:                   6	37.11
11:57:                  36	37.14
11:58:                   6	37.15
11:58:                  36	37.15
11:59:                   6	37.20
11:59:                  37	37.17
12:00:                   7	37.14
12:00:                  37	37.12
12:01:                   7	37.15
12:01:                  37	37.14
12:02:                   7	37.16
12:02:                  37	37.14
12:03:                   7	37.13
12:03:                  37	37.10
12:04:                   7	37.13
12:04:                  37	37.19
12:05:                   7	37.20
12:05:                  37	37.20
12:06:                   7	37.19
12:06:                  37	37.20
12:07:                   7	37.20
12:07:                  37	37.23
12:08:                   7	37.22
12:08:                  37	37.24
12:09:                   7	37.24
12:09:                  37	37.24
12:10:                   7	37.24
12:10:                  37	37.25
12:11:                   7	37.27
12:11:                  37	37.27
12:12:                   7	37.25
12:12:                  37	37.25
12:13:                   7	37.25
12:13:                  37	37.25
12:14:                   7	37.20
12:14:                  37	37.20
12:15:                   7	37.19
12:15:                  37	37.19
12:16:                   7	37.15
12:16:                  37	37.13
12:17:                   7	37.07
12:17:                  37	37.04
12:18:                   7	37.04
12:18:                  37	37.01
12:19:                   7	37.03
12:19:                  37	36.99
12:20:                   7	36.99
12:20:                  37	36.97
12:21:                   7	36.94
12:21:                  37	36.89
12:22:                   7	36.87
12:22:                  37	36.86
12:23:                   7	36.85
12:23:                  37	36.81
12:24:                   7	36.82
12:24:                  37	36.77
12:25:                   7	36.78
12:25:                  37	36.74
12:26:                   7	36.72
12:26:                  37	36.68
12:27:                   7	36.68
12:27:                  37	36.68
12:28:                   7	36.68
12:28:                  37	36.69
12:29:                   7	36.69
12:29:                  37	36.64
12:30:                   7	36.66
12:30:                  37	36.66
12:31:                   7	36.63
12:31:                  37	36.62
12:32:                   7	36.58
12:32:                  37	36.56
12:33:                   7	36.56
12:33:                  37	36.51
12:34:                   7	36.51
12:34:                  37	36.49
12:35:                   7	36.51
12:35:                  37	36.47
12:36:                   7	36.49
12:36:                  37	36.50
12:37:                   7	36.47
12:37:                  37	36.48
12:38:                   7	36.47
12:38:                  37	36.48
12:39:                   7	36.50
12:39:                  37	36.50
12:40:                   7	36.51
12:40:                  37	36.47
12:41:                   7	36.48
12:41:                  37	36.49
12:42:                   7	36.54
12:42:                  37	36.51
12:43:                   7	36.49
12:43:                  37	36.55
12:44:                   7	36.56
12:44:                  37	36.49
12:45:                   7	36.49
12:45:                  37	36.50
12:46:                   7	36.50
12:46:                  37	36.52
12:47:                   7	36.53
12:47:                  37	36.52
12:48:                   7	36.55
12:48:                  37	36.54
12:49:                   7	36.54
12:49:                  37	36.56
12:50:                   7	36.60
12:50:                  37	36.58
12:51:                   7	36.58
12:51:                  37	36.62
12:52:                   8	36.60
12:52:                  38	36.65
12:53:                   8	36.64
12:53:                  38	36.61
12:54:                   8	36.63
12:54:                  38	36.63
12:55:                   8	36.66
12:55:                  38	36.70
12:56:                   8	36.69
12:56:                  38	36.71
12:57:                   8	36.71
12:57:                  38	36.74
12:58:                   8	36.78
12:58:                  38	36.84
12:59:                   8	36.87
12:59:                  38	36.89
13:00:                   8	36.91
13:00:                  38	36.93
13:01:                   8	37.00
13:01:                  38	37.04
13:02:                   8	37.06
13:02:                  38	37.13
13:03:                   8	37.19
13:03:                  38	37.27
13:04:                   8	37.27
13:04:                  38	37.35
13:05:                   8	37.43
13:05:                  38	37.50
13:06:                   8	37.61
13:06:                  38	37.67
13:07:                   8	37.74
13:07:                  38	37.82
13:08:                   8	37.96
13:08:                  38	38.05
13:09:                   8	38.25
13:09:                  38	38.30
13:10:                   8	38.40
13:10:                  38	38.55
13:11:                   8	38.66
13:11:                  38	38.80
13:12:                   8	38.93
13:12:                  38	39.03
13:13:                   8	39.12
13:13:                  38	39.21
13:14:                   8	39.29
13:14:                  38	39.38
13:15:                   8	39.40
13:15:                  38	39.47
13:16:                   8	39.49
13:16:                  38	39.55
13:17:                   8	39.56
13:17:                  38	39.55
13:18:                   8	39.52
13:18:                  38	39.48
13:19:                   8	39.40
13:19:                  38	39.39
13:20:                   8	39.42
13:20:                  38	39.43
13:21:                   8	39.49
13:21:                  38	39.47
13:22:                   8	39.46
13:22:                  38	39.45
13:23:                   8	39.44
13:23:                  38	39.44
13:24:                   8	39.42
13:24:                  38	39.44
13:25:                   8	39.45
13:25:                  38	39.51
13:26:                   8	39.49
13:26:                  38	39.46
13:27:                   8	39.39
13:27:                  38	39.31
13:28:                   8	39.23
13:28:                  38	39.17
13:29:                   8	39.06
13:29:                  38	38.98
13:30:                   8	38.89
13:30:                  38	38.86
13:31:                   8	38.79
13:31:                  38	38.79
13:32:                   8	38.84
13:32:                  38	38.93
13:33:                   8	39.05
13:33:                  38	39.30
13:34:                   8	39.57
13:34:                  38	39.96
13:35:                   8	40.36
13:35:                  38	40.69
13:36:                   9	41.11
13:36:                  39	41.53
13:37:                   9	41.86
13:37:                  39	42.29
13:38:                   9	42.62
13:38:                  39	42.85
13:39:                   9	43.08
13:39:                  39	43.30
13:40:                   9	43.53
13:40:                  39	43.71
13:41:                   9	43.91
13:41:                  39	43.99
13:42:                   9	44.07
13:42:                  39	44.30
13:43:                   9	44.44
13:43:                  39	44.55
13:44:                   9	44.71
13:44:                  39	44.93
13:45:                   9	45.11
13:45:                  39	45.21
13:46:                   9	45.33
13:46:                  39	45.53
13:47:                   9	45.66
13:47:                  39	45.85
13:48:                   9	45.96
13:48:                  39	45.99
13:49:                   9	46.11
13:49:                  39	46.30
13:50:                   9	46.41
13:50:                  39	46.56
13:51:                   9	46.67
13:51:                  39	46.76
13:52:                   9	46.84
13:52:                  39	46.98
13:53:                   9	47.06
13:53:                  39	47.15
13:54:                   9	47.30
13:54:                  39	47.33
13:55:                   9	47.37
13:55:                  39	47.39
13:56:                   9	47.40
13:56:                  39	47.32
13:57:                   9	47.18
13:57:                  39	46.95
13:58:                   9	46.69
13:58:                  40	46.39
13:59:                  10	46.07
13:59:                  40	45.78
14:00:                  10	45.40
14:00:                  40	45.04
14:01:                  10	44.65
14:01:                  40	44.23
14:02:                  10	43.88
14:02:                  40	43.48
14:03:                  10	43.10
14:03:                  40	42.76
14:04:                  10	42.39
14:04:                  40	42.01
14:05:                  10	41.66
14:05:                  40	41.32
14:06:                  10	40.99
14:06:                  40	40.70
14:07:                  10	40.41
14:07:                  40	40.10
14:08:                  10	39.85
14:08:                  40	39.58
14:09:                  10	39.33
14:09:                  40	39.11
14:10:                  10	38.87
14:10:                  40	38.68
14:11:                  10	38.46
14:11:                  40	38.26
14:12:                  10	38.10
14:12:                  40	37.92
14:13:                  10	37.75
14:13:                  40	37.57
14:14:                  10	37.41
14:14:                  40	37.24
14:15:                  10	37.11
14:15:                  40	36.96
14:16:                  10	36.81
14:16:                  40	36.67
14:17:                  10	36.52
14:17:                  40	36.40
14:18:                  10	36.28
14:18:                  40	36.18
14:19:                  10	36.04
14:19:                  40	35.94
14:20:                  10	35.88
14:20:                  40	35.79
14:21:                  10	35.72
14:21:                  40	35.65
14:22:                  10	35.56
14:22:                  40	35.51
14:23:                  10	35.45
14:23:                  40	35.39
14:24:                  10	35.32
14:24:                  40	35.24
14:25:                  10	35.19
14:25:                  40	35.13
14:26:                  10	35.07
14:26:                  40	35.05
14:27:                  10	35.00
14:27:                  40	34.96
14:28:                  10	34.91
14:28:                  40	34.89
14:29:                  10	34.86
14:29:                  40	34.83
14:30:                  10	34.81
14:30:                  40	34.77
14:31:                  10	34.79
14:31:                  40	34.75
14:32:                  10	34.73
14:32:                  40	34.70
14:33:                  10	34.66
14:33:                  40	34.66
14:34:                  11	34.63
14:34:                  41	34.59
14:35:                  11	34.60
14:35:                  41	34.57
14:36:                  11	34.53
14:36:                  41	34.52
14:37:                  11	34.49
14:37:                  41	34.45
14:38:                  11	34.42
14:38:                  41	34.39
14:39:                  11	34.36
14:39:                  41	34.36
14:40:                  11	34.35
14:40:                  41	34.34
14:41:                  11	34.34
14:41:                  41	34.30
14:42:                  11	34.28
14:42:                  41	34.25
14:43:                  11	34.25
14:43:                  41	34.24
14:44:                  11	34.22
14:44:                  41	34.22
14:45:                  11	34.21
14:45:                  41	34.20
14:46:                  11	34.18
14:46:                  41	34.17
14:47:                  11	34.15
14:47:                  41	34.14
14:48:                  11	34.12
14:48:                  41	34.10
14:49:                  11	34.10
14:49:                  41	34.08
14:50:                  11	34.10
14:50:                  41	34.11
14:51:                  11	34.11
14:51:                  41	34.11
14:52:                  11	34.11
14:52:                  41	34.09
14:53:                  11	34.07
14:53:                  41	34.06
14:54:                  11	34.07
14:54:                  41	34.06
14:55:                  11	34.04
14:55:                  41	34.04
14:56:                  11	34.01
14:56:                  41	34.01
14:57:                  11	34.02
14:57:                  41	34.00
14:58:                  11	33.99
14:58:                  41	33.98
14:59:                  11	33.99
14:59:                  41	33.96
15:00:                  11	33.95
15:00:                  41	33.96
15:01:                  11	33.95
15:01:                  42	33.95
15:02:                  12	33.95
15:02:                  42	33.94
15:03:                  12	33.93
15:03:                  42	33.92
15:04:                  12	33.91
15:04:                  42	33.91
15:05:                  12	33.88
15:05:                  42	33.86
15:06:                  12	33.86
15:06:                  42	33.82
15:07:                  12	33.80
15:07:                  42	33.78
15:08:                  12	33.78
15:08:                  42	33.77
15:09:                  12	33.77
15:09:                  42	33.74
15:10:                  12	33.75
15:10:                  42	33.73
15:11:                  12	33.73
15:11:                  42	33.69
15:12:                  12	33.66
15:12:                  42	33.63
15:13:                  12	33.61
15:13:                  42	33.59
15:14:                  12	33.55
15:14:                  42	33.55
15:15:                  12	33.52
15:15:                  42	33.51
15:16:                  12	33.48
15:16:                  42	33.47
15:17:                  12	33.42
15:17:                  42	33.38
15:18:                  12	33.37
15:18:                  42	33.38
15:19:                  12	33.34
15:19:                  42	33.34
15:20:                  12	33.35
15:20:                  42	33.41
15:21:                  12	33.40
15:21:                  42	33.40
15:22:                  12	33.42
15:22:                  42	33.42
15:23:                  12	33.41
15:23:                  42	33.40
15:24:                  12	33.41
15:24:                  42	33.40
15:25:                  13	33.38
15:25:                  43	33.38
15:26:                  13	33.36
15:26:                  43	33.36
15:27:                  13	33.35
15:27:                  43	33.34
15:28:                  13	33.33
15:28:                  43	33.34
15:29:                  13	33.32
15:29:                  43	33.32
15:30:                  13	33.30
15:30:                  43	33.29
15:31:                  13	33.31
15:31:                  43	33.32
15:32:                  13	33.28
15:32:                  43	33.30
15:33:                  13	33.29
15:33:                  43	33.27
15:34:                  13	33.26
15:34:                  43	33.26
15:35:                  13	33.27
15:35:                  43	33.29
15:36:                  13	33.30
15:36:                  43	33.26
15:37:                  13	33.24
15:37:                  43	33.24
15:38:                  13	33.19
15:38:                  43	33.21
15:39:                  13	33.21
15:39:                  43	33.21
15:40:                  13	33.21
15:40:                  43	33.21
15:41:                  13	33.21
15:41:                  43	33.19
15:42:                  13	33.20
15:42:                  43	33.19
15:43:                  13	33.17
15:43:                  43	33.13
15:44:                  13	33.11
15:44:                  43	33.11
15:45:                  13	33.11
15:45:                  43	33.08
15:46:                  13	33.09
15:46:                  43	33.04
15:47:                  13	33.00
15:47:                  43	32.99
15:48:                  13	32.98
15:48:                  43	32.95
15:49:                  13	32.92
15:49:                  43	32.90
15:50:                  13	32.89
15:50:                  43	32.89
15:51:                  13	32.89
15:51:                  43	32.89
15:52:                  13	32.86
15:52:                  43	32.86
15:53:                  13	32.85
15:53:                  44	32.86
15:54:                  14	32.84
15:54:                  44	32.82
15:55:                  14	32.80
15:55:                  44	32.76
15:56:                  14	32.72
15:56:                  44	32.71
15:57:                  14	32.70
15:57:                  44	32.68
15:58:                  14	32.67
15:58:                  44	32.65
15:59:                  14	32.65
15:59:                  44	32.62
16:00:                  14	32.60
16:00:                  44	32.59
16:01:                  14	32.60
16:01:                  44	32.61
16:02:                  14	32.59
16:02:                  44	32.61
16:03:                  14	32.59
16:03:                  44	32.59
16:04:                  14	32.61
16:04:                  44	32.63
16:05:                  14	32.60
16:05:                  44	32.58
16:06:                  14	32.56
16:06:                  44	32.55
16:07:                  14	32.53
16:07:                  44	32.51
16:08:                  14	32.50
16:08:                  44	32.50
16:09:                  14	32.47
16:09:                  44	32.49
16:10:                  14	32.51
16:10:                  44	32.47
16:11:                  14	32.49
16:11:                  44	32.49
16:12:                  14	32.51
16:12:                  44	32.52
16:13:                  14	32.49
16:13:                  44	32.50
16:14:                  14	32.49
16:14:                  44	32.49
16:15:                  14	32.48
16:15:                  44	32.48
16:16:                  15	32.47
16:16:                  45	32.47
16:17:                  15	32.44
16:17:                  45	32.46
16:18:                  15	32.45
16:18:                  45	32.46
16:19:                  15	32.45
16:19:                  45	32.45
16:20:                  15	32.41
16:20:                  45	32.41
16:21:                  15	32.40
16:21:                  45	32.41
16:22:                  15	32.41
16:22:                  45	32.39
16:23:                  15	32.39
16:23:                  45	32.40
16:24:                  15	32.39
16:24:                  45	32.40
16:25:                  15	32.41
16:25:                  45	32.40
16:26:                  15	32.39
16:26:                  45	32.38
16:27:                  15	32.37
16:27:                  45	32.35
16:28:                  15	32.35
16:28:                  45	32.35
16:29:                  15	32.35
16:29:                  45	32.34
16:30:                  15	32.36
16:30:                  45	32.34
16:31:                  15	32.35
16:31:                  45	32.35
16:32:                  15	32.37
16:32:                  45	32.37
16:33:                  15	32.37
16:33:                  45	32.35
16:34:                  15	32.36
16:34:                  45	32.36
16:35:                  15	32.35
16:35:                  45	32.34
16:36:                  15	32.33
16:36:                  45	32.33
16:37:                  15	32.33
16:37:                  45	32.33
16:38:                  15	32.33
16:38:                  45	32.32
16:39:                  15	32.33
16:39:                  45	32.34
16:40:                  15	32.32
16:40:                  45	32.33
16:41:                  15	32.32
16:41:                  45	32.35
16:42:                  16	32.35
16:42:                  46	32.35
16:43:                  16	32.34
16:43:                  46	32.36
16:44:                  16	32.34
16:44:                  46	32.33
16:45:                  16	32.32
16:45:                  46	32.31
16:46:                  16	32.31
16:46:                  46	32.31
16:47:                  16	32.31
16:47:                  46	32.29
16:48:                  16	32.28
16:48:                  46	32.28
16:49:                  16	32.27
16:49:                  46	32.26
16:50:                  16	32.24
16:50:                  46	32.23
16:51:                  16	32.23
16:51:                  46	32.25
16:52:                  16	32.26
16:52:                  46	32.28
16:53:                  16	32.29
16:53:                  46	32.29
16:54:                  16	32.28
16:54:                  46	32.30
16:55:                  16	32.28
16:55:                  46	32.27
16:56:                  16	32.29
16:56:                  46	32.28
16:57:                  16	32.27
16:57:                  46	32.28
16:58:                  16	32.28
16:58:                  47	32.27
16:59:                  17	32.27
16:59:                  47	32.27
17:00:                  17	32.25
17:00:                  47	32.25
17:01:                  17	32.24
17:01:                  47	32.25
17:02:                  17	32.27
17:02:                  47	32.26
17:03:                  17	32.27
17:03:                  47	32.27
17:04:                  17	32.28
17:04:                  47	32.27
17:05:                  17	32.28
17:05:                  47	32.26
17:06:                  17	32.25
17:06:                  47	32.26
17:07:                  17	32.26
17:07:                  47	32.26
17:08:                  17	32.25
17:08:                  47	32.26
17:09:                  17	32.25
17:09:                  47	32.25
17:10:                  17	32.24
17:10:                  47	32.24
17:11:                  17	32.23
17:11:                  47	32.23
17:12:                  17	32.22
17:12:                  47	32.22
17:13:                  17	32.22
17:13:                  47	32.22
17:14:                  17	32.22
17:14:                  47	32.20
17:15:                  17	32.21
17:15:                  47	32.21
17:16:                  17	32.20
17:16:                  47	32.17
17:17:                  17	32.20
17:17:                  47	32.17
17:18:                  17	32.18
17:18:                  47	32.16
17:19:                  17	32.16
17:19:                  47	32.15
17:20:                  17	32.12
17:20:                  47	32.09
17:21:                  17	32.09
17:21:                  47	32.10
17:22:                  17	32.08
17:22:                  47	32.08
17:23:                  17	32.09
17:23:                  47	32.11
17:24:                  17	32.10
17:24:                  47	32.07
17:25:                  17	32.08
17:25:                  47	32.05
17:26:                  17	32.05
17:26:                  47	32.03
17:27:                  17	32.03
17:27:                  47	32.03
17:28:                  17	31.99
17:28:                  47	31.98
17:29:                  17	31.96
17:29:                  47	31.95
17:30:                  17	31.94
17:30:                  47	31.95
17:31:                  17	31.94
17:31:                  47	31.90
17:32:                  18	31.89
17:32:                  48	31.91
17:33:                  18	31.90
17:33:                  48	31.89
17:34:                  18	31.89
17:34:                  48	31.85
17:35:                  18	31.87
17:35:                  48	31.84
17:36:                  18	31.83
17:36:                  48	31.83
17:37:                  18	31.80
17:37:                  48	31.79
17:38:                  18	31.79
17:38:                  48	31.77
17:39:                  18	31.75
17:39:                  48	31.72
17:40:                  18	31.74
17:40:                  48	31.73
17:41:                  18	31.70
17:41:                  48	31.67
17:42:                  18	31.67
17:42:                  48	31.68
17:43:                  18	31.68
17:43:                  48	31.66
17:44:                  18	31.64
17:44:                  48	31.64
17:45:                  18	31.64
17:45:                  48	31.61
17:46:                  18	31.61
17:46:                  48	31.59
17:47:                  18	31.58
17:47:                  48	31.57
17:48:                  18	31.55
17:48:                  48	31.55
17:49:                  18	31.54
17:49:                  48	31.52
17:50:                  18	31.51
17:50:                  48	31.49
17:51:                  18	31.48
17:51:                  48	31.48
17:52:                  18	31.48
17:52:                  48	31.46
17:53:                  18	31.47
17:53:                  48	31.49
17:54:                  18	31.48
17:54:                  48	31.47
17:55:                  18	31.46
17:55:                  48	31.44
17:56:                  18	31.45
17:56:                  48	31.44
17:57:                  18	31.43
17:57:                  48	31.41
17:58:                  18	31.40
17:58:                  48	31.40
17:59:                  18	31.38
17:59:                  48	31.37
18:00:                  18	31.34
18:00:                  48	31.34
18:01:                  18	31.32
18:01:                  48	31.33
18:02:                  18	31.32
18:02:                  48	31.32
18:03:                  19	31.31
18:03:                  49	31.29
18:04:                  19	31.28
18:04:                  49	31.30
18:05:                  19	31.30
18:05:                  49	31.29
18:06:                  19	31.26
18:06:                  49	31.26
18:07:                  19	31.25
18:07:                  49	31.24
18:08:                  19	31.24
18:08:                  49	31.24
18:09:                  19	31.21
18:09:                  49	31.20
18:10:                  19	31.16
18:10:                  49	31.17
18:11:                  19	31.15
18:11:                  49	31.16
18:12:                  19	31.14
18:12:                  49	31.15
18:13:                  19	31.14
18:13:                  49	31.13
18:14:                  19	31.11
18:14:                  49	31.14
18:15:                  19	31.11
18:15:                  49	31.10
18:16:                  19	31.09
18:16:                  49	31.09
18:17:                  19	31.09
18:17:                  49	31.09
18:18:                  19	31.07
18:18:                  49	31.07
18:19:                  19	31.05
18:19:                  49	31.03
18:20:                  19	31.01
18:20:                  49	31.02
18:21:                  19	31.02
18:21:                  49	31.01
18:22:                  19	31.00
18:22:                  49	31.01
18:23:                  19	30.99
18:23:                  49	31.00
18:24:                  19	31.00
18:24:                  49	31.00
18:25:                  19	30.99
18:25:                  49	30.98
18:26:                  19	30.98
18:26:                  49	30.97
18:27:                  19	30.97
18:27:                  49	30.98
18:28:                  19	30.97
18:28:                  49	30.95
18:29:                  19	30.94
18:29:                  49	30.95
18:30:                  19	30.94
18:30:                  49	30.93
18:31:                  19	30.93
18:31:                  49	30.92
18:32:                  19	30.91
18:32:                  49	30.92
18:33:                  19	30.92
18:33:                  49	30.92
18:34:                  20	30.95
18:34:                  50	30.94
18:35:                  20	30.95
18:35:                  50	30.94
18:36:                  20	30.94
18:36:                  50	30.93
18:37:                  20	30.93
18:37:                  50	30.93
18:38:                  20	30.92
18:38:                  50	30.92
18:39:                  20	30.91
18:39:                  50	30.91
18:40:                  20	30.90
18:40:                  50	30.91
18:41:                  20	30.90
18:41:                  50	30.89
18:42:                  20	30.88
18:42:                  50	30.88
18:43:                  20	30.88
18:43:                  50	30.88
18:44:                  20	30.89
18:44:                  50	30.86
18:45:                  20	30.87
18:45:                  50	30.85
18:46:                  20	30.86
18:46:                  50	30.84
18:47:                  20	30.85
18:47:                  50	30.84
18:48:                  20	30.83
18:48:                  50	30.84
18:49:                  20	30.83
18:49:                  50	30.83
18:50:                  20	30.83
18:50:                  50	30.83
18:51:                  20	30.82
18:51:                  50	30.81
18:52:                  20	30.81
18:52:                  50	30.80
18:53:                  20	30.79
18:53:                  50	30.80
18:54:                  20	30.81
18:54:                  50	30.80
18:55:                  20	30.81
18:55:                  50	30.80
18:56:                  20	30.80
18:56:                  50	30.82
18:57:                  20	30.80
18:57:                  50	30.80
18:58:                  20	30.79
18:58:                  50	30.78
18:59:                  20	30.78
18:59:                  50	30.78
19:00:                  20	30.78
19:00:                  50	30.78
19:01:                  20	30.78
19:01:                  50	30.77
19:02:                  20	30.76
19:02:                  51	30.75
19:03:                  21	30.74
19:03:                  51	30.75
19:04:                  21	30.75
19:04:                  51	30.76
19:05:                  21	30.77
19:05:                  51	30.77
19:06:                  21	30.77
19:06:                  51	30.76
19:07:                  21	30.66
19:07:                  51	30.61
19:08:                  21	30.60
19:08:                  51	30.59
19:09:                  21	30.58
19:09:                  51	30.58
19:10:                  21	30.57
19:10:                  51	30.56
19:11:                  21	30.54
19:11:                  51	30.54
19:12:                  21	30.53
19:12:                  51	30.52
19:13:                  21	30.51
19:13:                  51	30.44
19:14:                  21	30.46
19:14:                  51	30.48
19:15:                  21	30.49
19:15:                  51	30.50
19:16:                  21	30.51
19:16:                  51	30.52
19:17:                  21	30.52
19:17:                  51	30.51
19:18:                  21	30.53
19:18:                  51	30.54
19:19:                  21	30.53
19:19:                  51	30.54
19:20:                  21	30.54
19:20:                  51	30.55
19:21:                  21	30.56
19:21:                  51	30.54
19:22:                  21	30.55
19:22:                  51	30.54
19:23:                  21	30.54
19:23:                  51	30.55
19:24:                  21	30.57
19:24:                  51	30.58
19:25:                  21	30.59
19:25:                  51	30.59
19:26:                  21	30.61
19:26:                  51	30.61
19:27:                  21	30.62
19:27:                  51	30.61
19:28:                  21	30.60
19:28:                  51	30.62
19:29:                  21	30.60
19:29:                  51	30.62
19:30:                  21	30.60
19:30:                  51	30.62
19:31:                  21	30.60
19:31:                  51	30.61
19:32:                  21	30.61
19:32:                  51	30.61
19:33:                  21	30.62
19:33:                  51	30.61
19:34:                  21	30.61
19:34:                  51	30.64
19:35:                  21	30.62
19:35:                  51	30.64
19:36:                  21	30.63
19:36:                  52	30.64
19:37:                  22	30.64
19:37:                  52	30.64
19:38:                  22	30.64
19:38:                  52	30.63
19:39:                  22	30.64
19:39:                  52	30.63
19:40:                  22	30.64
19:40:                  52	30.63
19:41:                  22	30.63
19:41:                  52	30.62
19:42:                  22	30.61
19:42:                  52	30.62
19:43:                  22	30.62
19:43:                  52	30.61
19:44:                  22	30.62
19:44:                  52	30.62
19:45:                  22	30.63
19:45:                  52	30.61
19:46:                  22	30.59
19:46:                  52	30.59
19:47:                  22	30.59
19:47:                  52	30.60
19:48:                  22	30.60
19:48:                  52	30.60
19:49:                  22	30.62
19:49:                  52	30.61
19:50:                  22	30.62
19:50:                  52	30.61
19:51:                  22	30.62
19:51:                  52	30.62
19:52:                  22	30.61
19:52:                  52	30.62
19:53:                  22	30.61
19:53:                  52	30.60
19:54:                  22	30.61
19:54:                  52	30.61
19:55:                  22	30.63
19:55:                  52	30.64
19:56:                  22	30.65
19:56:                  52	30.64
19:57:                  22	30.65
19:57:                  52	30.66
19:58:                  22	30.64
19:58:                  52	30.66
19:59:                  22	30.64
19:59:                  52	30.65
20:00:                  22	30.65
20:00:                  52	30.64
20:01:                  22	30.65
20:01:                  53	30.65
20:02:                  23	30.64
20:02:                  53	30.64
20:03:                  23	30.63
20:03:                  53	30.63
20:04:                  23	30.63
20:04:                  53	30.61
20:05:                  23	30.63
20:05:                  53	30.64
20:06:                  23	30.65
20:06:                  53	30.65
20:07:                  23	30.65
20:07:                  53	30.64
20:08:                  23	30.65
20:08:                  53	30.64
20:09:                  23	30.63
20:09:                  53	30.64
20:10:                  23	30.63
20:10:                  53	30.63
20:11:                  23	30.62
20:11:                  53	30.62
20:12:                  23	30.61
20:12:                  53	30.62
20:13:                  23	30.61
20:13:                  53	30.61
20:14:                  23	30.60
20:14:                  53	30.60
20:15:                  23	30.61
20:15:                  53	30.62
20:16:                  23	30.62
20:16:                  53	30.63
20:17:                  23	30.63
20:17:                  53	30.62
20:18:                  23	30.63
20:18:                  53	30.62
20:19:                  23	30.62
20:19:                  53	30.62
20:20:                  23	30.62
20:20:                  53	30.60
20:21:                  23	30.56
20:21:                  53	30.58
20:22:                  23	30.59
20:22:                  53	30.58
20:23:                  23	30.58
20:23:                  53	30.58
20:24:                  23	30.58
20:24:                  53	30.58
20:25:                  23	30.60
20:25:                  54	30.61
20:26:                  24	30.62
20:26:                  54	30.65
20:27:                  24	30.66
20:27:                  54	30.68
20:28:                  24	30.69
20:28:                  54	30.71
20:29:                  24	30.72
20:29:                  54	30.73
20:30:                  24	30.74
20:30:                  54	30.74
20:31:                  24	30.75
20:31:                  54	30.77
20:32:                  24	30.81
20:32:                  54	30.82
20:33:                  24	30.82
20:33:                  54	30.79
20:34:                  24	30.81
20:34:                  54	30.83
20:35:                  24	30.85
20:35:                  54	30.89
20:36:                  24	30.90
20:36:                  54	30.92
20:37:                  24	30.94
20:37:                  54	30.95
20:38:                  24	30.97
20:38:                  54	30.99
20:39:                  24	31.01
20:39:                  54	31.02
20:40:                  24	31.05
20:40:                  54	31.07
20:41:                  24	31.09
20:41:                  54	31.10
20:42:                  24	31.12
20:42:                  54	31.13
20:43:                  24	31.15
20:43:                  54	31.16
20:44:                  24	31.19
20:44:                  54	31.22
20:45:                  24	31.24
20:45:                  54	31.27
20:46:                  24	31.29
20:46:                  54	31.32
20:47:                  24	31.34
20:47:                  54	31.36
20:48:                  24	31.34
20:48:                  54	31.39
20:49:                  24	31.41
20:49:                  54	31.41
20:50:                  24	31.41
20:50:                  54	31.42
20:51:                  24	31.38
20:51:                  54	31.38
20:52:                  25	31.37
20:52:                  55	31.33
20:53:                  25	31.36
20:53:                  55	31.38
20:54:                  25	31.32
20:54:                  55	31.32
20:55:                  25	31.36
20:55:                  55	31.37
20:56:                  25	31.35
20:56:                  55	31.36
20:57:                  25	31.41
20:57:                  55	31.44
20:58:                  25	31.43
20:58:                  55	31.45
20:59:                  25	31.47
20:59:                  55	31.52
21:00:                  25	31.49
21:00:                  55	31.53
21:01:                  25	31.53
21:01:                  55	31.54
21:02:                  25	31.55
21:02:                  55	31.57
21:03:                  25	31.55
21:03:                  55	31.53
21:04:                  25	31.54
21:04:                  55	31.55
21:05:                  25	31.57
21:05:                  55	31.63
21:06:                  25	31.67
21:06:                  55	31.68
21:07:                  25	31.68
21:07:                  55	31.72
21:08:                  25	31.73
21:08:                  55	31.73
21:09:                  25	31.76
21:09:                  55	31.79
21:10:                  25	31.77
21:10:                  55	31.79
21:11:                  25	31.83
21:11:                  55	31.85
21:12:                  25	31.86
21:12:                  55	31.86
21:13:                  25	31.84
21:13:                  55	31.86
21:14:                  25	31.84
21:14:                  55	31.86
21:15:                  25	31.85
21:15:                  55	31.86
21:16:                  25	31.91
21:16:                  56	31.94
21:17:                  26	31.95
21:17:                  56	31.97
21:18:                  26	32.01
21:18:                  56	32.00
21:19:                  26	32.04
21:19:                  56	32.05
21:20:                  26	32.06
21:20:                  56	32.08
21:21:                  26	32.10
21:21:                  56	32.11
21:22:                  26	32.10
21:22:                  56	32.11
21:23:                  26	32.12
21:23:                  56	32.16
21:24:                  26	32.14
21:24:                  56	32.16
21:25:                  26	32.17
21:25:                  56	32.18
21:26:                  26	32.23
21:26:                  56	32.21
21:27:                  26	32.23
21:27:                  56	32.23
21:28:                  26	32.23
21:28:                  56	32.25
21:29:                  26	32.24
21:29:                  56	32.25
21:30:                  26	32.25
21:30:                  56	32.27
21:31:                  26	32.28
21:31:                  56	32.25
21:32:                  26	32.25
21:32:                  56	32.24
21:33:                  26	32.23
21:33:                  56	32.25
21:34:                  26	32.26
21:34:                  56	32.29
21:35:                  26	32.25
21:35:                  56	32.24
21:36:                  26	32.30
21:36:                  56	32.34
21:37:                  26	32.33
21:37:                  56	32.35
21:38:                  26	32.41
21:38:                  56	32.46
21:39:                  27	32.48
21:39:                  57	32.51
21:40:                  27	32.56
21:40:                  57	32.58
21:41:                  27	32.64
21:41:                  57	32.66
21:42:                  27	32.69
21:42:                  57	32.72
21:43:                  27	32.78
21:43:                  57	32.83
21:44:                  27	32.86
21:44:                  57	32.86
21:45:                  27	32.90
21:45:                  57	32.95
21:46:                  27	32.97
21:46:                  57	32.97
21:47:                  27	33.02
21:47:                  57	33.05
21:48:                  27	33.06
21:48:                  57	33.09
21:49:                  27	33.10
21:49:                  57	33.11
21:50:                  27	33.12
21:50:                  57	33.12
21:51:                  27	33.14
21:51:                  57	33.15
21:52:                  27	33.15
21:52:                  57	33.15
21:53:                  27	33.14
21:53:                  57	33.14
21:54:                  27	33.17
21:54:                  57	33.17
21:55:                  27	33.18
21:55:                  57	33.18
21:56:                  27	33.18
21:56:                  57	33.19
21:57:                  27	33.21
21:57:                  57	33.21
21:58:                  27	33.22
21:58:                  57	33.25
21:59:                  27	33.25
21:59:                  57	33.25
22:00:                  27	33.29
22:00:                  57	33.28
22:01:                  27	33.29
22:01:                  57	33.27
22:02:                  27	33.29
22:02:                  57	33.32
22:03:                  27	33.33
22:03:                  57	33.31
22:04:                  27	33.32
22:04:                  57	33.35
22:05:                  27	33.34
22:05:                  57	33.33
22:06:                  27	33.33
22:06:                  57	33.35
22:07:                  27	33.34
22:07:                  57	33.36
22:08:                  27	33.36
22:08:                  57	33.36
22:09:                  27	33.37
22:09:                  57	33.37
22:10:                  27	33.36
22:10:                  57	33.35
22:11:                  27	33.35
22:11:                  57	33.35
22:12:                  27	33.35
22:12:                  57	33.35
22:13:                  27	33.33
22:13:                  57	33.31
22:14:                  27	33.27
22:14:                  57	33.28
22:15:                  28	33.28
22:15:                  58	33.32
22:16:                  28	33.32
22:16:                  58	33.33
22:17:                  28	33.35
22:17:                  58	33.37
22:18:                  28	33.40
22:18:                  58	33.40
22:19:                  28	33.38
22:19:                  58	33.40
22:20:                  28	33.40
22:20:                  58	33.38
22:21:                  28	33.40
22:21:                  58	33.38
22:22:                  28	33.41
22:22:                  58	33.37
22:23:                  28	33.40
22:23:                  58	33.40
22:24:                  28	33.37
22:24:                  58	33.38
22:25:                  28	33.38
22:25:                  58	33.36
22:26:                  28	33.36
22:26:                  58	33.34
22:27:                  28	33.35
22:27:                  58	33.37
22:28:                  28	33.36
22:28:                  58	33.37
22:29:                  28	33.35
22:29:                  58	33.35
22:30:                  28	33.35
22:30:                  58	33.35
22:31:                  28	33.35
22:31:                  58	33.35
22:32:                  28	33.34
22:32:                  58	33.36
22:33:                  28	33.35
22:33:                  58	33.35
22:34:                  28	33.35
22:34:                  58	33.35
22:35:                  28	33.34
22:35:                  59	33.35
22:36:                  29	33.35
22:36:                  59	33.35
22:37:                  29	33.35
22:37:                  59	33.35
22:38:                  29	33.35
22:38:                  59	33.35
22:39:                  29	33.34
22:39:                  59	33.35
22:40:                  29	33.35
22:40:                  59	33.35
22:41:                  29	33.35
22:41:                  59	33.36
22:42:                  29	33.36
22:42:                  59	33.37
22:43:                  29	33.35
22:43:                  59	33.38
22:44:                  29	33.37
22:44:                  59	33.41
22:45:                  29	33.38
22:45:                  59	33.41
22:46:                  29	33.40
22:46:                  59	33.40
22:47:                  29	33.41
22:47:                  59	33.43
22:48:                  29	33.43
22:48:                  59	33.45
22:49:                  29	33.46
22:49:                  59	33.44
22:50:                  29	33.46
22:50:                  59	33.44
22:51:                  29	33.46
22:51:                  59	33.45
22:52:                  29	33.45
22:52:                  59	33.45
22:53:                  29	33.42
22:53:                  59	33.38
22:54:                  29	33.38
22:54:                  59	33.37
22:55:                  30	33.38
22:56:                   0	33.36
22:56:                  30	33.35
22:57:                   0	33.34
22:57:                  30	33.33
22:58:                   0	33.34
22:58:                  30	33.33
22:59:                   0	33.30
22:59:                  30	33.27
23:00:                   0	33.28
23:00:                  30	33.26
23:01:                   0	33.23
23:01:                  30	33.21
23:02:                   0	33.21
23:02:                  30	33.19
23:03:                   0	33.18
23:03:                  30	33.16
23:04:                   0	33.15
23:04:                  30	33.13
23:05:                   0	33.10
23:05:                  30	33.08
23:06:                   0	33.05
23:06:                  30	33.01
23:07:                   0	33.00
23:07:                  30	32.99
23:08:                   0	32.99
23:08:                  30	32.96
23:09:                   0	32.94
23:09:                  30	32.95
23:10:                   0	32.94
23:10:                  30	32.93
23:11:                   0	32.92
23:11:                  30	32.89
23:12:                   0	32.87
23:12:                  30	32.88
23:13:                   0	32.85
23:13:                  30	32.82
23:14:                   0	32.81
23:14:                  30	32.81
23:15:                   0	32.79
23:15:                  30	32.78
23:16:                   0	32.75
23:16:                  30	32.72
23:17:                   0	32.75
23:17:                  30	32.73
23:18:                   1	32.72
23:18:                  31	32.73
23:19:                   1	32.74
23:19:                  31	32.74
23:20:                   1	32.73
23:20:                  31	32.71
23:21:                   1	32.69
23:21:                  31	32.69
23:22:                   1	32.68
23:22:                  31	32.64
23:23:                   1	32.64
23:23:                  31	32.64
23:24:                   1	32.61
23:24:                  31	32.59
23:25:                   1	32.58
23:25:                  31	32.57
23:26:                   1	32.56
23:26:                  31	32.53
23:27:                   1	32.51
23:27:                  31	32.51
23:28:                   1	32.50
23:28:                  31	32.51
23:29:                   1	32.50
23:29:                  31	32.52
23:30:                   1	32.47
23:30:                  31	32.48
23:31:                   1	32.45
23:31:                  31	32.43
23:32:                   1	32.42
23:32:                  31	32.41
23:33:                   1	32.41
23:33:                  31	32.39
23:34:                   1	32.40
23:34:                  31	32.38
23:35:                   1	32.37
23:35:                  31	32.36
23:36:                   1	32.35
23:36:                  31	32.34
23:37:                   1	32.32
23:37:                  31	32.29
23:38:                   1	32.30
23:38:                  31	32.30
23:39:                   1	32.28
23:39:                  31	32.28
23:40:                   1	32.28
23:40:                  31	32.27
23:41:                   1	32.25
23:41:                  31	32.25
23:42:                   1	32.24
23:42:                  31	32.23
23:43:                   2	32.22
23:43:                  32	32.21
23:44:                   2	32.20
23:44:                  32	32.18
23:45:                   2	32.17
23:45:                  32	32.16
23:46:                   2	32.11
23:46:                  32	32.14
23:47:                   2	32.11
23:47:                  32	32.10
23:48:                   2	32.10
23:48:                  32	32.09
23:49:                   2	32.11
23:49:                  32	32.08
23:50:                   2	32.08
23:50:                  32	32.08
23:51:                   2	32.06
23:51:                  32	32.05
23:52:                   2	32.04
23:52:                  32	32.05
23:53:                   2	32.04
23:53:                  32	32.02
23:54:                   2	32.02
23:54:                  32	32.01
23:55:                   2	31.99
23:55:                  32	31.97
23:56:                   2	31.97
23:56:                  32	31.94
23:57:                   2	31.94
23:57:                  32	31.95
23:58:                   2	31.95
23:58:                  32	31.93
23:59:                   2	31.94
23:59:                  32	31.94
