0:00:                  16	38.21
0:00:                  46	38.21
0:01:                  16	38.20
0:01:                  46	38.22
0:02:                  16	38.21
0:02:                  46	38.21
0:03:                  16	38.21
0:03:                  46	38.21
0:04:                  16	38.20
0:04:                  46	38.21
0:05:                  17	38.21
0:05:                  47	38.20
0:06:                  17	38.20
0:06:                  47	38.20
0:07:                  17	38.21
0:07:                  47	38.21
0:08:                  17	38.21
0:08:                  47	38.20
0:09:                  17	38.21
0:09:                  47	38.20
0:10:                  17	38.22
0:10:                  47	38.22
0:11:                  17	38.22
0:11:                  47	38.21
0:12:                  17	38.22
0:12:                  47	38.23
0:13:                  17	38.21
0:13:                  47	38.21
0:14:                  17	38.21
0:14:                  47	38.20
0:15:                  17	38.21
0:15:                  47	38.22
0:16:                  17	38.21
0:16:                  47	38.20
0:17:                  17	38.22
0:17:                  47	38.21
0:18:                  17	38.21
0:18:                  47	38.22
0:19:                  17	38.22
0:19:                  47	38.21
0:20:                  17	38.20
0:20:                  47	38.21
0:21:                  17	38.21
0:21:                  47	38.21
0:22:                  17	38.21
0:22:                  47	38.22
0:23:                  17	38.22
0:23:                  47	38.22
0:24:                  17	38.22
0:24:                  47	38.21
0:25:                  17	38.21
0:25:                  47	38.21
0:26:                  17	38.21
0:26:                  47	38.21
0:27:                  17	38.21
0:27:                  47	38.21
0:28:                  17	38.22
0:28:                  47	38.21
0:29:                  17	38.21
0:29:                  47	38.21
0:30:                  17	38.21
0:30:                  47	38.20
0:31:                  17	38.19
0:31:                  47	38.20
0:32:                  17	38.20
0:32:                  47	38.20
0:33:                  17	38.20
0:33:                  47	38.19
0:34:                  17	38.19
0:34:                  47	38.19
0:35:                  18	38.18
0:35:                  48	38.19
0:36:                  18	38.19
0:36:                  48	38.19
0:37:                  18	38.17
0:37:                  48	38.18
0:38:                  18	38.18
0:38:                  48	38.17
0:39:                  18	38.17
0:39:                  48	38.17
0:40:                  18	38.17
0:40:                  48	38.17
0:41:                  18	38.17
0:41:                  48	38.18
0:42:                  18	38.20
0:42:                  48	38.20
0:43:                  18	38.19
0:43:                  48	38.19
0:44:                  18	38.19
0:44:                  48	38.19
0:45:                  18	38.19
0:45:                  48	38.18
0:46:                  18	38.19
0:46:                  48	38.18
0:47:                  18	38.18
0:47:                  48	38.18
0:48:                  18	38.18
0:48:                  48	38.17
0:49:                  18	38.18
0:49:                  48	38.18
0:50:                  18	38.18
0:50:                  48	38.17
0:51:                  18	38.18
0:51:                  48	38.17
0:52:                  18	38.18
0:52:                  48	38.17
0:53:                  18	38.18
0:53:                  48	38.18
0:54:                  18	38.19
0:54:                  48	38.20
0:55:                  18	38.19
0:55:                  48	38.20
0:56:                  18	38.20
0:56:                  48	38.21
0:57:                  18	38.20
0:57:                  48	38.22
0:58:                  18	38.22
0:58:                  48	38.21
0:59:                  18	38.21
0:59:                  48	38.22
1:00:                  18	38.22
1:00:                  48	38.22
1:01:                  18	38.22
1:01:                  48	38.21
1:02:                  18	38.22
1:02:                  48	38.22
1:03:                  18	38.21
1:03:                  48	38.20
1:04:                  18	38.19
1:04:                  48	38.20
1:05:                  18	38.20
1:05:                  48	38.20
1:06:                  18	38.19
1:06:                  49	38.20
1:07:                  19	38.20
1:07:                  49	38.18
1:08:                  19	38.19
1:08:                  49	38.20
1:09:                  19	38.19
1:09:                  49	38.19
1:10:                  19	38.20
1:10:                  49	38.20
1:11:                  19	38.20
1:11:                  49	38.20
1:12:                  19	38.20
1:12:                  49	38.20
1:13:                  19	38.21
1:13:                  49	38.20
1:14:                  19	38.21
1:14:                  49	38.20
1:15:                  19	38.18
1:15:                  49	38.19
1:16:                  19	38.19
1:16:                  49	38.19
1:17:                  19	38.20
1:17:                  49	38.18
1:18:                  19	38.17
1:18:                  49	38.18
1:19:                  19	38.18
1:19:                  49	38.18
1:20:                  19	38.18
1:20:                  49	38.16
1:21:                  19	38.16
1:21:                  49	38.18
1:22:                  19	38.15
1:22:                  49	38.11
1:23:                  19	38.10
1:23:                  49	38.10
1:24:                  19	38.10
1:24:                  50	38.11
1:25:                  20	38.12
1:25:                  50	38.12
1:26:                  20	38.12
1:26:                  50	38.11
1:27:                  20	38.09
1:27:                  50	38.11
1:28:                  20	38.10
1:28:                  50	38.11
1:29:                  20	38.10
1:29:                  50	38.09
1:30:                  20	38.11
1:30:                  50	38.10
1:31:                  20	38.10
1:31:                  50	38.11
1:32:                  20	38.11
1:32:                  50	38.11
1:33:                  20	38.11
1:33:                  50	38.11
1:34:                  20	38.09
1:34:                  50	38.11
1:35:                  20	38.11
1:35:                  50	38.11
1:36:                  20	38.10
1:36:                  50	38.11
1:37:                  20	38.12
1:37:                  50	38.11
1:38:                  20	38.09
1:38:                  50	38.10
1:39:                  20	38.11
1:39:                  50	38.11
1:40:                  20	38.11
1:40:                  50	38.12
1:41:                  20	38.11
1:41:                  50	38.10
1:42:                  20	38.11
1:42:                  50	38.12
1:43:                  20	38.13
1:43:                  50	38.11
1:44:                  20	38.11
1:44:                  50	38.11
1:45:                  20	38.12
1:45:                  50	38.11
1:46:                  20	38.09
1:46:                  50	38.11
1:47:                  20	38.09
1:47:                  50	38.10
1:48:                  20	38.10
1:48:                  50	38.10
1:49:                  20	38.09
1:49:                  50	38.10
1:50:                  21	38.10
1:50:                  51	38.09
1:51:                  21	38.09
1:51:                  51	38.08
1:52:                  21	38.11
1:52:                  51	38.10
1:53:                  21	38.10
1:53:                  51	38.09
1:54:                  21	38.09
1:54:                  51	38.09
1:55:                  21	38.09
1:55:                  51	38.07
1:56:                  21	38.07
1:56:                  51	38.07
1:57:                  21	38.03
1:57:                  51	38.02
1:58:                  21	38.06
1:58:                  51	38.05
1:59:                  21	38.06
1:59:                  51	38.06
2:00:                  21	38.04
2:00:                  51	38.05
2:01:                  21	38.06
2:01:                  51	38.05
2:02:                  21	38.02
2:02:                  51	38.05
2:03:                  21	38.05
2:03:                  51	38.04
2:04:                  21	38.05
2:04:                  51	38.05
2:05:                  21	38.06
2:05:                  51	38.04
2:06:                  21	38.04
2:06:                  51	38.04
2:07:                  21	38.04
2:07:                  51	38.03
2:08:                  21	38.04
2:08:                  51	38.02
2:09:                  21	38.02
2:09:                  51	38.03
2:10:                  21	38.03
2:10:                  51	38.03
2:11:                  21	38.03
2:11:                  51	38.03
2:12:                  21	38.02
2:12:                  51	38.02
2:13:                  21	38.03
2:13:                  51	38.03
2:14:                  21	38.02
2:14:                  51	38.03
2:15:                  21	38.02
2:15:                  51	38.02
2:16:                  21	38.02
2:16:                  51	38.01
2:17:                  21	38.02
2:17:                  51	38.02
2:18:                  21	38.00
2:18:                  51	38.01
2:19:                  21	38.01
2:19:                  51	38.02
2:20:                  21	38.01
2:20:                  51	38.00
2:21:                  21	38.00
2:21:                  51	38.00
2:22:                  21	38.00
2:22:                  51	38.01
2:23:                  21	38.01
2:23:                  52	38.00
2:24:                  22	38.00
2:24:                  52	38.00
2:25:                  22	37.98
2:25:                  52	37.99
2:26:                  22	37.99
2:26:                  52	37.98
2:27:                  22	37.99
2:27:                  52	37.99
2:28:                  22	38.00
2:28:                  52	38.00
2:29:                  22	37.99
2:29:                  52	38.00
2:30:                  22	37.99
2:30:                  52	37.98
2:31:                  22	37.98
2:31:                  52	37.98
2:32:                  22	37.98
2:32:                  52	37.98
2:33:                  22	37.97
2:33:                  52	37.98
2:34:                  22	37.98
2:34:                  52	37.98
2:35:                  22	37.99
2:35:                  52	37.98
2:36:                  22	37.99
2:36:                  52	38.01
2:37:                  22	38.02
2:37:                  52	38.00
2:38:                  22	38.01
2:38:                  52	38.01
2:39:                  22	38.02
2:39:                  52	38.02
2:40:                  22	38.02
2:40:                  52	38.03
2:41:                  22	38.04
2:41:                  52	38.04
2:42:                  22	38.02
2:42:                  52	38.03
2:43:                  22	38.04
2:43:                  52	38.03
2:44:                  22	38.03
2:44:                  52	38.04
2:45:                  22	38.04
2:45:                  53	38.02
2:46:                  23	38.02
2:46:                  53	38.02
2:47:                  23	38.02
2:47:                  53	38.01
2:48:                  23	38.02
2:48:                  53	38.02
2:49:                  23	38.02
2:49:                  53	38.02
2:50:                  23	38.02
2:50:                  53	38.00
2:51:                  23	38.01
2:51:                  53	38.01
2:52:                  23	38.01
2:52:                  53	38.02
2:53:                  23	38.01
2:53:                  53	38.01
2:54:                  23	38.01
2:54:                  53	38.01
2:55:                  23	38.00
2:55:                  53	38.02
2:56:                  23	38.01
2:56:                  53	38.00
2:57:                  23	38.01
2:57:                  53	38.01
2:58:                  23	38.01
2:58:                  53	38.01
2:59:                  23	38.01
2:59:                  53	38.00
3:00:                  23	38.00
3:00:                  53	38.00
3:01:                  23	38.00
3:01:                  53	38.00
3:02:                  23	38.01
3:02:                  53	38.01
3:03:                  23	38.02
3:03:                  53	38.02
3:04:                  23	38.02
3:04:                  53	38.02
3:05:                  23	38.02
3:05:                  53	38.02
3:06:                  23	38.02
3:06:                  53	38.02
3:07:                  23	38.02
3:07:                  53	38.01
3:08:                  23	38.02
3:08:                  53	38.01
3:09:                  23	38.01
3:09:                  53	38.02
3:10:                  23	38.01
3:10:                  53	38.01
3:11:                  23	38.01
3:11:                  54	38.01
3:12:                  24	38.01
3:12:                  54	38.01
3:13:                  24	38.01
3:13:                  54	38.00
3:14:                  24	37.99
3:14:                  54	37.99
3:15:                  24	38.01
3:15:                  54	38.01
3:16:                  24	38.01
3:16:                  54	38.01
3:17:                  24	38.00
3:17:                  54	38.00
3:18:                  24	38.01
3:18:                  54	37.99
3:19:                  24	37.99
3:19:                  54	37.99
3:20:                  24	37.99
3:20:                  54	38.00
3:21:                  24	38.00
3:21:                  54	38.01
3:22:                  24	38.00
3:22:                  54	38.01
3:23:                  24	38.01
3:23:                  54	38.01
3:24:                  24	38.02
3:24:                  54	38.01
3:25:                  24	38.02
3:25:                  54	38.02
3:26:                  24	38.01
3:26:                  54	38.02
3:27:                  24	38.03
3:27:                  54	38.03
3:28:                  24	38.02
3:28:                  54	38.02
3:29:                  24	38.02
3:29:                  54	38.04
3:30:                  24	38.04
3:30:                  54	38.04
3:31:                  24	38.02
3:31:                  54	38.04
3:32:                  24	38.04
3:32:                  54	38.04
3:33:                  24	38.03
3:33:                  54	38.03
3:34:                  25	38.02
3:34:                  55	38.03
3:35:                  25	38.02
3:35:                  55	38.02
3:36:                  25	38.02
3:36:                  55	38.03
3:37:                  25	38.02
3:37:                  55	38.02
3:38:                  25	38.02
3:38:                  55	38.02
3:39:                  25	38.02
3:39:                  55	38.02
3:40:                  25	38.02
3:40:                  55	38.03
3:41:                  25	38.02
3:41:                  55	38.02
3:42:                  25	38.02
3:42:                  55	38.02
3:43:                  25	38.02
3:43:                  55	38.02
3:44:                  25	38.02
3:44:                  55	38.02
3:45:                  25	38.01
3:45:                  55	38.02
3:46:                  25	38.02
3:46:                  55	38.03
3:47:                  25	38.02
3:47:                  55	38.02
3:48:                  25	38.01
3:48:                  55	38.02
3:49:                  25	38.01
3:49:                  55	38.01
3:50:                  25	38.00
3:50:                  55	38.01
3:51:                  25	38.00
3:51:                  55	37.99
3:52:                  25	37.99
3:52:                  55	37.99
3:53:                  25	37.99
3:53:                  55	37.97
3:54:                  25	37.97
3:54:                  55	37.98
3:55:                  25	37.97
3:55:                  55	37.97
3:56:                  25	37.98
3:56:                  55	37.97
3:57:                  25	37.97
3:57:                  55	37.97
3:58:                  25	37.97
3:58:                  55	37.97
3:59:                  25	37.97
3:59:                  55	37.97
4:00:                  25	37.97
4:00:                  55	37.96
4:01:                  26	37.95
4:01:                  56	37.96
4:02:                  26	37.95
4:02:                  56	37.95
4:03:                  26	37.95
4:03:                  56	37.94
4:04:                  26	37.95
4:04:                  56	37.94
4:05:                  26	37.95
4:05:                  56	37.93
4:06:                  26	37.94
4:06:                  56	37.93
4:07:                  26	37.93
4:07:                  56	37.94
4:08:                  26	37.93
4:08:                  56	37.93
4:09:                  26	37.93
4:09:                  56	37.92
4:10:                  26	37.92
4:10:                  56	37.91
4:11:                  26	37.92
4:11:                  56	37.92
4:12:                  26	37.91
4:12:                  56	37.91
4:13:                  26	37.91
4:13:                  56	37.91
4:14:                  26	37.91
4:14:                  56	37.89
4:15:                  26	37.89
4:15:                  56	37.89
4:16:                  26	37.89
4:16:                  56	37.88
4:17:                  26	37.90
4:17:                  56	37.89
4:18:                  26	37.89
4:18:                  56	37.88
4:19:                  26	37.87
4:19:                  56	37.89
4:20:                  26	37.87
4:20:                  56	37.87
4:21:                  26	37.88
4:21:                  56	37.87
4:22:                  26	37.87
4:22:                  56	37.87
4:23:                  26	37.86
4:23:                  56	37.87
4:24:                  26	37.87
4:24:                  56	37.87
4:25:                  26	37.87
4:25:                  56	37.87
4:26:                  26	37.87
4:26:                  56	37.86
4:27:                  26	37.87
4:27:                  56	37.86
4:28:                  26	37.87
4:28:                  56	37.87
4:29:                  26	37.86
4:29:                  56	37.87
4:30:                  27	37.86
4:30:                  57	37.86
4:31:                  27	37.84
4:31:                  57	37.84
4:32:                  27	37.85
4:32:                  57	37.83
4:33:                  27	37.84
4:33:                  57	37.84
4:34:                  27	37.83
4:34:                  57	37.84
4:35:                  27	37.85
4:35:                  57	37.85
4:36:                  27	37.83
4:36:                  57	37.82
4:37:                  27	37.83
4:37:                  57	37.84
4:38:                  27	37.84
4:38:                  57	37.83
4:39:                  27	37.82
4:39:                  57	37.83
4:40:                  27	37.82
4:40:                  57	37.82
4:41:                  27	37.82
4:41:                  57	37.83
4:42:                  27	37.82
4:42:                  57	37.82
4:43:                  27	37.85
4:43:                  57	37.82
4:44:                  27	37.84
4:44:                  57	37.82
4:45:                  27	37.83
4:45:                  57	37.82
4:46:                  27	37.82
4:46:                  57	37.83
4:47:                  27	37.82
4:47:                  57	37.82
4:48:                  27	37.83
4:48:                  57	37.83
4:49:                  27	37.83
4:49:                  57	37.81
4:50:                  27	37.81
4:50:                  57	37.81
4:51:                  27	37.81
4:51:                  57	37.81
4:52:                  27	37.81
4:52:                  57	37.81
4:53:                  27	37.81
4:53:                  57	37.80
4:54:                  27	37.80
4:54:                  57	37.81
4:55:                  27	37.78
4:55:                  57	37.77
4:56:                  27	37.77
4:56:                  57	37.78
4:57:                  28	37.77
4:57:                  58	37.77
4:58:                  28	37.77
4:58:                  58	37.76
4:59:                  28	37.76
4:59:                  58	37.76
5:00:                  28	37.76
5:00:                  58	37.75
5:01:                  28	37.76
5:01:                  58	37.76
5:02:                  28	37.76
5:02:                  58	37.78
5:03:                  28	37.78
5:03:                  58	37.78
5:04:                  28	37.78
5:04:                  58	37.78
5:05:                  28	37.77
5:05:                  58	37.78
5:06:                  28	37.78
5:06:                  58	37.78
5:07:                  28	37.78
5:07:                  58	37.78
5:08:                  28	37.80
5:08:                  58	37.78
5:09:                  28	37.79
5:09:                  58	37.80
5:10:                  28	37.80
5:10:                  58	37.81
5:11:                  28	37.81
5:11:                  58	37.80
5:12:                  28	37.79
5:12:                  58	37.80
5:13:                  28	37.78
5:13:                  58	37.78
5:14:                  28	37.79
5:14:                  58	37.79
5:15:                  28	37.80
5:15:                  58	37.80
5:16:                  28	37.80
5:16:                  58	37.80
5:17:                  28	37.81
5:17:                  58	37.81
5:18:                  28	37.80
5:18:                  58	37.80
5:19:                  28	37.80
5:19:                  58	37.80
5:20:                  28	37.78
5:20:                  58	37.80
5:21:                  28	37.80
5:21:                  58	37.79
5:22:                  28	37.79
5:22:                  58	37.80
5:23:                  28	37.82
5:23:                  58	37.80
5:24:                  28	37.81
5:24:                  58	37.81
5:25:                  28	37.81
5:25:                  58	37.82
5:26:                  28	37.82
5:26:                  58	37.82
5:27:                  28	37.81
5:27:                  58	37.81
5:28:                  28	37.81
5:28:                  58	37.80
5:29:                  28	37.80
5:29:                  58	37.80
5:30:                  29	37.80
5:30:                  59	37.80
5:31:                  29	37.80
5:31:                  59	37.81
5:32:                  29	37.81
5:32:                  59	37.82
5:33:                  29	37.81
5:33:                  59	37.80
5:34:                  29	37.81
5:34:                  59	37.78
5:35:                  29	37.80
5:35:                  59	37.77
5:36:                  29	37.77
5:36:                  59	37.78
5:37:                  29	37.78
5:37:                  59	37.77
5:38:                  29	37.78
5:38:                  59	37.78
5:39:                  29	37.77
5:39:                  59	37.77
5:40:                  29	37.77
5:40:                  59	37.76
5:41:                  29	37.77
5:41:                  59	37.76
5:42:                  29	37.75
5:42:                  59	37.77
5:43:                  29	37.77
5:43:                  59	37.77
5:44:                  29	37.76
5:44:                  59	37.76
5:45:                  29	37.77
5:45:                  59	37.76
5:46:                  29	37.76
5:46:                  59	37.76
5:47:                  29	37.76
5:47:                  59	37.76
5:48:                  29	37.76
5:48:                  59	37.74
5:49:                  29	37.75
5:49:                  59	37.74
5:50:                  29	37.74
5:50:                  59	37.73
5:51:                  29	37.73
5:51:                  59	37.73
5:52:                  29	37.74
5:52:                  59	37.72
5:53:                  29	37.73
5:53:                  59	37.72
5:54:                  29	37.73
5:54:                  59	37.72
5:55:                  29	37.73
5:55:                  59	37.72
5:56:                  29	37.72
5:56:                  59	37.73
5:57:                  29	37.73
5:57:                  59	37.73
5:58:                  29	37.72
5:58:                  59	37.72
5:59:                  29	37.71
5:59:                  59	37.73
6:00:                  29	37.73
6:00:                  59	37.73
6:01:                  29	37.73
6:01:                  59	37.72
6:02:                  29	37.73
6:02:                  59	37.74
6:03:                  29	37.73
6:03:                  59	37.74
6:04:                  29	37.74
6:04:                  59	37.73
6:05:                  29	37.73
6:05:                  59	37.74
6:06:                  29	37.73
6:06:                  59	37.73
6:07:                  29	37.73
6:07:                  59	37.73
6:08:                  29	37.72
6:08:                  59	37.73
6:09:                  29	37.73
6:09:                  59	37.73
6:10:                  29	37.72
6:10:                  59	37.72
6:11:                  29	37.72
6:11:                  59	37.71
6:12:                  29	37.72
6:12:                  59	37.71
6:13:                  29	37.72
6:13:                  59	37.71
6:14:                  29	37.72
6:14:                  59	37.70
6:15:                  30	37.71
6:16:                   0	37.71
6:16:                  30	37.71
6:17:                   0	37.71
6:17:                  30	37.70
6:18:                   0	37.71
6:18:                  30	37.71
6:19:                   0	37.71
6:19:                  30	37.70
6:20:                   0	37.71
6:20:                  30	37.71
6:21:                   0	37.70
6:21:                  30	37.70
6:22:                   0	37.71
6:22:                  30	37.71
6:23:                   0	37.71
6:23:                  30	37.71
6:24:                   0	37.72
6:24:                  30	37.70
6:25:                   0	37.71
6:25:                  30	37.71
6:26:                   0	37.71
6:26:                  30	37.71
6:27:                   0	37.71
6:27:                  30	37.71
6:28:                   0	37.71
6:28:                  30	37.72
6:29:                   0	37.71
6:29:                  30	37.72
6:30:                   0	37.72
6:30:                  30	37.72
6:31:                   0	37.71
6:31:                  30	37.71
6:32:                   0	37.71
6:32:                  30	37.71
6:33:                   0	37.70
6:33:                  30	37.70
6:34:                   0	37.71
6:34:                  30	37.70
6:35:                   0	37.70
6:35:                  30	37.70
6:36:                   0	37.70
6:36:                  30	37.70
6:37:                   0	37.69
6:37:                  30	37.70
6:38:                   0	37.69
6:38:                  30	37.70
6:39:                   0	37.70
6:39:                  30	37.71
6:40:                   0	37.69
6:40:                  30	37.70
6:41:                   0	37.70
6:41:                  30	37.70
6:42:                   0	37.70
6:42:                  30	37.70
6:43:                   0	37.71
6:43:                  30	37.71
6:44:                   0	37.70
6:44:                  30	37.71
6:45:                   0	37.71
6:45:                  30	37.71
6:46:                   0	37.72
6:46:                  31	37.71
6:47:                   1	37.72
6:47:                  31	37.71
6:48:                   1	37.71
6:48:                  31	37.71
6:49:                   1	37.70
6:49:                  31	37.70
6:50:                   1	37.71
6:50:                  31	37.70
6:51:                   1	37.70
6:51:                  31	37.70
6:52:                   1	37.70
6:52:                  31	37.70
6:53:                   1	37.70
6:53:                  31	37.71
6:54:                   1	37.71
6:54:                  31	37.70
6:55:                   1	37.72
6:55:                  31	37.71
6:56:                   1	37.72
6:56:                  31	37.72
6:57:                   1	37.72
6:57:                  31	37.74
6:58:                   1	37.74
6:58:                  31	37.73
6:59:                   1	37.74
6:59:                  31	37.75
7:00:                   1	37.74
7:00:                  31	37.75
7:01:                   1	37.74
7:01:                  31	37.74
7:02:                   1	37.73
7:02:                  31	37.73
7:03:                   1	37.74
7:03:                  31	37.74
7:04:                   1	37.73
7:04:                  31	37.74
7:05:                   1	37.74
7:05:                  31	37.73
7:06:                   1	37.75
7:06:                  31	37.75
7:07:                   1	37.75
7:07:                  31	37.75
7:08:                   1	37.74
7:08:                  31	37.74
7:09:                   1	37.75
7:09:                  31	37.75
7:10:                   1	37.75
7:10:                  31	37.75
7:11:                   1	37.77
7:11:                  31	37.77
7:12:                   1	37.76
7:12:                  31	37.76
7:13:                   1	37.77
7:13:                  31	37.76
7:14:                   1	37.76
7:14:                  31	37.76
7:15:                   1	37.76
7:15:                  31	37.76
7:16:                   1	37.77
7:16:                  31	37.77
7:17:                   1	37.77
7:17:                  31	37.76
7:18:                   1	37.77
7:18:                  31	37.76
7:19:                   1	37.75
7:19:                  31	37.76
7:20:                   1	37.77
7:20:                  31	37.75
7:21:                   1	37.76
7:21:                  31	37.77
7:22:                   1	37.76
7:22:                  31	37.76
7:23:                   1	37.76
7:23:                  31	37.77
7:24:                   1	37.77
7:24:                  31	37.77
7:25:                   1	37.77
7:25:                  31	37.76
7:26:                   1	37.77
7:26:                  31	37.76
7:27:                   1	37.76
7:27:                  31	37.76
7:28:                   1	37.77
7:28:                  31	37.76
7:29:                   1	37.76
7:29:                  31	37.74
7:30:                   2	37.76
7:30:                  32	37.74
7:31:                   2	37.74
7:31:                  32	37.74
7:32:                   2	37.74
7:32:                  32	37.74
7:33:                   2	37.75
7:33:                  32	37.75
7:34:                   2	37.74
7:34:                  32	37.75
7:35:                   2	37.74
7:35:                  32	37.75
7:36:                   2	37.75
7:36:                  32	37.74
7:37:                   2	37.74
7:37:                  32	37.73
7:38:                   2	37.73
7:38:                  32	37.74
7:39:                   2	37.73
7:39:                  32	37.72
7:40:                   2	37.74
7:40:                  32	37.73
7:41:                   2	37.73
7:41:                  32	37.72
7:42:                   2	37.74
7:42:                  32	37.73
7:43:                   2	37.74
7:43:                  32	37.73
7:44:                   2	37.74
7:44:                  32	37.74
7:45:                   2	37.74
7:45:                  32	37.73
7:46:                   2	37.75
7:46:                  32	37.75
7:47:                   2	37.73
7:47:                  32	37.73
7:48:                   2	37.74
7:48:                  32	37.74
7:49:                   2	37.73
7:49:                  32	37.74
7:50:                   2	37.73
7:50:                  32	37.73
7:51:                   2	37.73
7:51:                  32	37.72
7:52:                   2	37.72
7:52:                  32	37.73
7:53:                   2	37.72
7:53:                  32	37.72
7:54:                   2	37.72
7:54:                  32	37.72
7:55:                   2	37.73
7:55:                  32	37.72
7:56:                   2	37.71
7:56:                  32	37.72
7:57:                   2	37.72
7:57:                  32	37.72
7:58:                   2	37.72
7:58:                  32	37.72
7:59:                   2	37.70
7:59:                  32	37.71
8:00:                   2	37.71
8:00:                  32	37.72
8:01:                   2	37.70
8:01:                  32	37.70
8:02:                   2	37.70
8:02:                  32	37.69
8:03:                   3	37.69
8:03:                  33	37.69
8:04:                   3	37.70
8:04:                  33	37.71
8:05:                   3	37.69
8:05:                  33	37.70
8:06:                   3	37.71
8:06:                  33	37.71
8:07:                   3	37.71
8:07:                  33	37.72
8:08:                   3	37.70
8:08:                  33	37.71
8:09:                   3	37.71
8:09:                  33	37.70
8:10:                   3	37.72
8:10:                  33	37.72
8:11:                   3	37.71
8:11:                  33	37.71
8:12:                   3	37.72
8:12:                  33	37.71
8:13:                   3	37.71
8:13:                  33	37.70
8:14:                   3	37.70
8:14:                  33	37.70
8:15:                   3	37.70
8:15:                  33	37.70
8:16:                   3	37.71
8:16:                  33	37.68
8:17:                   3	37.68
8:17:                  33	37.69
8:18:                   3	37.68
8:18:                  33	37.69
8:19:                   3	37.69
8:19:                  33	37.69
8:20:                   3	37.68
8:20:                  33	37.67
8:21:                   3	37.67
8:21:                  33	37.67
8:22:                   4	37.68
8:22:                  34	37.68
8:23:                   4	37.67
8:23:                  34	37.67
8:24:                   4	37.67
8:24:                  34	37.69
8:25:                   4	37.69
8:25:                  34	37.67
8:26:                   4	37.68
8:26:                  34	37.68
8:27:                   4	37.68
8:27:                  34	37.68
8:28:                   4	37.67
8:28:                  34	37.68
8:29:                   4	37.67
8:29:                  34	37.66
8:30:                   4	37.67
8:30:                  34	37.67
8:31:                   4	37.68
8:31:                  34	37.66
8:32:                   4	37.66
8:32:                  34	37.66
8:33:                   4	37.67
8:33:                  34	37.67
8:34:                   4	37.67
8:34:                  34	37.67
8:35:                   4	37.65
8:35:                  34	37.66
8:36:                   4	37.65
8:36:                  34	37.67
8:37:                   4	37.65
8:37:                  34	37.66
8:38:                   4	37.66
8:38:                  34	37.66
8:39:                   4	37.66
8:39:                  35	37.66
8:40:                   5	37.66
8:40:                  35	37.66
8:41:                   5	37.64
8:41:                  35	37.58
8:42:                   5	37.63
8:42:                  35	37.64
8:43:                   5	37.62
8:43:                  35	37.63
8:44:                   5	37.65
8:44:                  35	37.68
8:45:                   5	37.66
8:45:                  35	37.66
8:46:                   5	37.65
8:46:                  35	37.67
8:47:                   5	37.67
8:47:                  35	37.69
8:48:                   5	37.69
8:48:                  35	37.70
8:49:                   5	37.69
8:49:                  35	37.70
8:50:                   5	37.69
8:50:                  35	37.69
8:51:                   5	37.71
8:51:                  35	37.70
8:52:                   5	37.69
8:52:                  35	37.69
8:53:                   5	37.68
8:53:                  35	37.68
8:54:                   5	37.70
8:54:                  35	37.69
8:55:                   5	37.69
8:55:                  35	37.67
8:56:                   5	37.66
8:56:                  35	37.63
8:57:                   5	37.62
8:57:                  35	37.62
8:58:                   5	37.61
8:58:                  35	37.61
8:59:                   5	37.62
8:59:                  35	37.61
9:00:                   5	37.63
9:00:                  35	37.62
9:01:                   5	37.63
9:01:                  35	37.65
9:02:                   5	37.66
9:02:                  35	37.63
9:03:                   5	37.62
9:03:                  35	37.63
9:04:                   5	37.65
9:04:                  35	37.68
9:05:                   5	37.67
9:05:                  35	37.69
9:06:                   5	37.69
9:06:                  35	37.70
9:07:                   5	37.70
9:07:                  35	37.69
9:08:                   5	37.70
9:08:                  35	37.72
9:09:                   6	37.72
9:09:                  36	37.72
9:10:                   6	37.73
9:10:                  36	37.71
9:11:                   6	37.71
9:11:                  36	37.74
9:12:                   6	37.74
9:12:                  36	37.71
9:13:                   6	37.71
9:13:                  36	37.70
9:14:                   6	37.73
9:14:                  36	37.73
9:15:                   6	37.75
9:15:                  36	37.75
9:16:                   6	37.75
9:16:                  36	37.76
9:17:                   6	37.75
9:17:                  36	37.77
9:18:                   6	37.78
9:18:                  36	37.77
9:19:                   6	37.79
9:19:                  36	37.80
9:20:                   6	37.82
9:20:                  36	37.84
9:21:                   6	37.83
9:21:                  36	37.84
9:22:                   6	37.82
9:22:                  36	37.84
9:23:                   6	37.76
9:23:                  36	37.80
9:24:                   6	37.83
9:24:                  36	37.82
9:25:                   6	37.84
9:25:                  36	37.79
9:26:                   6	37.80
9:26:                  36	37.80
9:27:                   6	37.79
9:27:                  36	37.80
9:28:                   6	37.81
9:28:                  36	37.81
9:29:                   6	37.81
9:29:                  36	37.79
9:30:                   6	37.78
9:30:                  36	37.81
9:31:                   6	37.81
9:31:                  36	37.77
9:32:                   6	37.76
9:32:                  36	37.78
9:33:                   6	37.82
9:33:                  36	37.81
9:34:                   6	37.82
9:34:                  36	37.80
9:35:                   6	37.82
9:35:                  36	37.84
9:36:                   6	37.83
9:36:                  36	37.84
9:37:                   6	37.87
9:37:                  36	37.87
9:38:                   6	37.88
9:38:                  36	37.87
9:39:                   7	37.89
9:39:                  37	37.88
9:40:                   7	37.90
9:40:                  37	37.89
9:41:                   7	37.90
9:41:                  37	37.90
9:42:                   7	37.89
9:42:                  37	37.82
9:43:                   7	37.83
9:43:                  37	37.88
9:44:                   7	37.90
9:44:                  37	37.93
9:45:                   7	37.93
9:45:                  37	37.96
9:46:                   7	37.98
9:46:                  37	37.98
9:47:                   7	37.99
9:47:                  37	38.01
9:48:                   7	38.03
9:48:                  37	38.04
9:49:                   7	38.07
9:49:                  37	38.11
9:50:                   7	38.13
9:50:                  37	38.14
9:51:                   7	38.17
9:51:                  37	38.19
9:52:                   7	38.20
9:52:                  37	38.23
9:53:                   7	38.24
9:53:                  37	38.26
9:54:                   7	38.28
9:54:                  37	38.30
9:55:                   7	38.31
9:55:                  37	38.33
9:56:                   7	38.35
9:56:                  37	38.37
9:57:                   7	38.39
9:57:                  37	38.40
9:58:                   7	38.43
9:58:                  37	38.44
9:59:                   7	38.45
9:59:                  37	38.48
10:00:                   7	38.50
10:00:                  37	38.53
10:01:                   7	38.53
10:01:                  37	38.53
10:02:                   8	38.55
10:02:                  38	38.55
10:03:                   8	38.57
10:03:                  38	38.59
10:04:                   8	38.60
10:04:                  38	38.63
10:05:                   8	38.63
10:05:                  38	38.65
10:06:                   8	38.67
10:06:                  38	38.68
10:07:                   8	38.69
10:07:                  38	38.70
10:08:                   8	38.72
10:08:                  38	38.72
10:09:                   8	38.73
10:09:                  38	38.75
10:10:                   8	38.77
10:10:                  38	38.79
10:11:                   8	38.81
10:11:                  38	38.81
10:12:                   8	38.83
10:12:                  38	38.83
10:13:                   8	38.86
10:13:                  38	38.86
10:14:                   8	38.86
10:14:                  38	38.90
10:15:                   8	38.91
10:15:                  38	38.91
10:16:                   8	38.92
10:16:                  38	38.95
10:17:                   8	38.95
10:17:                  38	38.95
10:18:                   8	38.96
10:18:                  38	38.97
10:19:                   8	38.99
10:19:                  38	39.00
10:20:                   8	39.03
10:20:                  38	39.02
10:21:                   8	39.03
10:21:                  38	39.02
10:22:                   8	39.03
10:22:                  38	39.03
10:23:                   8	39.05
10:23:                  38	39.06
10:24:                   8	39.07
10:24:                  38	39.07
10:25:                   8	39.10
10:25:                  38	39.11
10:26:                   8	39.13
10:26:                  38	39.12
10:27:                   8	39.13
10:27:                  38	39.13
10:28:                   8	39.13
10:28:                  38	39.14
10:29:                   8	39.15
10:29:                  38	39.15
10:30:                   8	39.17
10:30:                  39	39.17
10:31:                   9	39.17
10:31:                  39	39.18
10:32:                   9	39.21
10:32:                  39	39.18
10:33:                   9	39.20
10:33:                  39	39.20
10:34:                   9	39.22
10:34:                  39	39.24
10:35:                   9	39.23
10:35:                  39	39.24
10:36:                   9	39.25
10:36:                  39	39.26
10:37:                   9	39.25
10:37:                  39	39.28
10:38:                   9	39.29
10:38:                  39	39.29
10:39:                   9	39.32
10:39:                  39	39.31
10:40:                   9	39.36
10:40:                  39	39.36
10:41:                   9	39.37
10:41:                  39	39.37
10:42:                   9	39.39
10:42:                  39	39.40
10:43:                   9	39.39
10:43:                  39	39.41
10:44:                   9	39.43
10:44:                  39	39.46
10:45:                   9	39.49
10:45:                  39	39.49
10:46:                   9	39.50
10:46:                  39	39.52
10:47:                   9	39.52
10:47:                  39	39.56
10:48:                   9	39.58
10:48:                  39	39.58
10:49:                   9	39.56
10:49:                  39	39.61
10:50:                   9	39.62
10:50:                  39	39.63
10:51:                   9	39.65
10:51:                  39	39.66
10:52:                   9	39.67
10:52:                  39	39.67
10:53:                   9	39.69
10:53:                  39	39.67
10:54:                   9	39.74
10:54:                  39	39.71
10:55:                   9	39.71
10:55:                  39	39.79
10:56:                   9	39.78
10:56:                  39	39.75
10:57:                   9	39.76
10:57:                  40	39.77
10:58:                  10	39.81
10:58:                  40	39.81
10:59:                  10	39.82
10:59:                  40	39.82
11:00:                  10	39.83
11:00:                  40	39.84
11:01:                  10	39.85
11:01:                  40	39.86
11:02:                  10	39.88
11:02:                  40	39.90
11:03:                  10	39.91
11:03:                  40	39.92
11:04:                  10	39.96
11:04:                  40	39.98
11:05:                  10	39.96
11:05:                  40	39.99
11:06:                  10	40.00
11:06:                  40	40.03
11:07:                  10	40.04
11:07:                  40	40.06
11:08:                  10	40.06
11:08:                  40	40.05
11:09:                  10	40.06
11:09:                  40	40.09
11:10:                  10	40.12
11:10:                  40	40.13
11:11:                  10	40.12
11:11:                  40	40.13
11:12:                  10	40.14
11:12:                  40	40.15
11:13:                  10	40.19
11:13:                  40	40.20
11:14:                  10	40.22
11:14:                  40	40.24
11:15:                  10	40.24
11:15:                  40	40.27
11:16:                  10	40.30
11:16:                  40	40.33
11:17:                  10	40.30
11:17:                  40	40.36
11:18:                  10	40.36
11:18:                  40	40.37
11:19:                  10	40.36
11:19:                  40	40.39
11:20:                  10	40.45
11:20:                  40	40.44
11:21:                  10	40.44
11:21:                  40	40.45
11:22:                  10	40.47
11:22:                  40	40.48
11:23:                  10	40.48
11:23:                  40	40.49
11:24:                  10	40.51
11:24:                  40	40.53
11:25:                  10	40.59
11:25:                  40	40.62
11:26:                  10	40.62
11:26:                  40	40.64
11:27:                  10	40.63
11:27:                  40	40.62
11:28:                  10	40.64
11:28:                  40	40.67
11:29:                  10	40.66
11:29:                  41	40.67
11:30:                  11	40.68
11:30:                  41	40.69
11:31:                  11	40.70
11:31:                  41	40.71
11:32:                  11	40.71
11:32:                  41	40.75
11:33:                  11	40.75
11:33:                  41	40.76
11:34:                  11	40.78
11:34:                  41	40.77
11:35:                  11	40.82
11:35:                  41	40.83
11:36:                  11	40.83
11:36:                  41	40.82
11:37:                  11	40.85
11:37:                  41	40.88
11:38:                  11	40.89
11:38:                  41	40.87
11:39:                  11	40.86
11:39:                  41	40.88
11:40:                  11	40.90
11:40:                  41	40.92
11:41:                  11	40.92
11:41:                  41	40.93
11:42:                  11	41.00
11:42:                  41	41.01
11:43:                  11	41.00
11:43:                  41	41.03
11:44:                  11	41.04
11:44:                  41	41.05
11:45:                  11	41.04
11:45:                  41	41.08
11:46:                  11	41.11
11:46:                  41	41.09
11:47:                  11	41.08
11:47:                  41	41.14
11:48:                  11	41.10
11:48:                  41	41.12
11:49:                  11	41.12
11:49:                  41	41.14
11:50:                  11	41.16
11:50:                  41	41.20
11:51:                  11	41.16
11:51:                  41	41.15
11:52:                  11	41.18
11:52:                  42	41.21
11:53:                  12	41.24
11:53:                  42	41.25
11:54:                  12	41.24
11:54:                  42	41.28
11:55:                  12	41.30
11:55:                  42	41.29
11:56:                  12	41.29
11:56:                  42	41.30
11:57:                  12	41.30
11:57:                  42	41.30
11:58:                  12	41.30
11:58:                  42	41.30
11:59:                  12	41.31
11:59:                  42	41.33
12:00:                  12	41.32
12:00:                  42	41.33
12:01:                  12	41.38
12:01:                  42	41.40
12:02:                  12	41.45
12:02:                  42	41.42
12:03:                  12	41.41
12:03:                  42	41.42
12:04:                  12	41.42
12:04:                  42	41.43
12:05:                  12	41.48
12:05:                  42	41.51
12:06:                  12	41.49
12:06:                  42	41.53
12:07:                  12	41.58
12:07:                  42	41.59
12:08:                  12	41.58
12:08:                  42	41.58
12:09:                  12	41.59
12:09:                  42	41.59
12:10:                  12	41.60
12:10:                  42	41.60
12:11:                  12	41.55
12:11:                  42	41.58
12:12:                  12	41.56
12:12:                  42	41.54
12:13:                  12	41.59
12:13:                  42	41.58
12:14:                  12	41.59
12:14:                  42	41.58
12:15:                  12	41.58
12:15:                  42	41.59
12:16:                  12	41.63
12:16:                  42	41.66
12:17:                  12	41.70
12:17:                  42	41.69
12:18:                  12	41.71
12:18:                  42	41.72
12:19:                  12	41.69
12:19:                  42	41.68
12:20:                  12	41.71
12:20:                  42	41.76
12:21:                  12	41.75
12:21:                  42	41.73
12:22:                  12	41.73
12:22:                  42	41.73
12:23:                  12	41.74
12:23:                  42	41.74
12:24:                  12	41.77
12:24:                  42	41.80
12:25:                  12	41.83
12:25:                  42	41.82
12:26:                  12	41.81
12:26:                  42	41.84
12:27:                  12	41.84
12:27:                  42	41.90
12:28:                  13	41.90
12:28:                  43	41.89
12:29:                  13	41.92
12:29:                  43	41.92
12:30:                  13	41.91
12:30:                  43	41.92
12:31:                  13	41.92
12:31:                  43	41.92
12:32:                  13	41.92
12:32:                  43	41.91
12:33:                  13	41.93
12:33:                  43	41.98
12:34:                  13	41.97
12:34:                  43	41.95
12:35:                  13	41.96
12:35:                  43	41.97
12:36:                  13	41.99
12:36:                  43	41.99
12:37:                  13	41.98
12:37:                  43	41.98
12:38:                  13	41.97
12:38:                  43	42.01
12:39:                  13	41.98
12:39:                  43	41.98
12:40:                  13	42.03
12:40:                  43	42.02
12:41:                  13	42.00
12:41:                  43	42.04
12:42:                  13	42.03
12:42:                  43	42.05
12:43:                  13	42.06
12:43:                  43	42.07
12:44:                  13	42.08
12:44:                  43	42.10
12:45:                  13	42.11
12:45:                  43	42.13
12:46:                  13	42.14
12:46:                  44	42.12
12:47:                  14	42.14
12:47:                  44	42.12
12:48:                  14	42.15
12:48:                  44	42.16
12:49:                  14	42.18
12:49:                  44	42.18
12:50:                  14	42.19
12:50:                  44	42.17
12:51:                  14	42.16
12:51:                  44	42.18
12:52:                  14	42.17
12:52:                  44	42.17
12:53:                  14	42.18
12:53:                  44	42.15
12:54:                  14	42.16
12:54:                  44	42.16
12:55:                  14	42.15
12:55:                  44	42.16
12:56:                  14	42.20
12:56:                  44	42.19
12:57:                  14	42.21
12:57:                  44	42.21
12:58:                  14	42.24
12:58:                  44	42.23
12:59:                  14	42.23
12:59:                  44	42.22
13:00:                  14	42.23
13:00:                  44	42.22
13:01:                  14	42.25
13:01:                  44	42.23
13:02:                  14	42.28
13:02:                  44	42.28
13:03:                  14	42.26
13:03:                  44	42.28
13:04:                  14	42.30
13:04:                  45	42.33
13:05:                  15	42.34
13:05:                  45	42.33
13:06:                  15	42.32
13:06:                  45	42.34
13:07:                  15	42.34
13:07:                  45	42.38
13:08:                  15	42.37
13:08:                  45	42.35
13:09:                  15	42.35
13:09:                  45	42.37
13:10:                  15	42.38
13:10:                  45	42.37
13:11:                  15	42.36
13:11:                  45	42.36
13:12:                  15	42.39
13:12:                  45	42.41
13:13:                  15	42.40
13:13:                  45	42.40
13:14:                  15	42.42
13:14:                  45	42.42
13:15:                  15	42.43
13:15:                  45	42.41
13:16:                  15	42.44
13:16:                  45	42.43
13:17:                  15	42.40
13:17:                  45	42.41
13:18:                  15	42.43
13:18:                  45	42.43
13:19:                  15	42.43
13:19:                  45	42.43
13:20:                  15	42.42
13:20:                  45	42.45
13:21:                  15	42.46
13:21:                  45	42.45
13:22:                  15	42.45
13:22:                  46	42.42
13:23:                  16	42.42
13:23:                  46	42.50
13:24:                  16	42.49
13:24:                  46	42.47
13:25:                  16	42.49
13:25:                  46	42.51
13:26:                  16	42.51
13:26:                  46	42.51
13:27:                  16	42.51
13:27:                  46	42.49
13:28:                  16	42.50
13:28:                  46	42.53
13:29:                  16	42.51
13:29:                  46	42.49
13:30:                  16	42.47
13:30:                  46	42.52
13:31:                  16	42.52
13:31:                  46	42.51
13:32:                  16	42.50
13:32:                  46	42.51
13:33:                  16	42.49
13:33:                  46	42.53
13:34:                  16	42.54
13:34:                  46	42.51
13:35:                  16	42.51
13:35:                  46	42.50
13:36:                  16	42.53
13:36:                  46	42.53
13:37:                  16	42.53
13:37:                  46	42.54
13:38:                  16	42.55
13:38:                  46	42.53
13:39:                  16	42.55
13:39:                  46	42.56
13:40:                  16	42.56
13:40:                  46	42.57
13:41:                  16	42.56
13:41:                  47	42.54
13:42:                  17	42.52
13:42:                  47	42.50
13:43:                  17	42.49
13:43:                  47	42.45
13:44:                  17	42.45
13:44:                  47	42.40
13:45:                  17	42.40
13:45:                  47	42.39
13:46:                  17	42.40
13:46:                  47	42.39
13:47:                  17	42.31
13:47:                  47	42.29
13:48:                  17	42.23
13:48:                  47	42.19
13:49:                  17	42.15
13:49:                  47	42.11
13:50:                  17	42.05
13:50:                  47	41.98
13:51:                  17	41.95
13:51:                  47	41.94
13:52:                  17	41.89
13:52:                  47	41.84
13:53:                  17	41.80
13:53:                  47	41.77
13:54:                  17	41.74
13:54:                  47	41.71
13:55:                  17	41.68
13:55:                  47	41.69
13:56:                  17	41.65
13:56:                  47	41.62
13:57:                  17	41.59
13:57:                  47	41.58
13:58:                  17	41.54
13:58:                  47	41.52
13:59:                  17	41.52
13:59:                  47	41.54
14:00:                  17	41.54
14:00:                  48	41.53
14:01:                  18	41.52
14:01:                  48	41.45
14:02:                  18	41.45
14:02:                  48	41.51
14:03:                  18	41.46
14:03:                  48	41.47
14:04:                  18	41.45
14:04:                  48	41.46
14:05:                  18	41.45
14:05:                  48	41.47
14:06:                  18	41.43
14:06:                  48	41.43
14:07:                  18	41.45
14:07:                  48	41.48
14:08:                  18	41.50
14:08:                  48	41.52
14:09:                  18	41.52
14:09:                  48	41.53
14:10:                  18	41.51
14:10:                  48	41.52
14:11:                  18	41.56
14:11:                  48	41.56
14:12:                  18	41.56
14:12:                  48	41.55
14:13:                  18	41.56
14:13:                  48	41.58
14:14:                  18	41.59
14:14:                  48	41.60
14:15:                  18	41.62
14:15:                  48	41.60
14:16:                  18	41.64
14:16:                  48	41.67
14:17:                  18	41.66
14:17:                  48	41.66
14:18:                  18	41.66
14:18:                  48	41.64
14:19:                  18	41.64
14:19:                  48	41.66
14:20:                  18	41.68
14:20:                  48	41.66
14:21:                  18	41.64
14:21:                  48	41.62
14:22:                  18	41.62
14:22:                  48	41.61
14:23:                  18	41.61
14:23:                  48	41.55
14:24:                  18	41.53
14:24:                  48	41.54
14:25:                  18	41.54
14:25:                  48	41.52
14:26:                  18	41.52
14:26:                  48	41.49
14:27:                  18	41.52
14:27:                  48	41.48
14:28:                  19	41.48
14:28:                  49	41.49
14:29:                  19	41.48
14:29:                  49	41.47
14:30:                  19	41.44
14:30:                  49	41.42
14:31:                  19	41.40
14:31:                  49	41.33
14:32:                  19	41.34
14:32:                  49	41.34
14:33:                  19	41.31
14:33:                  49	41.30
14:34:                  19	41.25
14:34:                  49	41.26
14:35:                  19	41.27
14:35:                  49	41.19
14:36:                  19	41.18
14:36:                  49	41.14
14:37:                  19	41.14
14:37:                  49	41.16
14:38:                  19	41.14
14:38:                  49	41.14
14:39:                  19	41.12
14:39:                  49	41.13
14:40:                  19	41.10
14:40:                  49	41.06
14:41:                  19	41.09
14:41:                  49	41.09
14:42:                  19	41.03
14:42:                  49	41.06
14:43:                  19	41.03
14:43:                  49	40.96
14:44:                  19	40.96
14:44:                  49	40.97
14:45:                  19	40.99
14:45:                  49	40.98
14:46:                  19	40.95
14:46:                  49	40.95
14:47:                  19	40.95
14:47:                  49	40.90
14:48:                  19	40.87
14:48:                  49	40.86
14:49:                  19	40.88
14:49:                  49	40.87
14:50:                  19	40.86
14:50:                  49	40.85
14:51:                  19	40.85
14:51:                  49	40.83
14:52:                  20	40.83
14:52:                  50	40.80
14:53:                  20	40.82
14:53:                  50	40.79
14:54:                  20	40.79
14:54:                  50	40.75
14:55:                  20	40.74
14:55:                  50	40.75
14:56:                  20	40.76
14:56:                  50	40.75
14:57:                  20	40.71
14:57:                  50	40.68
14:58:                  20	40.70
14:58:                  50	40.73
14:59:                  20	40.72
14:59:                  50	40.71
15:00:                  20	40.70
15:00:                  50	40.71
15:01:                  20	40.71
15:01:                  50	40.73
15:02:                  20	40.75
15:02:                  50	40.75
15:03:                  20	40.75
15:03:                  50	40.77
15:04:                  20	40.77
15:04:                  50	40.76
15:05:                  20	40.78
15:05:                  50	40.81
15:06:                  20	40.79
15:06:                  50	40.79
15:07:                  20	40.81
15:07:                  50	40.81
15:08:                  20	40.78
15:08:                  50	40.79
15:09:                  20	40.83
15:09:                  50	40.78
15:10:                  20	40.82
15:10:                  50	40.83
15:11:                  20	40.79
15:11:                  50	40.78
15:12:                  20	40.79
15:12:                  50	40.74
15:13:                  20	40.73
15:13:                  50	40.71
15:14:                  20	40.68
15:14:                  50	40.71
15:15:                  20	40.74
15:15:                  50	40.73
15:16:                  20	40.72
15:16:                  50	40.70
15:17:                  20	40.70
15:17:                  50	40.74
15:18:                  20	40.74
15:18:                  50	40.73
15:19:                  20	40.73
15:19:                  50	40.69
15:20:                  20	40.72
15:20:                  50	40.70
15:21:                  20	40.71
15:21:                  50	40.68
15:22:                  21	40.68
15:22:                  51	40.71
15:23:                  21	40.69
15:23:                  51	40.68
15:24:                  21	40.68
15:24:                  51	40.72
15:25:                  21	40.73
15:25:                  51	40.74
15:26:                  21	40.71
15:26:                  51	40.73
15:27:                  21	40.73
15:27:                  51	40.75
15:28:                  21	40.75
15:28:                  51	40.77
15:29:                  21	40.76
15:29:                  51	40.75
15:30:                  21	40.75
15:30:                  51	40.75
15:31:                  21	40.80
15:31:                  51	40.78
15:32:                  21	40.77
15:32:                  51	40.78
15:33:                  21	40.75
15:33:                  51	40.78
15:34:                  21	40.79
15:34:                  51	40.81
15:35:                  21	40.81
15:35:                  51	40.80
15:36:                  21	40.81
15:36:                  51	40.82
15:37:                  21	40.83
15:37:                  51	40.84
15:38:                  21	40.83
15:38:                  51	40.81
15:39:                  21	40.81
15:39:                  51	40.81
15:40:                  21	40.81
15:40:                  51	40.78
15:41:                  21	40.79
15:41:                  51	40.78
15:42:                  22	40.81
15:42:                  52	40.79
15:43:                  22	40.77
15:43:                  52	40.80
15:44:                  22	40.81
15:44:                  52	40.82
15:45:                  22	40.82
15:45:                  52	40.84
15:46:                  22	40.85
15:46:                  52	40.87
15:47:                  22	40.87
15:47:                  52	40.86
15:48:                  22	40.85
15:48:                  52	40.86
15:49:                  22	40.85
15:49:                  52	40.83
15:50:                  22	40.84
15:50:                  52	40.84
15:51:                  22	40.84
15:51:                  52	40.82
15:52:                  22	40.82
15:52:                  52	40.83
15:53:                  22	40.81
15:53:                  52	40.78
15:54:                  22	40.79
15:54:                  52	40.77
15:55:                  22	40.75
15:55:                  52	40.74
15:56:                  22	40.75
15:56:                  52	40.75
15:57:                  22	40.75
15:57:                  52	40.73
15:58:                  22	40.72
15:58:                  52	40.70
15:59:                  22	40.70
15:59:                  52	40.70
16:00:                  22	40.67
16:00:                  52	40.67
16:01:                  22	40.64
16:01:                  52	40.65
16:02:                  22	40.65
16:02:                  52	40.66
16:03:                  22	40.66
16:03:                  52	40.64
16:04:                  22	40.65
16:04:                  52	40.62
16:05:                  22	40.65
16:05:                  52	40.62
16:06:                  22	40.65
16:06:                  52	40.65
16:07:                  22	40.64
16:07:                  52	40.61
16:08:                  22	40.61
16:08:                  52	40.62
16:09:                  22	40.62
16:09:                  52	40.65
16:10:                  22	40.65
16:10:                  52	40.63
16:11:                  22	40.64
16:11:                  52	40.64
16:12:                  22	40.63
16:12:                  52	40.62
16:13:                  22	40.64
16:13:                  52	40.61
16:14:                  22	40.59
16:14:                  53	40.61
16:15:                  23	40.59
16:15:                  53	40.57
16:16:                  23	40.58
16:16:                  53	40.57
16:17:                  23	40.56
16:17:                  53	40.58
16:18:                  23	40.55
16:18:                  53	40.54
16:19:                  23	40.55
16:19:                  53	40.53
16:20:                  23	40.57
16:20:                  53	40.55
16:21:                  23	40.51
16:21:                  53	40.52
16:22:                  23	40.50
16:22:                  53	40.50
16:23:                  23	40.48
16:23:                  53	40.47
16:24:                  23	40.47
16:24:                  53	40.48
16:25:                  23	40.46
16:25:                  53	40.46
16:26:                  23	40.45
16:26:                  53	40.45
16:27:                  23	40.45
16:27:                  53	40.46
16:28:                  23	40.45
16:28:                  53	40.43
16:29:                  23	40.42
16:29:                  53	40.44
16:30:                  23	40.44
16:30:                  53	40.43
16:31:                  23	40.42
16:31:                  53	40.42
16:32:                  23	40.41
16:32:                  53	40.42
16:33:                  23	40.39
16:33:                  53	40.39
16:34:                  24	40.39
16:34:                  54	40.42
16:35:                  24	40.43
16:35:                  54	40.41
16:36:                  24	40.42
16:36:                  54	40.44
16:37:                  24	40.47
16:37:                  54	40.45
16:38:                  24	40.47
16:38:                  54	40.46
16:39:                  24	40.49
16:39:                  54	40.51
16:40:                  24	40.49
16:40:                  54	40.49
16:41:                  24	40.50
16:41:                  54	40.48
16:42:                  24	40.48
16:42:                  54	40.50
16:43:                  24	40.49
16:43:                  54	40.51
16:44:                  24	40.48
16:44:                  54	40.48
16:45:                  24	40.51
16:45:                  54	40.51
16:46:                  24	40.48
16:46:                  54	40.50
16:47:                  24	40.50
16:47:                  54	40.50
16:48:                  24	40.49
16:48:                  54	40.49
16:49:                  24	40.48
16:49:                  54	40.49
16:50:                  24	40.49
16:50:                  54	40.49
16:51:                  24	40.50
16:51:                  54	40.51
16:52:                  24	40.49
16:52:                  54	40.49
16:53:                  24	40.48
16:53:                  54	40.49
16:54:                  24	40.48
16:54:                  54	40.46
16:55:                  24	40.48
16:55:                  54	40.48
16:56:                  24	40.48
16:56:                  54	40.48
16:57:                  24	40.45
16:57:                  54	40.46
16:58:                  25	40.46
16:58:                  55	40.49
16:59:                  25	40.50
16:59:                  55	40.48
17:00:                  25	40.47
17:00:                  55	40.46
17:01:                  25	40.46
17:01:                  55	40.46
17:02:                  25	40.45
17:02:                  55	40.44
17:03:                  25	40.45
17:03:                  55	40.45
17:04:                  25	40.43
17:04:                  55	40.44
17:05:                  25	40.46
17:05:                  55	40.43
17:06:                  25	40.44
17:06:                  55	40.44
17:07:                  25	40.46
17:07:                  55	40.44
17:08:                  25	40.45
17:08:                  55	40.44
17:09:                  25	40.43
17:09:                  55	40.43
17:10:                  25	40.45
17:10:                  55	40.44
17:11:                  25	40.43
17:11:                  55	40.42
17:12:                  25	40.43
17:12:                  55	40.42
17:13:                  25	40.42
17:13:                  55	40.45
17:14:                  25	40.41
17:14:                  55	40.40
17:15:                  25	40.40
17:15:                  55	40.40
17:16:                  25	40.41
17:16:                  55	40.40
17:17:                  25	40.38
17:17:                  55	40.40
17:18:                  25	40.40
17:18:                  55	40.38
17:19:                  25	40.38
17:19:                  55	40.37
17:20:                  25	40.38
17:20:                  55	40.40
17:21:                  25	40.37
17:21:                  55	40.37
17:22:                  25	40.35
17:22:                  55	40.37
17:23:                  25	40.37
17:23:                  55	40.35
17:24:                  25	40.35
17:24:                  55	40.35
17:25:                  25	40.34
17:25:                  55	40.35
17:26:                  25	40.33
17:26:                  55	40.34
17:27:                  25	40.31
17:27:                  55	40.30
17:28:                  25	40.30
17:28:                  55	40.27
17:29:                  25	40.26
17:29:                  55	40.25
17:30:                  25	40.24
17:30:                  56	40.25
17:31:                  26	40.23
17:31:                  56	40.24
17:32:                  26	40.21
17:32:                  56	40.22
17:33:                  26	40.22
17:33:                  56	40.20
17:34:                  26	40.20
17:34:                  56	40.16
17:35:                  26	40.19
17:35:                  56	40.16
17:36:                  26	40.16
17:36:                  56	40.18
17:37:                  26	40.16
17:37:                  56	40.13
17:38:                  26	40.13
17:38:                  56	40.11
17:39:                  26	40.13
17:39:                  56	40.13
17:40:                  26	40.12
17:40:                  56	40.11
17:41:                  26	40.12
17:41:                  56	40.11
17:42:                  26	40.11
17:42:                  56	40.11
17:43:                  26	40.10
17:43:                  56	40.11
17:44:                  26	40.09
17:44:                  56	40.09
17:45:                  26	40.07
17:45:                  56	40.08
17:46:                  26	40.09
17:46:                  56	40.07
17:47:                  26	40.07
17:47:                  56	40.06
17:48:                  26	40.05
17:48:                  56	40.04
17:49:                  26	40.05
17:49:                  56	40.02
17:50:                  26	40.03
17:50:                  56	40.03
17:51:                  26	40.03
17:51:                  56	40.02
17:52:                  26	40.01
17:52:                  56	40.01
17:53:                  26	39.98
17:53:                  56	39.98
17:54:                  26	39.99
17:54:                  56	40.01
17:55:                  27	40.00
17:55:                  57	39.99
17:56:                  27	39.98
17:56:                  57	39.98
17:57:                  27	39.98
17:57:                  57	39.99
17:58:                  27	39.97
17:58:                  57	39.96
17:59:                  27	39.93
17:59:                  57	39.92
18:00:                  27	39.91
18:00:                  57	39.93
18:01:                  27	39.92
18:01:                  57	39.94
18:02:                  27	39.95
18:02:                  57	39.93
18:03:                  27	39.92
18:03:                  57	39.92
18:04:                  27	39.92
18:04:                  57	39.91
18:05:                  27	39.93
18:05:                  57	39.92
18:06:                  27	39.92
18:06:                  57	39.90
18:07:                  27	39.91
18:07:                  57	39.90
18:08:                  27	39.89
18:08:                  57	39.90
18:09:                  27	39.87
18:09:                  57	39.88
18:10:                  27	39.88
18:10:                  57	39.87
18:11:                  27	39.87
18:11:                  57	39.86
18:12:                  27	39.87
18:12:                  57	39.85
18:13:                  27	39.86
18:13:                  57	39.84
18:14:                  27	39.82
18:14:                  57	39.83
18:15:                  27	39.82
18:15:                  57	39.83
18:16:                  27	39.83
18:16:                  57	39.82
18:17:                  27	39.82
18:17:                  57	39.82
18:18:                  27	39.80
18:18:                  57	39.81
18:19:                  27	39.80
18:19:                  57	39.80
18:20:                  27	39.80
18:20:                  57	39.79
18:21:                  27	39.77
18:21:                  57	39.77
18:22:                  27	39.78
18:22:                  57	39.77
18:23:                  27	39.77
18:23:                  57	39.75
18:24:                  27	39.75
18:24:                  57	39.75
18:25:                  27	39.76
18:25:                  57	39.76
18:26:                  27	39.75
18:26:                  57	39.73
18:27:                  27	39.74
18:27:                  57	39.75
18:28:                  27	39.73
18:28:                  57	39.73
18:29:                  27	39.71
18:29:                  57	39.73
18:30:                  27	39.73
18:30:                  57	39.73
18:31:                  27	39.72
18:31:                  57	39.71
18:32:                  27	39.71
18:32:                  57	39.71
18:33:                  27	39.70
18:33:                  57	39.71
18:34:                  27	39.70
18:34:                  58	39.70
18:35:                  28	39.70
18:35:                  58	39.70
18:36:                  28	39.69
18:36:                  58	39.69
18:37:                  28	39.66
18:37:                  58	39.67
18:38:                  28	39.69
18:38:                  58	39.67
18:39:                  28	39.66
18:39:                  58	39.66
18:40:                  28	39.65
18:40:                  58	39.65
18:41:                  28	39.66
18:41:                  58	39.66
18:42:                  28	39.66
18:42:                  58	39.66
18:43:                  28	39.64
18:43:                  58	39.63
18:44:                  28	39.64
18:44:                  58	39.64
18:45:                  28	39.64
18:45:                  58	39.63
18:46:                  28	39.64
18:46:                  58	39.64
18:47:                  28	39.65
18:47:                  58	39.64
18:48:                  28	39.64
18:48:                  58	39.62
18:49:                  28	39.62
18:49:                  58	39.62
18:50:                  28	39.61
18:50:                  58	39.61
18:51:                  28	39.59
18:51:                  58	39.58
18:52:                  28	39.58
18:52:                  58	39.57
18:53:                  28	39.56
18:53:                  58	39.56
18:54:                  28	39.53
18:54:                  58	39.51
18:55:                  28	39.50
18:55:                  58	39.50
18:56:                  28	39.49
18:56:                  58	39.49
18:57:                  28	39.49
18:57:                  58	39.47
18:58:                  28	39.46
18:58:                  58	39.45
18:59:                  28	39.44
18:59:                  58	39.45
19:00:                  28	39.46
19:00:                  59	39.46
19:01:                  29	39.46
19:01:                  59	39.46
19:02:                  29	39.48
19:02:                  59	39.47
19:03:                  29	39.48
19:03:                  59	39.47
19:04:                  29	39.48
19:04:                  59	39.48
19:05:                  29	39.47
19:05:                  59	39.48
19:06:                  29	39.48
19:06:                  59	39.47
19:07:                  29	39.46
19:07:                  59	39.46
19:08:                  29	39.45
19:08:                  59	39.46
19:09:                  29	39.46
19:09:                  59	39.45
19:10:                  29	39.44
19:10:                  59	39.44
19:11:                  29	39.44
19:11:                  59	39.44
19:12:                  29	39.44
19:12:                  59	39.44
19:13:                  29	39.44
19:13:                  59	39.44
19:14:                  29	39.44
19:14:                  59	39.42
19:15:                  29	39.44
19:15:                  59	39.44
19:16:                  29	39.44
19:16:                  59	39.43
19:17:                  29	39.43
19:17:                  59	39.43
19:18:                  29	39.45
19:18:                  59	39.45
19:19:                  29	39.45
19:19:                  59	39.44
19:20:                  29	39.43
19:20:                  59	39.43
19:21:                  29	39.44
19:21:                  59	39.44
19:22:                  29	39.43
19:22:                  59	39.43
19:23:                  29	39.43
19:23:                  59	39.42
19:24:                  29	39.42
19:24:                  59	39.44
19:25:                  29	39.43
19:25:                  59	39.42
19:26:                  29	39.43
19:26:                  59	39.45
19:27:                  29	39.43
19:27:                  59	39.43
19:28:                  29	39.42
19:28:                  59	39.42
19:29:                  29	39.41
19:29:                  59	39.42
19:30:                  29	39.43
19:30:                  59	39.42
19:31:                  29	39.41
19:31:                  59	39.42
19:32:                  29	39.41
19:32:                  59	39.40
19:33:                  29	39.40
19:33:                  59	39.40
19:34:                  29	39.40
19:34:                  59	39.40
19:35:                  29	39.40
19:35:                  59	39.40
19:36:                  29	39.40
19:36:                  59	39.40
19:37:                  29	39.39
19:37:                  59	39.39
19:38:                  29	39.38
19:38:                  59	39.38
19:39:                  29	39.37
19:39:                  59	39.37
19:40:                  29	39.37
19:40:                  59	39.38
19:41:                  29	39.37
19:41:                  59	39.35
19:42:                  29	39.37
19:42:                  59	39.36
19:43:                  30	39.35
19:44:                   0	39.33
19:44:                  30	39.35
19:45:                   0	39.35
19:45:                  30	39.34
19:46:                   0	39.36
19:46:                  30	39.35
19:47:                   0	39.35
19:47:                  30	39.34
19:48:                   0	39.35
19:48:                  30	39.33
19:49:                   0	39.32
19:49:                  30	39.32
19:50:                   0	39.32
19:50:                  30	39.32
19:51:                   0	39.32
19:51:                  30	39.31
19:52:                   0	39.32
19:52:                  30	39.32
19:53:                   0	39.31
19:53:                  30	39.31
19:54:                   0	39.29
19:54:                  30	39.30
19:55:                   0	39.29
19:55:                  30	39.27
19:56:                   0	39.28
19:56:                  30	39.28
19:57:                   0	39.28
19:57:                  30	39.27
19:58:                   0	39.26
19:58:                  30	39.25
19:59:                   0	39.26
19:59:                  30	39.26
20:00:                   0	39.25
20:00:                  30	39.24
20:01:                   0	39.24
20:01:                  30	39.23
20:02:                   0	39.24
20:02:                  30	39.24
20:03:                   0	39.23
20:03:                  30	39.24
20:04:                   0	39.24
20:04:                  30	39.24
20:05:                   0	39.23
20:05:                  30	39.24
20:06:                   0	39.24
20:06:                  30	39.23
20:07:                   0	39.21
20:07:                  30	39.22
20:08:                   0	39.23
20:08:                  30	39.24
20:09:                   0	39.23
20:09:                  31	39.22
20:10:                   1	39.25
20:10:                  31	39.27
20:11:                   1	39.23
20:11:                  31	39.22
20:12:                   1	39.23
20:12:                  31	39.25
20:13:                   1	39.24
20:13:                  31	39.23
20:14:                   1	39.21
20:14:                  31	39.24
20:15:                   1	39.22
20:15:                  31	39.22
20:16:                   1	39.21
20:16:                  31	39.21
20:17:                   1	39.23
20:17:                  31	39.20
20:18:                   1	39.19
20:18:                  31	39.20
20:19:                   1	39.22
20:19:                  31	39.22
20:20:                   1	39.22
20:20:                  31	39.20
20:21:                   1	39.21
20:21:                  31	39.21
20:22:                   1	39.21
20:22:                  31	39.20
20:23:                   1	39.22
20:23:                  31	39.24
20:24:                   1	39.23
20:24:                  31	39.22
20:25:                   1	39.22
20:25:                  31	39.21
20:26:                   1	39.20
20:26:                  31	39.21
20:27:                   1	39.21
20:27:                  31	39.21
20:28:                   1	39.20
20:28:                  31	39.19
20:29:                   1	39.17
20:29:                  31	39.20
20:30:                   1	39.21
20:30:                  31	39.21
20:31:                   1	39.18
20:31:                  31	39.16
20:32:                   1	39.19
20:32:                  31	39.19
20:33:                   1	39.17
20:33:                  31	39.19
20:34:                   1	39.19
20:34:                  31	39.19
20:35:                   1	39.19
20:35:                  31	39.18
20:36:                   1	39.18
20:36:                  31	39.18
20:37:                   1	39.17
20:37:                  31	39.16
20:38:                   1	39.15
20:38:                  31	39.19
20:39:                   1	39.18
20:39:                  31	39.16
20:40:                   1	39.17
20:40:                  31	39.16
20:41:                   1	39.16
20:41:                  31	39.17
20:42:                   1	39.13
20:42:                  32	39.14
20:43:                   2	39.14
20:43:                  32	39.14
20:44:                   2	39.16
20:44:                  32	39.18
20:45:                   2	39.15
20:45:                  32	39.14
20:46:                   2	39.17
20:46:                  32	39.16
20:47:                   2	39.18
20:47:                  32	39.17
20:48:                   2	39.17
20:48:                  32	39.18
20:49:                   2	39.18
20:49:                  32	39.15
20:50:                   2	39.13
20:50:                  32	39.15
20:51:                   2	39.13
20:51:                  32	39.14
20:52:                   2	39.15
20:52:                  32	39.14
20:53:                   2	39.16
20:53:                  32	39.15
20:54:                   2	39.14
20:54:                  32	39.15
20:55:                   2	39.14
20:55:                  32	39.12
20:56:                   2	39.14
20:56:                  32	39.12
20:57:                   2	39.13
20:57:                  32	39.10
20:58:                   2	39.12
20:58:                  32	39.04
20:59:                   2	39.13
20:59:                  32	39.11
21:00:                   2	39.09
21:00:                  32	39.09
21:01:                   2	39.08
21:01:                  32	39.03
21:02:                   2	39.00
21:02:                  32	38.96
21:03:                   2	38.94
21:03:                  32	38.91
21:04:                   2	38.87
21:04:                  32	38.84
21:05:                   3	38.83
21:05:                  33	38.84
21:06:                   3	38.82
21:06:                  33	38.79
21:07:                   3	38.79
21:07:                  33	38.79
21:08:                   3	38.78
21:08:                  33	38.74
21:09:                   3	38.71
21:09:                  33	38.72
21:10:                   3	38.71
21:10:                  33	38.70
21:11:                   3	38.70
21:11:                  33	38.72
21:12:                   3	38.69
21:12:                  33	38.69
21:13:                   3	38.63
21:13:                  33	38.62
21:14:                   3	38.58
21:14:                  33	38.60
21:15:                   3	38.60
21:15:                  33	38.59
21:16:                   3	38.56
21:16:                  33	38.55
21:17:                   3	38.56
21:17:                  33	38.53
21:18:                   3	38.51
21:18:                  33	38.48
21:19:                   3	38.47
21:19:                  33	38.45
21:20:                   3	38.47
21:20:                  33	38.46
21:21:                   3	38.48
21:21:                  33	38.46
21:22:                   3	38.47
21:22:                  33	38.39
21:23:                   3	38.44
21:23:                  33	38.45
21:24:                   3	38.45
21:24:                  33	38.44
21:25:                   3	38.44
21:25:                  33	38.40
21:26:                   3	38.36
21:26:                  33	38.34
21:27:                   3	38.37
21:27:                  33	38.28
21:28:                   3	38.24
21:28:                  33	38.25
21:29:                   3	38.21
21:29:                  33	38.19
21:30:                   3	38.13
21:30:                  33	38.08
21:31:                   3	38.07
21:31:                  33	38.08
21:32:                   3	38.04
21:32:                  33	38.05
21:33:                   3	38.04
21:33:                  33	38.05
21:34:                   3	38.04
21:34:                  33	37.98
21:35:                   3	37.96
21:35:                  33	37.95
21:36:                   3	37.93
21:36:                  33	37.95
21:37:                   3	37.96
21:37:                  33	37.95
21:38:                   3	37.96
21:38:                  33	37.95
21:39:                   3	37.95
21:39:                  34	37.97
21:40:                   4	37.95
21:40:                  34	37.96
21:41:                   4	37.95
21:41:                  34	37.98
21:42:                   4	38.00
21:42:                  34	38.01
21:43:                   4	38.02
21:43:                  34	38.02
21:44:                   4	38.03
21:44:                  34	38.05
21:45:                   4	38.06
21:45:                  34	38.11
21:46:                   4	38.12
21:46:                  34	38.15
21:47:                   4	38.15
21:47:                  34	38.16
21:48:                   4	38.17
21:48:                  34	38.15
21:49:                   4	38.19
21:49:                  34	38.21
21:50:                   4	38.25
21:50:                  34	38.25
21:51:                   4	38.26
21:51:                  34	38.26
21:52:                   4	38.27
21:52:                  34	38.24
21:53:                   4	38.26
21:53:                  34	38.27
21:54:                   4	38.27
21:54:                  34	38.29
21:55:                   4	38.29
21:55:                  34	38.23
21:56:                   4	38.23
21:56:                  35	38.20
21:57:                   5	38.15
21:57:                  35	38.17
21:58:                   5	38.19
21:58:                  35	38.19
21:59:                   5	38.18
21:59:                  35	38.21
22:00:                   5	38.24
22:00:                  35	38.24
22:01:                   5	38.25
22:01:                  35	38.25
22:02:                   5	38.25
22:02:                  35	38.26
22:03:                   5	38.27
22:03:                  35	38.28
22:04:                   5	38.28
22:04:                  35	38.29
22:05:                   5	38.30
22:05:                  35	38.32
22:06:                   5	38.34
22:06:                  35	38.37
22:07:                   5	38.37
22:07:                  35	38.37
22:08:                   5	38.36
22:08:                  35	38.35
22:09:                   5	38.37
22:09:                  35	38.38
22:10:                   5	38.34
22:10:                  35	38.38
22:11:                   5	38.38
22:11:                  35	38.38
22:12:                   5	38.36
22:12:                  35	38.37
22:13:                   5	38.34
22:13:                  35	38.35
22:14:                   5	38.34
22:14:                  35	38.30
22:15:                   5	38.29
22:15:                  35	38.25
22:16:                   5	38.26
22:16:                  35	38.26
22:17:                   5	38.27
22:17:                  35	38.26
22:18:                   5	38.27
22:18:                  35	38.27
22:19:                   5	38.26
22:19:                  35	38.27
22:20:                   5	38.27
22:20:                  35	38.24
22:21:                   5	38.25
22:21:                  35	38.25
22:22:                   5	38.28
22:22:                  35	38.26
22:23:                   5	38.27
22:23:                  35	38.24
22:24:                   5	38.27
22:24:                  35	38.27
22:25:                   6	38.26
22:25:                  36	38.27
22:26:                   6	38.28
22:26:                  36	38.30
22:27:                   6	38.27
22:27:                  36	38.30
22:28:                   6	38.29
22:28:                  36	38.28
22:29:                   6	38.29
22:29:                  36	38.31
22:30:                   6	38.31
22:30:                  36	38.30
22:31:                   6	38.23
22:31:                  36	38.28
22:32:                   6	38.30
22:32:                  36	38.32
22:33:                   6	38.32
22:33:                  36	38.32
22:34:                   6	38.34
22:34:                  36	38.35
22:35:                   6	38.37
22:35:                  36	38.38
22:36:                   6	38.31
22:36:                  36	38.35
22:37:                   6	38.33
22:37:                  36	38.34
22:38:                   6	38.31
22:38:                  36	38.31
22:39:                   6	38.32
22:39:                  36	38.34
22:40:                   6	38.32
22:40:                  36	38.36
22:41:                   6	38.34
22:41:                  36	38.39
22:42:                   6	38.41
22:42:                  36	38.39
22:43:                   7	38.39
22:43:                  37	38.41
22:44:                   7	38.41
22:44:                  37	38.45
22:45:                   7	38.47
22:45:                  37	38.50
22:46:                   7	38.50
22:46:                  37	38.51
22:47:                   7	38.53
22:47:                  37	38.56
22:48:                   7	38.60
22:48:                  37	38.62
22:49:                   7	38.66
22:49:                  37	38.68
22:50:                   7	38.68
22:50:                  37	38.73
22:51:                   7	38.75
22:51:                  37	38.78
22:52:                   7	38.81
22:52:                  37	38.84
22:53:                   7	38.87
22:53:                  37	38.90
22:54:                   7	38.93
22:54:                  37	38.94
22:55:                   7	38.97
22:55:                  37	38.98
22:56:                   7	38.99
22:56:                  37	39.01
22:57:                   7	39.03
22:57:                  37	39.06
22:58:                   7	39.06
22:58:                  37	39.09
22:59:                   7	39.10
22:59:                  37	39.13
23:00:                   7	39.12
23:00:                  37	39.15
23:01:                   7	39.17
23:01:                  37	39.19
23:02:                   7	39.21
23:02:                  37	39.23
23:03:                   7	39.24
23:03:                  37	39.26
23:04:                   7	39.26
23:04:                  37	39.29
23:05:                   7	39.30
23:05:                  37	39.32
23:06:                   7	39.34
23:06:                  37	39.36
23:07:                   7	39.39
23:07:                  37	39.40
23:08:                   7	39.41
23:08:                  37	39.43
23:09:                   7	39.46
23:09:                  37	39.46
23:10:                   7	39.47
23:10:                  37	39.48
23:11:                   7	39.48
23:11:                  37	39.51
23:12:                   8	39.53
23:12:                  38	39.53
23:13:                   8	39.51
23:13:                  38	39.51
23:14:                   8	39.53
23:14:                  38	39.53
23:15:                   8	39.51
23:15:                  38	39.53
23:16:                   8	39.54
23:16:                  38	39.53
23:17:                   8	39.52
23:17:                  38	39.52
23:18:                   8	39.50
23:18:                  38	39.50
23:19:                   8	39.49
23:19:                  38	39.48
23:20:                   8	39.48
23:20:                  38	39.48
23:21:                   8	39.47
23:21:                  38	39.46
23:22:                   8	39.47
23:22:                  38	39.48
23:23:                   8	39.47
23:23:                  38	39.45
23:24:                   8	39.46
23:24:                  38	39.45
23:25:                   8	39.44
23:25:                  38	39.40
23:26:                   8	39.37
23:26:                  38	39.41
23:27:                   8	39.42
23:27:                  38	39.44
23:28:                   8	39.43
23:28:                  38	39.45
23:29:                   8	39.43
23:29:                  38	39.43
23:30:                   8	39.44
23:30:                  38	39.43
23:31:                   8	39.44
23:31:                  38	39.45
23:32:                   8	39.45
23:32:                  38	39.43
23:33:                   9	39.42
23:33:                  39	39.42
23:34:                   9	39.43
23:34:                  39	39.42
23:35:                   9	39.42
23:35:                  39	39.42
23:36:                   9	39.43
23:36:                  39	39.43
23:37:                   9	39.42
23:37:                  39	39.42
23:38:                   9	39.43
23:38:                  39	39.44
23:39:                   9	39.43
23:39:                  39	39.43
23:40:                   9	39.44
23:40:                  39	39.44
23:41:                   9	39.43
23:41:                  39	39.43
23:42:                   9	39.44
23:42:                  39	39.43
23:43:                   9	39.44
23:43:                  39	39.43
23:44:                   9	39.41
23:44:                  39	39.42
23:45:                   9	39.42
23:45:                  39	39.42
23:46:                   9	39.44
23:46:                  39	39.44
23:47:                   9	39.44
23:47:                  39	39.45
23:48:                   9	39.44
23:48:                  39	39.44
23:49:                   9	39.43
23:49:                  39	39.43
23:50:                  10	39.43
23:50:                  40	39.43
23:51:                  10	39.43
23:51:                  40	39.43
23:52:                  10	39.43
23:52:                  40	39.42
23:53:                  10	39.43
23:53:                  40	39.41
23:54:                  10	39.41
23:54:                  40	39.39
23:55:                  10	39.38
23:55:                  40	39.39
23:56:                  10	39.37
23:56:                  40	39.36
23:57:                  10	39.35
23:57:                  40	39.35
23:58:                  10	39.35
23:58:                  40	39.33
23:59:                  10	39.31
23:59:                  40	39.32
