0:00:                  10	30.69
0:00:                  40	30.67
0:01:                  10	30.67
0:01:                  40	30.67
0:02:                  10	30.65
0:02:                  41	30.67
0:03:                  11	30.70
0:03:                  41	30.64
0:04:                  11	30.65
0:04:                  41	30.66
0:05:                  11	30.65
0:05:                  41	30.67
0:06:                  11	30.65
0:06:                  41	30.64
0:07:                  11	30.65
0:07:                  41	30.66
0:08:                  11	30.68
0:08:                  41	30.64
0:09:                  11	30.64
0:09:                  41	30.64
0:10:                  11	30.64
0:10:                  41	30.64
0:11:                  11	30.60
0:11:                  41	30.63
0:12:                  11	30.65
0:12:                  41	30.60
0:13:                  11	30.61
0:13:                  41	30.65
0:14:                  11	30.64
0:14:                  41	30.60
0:15:                  11	30.60
0:15:                  41	30.59
0:16:                  11	30.61
0:16:                  41	30.60
0:17:                  11	30.60
0:17:                  41	30.59
0:18:                  11	30.59
0:18:                  41	30.61
0:19:                  12	30.58
0:19:                  42	30.59
0:20:                  12	30.61
0:20:                  42	30.60
0:21:                  12	30.62
0:21:                  42	30.59
0:22:                  12	30.60
0:22:                  42	30.59
0:23:                  12	30.58
0:23:                  42	30.58
0:24:                  12	30.59
0:24:                  42	30.61
0:25:                  12	30.60
0:25:                  42	30.58
0:26:                  12	30.59
0:26:                  42	30.56
0:27:                  12	30.56
0:27:                  42	30.59
0:28:                  12	30.58
0:28:                  42	30.58
0:29:                  12	30.60
0:29:                  42	30.59
0:30:                  12	30.58
0:30:                  42	30.57
0:31:                  12	30.55
0:31:                  42	30.53
0:32:                  12	30.56
0:32:                  42	30.56
0:33:                  12	30.56
0:33:                  42	30.58
0:34:                  12	30.58
0:34:                  42	30.55
0:35:                  12	30.58
0:35:                  42	30.56
0:36:                  12	30.56
0:36:                  43	30.54
0:37:                  13	30.53
0:37:                  43	30.57
0:38:                  13	30.54
0:38:                  43	30.59
0:39:                  13	30.54
0:39:                  43	30.57
0:40:                  13	30.53
0:40:                  43	30.56
0:41:                  13	30.54
0:41:                  43	30.54
0:42:                  13	30.55
0:42:                  43	30.53
0:43:                  13	30.54
0:43:                  43	30.52
0:44:                  13	30.54
0:44:                  43	30.55
0:45:                  13	30.56
0:45:                  43	30.54
0:46:                  13	30.53
0:46:                  43	30.54
0:47:                  13	30.56
0:47:                  43	30.55
0:48:                  13	30.56
0:48:                  43	30.56
0:49:                  13	30.54
0:49:                  43	30.56
0:50:                  13	30.59
0:50:                  43	30.56
0:51:                  13	30.54
0:51:                  43	30.54
0:52:                  13	30.56
0:52:                  43	30.57
0:53:                  13	30.54
0:53:                  43	30.57
0:54:                  13	30.58
0:54:                  43	30.55
0:55:                  13	30.56
0:55:                  43	30.56
0:56:                  13	30.56
0:56:                  43	30.55
0:57:                  13	30.55
0:57:                  43	30.56
0:58:                  13	30.58
0:58:                  43	30.58
0:59:                  14	30.58
0:59:                  44	30.56
1:00:                  14	30.58
1:00:                  44	30.59
1:01:                  14	30.59
1:01:                  44	30.58
1:02:                  14	30.58
1:02:                  44	30.54
1:03:                  14	30.57
1:03:                  44	30.58
1:04:                  14	30.58
1:04:                  44	30.58
1:05:                  14	30.58
1:05:                  44	30.57
1:06:                  14	30.57
1:06:                  44	30.57
1:07:                  14	30.55
1:07:                  44	30.54
1:08:                  14	30.54
1:08:                  44	30.53
1:09:                  14	30.55
1:09:                  44	30.53
1:10:                  14	30.52
1:10:                  44	30.53
1:11:                  14	30.54
1:11:                  44	30.54
1:12:                  14	30.53
1:12:                  44	30.54
1:13:                  14	30.53
1:13:                  44	30.51
1:14:                  14	30.51
1:14:                  44	30.53
1:15:                  14	30.53
1:15:                  44	30.52
1:16:                  14	30.53
1:16:                  44	30.52
1:17:                  14	30.53
1:17:                  44	30.52
1:18:                  14	30.54
1:18:                  45	30.52
1:19:                  15	30.52
1:19:                  45	30.53
1:20:                  15	30.51
1:20:                  45	30.51
1:21:                  15	30.52
1:21:                  45	30.52
1:22:                  15	30.53
1:22:                  45	30.54
1:23:                  15	30.52
1:23:                  45	30.50
1:24:                  15	30.52
1:24:                  45	30.54
1:25:                  15	30.54
1:25:                  45	30.53
1:26:                  15	30.52
1:26:                  45	30.53
1:27:                  15	30.56
1:27:                  45	30.54
1:28:                  15	30.53
1:28:                  45	30.53
1:29:                  15	30.53
1:29:                  45	30.52
1:30:                  15	30.52
1:30:                  45	30.51
1:31:                  15	30.52
1:31:                  45	30.53
1:32:                  15	30.53
1:32:                  45	30.54
1:33:                  15	30.54
1:33:                  45	30.53
1:34:                  15	30.55
1:34:                  45	30.54
1:35:                  16	30.54
1:35:                  46	30.52
1:36:                  16	30.53
1:36:                  46	30.51
1:37:                  16	30.54
1:37:                  46	30.52
1:38:                  16	30.53
1:38:                  46	30.52
1:39:                  16	30.53
1:39:                  46	30.51
1:40:                  16	30.54
1:40:                  46	30.53
1:41:                  16	30.53
1:41:                  46	30.53
1:42:                  16	30.50
1:42:                  46	30.53
1:43:                  16	30.53
1:43:                  46	30.51
1:44:                  16	30.52
1:44:                  46	30.52
1:45:                  16	30.51
1:45:                  46	30.52
1:46:                  16	30.52
1:46:                  46	30.50
1:47:                  16	30.51
1:47:                  46	30.52
1:48:                  16	30.52
1:48:                  46	30.50
1:49:                  16	30.49
1:49:                  46	30.50
1:50:                  16	30.53
1:50:                  46	30.54
1:51:                  16	30.50
1:51:                  47	30.51
1:52:                  17	30.53
1:52:                  47	30.52
1:53:                  17	30.53
1:53:                  47	30.53
1:54:                  17	30.51
1:54:                  47	30.49
1:55:                  17	30.51
1:55:                  47	30.53
1:56:                  17	30.51
1:56:                  47	30.51
1:57:                  17	30.51
1:57:                  47	30.49
1:58:                  17	30.49
1:58:                  47	30.51
1:59:                  17	30.52
1:59:                  47	30.51
2:00:                  17	30.50
2:00:                  47	30.52
2:01:                  17	30.53
2:01:                  47	30.52
2:02:                  17	30.52
2:02:                  47	30.51
2:03:                  17	30.51
2:03:                  47	30.50
2:04:                  17	30.50
2:04:                  47	30.50
2:05:                  17	30.49
2:05:                  47	30.50
2:06:                  17	30.47
2:06:                  47	30.52
2:07:                  17	30.50
2:07:                  47	30.51
2:08:                  18	30.49
2:08:                  48	30.50
2:09:                  18	30.50
2:09:                  48	30.50
2:10:                  18	30.50
2:10:                  48	30.48
2:11:                  18	30.51
2:11:                  48	30.49
2:12:                  18	30.51
2:12:                  48	30.51
2:13:                  18	30.51
2:13:                  48	30.50
2:14:                  18	30.50
2:14:                  48	30.50
2:15:                  18	30.50
2:15:                  48	30.49
2:16:                  18	30.50
2:16:                  48	30.49
2:17:                  18	30.51
2:17:                  48	30.50
2:18:                  18	30.45
2:18:                  48	30.50
2:19:                  18	30.51
2:19:                  48	30.50
2:20:                  18	30.51
2:20:                  48	30.48
2:21:                  18	30.48
2:21:                  48	30.47
2:22:                  18	30.50
2:22:                  48	30.50
2:23:                  18	30.51
2:23:                  48	30.50
2:24:                  18	30.50
2:24:                  48	30.49
2:25:                  18	30.48
2:25:                  48	30.45
2:26:                  18	30.46
2:26:                  48	30.48
2:27:                  18	30.49
2:27:                  48	30.48
2:28:                  18	30.45
2:28:                  48	30.46
2:29:                  19	30.50
2:29:                  49	30.49
2:30:                  19	30.46
2:30:                  49	30.49
2:31:                  19	30.46
2:31:                  49	30.49
2:32:                  19	30.48
2:32:                  49	30.49
2:33:                  19	30.46
2:33:                  49	30.49
2:34:                  19	30.48
2:34:                  49	30.45
2:35:                  19	30.48
2:35:                  49	30.47
2:36:                  19	30.47
2:36:                  49	30.48
2:37:                  19	30.42
2:37:                  49	30.46
2:38:                  19	30.45
2:38:                  49	30.47
2:39:                  19	30.45
2:39:                  49	30.46
2:40:                  19	30.47
2:40:                  49	30.46
2:41:                  19	30.46
2:41:                  49	30.45
2:42:                  19	30.43
2:42:                  49	30.46
2:43:                  19	30.47
2:43:                  49	30.44
2:44:                  19	30.43
2:44:                  49	30.45
2:45:                  19	30.47
2:45:                  49	30.45
2:46:                  19	30.43
2:46:                  49	30.48
2:47:                  19	30.46
2:47:                  49	30.46
2:48:                  19	30.47
2:48:                  49	30.46
2:49:                  19	30.42
2:49:                  49	30.43
2:50:                  19	30.44
2:50:                  50	30.46
2:51:                  20	30.45
2:51:                  50	30.46
2:52:                  20	30.43
2:52:                  50	30.46
2:53:                  20	30.46
2:53:                  50	30.44
2:54:                  20	30.46
2:54:                  50	30.48
2:55:                  20	30.48
2:55:                  50	30.47
2:56:                  20	30.47
2:56:                  50	30.49
2:57:                  20	30.43
2:57:                  50	30.46
2:58:                  20	30.45
2:58:                  50	30.44
2:59:                  20	30.47
2:59:                  50	30.46
3:00:                  20	30.45
3:00:                  50	30.47
3:01:                  20	30.45
3:01:                  50	30.42
3:02:                  20	30.45
3:02:                  50	30.42
3:03:                  20	30.45
3:03:                  50	30.45
3:04:                  20	30.44
3:04:                  50	30.44
3:05:                  20	30.46
3:05:                  50	30.44
3:06:                  20	30.44
3:06:                  50	30.45
3:07:                  20	30.42
3:07:                  50	30.46
3:08:                  20	30.43
3:08:                  50	30.42
3:09:                  20	30.46
3:09:                  50	30.45
3:10:                  21	30.42
3:10:                  51	30.41
3:11:                  21	30.45
3:11:                  51	30.45
3:12:                  21	30.40
3:12:                  51	30.43
3:13:                  21	30.44
3:13:                  51	30.42
3:14:                  21	30.45
3:14:                  51	30.43
3:15:                  21	30.44
3:15:                  51	30.44
3:16:                  21	30.44
3:16:                  51	30.44
3:17:                  21	30.43
3:17:                  51	30.43
3:18:                  21	30.42
3:18:                  51	30.43
3:19:                  21	30.44
3:19:                  51	30.44
3:20:                  21	30.45
3:20:                  51	30.46
3:21:                  21	30.43
3:21:                  51	30.41
3:22:                  21	30.44
3:22:                  51	30.44
3:23:                  21	30.42
3:23:                  51	30.40
3:24:                  21	30.43
3:24:                  51	30.44
3:25:                  21	30.42
3:25:                  51	30.45
3:26:                  21	30.44
3:26:                  51	30.42
3:27:                  21	30.43
3:27:                  51	30.42
3:28:                  21	30.43
3:28:                  51	30.43
3:29:                  21	30.44
3:29:                  52	30.44
3:30:                  22	30.42
3:30:                  52	30.42
3:31:                  22	30.42
3:31:                  52	30.43
3:32:                  22	30.42
3:32:                  52	30.42
3:33:                  22	30.43
3:33:                  52	30.44
3:34:                  22	30.45
3:34:                  52	30.45
3:35:                  22	30.44
3:35:                  52	30.44
3:36:                  22	30.41
3:36:                  52	30.44
3:37:                  22	30.44
3:37:                  52	30.42
3:38:                  22	30.40
3:38:                  52	30.42
3:39:                  22	30.43
3:39:                  52	30.38
3:40:                  22	30.40
3:40:                  52	30.41
3:41:                  22	30.43
3:41:                  52	30.46
3:42:                  22	30.43
3:42:                  52	30.44
3:43:                  22	30.41
3:43:                  52	30.41
3:44:                  22	30.41
3:44:                  52	30.40
3:45:                  22	30.42
3:45:                  52	30.41
3:46:                  23	30.41
3:46:                  53	30.39
3:47:                  23	30.41
3:47:                  53	30.41
3:48:                  23	30.43
3:48:                  53	30.43
3:49:                  23	30.39
3:49:                  53	30.41
3:50:                  23	30.41
3:50:                  53	30.41
3:51:                  23	30.42
3:51:                  53	30.46
3:52:                  23	30.43
3:52:                  53	30.43
3:53:                  23	30.44
3:53:                  53	30.44
3:54:                  23	30.42
3:54:                  53	30.42
3:55:                  23	30.41
3:55:                  53	30.41
3:56:                  23	30.42
3:56:                  53	30.42
3:57:                  23	30.41
3:57:                  53	30.39
3:58:                  23	30.40
3:58:                  53	30.41
3:59:                  23	30.39
3:59:                  53	30.43
4:00:                  23	30.42
4:00:                  53	30.44
4:01:                  23	30.43
4:01:                  53	30.43
4:02:                  23	30.39
4:02:                  53	30.42
4:03:                  24	30.42
4:03:                  54	30.41
4:04:                  24	30.43
4:04:                  54	30.44
4:05:                  24	30.41
4:05:                  54	30.45
4:06:                  24	30.46
4:06:                  54	30.45
4:07:                  24	30.43
4:07:                  54	30.42
4:08:                  24	30.39
4:08:                  54	30.42
4:09:                  24	30.43
4:09:                  54	30.40
4:10:                  24	30.42
4:10:                  54	30.41
4:11:                  24	30.40
4:11:                  54	30.44
4:12:                  24	30.41
4:12:                  54	30.42
4:13:                  24	30.41
4:13:                  54	30.43
4:14:                  24	30.44
4:14:                  54	30.45
4:15:                  24	30.42
4:15:                  54	30.43
4:16:                  24	30.43
4:16:                  54	30.43
4:17:                  24	30.44
4:17:                  54	30.43
4:18:                  24	30.41
4:18:                  54	30.38
4:19:                  24	30.40
4:19:                  54	30.41
4:20:                  24	30.38
4:20:                  54	30.41
4:21:                  24	30.41
4:21:                  54	30.41
4:22:                  24	30.41
4:22:                  54	30.39
4:23:                  25	30.38
4:23:                  55	30.38
4:24:                  25	30.41
4:24:                  55	30.42
4:25:                  25	30.40
4:25:                  55	30.40
4:26:                  25	30.39
4:26:                  55	30.38
4:27:                  25	30.40
4:27:                  55	30.41
4:28:                  25	30.41
4:28:                  55	30.39
4:29:                  25	30.40
4:29:                  55	30.39
4:30:                  25	30.42
4:30:                  55	30.41
4:31:                  25	30.41
4:31:                  55	30.39
4:32:                  25	30.41
4:32:                  55	30.44
4:33:                  25	30.43
4:33:                  55	30.42
4:34:                  25	30.41
4:34:                  55	30.39
4:35:                  25	30.41
4:35:                  55	30.39
4:36:                  25	30.44
4:36:                  55	30.43
4:37:                  25	30.42
4:37:                  55	30.40
4:38:                  25	30.39
4:38:                  55	30.43
4:39:                  25	30.41
4:39:                  56	30.38
4:40:                  26	30.38
4:40:                  56	30.41
4:41:                  26	30.40
4:41:                  56	30.38
4:42:                  26	30.38
4:42:                  56	30.38
4:43:                  26	30.37
4:43:                  56	30.37
4:44:                  26	30.35
4:44:                  56	30.38
4:45:                  26	30.38
4:45:                  56	30.37
4:46:                  26	30.37
4:46:                  56	30.35
4:47:                  26	30.39
4:47:                  56	30.39
4:48:                  26	30.39
4:48:                  56	30.35
4:49:                  26	30.35
4:49:                  56	30.38
4:50:                  26	30.40
4:50:                  56	30.39
4:51:                  26	30.38
4:51:                  56	30.40
4:52:                  26	30.40
4:52:                  56	30.40
4:53:                  26	30.37
4:53:                  56	30.39
4:54:                  26	30.37
4:54:                  56	30.37
4:55:                  26	30.38
4:55:                  56	30.39
4:56:                  26	30.39
4:56:                  57	30.37
4:57:                  27	30.38
4:57:                  57	30.38
4:58:                  27	30.39
4:58:                  57	30.39
4:59:                  27	30.38
4:59:                  57	30.36
5:00:                  27	30.36
5:00:                  57	30.38
5:01:                  27	30.38
5:01:                  57	30.38
5:02:                  27	30.39
5:02:                  57	30.36
5:03:                  27	30.37
5:03:                  57	30.39
5:04:                  27	30.37
5:04:                  57	30.34
5:05:                  27	30.36
5:05:                  57	30.38
5:06:                  27	30.39
5:06:                  57	30.40
5:07:                  27	30.36
5:07:                  57	30.35
5:08:                  27	30.38
5:08:                  57	30.37
5:09:                  27	30.37
5:09:                  57	30.38
5:10:                  27	30.39
5:10:                  57	30.38
5:11:                  27	30.35
5:11:                  57	30.37
5:12:                  27	30.37
5:12:                  57	30.37
5:13:                  27	30.38
5:13:                  57	30.38
5:14:                  27	30.39
5:14:                  57	30.37
5:15:                  27	30.38
5:15:                  57	30.36
5:16:                  28	30.39
5:16:                  58	30.37
5:17:                  28	30.39
5:17:                  58	30.37
5:18:                  28	30.35
5:18:                  58	30.39
5:19:                  28	30.38
5:19:                  58	30.36
5:20:                  28	30.38
5:20:                  58	30.39
5:21:                  28	30.39
5:21:                  58	30.37
5:22:                  28	30.38
5:22:                  58	30.36
5:23:                  28	30.35
5:23:                  58	30.38
5:24:                  28	30.38
5:24:                  58	30.36
5:25:                  28	30.38
5:25:                  58	30.38
5:26:                  28	30.37
5:26:                  58	30.37
5:27:                  28	30.38
5:27:                  58	30.37
5:28:                  28	30.37
5:28:                  58	30.36
5:29:                  28	30.35
5:29:                  58	30.37
5:30:                  28	30.35
5:30:                  58	30.37
5:31:                  28	30.38
5:31:                  58	30.37
5:32:                  28	30.36
5:32:                  58	30.35
5:33:                  29	30.37
5:33:                  59	30.37
5:34:                  29	30.35
5:34:                  59	30.36
5:35:                  29	30.37
5:35:                  59	30.36
5:36:                  29	30.40
5:36:                  59	30.39
5:37:                  29	30.37
5:37:                  59	30.37
5:38:                  29	30.38
5:38:                  59	30.39
5:39:                  29	30.34
5:39:                  59	30.35
5:40:                  29	30.35
5:40:                  59	30.39
5:41:                  29	30.38
5:41:                  59	30.37
5:42:                  29	30.38
5:42:                  59	30.37
5:43:                  29	30.38
5:43:                  59	30.39
5:44:                  29	30.37
5:44:                  59	30.38
5:45:                  29	30.39
5:45:                  59	30.38
5:46:                  29	30.34
5:46:                  59	30.35
5:47:                  29	30.36
5:47:                  59	30.37
5:48:                  29	30.37
5:48:                  59	30.36
5:49:                  29	30.39
5:49:                  59	30.38
5:50:                  29	30.37
5:50:                  59	30.37
5:51:                  29	30.37
5:51:                  59	30.40
5:52:                  30	30.38
5:53:                   0	30.36
5:53:                  30	30.37
5:54:                   0	30.38
5:54:                  30	30.37
5:55:                   0	30.38
5:55:                  30	30.37
5:56:                   0	30.37
5:56:                  30	30.35
5:57:                   0	30.38
5:57:                  30	30.36
5:58:                   0	30.35
5:58:                  30	30.37
5:59:                   0	30.37
5:59:                  30	30.39
6:00:                   0	30.37
6:00:                  30	30.39
6:01:                   0	30.37
6:01:                  30	30.36
6:02:                   0	30.39
6:02:                  30	30.40
6:03:                   0	30.36
6:03:                  30	30.36
6:04:                   0	30.37
6:04:                  30	30.37
6:05:                   0	30.36
6:05:                  30	30.35
6:06:                   0	30.33
6:06:                  30	30.35
6:07:                   0	30.35
6:07:                  30	30.37
6:08:                   0	30.36
6:08:                  30	30.37
6:09:                   0	30.37
6:09:                  30	30.38
6:10:                   0	30.39
6:10:                  30	30.35
6:11:                   0	30.36
6:11:                  30	30.36
6:12:                   0	30.41
6:12:                  30	30.40
6:13:                   0	30.39
6:13:                  30	30.37
6:14:                   0	30.36
6:14:                  30	30.35
6:15:                   1	30.34
6:15:                  31	30.34
6:16:                   1	30.35
6:16:                  31	30.37
6:17:                   1	30.37
6:17:                  31	30.37
6:18:                   1	30.35
6:18:                  31	30.38
6:19:                   1	30.39
6:19:                  31	30.42
6:20:                   1	30.41
6:20:                  31	30.38
6:21:                   1	30.36
6:21:                  31	30.35
6:22:                   1	30.40
6:22:                  31	30.39
6:23:                   1	30.37
6:23:                  31	30.39
6:24:                   1	30.37
6:24:                  31	30.37
6:25:                   1	30.36
6:25:                  31	30.36
6:26:                   1	30.38
6:26:                  31	30.38
6:27:                   1	30.38
6:27:                  31	30.35
6:28:                   1	30.38
6:28:                  31	30.39
6:29:                   1	30.37
6:29:                  31	30.38
6:30:                   1	30.38
6:30:                  31	30.37
6:31:                   1	30.36
6:31:                  31	30.37
6:32:                   1	30.36
6:32:                  31	30.37
6:33:                   1	30.33
6:33:                  31	30.35
6:34:                   1	30.36
6:34:                  32	30.36
6:35:                   2	30.33
6:35:                  32	30.33
6:36:                   2	30.36
6:36:                  32	30.36
6:37:                   2	30.35
6:37:                  32	30.39
6:38:                   2	30.37
6:38:                  32	30.36
6:39:                   2	30.36
6:39:                  32	30.36
6:40:                   2	30.33
6:40:                  32	30.35
6:41:                   2	30.35
6:41:                  32	30.35
6:42:                   2	30.37
6:42:                  32	30.36
6:43:                   2	30.35
6:43:                  32	30.35
6:44:                   2	30.39
6:44:                  32	30.36
6:45:                   2	30.35
6:45:                  32	30.34
6:46:                   2	30.33
6:46:                  32	30.36
6:47:                   2	30.36
6:47:                  32	30.36
6:48:                   2	30.38
6:48:                  32	30.42
6:49:                   2	30.39
6:49:                  32	30.37
6:50:                   2	30.39
6:50:                  32	30.37
6:51:                   2	30.39
6:51:                  32	30.39
6:52:                   2	30.37
6:52:                  32	30.39
6:53:                   2	30.38
6:53:                  32	30.36
6:54:                   3	30.34
6:54:                  33	30.36
6:55:                   3	30.38
6:55:                  33	30.35
6:56:                   3	30.36
6:56:                  33	30.39
6:57:                   3	30.39
6:57:                  33	30.37
6:58:                   3	30.37
6:58:                  33	30.37
6:59:                   3	30.37
6:59:                  33	30.38
7:00:                   3	30.40
7:00:                  33	30.37
7:01:                   3	30.39
7:01:                  33	30.37
7:02:                   3	30.37
7:02:                  33	30.35
7:03:                   3	30.38
7:03:                  33	30.38
7:04:                   3	30.38
7:04:                  33	30.39
7:05:                   3	30.38
7:05:                  33	30.36
7:06:                   3	30.36
7:06:                  33	30.39
7:07:                   3	30.40
7:07:                  33	30.38
7:08:                   3	30.39
7:08:                  33	30.38
7:09:                   3	30.38
7:09:                  33	30.39
7:10:                   3	30.39
7:10:                  34	30.39
7:11:                   4	30.38
7:11:                  34	30.39
7:12:                   4	30.42
7:12:                  34	30.43
7:13:                   4	30.45
7:13:                  34	30.42
7:14:                   4	30.40
7:14:                  34	30.40
7:15:                   4	30.40
7:15:                  34	30.40
7:16:                   4	30.40
7:16:                  34	30.40
7:17:                   4	30.39
7:17:                  34	30.41
7:18:                   4	30.41
7:18:                  34	30.41
7:19:                   4	30.43
7:19:                  34	30.41
7:20:                   4	30.42
7:20:                  34	30.42
7:21:                   4	30.42
7:21:                  34	30.39
7:22:                   4	30.40
7:22:                  34	30.39
7:23:                   4	30.40
7:23:                  34	30.37
7:24:                   4	30.40
7:24:                  34	30.41
7:25:                   4	30.41
7:25:                  34	30.39
7:26:                   4	30.41
7:26:                  34	30.38
7:27:                   4	30.36
7:27:                  34	30.39
7:28:                   4	30.37
7:28:                  34	30.38
7:29:                   4	30.38
7:29:                  34	30.39
7:30:                   4	30.42
7:30:                  34	30.43
7:31:                   4	30.42
7:31:                  34	30.43
7:32:                   4	30.38
7:32:                  34	30.39
7:33:                   4	30.40
7:33:                  34	30.39
7:34:                   4	30.40
7:34:                  35	30.39
7:35:                   5	30.42
7:35:                  35	30.45
7:36:                   5	30.43
7:36:                  35	30.42
7:37:                   5	30.43
7:37:                  35	30.41
7:38:                   5	30.40
7:38:                  35	30.40
7:39:                   5	30.38
7:39:                  35	30.39
7:40:                   5	30.40
7:40:                  35	30.39
7:41:                   5	30.38
7:41:                  35	30.39
7:42:                   5	30.38
7:42:                  35	30.39
7:43:                   5	30.38
7:43:                  35	30.38
7:44:                   5	30.38
7:44:                  35	30.38
7:45:                   5	30.38
7:45:                  35	30.39
7:46:                   5	30.40
7:46:                  35	30.39
7:47:                   5	30.38
7:47:                  35	30.39
7:48:                   5	30.40
7:48:                  35	30.40
7:49:                   5	30.39
7:49:                  35	30.41
7:50:                   5	30.38
7:50:                  35	30.39
7:51:                   5	30.41
7:51:                  35	30.38
7:52:                   5	30.35
7:52:                  35	30.36
7:53:                   5	30.38
7:53:                  35	30.36
7:54:                   5	30.35
7:54:                  35	30.34
7:55:                   5	30.39
7:55:                  36	30.36
7:56:                   6	30.35
7:56:                  36	30.32
7:57:                   6	30.31
7:57:                  36	30.29
7:58:                   6	30.28
7:58:                  36	30.29
7:59:                   6	30.29
7:59:                  36	30.29
8:00:                   6	30.29
8:00:                  36	30.27
8:01:                   6	30.28
8:01:                  36	30.27
8:02:                   6	30.28
8:02:                  36	30.28
8:03:                   6	30.26
8:03:                  36	30.29
8:04:                   6	30.29
8:04:                  36	30.29
8:05:                   6	30.33
8:05:                  36	30.34
8:06:                   6	30.39
8:06:                  36	30.40
8:07:                   6	30.39
8:07:                  36	30.42
8:08:                   6	30.42
8:08:                  36	30.42
8:09:                   6	30.42
8:09:                  36	30.39
8:10:                   6	30.39
8:10:                  36	30.40
8:11:                   6	30.43
8:11:                  36	30.45
8:12:                   6	30.47
8:12:                  36	30.49
8:13:                   6	30.53
8:13:                  36	30.52
8:14:                   6	30.51
8:14:                  36	30.50
8:15:                   6	30.53
8:15:                  36	30.53
8:16:                   6	30.53
8:16:                  36	30.52
8:17:                   6	30.56
8:17:                  36	30.56
8:18:                   6	30.54
8:18:                  36	30.53
8:19:                   7	30.52
8:19:                  37	30.52
8:20:                   7	30.53
8:20:                  37	30.52
8:21:                   7	30.53
8:21:                  37	30.52
8:22:                   7	30.51
8:22:                  37	30.54
8:23:                   7	30.50
8:23:                  37	30.50
8:24:                   7	30.50
8:24:                  37	30.51
8:25:                   7	30.52
8:25:                  37	30.50
8:26:                   7	30.46
8:26:                  37	30.47
8:27:                   7	30.45
8:27:                  37	30.46
8:28:                   7	30.42
8:28:                  37	30.45
8:29:                   7	30.41
8:29:                  37	30.42
8:30:                   7	30.45
8:30:                  37	30.47
8:31:                   7	30.45
8:31:                  37	30.45
8:32:                   7	30.44
8:32:                  37	30.47
8:33:                   7	30.48
8:33:                  37	30.48
8:34:                   7	30.45
8:34:                  37	30.45
8:35:                   8	30.45
8:35:                  38	30.44
8:36:                   8	30.43
8:36:                  38	30.45
8:37:                   8	30.47
8:37:                  38	30.47
8:38:                   8	30.45
8:38:                  38	30.40
8:39:                   8	30.38
8:39:                  38	30.38
8:40:                   8	30.35
8:40:                  38	30.32
8:41:                   8	30.33
8:41:                  38	30.35
8:42:                   8	30.34
8:42:                  38	30.36
8:43:                   8	30.40
8:43:                  38	30.37
8:44:                   8	30.33
8:44:                  38	30.33
8:45:                   8	30.34
8:45:                  38	30.28
8:46:                   8	30.30
8:46:                  38	30.27
8:47:                   8	30.26
8:47:                  38	30.22
8:48:                   8	30.22
8:48:                  38	30.22
8:49:                   8	30.21
8:49:                  38	30.22
8:50:                   8	30.25
8:50:                  38	30.22
8:51:                   8	30.22
8:51:                  39	30.22
8:52:                   9	30.20
8:52:                  39	30.20
8:53:                   9	30.19
8:53:                  39	30.19
8:54:                   9	30.21
8:54:                  39	30.23
8:55:                   9	30.24
8:55:                  39	30.24
8:56:                   9	30.22
8:56:                  39	30.22
8:57:                   9	30.23
8:57:                  39	30.20
8:58:                   9	30.22
8:58:                  39	30.23
8:59:                   9	30.22
8:59:                  39	30.20
9:00:                   9	30.24
9:00:                  39	30.23
9:01:                   9	30.22
9:01:                  39	30.21
9:02:                   9	30.21
9:02:                  39	30.23
9:03:                   9	30.25
9:03:                  39	30.29
9:04:                   9	30.32
9:04:                  39	30.30
9:05:                   9	30.32
9:05:                  39	30.29
9:06:                   9	30.28
9:06:                  39	30.29
9:07:                   9	30.29
9:07:                  39	30.27
9:08:                   9	30.27
9:08:                  40	30.26
9:09:                  10	30.26
9:09:                  40	30.25
9:10:                  10	30.23
9:10:                  40	30.23
9:11:                  10	30.23
9:11:                  40	30.25
9:12:                  10	30.26
9:12:                  40	30.28
9:13:                  10	30.27
9:13:                  40	30.26
9:14:                  10	30.28
9:14:                  40	30.23
9:15:                  10	30.23
9:15:                  40	30.24
9:16:                  10	30.22
9:16:                  40	30.23
9:17:                  10	30.23
9:17:                  40	30.27
9:18:                  10	30.28
9:18:                  40	30.29
9:19:                  10	30.30
9:19:                  40	30.28
9:20:                  10	30.28
9:20:                  40	30.31
9:21:                  10	30.29
9:21:                  40	30.30
9:22:                  10	30.30
9:22:                  40	30.30
9:23:                  10	30.31
9:23:                  40	30.32
9:24:                  10	30.31
9:24:                  40	30.31
9:25:                  10	30.28
9:25:                  40	30.29
9:26:                  10	30.31
9:26:                  40	30.32
9:27:                  10	30.31
9:27:                  40	30.30
9:28:                  11	30.34
9:28:                  41	30.36
9:29:                  11	30.33
9:29:                  41	30.34
9:30:                  11	30.30
9:30:                  41	30.30
9:31:                  11	30.28
9:31:                  41	30.30
9:32:                  11	30.28
9:32:                  41	30.27
9:33:                  11	30.25
9:33:                  41	30.26
9:34:                  11	30.27
9:34:                  41	30.28
9:35:                  11	30.30
9:35:                  41	30.29
9:36:                  11	30.27
9:36:                  41	30.28
9:37:                  11	30.26
9:37:                  41	30.21
9:38:                  11	30.21
9:38:                  41	30.21
9:39:                  11	30.20
9:39:                  41	30.22
9:40:                  11	30.21
9:40:                  41	30.22
9:41:                  11	30.19
9:41:                  41	30.16
9:42:                  11	30.16
9:42:                  41	30.15
9:43:                  11	30.14
9:43:                  41	30.12
9:44:                  12	30.12
9:44:                  42	30.10
9:45:                  12	30.12
9:45:                  42	30.12
9:46:                  12	30.15
9:46:                  42	30.18
9:47:                  12	30.19
9:47:                  42	30.23
9:48:                  12	30.22
9:48:                  42	30.21
9:49:                  12	30.19
9:49:                  42	30.20
9:50:                  12	30.17
9:50:                  42	30.16
9:51:                  12	30.17
9:51:                  42	30.20
9:52:                  12	30.19
9:52:                  42	30.21
9:53:                  12	30.19
9:53:                  42	30.19
9:54:                  12	30.20
9:54:                  42	30.21
9:55:                  12	30.20
9:55:                  42	30.20
9:56:                  12	30.18
9:56:                  42	30.21
9:57:                  12	30.21
9:57:                  42	30.22
9:58:                  12	30.22
9:58:                  42	30.21
9:59:                  12	30.19
9:59:                  42	30.18
10:00:                  12	30.19
10:00:                  42	30.19
10:01:                  12	30.17
10:01:                  42	30.19
10:02:                  12	30.17
10:02:                  42	30.17
10:03:                  12	30.15
10:03:                  42	30.13
10:04:                  12	30.12
10:04:                  42	30.12
10:05:                  12	30.15
10:05:                  42	30.17
10:06:                  12	30.22
10:06:                  42	30.19
10:07:                  13	30.25
10:07:                  43	30.23
10:08:                  13	30.29
10:08:                  43	30.33
10:09:                  13	30.34
10:09:                  43	30.32
10:10:                  13	30.28
10:10:                  43	30.28
10:11:                  13	30.28
10:11:                  43	30.26
10:12:                  13	30.27
10:12:                  43	30.23
10:13:                  13	30.24
10:13:                  43	30.24
10:14:                  13	30.24
10:14:                  43	30.25
10:15:                  13	30.24
10:15:                  43	30.23
10:16:                  13	30.23
10:16:                  43	30.26
10:17:                  13	30.25
10:17:                  43	30.20
10:18:                  13	30.22
10:18:                  43	30.18
10:19:                  13	30.19
10:19:                  43	30.19
10:20:                  13	30.21
10:20:                  43	30.22
10:21:                  13	30.22
10:21:                  43	30.27
10:22:                  13	30.32
10:22:                  43	30.31
10:23:                  13	30.26
10:23:                  43	30.26
10:24:                  13	30.26
10:24:                  43	30.29
10:25:                  13	30.26
10:25:                  43	30.32
10:26:                  13	30.34
10:26:                  43	30.34
10:27:                  14	30.31
10:27:                  44	30.33
10:28:                  14	30.31
10:28:                  44	30.28
10:29:                  14	30.27
10:29:                  44	30.26
10:30:                  14	30.26
10:30:                  44	30.27
10:31:                  14	30.28
10:31:                  44	30.26
10:32:                  14	30.29
10:32:                  44	30.34
10:33:                  14	30.33
10:33:                  44	30.33
10:34:                  14	30.32
10:34:                  44	30.33
10:35:                  14	30.35
10:35:                  44	30.33
10:36:                  14	30.33
10:36:                  44	30.35
10:37:                  14	30.34
10:37:                  44	30.30
10:38:                  14	30.31
10:38:                  44	30.32
10:39:                  14	30.32
10:39:                  44	30.28
10:40:                  14	30.29
10:40:                  44	30.26
10:41:                  14	30.27
10:41:                  44	30.26
10:42:                  14	30.29
10:42:                  44	30.28
10:43:                  14	30.28
10:43:                  44	30.29
10:44:                  14	30.29
10:44:                  44	30.28
10:45:                  14	30.24
10:45:                  44	30.23
10:46:                  14	30.25
10:46:                  44	30.27
10:47:                  15	30.25
10:47:                  45	30.26
10:48:                  15	30.28
10:48:                  45	30.29
10:49:                  15	30.27
10:49:                  45	30.26
10:50:                  15	30.25
10:50:                  45	30.25
10:51:                  15	30.24
10:51:                  45	30.24
10:52:                  15	30.23
10:52:                  45	30.22
10:53:                  15	30.21
10:53:                  45	30.19
10:54:                  15	30.19
10:54:                  45	30.21
10:55:                  15	30.26
10:55:                  45	30.33
10:56:                  15	30.34
10:56:                  45	30.32
10:57:                  15	30.30
10:57:                  45	30.30
10:58:                  15	30.32
10:58:                  45	30.33
10:59:                  15	30.36
10:59:                  45	30.36
11:00:                  15	30.38
11:00:                  45	30.37
11:01:                  15	30.38
11:01:                  45	30.36
11:02:                  15	30.36
11:02:                  45	30.37
11:03:                  15	30.39
11:03:                  45	30.39
11:04:                  15	30.40
11:04:                  45	30.39
11:05:                  15	30.38
11:05:                  46	30.39
11:06:                  16	30.39
11:06:                  46	30.39
11:07:                  16	30.36
11:07:                  46	30.36
11:08:                  16	30.38
11:08:                  46	30.40
11:09:                  16	30.39
11:09:                  46	30.37
11:10:                  16	30.38
11:10:                  46	30.41
11:11:                  16	30.41
11:11:                  46	30.39
11:12:                  16	30.35
11:12:                  46	30.37
11:13:                  16	30.35
11:13:                  46	30.37
11:14:                  16	30.37
11:14:                  46	30.37
11:15:                  16	30.38
11:15:                  46	30.37
11:16:                  16	30.37
11:16:                  46	30.39
11:17:                  16	30.41
11:17:                  46	30.43
11:18:                  16	30.47
11:18:                  46	30.51
11:19:                  16	30.55
11:19:                  46	30.53
11:20:                  16	30.50
11:20:                  46	30.52
11:21:                  16	30.51
11:21:                  46	30.56
11:22:                  16	30.58
11:22:                  46	30.59
11:23:                  16	30.59
11:23:                  46	30.56
11:24:                  16	30.54
11:24:                  46	30.55
11:25:                  16	30.53
11:25:                  46	30.53
11:26:                  16	30.53
11:26:                  46	30.53
11:27:                  16	30.61
11:27:                  46	30.59
11:28:                  16	30.58
11:28:                  46	30.54
11:29:                  16	30.54
11:29:                  46	30.52
11:30:                  16	30.48
11:30:                  47	30.47
11:31:                  17	30.48
11:31:                  47	30.48
11:32:                  17	30.49
11:32:                  47	30.47
11:33:                  17	30.46
11:33:                  47	30.47
11:34:                  17	30.46
11:34:                  47	30.45
11:35:                  17	30.43
11:35:                  47	30.42
11:36:                  17	30.43
11:36:                  47	30.41
11:37:                  17	30.44
11:37:                  47	30.45
11:38:                  17	30.47
11:38:                  47	30.47
11:39:                  17	30.50
11:39:                  47	30.50
11:40:                  17	30.50
11:40:                  47	30.53
11:41:                  17	30.56
11:41:                  47	30.53
11:42:                  17	30.49
11:42:                  47	30.49
11:43:                  17	30.50
11:43:                  47	30.49
11:44:                  17	30.49
11:44:                  47	30.48
11:45:                  17	30.45
11:45:                  47	30.46
11:46:                  17	30.45
11:46:                  47	30.46
11:47:                  18	30.46
11:47:                  48	30.48
11:48:                  18	30.48
11:48:                  48	30.49
11:49:                  18	30.49
11:49:                  48	30.48
11:50:                  18	30.48
11:50:                  48	30.50
11:51:                  18	30.50
11:51:                  48	30.48
11:52:                  18	30.52
11:52:                  48	30.50
11:53:                  18	30.50
11:53:                  48	30.46
11:54:                  18	30.48
11:54:                  48	30.49
11:55:                  18	30.50
11:55:                  48	30.50
11:56:                  18	30.51
11:56:                  48	30.54
11:57:                  18	30.57
11:57:                  48	30.55
11:58:                  18	30.53
11:58:                  48	30.56
11:59:                  18	30.57
11:59:                  48	30.56
12:00:                  18	30.58
12:00:                  48	30.56
12:01:                  18	30.54
12:01:                  48	30.53
12:02:                  18	30.52
12:02:                  48	30.54
12:03:                  18	30.59
12:03:                  49	30.57
12:04:                  19	30.59
12:04:                  49	30.57
12:05:                  19	30.56
12:05:                  49	30.58
12:06:                  19	30.60
12:06:                  49	30.63
12:07:                  19	30.65
12:07:                  49	30.64
12:08:                  19	30.61
12:08:                  49	30.61
12:09:                  19	30.62
12:09:                  49	30.63
12:10:                  19	30.66
12:10:                  49	30.67
12:11:                  19	30.68
12:11:                  49	30.64
12:12:                  19	30.64
12:12:                  49	30.67
12:13:                  19	30.63
12:13:                  49	30.62
12:14:                  19	30.63
12:14:                  49	30.66
12:15:                  19	30.63
12:15:                  49	30.63
12:16:                  19	30.60
12:16:                  49	30.59
12:17:                  19	30.59
12:17:                  49	30.60
12:18:                  19	30.59
12:18:                  49	30.62
12:19:                  19	30.63
12:19:                  49	30.62
12:20:                  19	30.64
12:20:                  49	30.63
12:21:                  19	30.66
12:21:                  49	30.64
12:22:                  19	30.65
12:22:                  49	30.65
12:23:                  19	30.66
12:23:                  49	30.66
12:24:                  20	30.69
12:24:                  50	30.67
12:25:                  20	30.71
12:25:                  50	30.69
12:26:                  20	30.70
12:26:                  50	30.69
12:27:                  20	30.69
12:27:                  50	30.72
12:28:                  20	30.73
12:28:                  50	30.69
12:29:                  20	30.71
12:29:                  50	30.70
12:30:                  20	30.67
12:30:                  50	30.61
12:31:                  20	30.64
12:31:                  50	30.65
12:32:                  20	30.66
12:32:                  50	30.66
12:33:                  20	30.66
12:33:                  50	30.66
12:34:                  20	30.66
12:34:                  50	30.66
12:35:                  20	30.66
12:35:                  50	30.70
12:36:                  20	30.68
12:36:                  50	30.71
12:37:                  20	30.69
12:37:                  50	30.70
12:38:                  20	30.71
12:38:                  50	30.76
12:39:                  20	30.74
12:39:                  50	30.75
12:40:                  21	30.74
12:40:                  51	30.76
12:41:                  21	30.73
12:41:                  51	30.75
12:42:                  21	30.80
12:42:                  51	30.78
12:43:                  21	30.79
12:43:                  51	30.81
12:44:                  21	30.81
12:44:                  51	30.80
12:45:                  21	30.79
12:45:                  51	30.80
12:46:                  21	30.82
12:46:                  51	30.77
12:47:                  21	30.80
12:47:                  51	30.80
12:48:                  21	30.79
12:48:                  51	30.83
12:49:                  21	30.83
12:49:                  51	30.81
12:50:                  21	30.80
12:50:                  51	30.82
12:51:                  21	30.85
12:51:                  51	30.84
12:52:                  21	30.88
12:52:                  51	30.86
12:53:                  21	30.88
12:53:                  51	30.88
12:54:                  21	30.95
12:54:                  51	30.94
12:55:                  21	30.92
12:55:                  51	30.94
12:56:                  21	30.92
12:56:                  51	30.92
12:57:                  21	30.93
12:57:                  51	30.90
12:58:                  21	30.88
12:58:                  51	30.89
12:59:                  21	30.89
12:59:                  52	30.88
13:00:                  22	30.87
13:00:                  52	30.89
13:01:                  22	30.87
13:01:                  52	30.90
13:02:                  22	30.92
13:02:                  52	30.91
13:03:                  22	30.90
13:03:                  52	30.87
13:04:                  22	30.89
13:04:                  52	30.90
13:05:                  22	30.95
13:05:                  52	30.95
13:06:                  22	30.93
13:06:                  52	30.91
13:07:                  22	30.95
13:07:                  52	30.92
13:08:                  22	30.90
13:08:                  52	30.89
13:09:                  22	30.88
13:09:                  52	30.88
13:10:                  22	30.86
13:10:                  52	30.85
13:11:                  22	30.83
13:11:                  52	30.86
13:12:                  22	30.84
13:12:                  52	30.84
13:13:                  22	30.83
13:13:                  52	30.83
13:14:                  22	30.85
13:14:                  52	30.85
13:15:                  22	30.84
13:15:                  52	30.83
13:16:                  22	30.83
13:16:                  52	30.82
13:17:                  22	30.82
13:17:                  52	30.84
13:18:                  22	30.84
13:18:                  52	30.82
13:19:                  23	30.82
13:19:                  53	30.83
13:20:                  23	30.85
13:20:                  53	30.83
13:21:                  23	30.82
13:21:                  53	30.82
13:22:                  23	30.81
13:22:                  53	30.80
13:23:                  23	30.78
13:23:                  53	30.76
13:24:                  23	30.75
13:24:                  53	30.76
13:25:                  23	30.81
13:25:                  53	30.81
13:26:                  23	30.80
13:26:                  53	30.79
13:27:                  23	30.79
13:27:                  53	30.78
13:28:                  23	30.76
13:28:                  53	30.77
13:29:                  23	30.77
13:29:                  53	30.78
13:30:                  23	30.74
13:30:                  53	30.76
13:31:                  23	30.73
13:31:                  53	30.72
13:32:                  23	30.72
13:32:                  53	30.73
13:33:                  23	30.72
13:33:                  53	30.72
13:34:                  23	30.71
13:34:                  53	30.71
13:35:                  23	30.70
13:35:                  53	30.70
13:36:                  23	30.68
13:36:                  53	30.71
13:37:                  23	30.69
13:37:                  53	30.67
13:38:                  23	30.69
13:38:                  53	30.66
13:39:                  23	30.67
13:39:                  53	30.68
13:40:                  24	30.66
13:40:                  54	30.67
13:41:                  24	30.67
13:41:                  54	30.67
13:42:                  24	30.67
13:42:                  54	30.68
13:43:                  24	30.68
13:43:                  54	30.68
13:44:                  24	30.68
13:44:                  54	30.71
13:45:                  24	30.70
13:45:                  54	30.68
13:46:                  24	30.71
13:46:                  54	30.68
13:47:                  24	30.69
13:47:                  54	30.69
13:48:                  24	30.69
13:48:                  54	30.68
13:49:                  24	30.67
13:49:                  54	30.68
13:50:                  24	30.69
13:50:                  54	30.69
13:51:                  24	30.70
13:51:                  54	30.67
13:52:                  24	30.68
13:52:                  54	30.69
13:53:                  24	30.70
13:53:                  54	30.69
13:54:                  24	30.70
13:54:                  54	30.69
13:55:                  24	30.69
13:55:                  54	30.70
13:56:                  24	30.69
13:56:                  54	30.70
13:57:                  24	30.72
13:57:                  54	30.73
13:58:                  24	30.73
13:58:                  54	30.75
13:59:                  24	30.74
13:59:                  55	30.72
14:00:                  25	30.74
14:00:                  55	30.75
14:01:                  25	30.74
14:01:                  55	30.71
14:02:                  25	30.75
14:02:                  55	30.72
14:03:                  25	30.70
14:03:                  55	30.70
14:04:                  25	30.71
14:04:                  55	30.70
14:05:                  25	30.69
14:05:                  55	30.69
14:06:                  25	30.70
14:06:                  55	30.74
14:07:                  25	30.76
14:07:                  55	30.73
14:08:                  25	30.71
14:08:                  55	30.71
14:09:                  25	30.71
14:09:                  55	30.70
14:10:                  25	30.71
14:10:                  55	30.71
14:11:                  25	30.75
14:11:                  55	30.75
14:12:                  25	30.75
14:12:                  55	30.78
14:13:                  25	30.76
14:13:                  55	30.76
14:14:                  25	30.77
14:14:                  55	30.75
14:15:                  25	30.74
14:15:                  55	30.74
14:16:                  25	30.73
14:16:                  56	30.73
14:17:                  26	30.73
14:17:                  56	30.74
14:18:                  26	30.79
14:18:                  56	30.81
14:19:                  26	30.81
14:19:                  56	30.78
14:20:                  26	30.77
14:20:                  56	30.74
14:21:                  26	30.75
14:21:                  56	30.74
14:22:                  26	30.75
14:22:                  56	30.76
14:23:                  26	30.75
14:23:                  56	30.76
14:24:                  26	30.78
14:24:                  56	30.76
14:25:                  26	30.76
14:25:                  56	30.76
14:26:                  26	30.74
14:26:                  56	30.73
14:27:                  26	30.74
14:27:                  56	30.72
14:28:                  26	30.72
14:28:                  56	30.74
14:29:                  26	30.73
14:29:                  56	30.75
14:30:                  26	30.75
14:30:                  56	30.75
14:31:                  26	30.76
14:31:                  56	30.72
14:32:                  26	30.72
14:32:                  56	30.72
14:33:                  26	30.72
14:33:                  56	30.72
14:34:                  27	30.72
14:34:                  57	30.72
14:35:                  27	30.72
14:35:                  57	30.73
14:36:                  27	30.75
14:36:                  57	30.75
14:37:                  27	30.76
14:37:                  57	30.76
14:38:                  27	30.78
14:38:                  57	30.76
14:39:                  27	30.78
14:39:                  57	30.80
14:40:                  27	30.80
14:40:                  57	30.80
14:41:                  27	30.80
14:41:                  57	30.82
14:42:                  27	30.81
14:42:                  57	30.83
14:43:                  27	30.82
14:43:                  57	30.82
14:44:                  27	30.85
14:44:                  57	30.83
14:45:                  27	30.84
14:45:                  57	30.81
14:46:                  27	30.83
14:46:                  57	30.83
14:47:                  27	30.83
14:47:                  57	30.82
14:48:                  27	30.84
14:48:                  57	30.84
14:49:                  27	30.86
14:49:                  57	30.84
14:50:                  27	30.83
14:50:                  58	30.81
14:51:                  28	30.82
14:51:                  58	30.84
14:52:                  28	30.83
14:52:                  58	30.83
14:53:                  28	30.83
14:53:                  58	30.82
14:54:                  28	30.81
14:54:                  58	30.80
14:55:                  28	30.82
14:55:                  58	30.83
14:56:                  28	30.83
14:56:                  58	30.85
14:57:                  28	30.86
14:57:                  58	30.84
14:58:                  28	30.86
14:58:                  58	30.84
14:59:                  28	30.84
14:59:                  58	30.86
15:00:                  28	30.89
15:00:                  58	30.89
15:01:                  28	30.89
15:01:                  58	30.86
15:02:                  28	30.85
15:02:                  58	30.83
15:03:                  28	30.84
15:03:                  58	30.84
15:04:                  28	30.84
15:04:                  58	30.84
15:05:                  28	30.83
15:05:                  58	30.89
15:06:                  28	30.93
15:06:                  58	30.95
15:07:                  28	30.96
15:07:                  58	30.97
15:08:                  28	30.95
15:08:                  58	30.97
15:09:                  28	30.96
15:09:                  58	30.96
15:10:                  28	30.98
15:10:                  58	30.98
15:11:                  28	30.96
15:11:                  58	30.93
15:12:                  28	30.97
15:12:                  58	30.99
15:13:                  28	31.02
15:13:                  58	31.04
15:14:                  28	31.08
15:14:                  58	31.08
15:15:                  28	31.07
15:15:                  59	31.09
15:16:                  29	31.06
15:16:                  59	31.05
15:17:                  29	31.08
15:17:                  59	31.15
15:18:                  29	31.13
15:18:                  59	31.13
15:19:                  29	31.15
15:19:                  59	31.12
15:20:                  29	31.13
15:20:                  59	31.14
15:21:                  29	31.20
15:21:                  59	31.19
15:22:                  29	31.16
15:22:                  59	31.13
15:23:                  29	31.16
15:23:                  59	31.15
15:24:                  29	31.15
15:24:                  59	31.15
15:25:                  29	31.15
15:25:                  59	31.15
15:26:                  29	31.12
15:26:                  59	31.17
15:27:                  29	31.17
15:27:                  59	31.16
15:28:                  29	31.14
15:28:                  59	31.16
15:29:                  29	31.14
15:29:                  59	31.12
15:30:                  29	31.13
15:30:                  59	31.14
15:31:                  29	31.13
15:31:                  59	31.12
15:32:                  29	31.12
15:32:                  59	31.13
15:33:                  29	31.12
15:34:                   0	31.12
15:34:                  30	31.19
15:35:                   0	31.18
15:35:                  30	31.16
15:36:                   0	31.14
15:36:                  30	31.11
15:37:                   0	31.09
15:37:                  30	31.09
15:38:                   0	31.08
15:38:                  30	31.05
15:39:                   0	31.05
15:39:                  30	31.06
15:40:                   0	31.04
15:40:                  30	31.01
15:41:                   0	31.02
15:41:                  30	31.01
15:42:                   0	31.01
15:42:                  30	30.99
15:43:                   0	30.98
15:43:                  30	30.98
15:44:                   0	30.97
15:44:                  30	30.98
15:45:                   0	30.98
15:45:                  30	30.98
15:46:                   0	30.96
15:46:                  30	30.97
15:47:                   0	30.99
15:47:                  30	30.99
15:48:                   0	30.97
15:48:                  30	30.97
15:49:                   0	30.96
15:49:                  30	30.96
15:50:                   0	30.97
15:50:                  30	30.97
15:51:                   0	30.96
15:51:                  30	30.95
15:52:                   0	30.94
15:52:                  30	30.94
15:53:                   0	30.97
15:53:                  31	30.97
15:54:                   1	30.98
15:54:                  31	30.98
15:55:                   1	30.97
15:55:                  31	30.99
15:56:                   1	30.97
15:56:                  31	30.98
15:57:                   1	30.97
15:57:                  31	30.96
15:58:                   1	30.97
15:58:                  31	30.97
15:59:                   1	30.95
15:59:                  31	30.96
16:00:                   1	30.95
16:00:                  31	30.96
16:01:                   1	30.94
16:01:                  31	30.96
16:02:                   1	30.96
16:02:                  31	30.96
16:03:                   1	30.97
16:03:                  31	30.96
16:04:                   1	30.95
16:04:                  31	30.97
16:05:                   1	30.96
16:05:                  31	30.97
16:06:                   1	30.99
16:06:                  31	30.96
16:07:                   1	30.94
16:07:                  31	30.96
16:08:                   1	30.95
16:08:                  31	30.95
16:09:                   1	30.95
16:09:                  31	30.95
16:10:                   1	30.95
16:10:                  31	30.96
16:11:                   1	30.96
16:11:                  31	30.96
16:12:                   1	30.93
16:12:                  31	30.94
16:13:                   2	30.95
16:13:                  32	30.95
16:14:                   2	30.95
16:14:                  32	30.95
16:15:                   2	30.95
16:15:                  32	30.96
16:16:                   2	30.93
16:16:                  32	30.97
16:17:                   2	30.96
16:17:                  32	30.96
16:18:                   2	30.97
16:18:                  32	30.97
16:19:                   2	30.97
16:19:                  32	30.96
16:20:                   2	30.97
16:20:                  32	30.97
16:21:                   2	30.98
16:21:                  32	30.98
16:22:                   2	30.98
16:22:                  32	30.96
16:23:                   2	30.95
16:23:                  32	30.95
16:24:                   2	30.94
16:24:                  32	30.96
16:25:                   2	30.95
16:25:                  32	30.98
16:26:                   2	30.96
16:26:                  32	30.98
16:27:                   2	30.95
16:27:                  32	30.95
16:28:                   2	30.92
16:28:                  32	30.95
16:29:                   2	30.94
16:29:                  32	30.93
16:30:                   2	30.95
16:30:                  32	30.93
16:31:                   2	30.95
16:31:                  32	30.93
16:32:                   3	30.96
16:32:                  33	30.99
16:33:                   3	30.94
16:33:                  33	30.94
16:34:                   3	30.97
16:34:                  33	30.97
16:35:                   3	30.93
16:35:                  33	30.95
16:36:                   3	30.94
16:36:                  33	30.94
16:37:                   3	30.94
16:37:                  33	30.96
16:38:                   3	30.96
16:38:                  33	30.97
16:39:                   3	30.97
16:39:                  33	30.96
16:40:                   3	30.95
16:40:                  33	30.95
16:41:                   3	30.97
16:41:                  33	30.96
16:42:                   3	30.95
16:42:                  33	30.94
16:43:                   3	30.93
16:43:                  33	30.93
16:44:                   3	30.93
16:44:                  33	30.93
16:45:                   3	30.96
16:45:                  33	30.97
16:46:                   3	31.00
16:46:                  33	31.03
16:47:                   3	31.01
16:47:                  33	31.01
16:48:                   3	31.01
16:48:                  34	31.02
16:49:                   4	31.07
16:49:                  34	31.06
16:50:                   4	31.06
16:50:                  34	31.10
16:51:                   4	31.11
16:51:                  34	31.15
16:52:                   4	31.13
16:52:                  34	31.09
16:53:                   4	31.09
16:53:                  34	31.06
16:54:                   4	31.06
16:54:                  34	31.05
16:55:                   4	31.06
16:55:                  34	31.06
16:56:                   4	31.05
16:56:                  34	31.05
16:57:                   4	31.04
16:57:                  34	31.03
16:58:                   4	31.03
16:58:                  34	31.01
16:59:                   4	31.01
16:59:                  34	30.99
17:00:                   4	31.00
17:00:                  34	30.99
17:01:                   4	30.98
17:01:                  34	30.99
17:02:                   4	30.98
17:02:                  34	30.97
17:03:                   4	30.96
17:03:                  34	30.97
17:04:                   4	30.95
17:04:                  34	30.96
17:05:                   4	30.96
17:05:                  34	30.96
17:06:                   4	30.96
17:06:                  34	30.95
17:07:                   4	30.95
17:07:                  34	30.95
17:08:                   4	30.98
17:08:                  34	30.95
17:09:                   5	30.96
17:09:                  35	30.95
17:10:                   5	30.96
17:10:                  35	30.96
17:11:                   5	30.97
17:11:                  35	30.97
17:12:                   5	30.96
17:12:                  35	30.95
17:13:                   5	30.96
17:13:                  35	30.94
17:14:                   5	30.93
17:14:                  35	30.94
17:15:                   5	30.92
17:15:                  35	30.96
17:16:                   5	30.98
17:16:                  35	30.95
17:17:                   5	30.95
17:17:                  35	30.94
17:18:                   5	30.93
17:18:                  35	30.92
17:19:                   5	30.95
17:19:                  35	30.96
17:20:                   5	30.96
17:20:                  35	30.94
17:21:                   5	30.98
17:21:                  35	30.99
17:22:                   5	30.98
17:22:                  35	30.94
17:23:                   5	30.94
17:23:                  35	30.93
17:24:                   5	30.94
17:24:                  35	30.94
17:25:                   5	30.93
17:25:                  35	30.96
17:26:                   5	30.94
17:26:                  35	30.98
17:27:                   5	30.96
17:27:                  36	30.93
17:28:                   6	30.94
17:28:                  36	30.94
17:29:                   6	30.93
17:29:                  36	30.95
17:30:                   6	30.94
17:30:                  36	30.95
17:31:                   6	30.94
17:31:                  36	30.95
17:32:                   6	30.94
17:32:                  36	30.94
17:33:                   6	30.94
17:33:                  36	30.94
17:34:                   6	30.93
17:34:                  36	30.92
17:35:                   6	30.92
17:35:                  36	30.93
17:36:                   6	30.92
17:36:                  36	30.93
17:37:                   6	30.95
17:37:                  36	30.93
17:38:                   6	30.92
17:38:                  36	30.92
17:39:                   6	30.92
17:39:                  36	30.91
17:40:                   6	30.92
17:40:                  36	30.91
17:41:                   6	30.92
17:41:                  36	30.93
17:42:                   6	30.92
17:42:                  36	30.93
17:43:                   6	30.95
17:43:                  36	30.93
17:44:                   6	30.95
17:44:                  36	30.93
17:45:                   6	30.93
17:45:                  36	30.93
17:46:                   6	30.96
17:46:                  36	30.94
17:47:                   6	30.93
17:47:                  36	30.94
17:48:                   6	30.94
17:48:                  36	30.93
17:49:                   6	30.93
17:49:                  36	30.91
17:50:                   6	30.90
17:50:                  37	30.90
17:51:                   7	30.89
17:51:                  37	30.90
17:52:                   7	30.92
17:52:                  37	30.96
17:53:                   7	30.90
17:53:                  37	30.90
17:54:                   7	30.89
17:54:                  37	30.89
17:55:                   7	30.90
17:55:                  37	30.89
17:56:                   7	30.89
17:56:                  37	30.89
17:57:                   7	30.89
17:57:                  37	30.89
17:58:                   7	30.88
17:58:                  37	30.89
17:59:                   7	30.91
17:59:                  37	30.91
18:00:                   7	30.96
18:00:                  37	30.97
18:01:                   7	30.97
18:01:                  37	30.97
18:02:                   7	30.98
18:02:                  37	30.97
18:03:                   7	30.96
18:03:                  37	30.96
18:04:                   7	30.93
18:04:                  37	30.93
18:05:                   7	30.94
18:05:                  37	30.93
18:06:                   7	30.93
18:06:                  37	30.91
18:07:                   8	30.93
18:07:                  38	30.92
18:08:                   8	30.93
18:08:                  38	30.92
18:09:                   8	30.93
18:09:                  38	30.95
18:10:                   8	30.94
18:10:                  38	30.98
18:11:                   8	30.96
18:11:                  38	30.98
18:12:                   8	30.98
18:12:                  38	30.96
18:13:                   8	30.99
18:13:                  38	31.00
18:14:                   8	30.99
18:14:                  38	30.97
18:15:                   8	30.96
18:15:                  38	30.99
18:16:                   8	31.02
18:16:                  38	31.03
18:17:                   8	31.03
18:17:                  38	31.02
18:18:                   8	31.01
18:18:                  38	31.01
18:19:                   8	30.99
18:19:                  38	30.96
18:20:                   8	30.96
18:20:                  38	30.96
18:21:                   8	30.95
18:21:                  38	30.95
18:22:                   8	30.95
18:22:                  38	30.95
18:23:                   9	30.94
18:23:                  39	30.92
18:24:                   9	30.94
18:24:                  39	30.93
18:25:                   9	30.91
18:25:                  39	30.91
18:26:                   9	30.92
18:26:                  39	30.90
18:27:                   9	30.90
18:27:                  39	30.91
18:28:                   9	30.89
18:28:                  39	30.90
18:29:                   9	30.89
18:29:                  39	30.92
18:30:                   9	30.92
18:30:                  39	30.92
18:31:                   9	30.93
18:31:                  39	30.94
18:32:                   9	30.92
18:32:                  39	30.93
18:33:                   9	30.91
18:33:                  39	30.92
18:34:                   9	30.98
18:34:                  39	30.95
18:35:                   9	30.95
18:35:                  39	30.95
18:36:                   9	30.95
18:36:                  39	30.95
18:37:                   9	30.96
18:37:                  39	30.93
18:38:                   9	30.93
18:38:                  39	30.94
18:39:                   9	30.91
18:39:                  39	30.89
18:40:                   9	30.90
18:40:                  39	30.90
18:41:                   9	30.90
18:41:                  39	30.88
18:42:                   9	30.89
18:42:                  39	30.90
18:43:                   9	30.89
18:43:                  39	30.90
18:44:                   9	30.92
18:44:                  39	30.89
18:45:                   9	30.93
18:45:                  40	30.93
18:46:                  10	30.93
18:46:                  40	30.91
18:47:                  10	30.90
18:47:                  40	30.91
18:48:                  10	30.88
18:48:                  40	30.88
18:49:                  10	30.90
18:49:                  40	30.91
18:50:                  10	30.91
18:50:                  40	30.93
18:51:                  10	30.90
18:51:                  40	30.91
18:52:                  10	30.90
18:52:                  40	30.86
18:53:                  10	30.87
18:53:                  40	30.88
18:54:                  10	30.89
18:54:                  40	30.86
18:55:                  10	30.86
18:55:                  40	30.87
18:56:                  10	30.90
18:56:                  40	30.91
18:57:                  10	30.91
18:57:                  40	30.89
18:58:                  10	30.89
18:58:                  40	30.91
18:59:                  10	30.90
18:59:                  40	30.89
19:00:                  10	30.89
19:00:                  40	30.87
19:01:                  10	30.86
19:01:                  40	30.86
19:02:                  10	30.84
19:02:                  41	30.85
19:03:                  11	30.85
19:03:                  41	30.85
19:04:                  11	30.83
19:04:                  41	30.83
19:05:                  11	30.80
19:05:                  41	30.82
19:06:                  11	30.84
19:06:                  41	30.84
19:07:                  11	30.83
19:07:                  41	30.85
19:08:                  11	30.88
19:08:                  41	30.85
19:09:                  11	30.86
19:09:                  41	30.89
19:10:                  11	30.91
19:10:                  41	30.89
19:11:                  11	30.89
19:11:                  41	30.87
19:12:                  11	30.90
19:12:                  41	30.85
19:13:                  11	30.85
19:13:                  41	30.86
19:14:                  11	30.84
19:14:                  41	30.84
19:15:                  11	30.83
19:15:                  41	30.83
19:16:                  11	30.83
19:16:                  41	30.82
19:17:                  11	30.82
19:17:                  41	30.81
19:18:                  11	30.80
19:18:                  42	30.81
19:19:                  12	30.80
19:19:                  42	30.80
19:20:                  12	30.78
19:20:                  42	30.80
19:21:                  12	30.79
19:21:                  42	30.80
19:22:                  12	30.79
19:22:                  42	30.79
19:23:                  12	30.80
19:23:                  42	30.79
19:24:                  12	30.79
19:24:                  42	30.79
19:25:                  12	30.79
19:25:                  42	30.79
19:26:                  12	30.82
19:26:                  42	30.81
19:27:                  12	30.80
19:27:                  42	30.79
19:28:                  12	30.79
19:28:                  42	30.78
19:29:                  12	30.79
19:29:                  42	30.77
19:30:                  12	30.78
19:30:                  42	30.77
19:31:                  12	30.77
19:31:                  42	30.78
19:32:                  12	30.78
19:32:                  42	30.80
19:33:                  12	30.81
19:33:                  42	30.81
19:34:                  12	30.78
19:34:                  42	30.78
19:35:                  13	30.78
19:35:                  43	30.78
19:36:                  13	30.78
19:36:                  43	30.78
19:37:                  13	30.77
19:37:                  43	30.78
19:38:                  13	30.77
19:38:                  43	30.79
19:39:                  13	30.76
19:39:                  43	30.76
19:40:                  13	30.76
19:40:                  43	30.79
19:41:                  13	30.76
19:41:                  43	30.76
19:42:                  13	30.75
19:42:                  43	30.78
19:43:                  13	30.79
19:43:                  43	30.79
19:44:                  13	30.78
19:44:                  43	30.79
19:45:                  13	30.79
19:45:                  43	30.81
19:46:                  13	30.78
19:46:                  43	30.80
19:47:                  13	30.78
19:47:                  43	30.78
19:48:                  13	30.81
19:48:                  43	30.82
19:49:                  13	30.80
19:49:                  43	30.82
19:50:                  13	30.81
19:50:                  43	30.79
19:51:                  13	30.82
19:51:                  43	30.76
19:52:                  13	30.77
19:52:                  43	30.79
19:53:                  13	30.77
19:53:                  43	30.79
19:54:                  13	30.77
19:54:                  43	30.78
19:55:                  13	30.77
19:55:                  43	30.78
19:56:                  13	30.80
19:56:                  44	30.86
19:57:                  14	30.93
19:57:                  44	30.92
19:58:                  14	30.93
19:58:                  44	30.94
19:59:                  14	30.98
19:59:                  44	30.99
20:00:                  14	30.97
20:00:                  44	30.96
20:01:                  14	30.96
20:01:                  44	30.95
20:02:                  14	30.96
20:02:                  44	30.99
20:03:                  14	30.96
20:03:                  44	30.95
20:04:                  14	30.98
20:04:                  44	30.96
20:05:                  14	30.95
20:05:                  44	30.95
20:06:                  14	30.95
20:06:                  44	30.96
20:07:                  14	30.95
20:07:                  44	30.98
20:08:                  14	30.96
20:08:                  44	30.96
20:09:                  14	30.93
20:09:                  44	30.98
20:10:                  14	30.99
20:10:                  44	30.98
20:11:                  14	30.97
20:11:                  44	30.97
20:12:                  14	30.96
20:12:                  44	30.94
20:13:                  14	30.91
20:13:                  44	30.87
20:14:                  14	30.89
20:14:                  44	30.90
20:15:                  14	30.90
20:15:                  45	30.90
20:16:                  15	30.97
20:16:                  45	30.96
20:17:                  15	30.95
20:17:                  45	30.92
20:18:                  15	30.92
20:18:                  45	30.92
20:19:                  15	30.90
20:19:                  45	30.91
20:20:                  15	30.93
20:20:                  45	30.95
20:21:                  15	30.92
20:21:                  45	30.98
20:22:                  15	30.96
20:22:                  45	30.95
20:23:                  15	30.93
20:23:                  45	30.95
20:24:                  15	30.92
20:24:                  45	30.94
20:25:                  15	30.93
20:25:                  45	30.95
20:26:                  15	30.94
20:26:                  45	30.90
20:27:                  15	30.96
20:27:                  45	30.95
20:28:                  15	31.00
20:28:                  45	31.00
20:29:                  15	31.01
20:29:                  45	31.03
20:30:                  15	31.01
20:30:                  45	30.99
20:31:                  15	31.01
20:31:                  45	31.00
20:32:                  16	31.03
20:32:                  46	31.04
20:33:                  16	31.03
20:33:                  46	31.06
20:34:                  16	31.05
20:34:                  46	31.07
20:35:                  16	31.10
20:35:                  46	31.11
20:36:                  16	31.12
20:36:                  46	31.08
20:37:                  16	31.06
20:37:                  46	31.01
20:38:                  16	31.03
20:38:                  46	30.99
20:39:                  16	30.99
20:39:                  46	30.97
20:40:                  16	30.98
20:40:                  46	30.97
20:41:                  16	30.97
20:41:                  46	30.98
20:42:                  16	30.98
20:42:                  46	31.00
20:43:                  16	31.01
20:43:                  46	31.04
20:44:                  16	31.03
20:44:                  46	31.02
20:45:                  16	31.01
20:45:                  46	30.99
20:46:                  16	30.97
20:46:                  46	30.96
20:47:                  16	30.95
20:47:                  46	30.93
20:48:                  16	30.91
20:48:                  47	30.91
20:49:                  17	30.91
20:49:                  47	30.93
20:50:                  17	30.95
20:50:                  47	30.93
20:51:                  17	30.92
20:51:                  47	30.93
20:52:                  17	30.92
20:52:                  47	30.91
20:53:                  17	30.92
20:53:                  47	30.95
20:54:                  17	30.93
20:54:                  47	30.94
20:55:                  17	30.94
20:55:                  47	30.93
20:56:                  17	30.92
20:56:                  47	30.89
20:57:                  17	30.89
20:57:                  47	30.86
20:58:                  17	30.84
20:58:                  47	30.85
20:59:                  17	30.85
20:59:                  47	30.86
21:00:                  17	30.84
21:00:                  47	30.84
21:01:                  17	30.84
21:01:                  47	30.82
21:02:                  17	30.81
21:02:                  47	30.80
21:03:                  17	30.82
21:03:                  47	30.84
21:04:                  17	30.82
21:04:                  47	30.81
21:05:                  18	30.79
21:05:                  48	30.80
21:06:                  18	30.85
21:06:                  48	30.82
21:07:                  18	30.82
21:07:                  48	30.85
21:08:                  18	30.86
21:08:                  48	30.89
21:09:                  18	30.92
21:09:                  48	30.90
21:10:                  18	30.89
21:10:                  48	30.89
21:11:                  18	30.89
21:11:                  48	30.90
21:12:                  18	30.88
21:12:                  48	30.88
21:13:                  18	30.86
21:13:                  48	30.85
21:14:                  18	30.89
21:14:                  48	30.90
21:15:                  18	30.90
21:15:                  48	30.87
21:16:                  18	30.85
21:16:                  48	30.88
21:17:                  18	30.85
21:17:                  48	30.84
21:18:                  18	30.84
21:18:                  48	30.82
21:19:                  18	30.81
21:19:                  48	30.82
21:20:                  18	30.79
21:20:                  48	30.78
21:21:                  18	30.76
21:21:                  49	30.75
21:22:                  19	30.75
21:22:                  49	30.76
21:23:                  19	30.76
21:23:                  49	30.74
21:24:                  19	30.75
21:24:                  49	30.77
21:25:                  19	30.78
21:25:                  49	30.78
21:26:                  19	30.75
21:26:                  49	30.72
21:27:                  19	30.73
21:27:                  49	30.72
21:28:                  19	30.73
21:28:                  49	30.75
21:29:                  19	30.81
21:29:                  49	30.83
21:30:                  19	30.78
21:30:                  49	30.79
21:31:                  19	30.79
21:31:                  49	30.79
21:32:                  19	30.79
21:32:                  49	30.79
21:33:                  19	30.83
21:33:                  49	30.85
21:34:                  19	30.84
21:34:                  49	30.83
21:35:                  19	30.87
21:35:                  49	30.85
21:36:                  19	30.84
21:36:                  49	30.85
21:37:                  19	30.86
21:37:                  49	30.84
21:38:                  19	30.82
21:38:                  49	30.83
21:39:                  19	30.82
21:39:                  49	30.82
21:40:                  19	30.80
21:40:                  49	30.79
21:41:                  19	30.79
21:41:                  49	30.80
21:42:                  20	30.79
21:42:                  50	30.83
21:43:                  20	30.84
21:43:                  50	30.85
21:44:                  20	30.83
21:44:                  50	30.84
21:45:                  20	30.83
21:45:                  50	30.81
21:46:                  20	30.81
21:46:                  50	30.82
21:47:                  20	30.82
21:47:                  50	30.83
21:48:                  20	30.82
21:48:                  50	30.79
21:49:                  20	30.81
21:49:                  50	30.80
21:50:                  20	30.81
21:50:                  50	30.80
21:51:                  20	30.78
21:51:                  50	30.78
21:52:                  20	30.78
21:52:                  50	30.78
21:53:                  20	30.77
21:53:                  50	30.78
21:54:                  20	30.76
21:54:                  50	30.76
21:55:                  20	30.73
21:55:                  50	30.72
21:56:                  20	30.72
21:56:                  50	30.72
21:57:                  20	30.71
21:57:                  50	30.70
21:58:                  20	30.72
21:58:                  51	30.73
21:59:                  21	30.75
21:59:                  51	30.75
22:00:                  21	30.74
22:00:                  51	30.74
22:01:                  21	30.75
22:01:                  51	30.75
22:02:                  21	30.73
22:02:                  51	30.73
22:03:                  21	30.73
22:03:                  51	30.71
22:04:                  21	30.71
22:04:                  51	30.72
22:05:                  21	30.75
22:05:                  51	30.76
22:06:                  21	30.77
22:06:                  51	30.79
22:07:                  21	30.78
22:07:                  51	30.76
22:08:                  21	30.76
22:08:                  51	30.75
22:09:                  21	30.73
22:09:                  51	30.73
22:10:                  21	30.71
22:10:                  51	30.71
22:11:                  21	30.74
22:11:                  51	30.72
22:12:                  21	30.74
22:12:                  51	30.74
22:13:                  21	30.74
22:13:                  51	30.73
22:14:                  21	30.71
22:14:                  51	30.69
22:15:                  21	30.74
22:15:                  51	30.76
22:16:                  21	30.75
22:16:                  51	30.75
22:17:                  21	30.73
22:17:                  51	30.74
22:18:                  21	30.76
22:18:                  51	30.73
22:19:                  21	30.71
22:19:                  51	30.69
22:20:                  21	30.70
22:20:                  52	30.69
22:21:                  22	30.68
22:21:                  52	30.66
22:22:                  22	30.65
22:22:                  52	30.67
22:23:                  22	30.68
22:23:                  52	30.66
22:24:                  22	30.68
22:24:                  52	30.70
22:25:                  22	30.70
22:25:                  52	30.73
22:26:                  22	30.69
22:26:                  52	30.68
22:27:                  22	30.68
22:27:                  52	30.67
22:28:                  22	30.68
22:28:                  52	30.68
22:29:                  22	30.69
22:29:                  52	30.77
22:30:                  22	30.79
22:30:                  52	30.81
22:31:                  22	30.84
22:31:                  52	30.88
22:32:                  22	30.93
22:32:                  52	30.93
22:33:                  22	30.93
22:33:                  52	30.92
22:34:                  22	30.92
22:34:                  52	30.91
22:35:                  22	30.92
22:35:                  52	30.95
22:36:                  22	30.95
22:36:                  52	30.96
22:37:                  22	30.96
22:37:                  52	30.95
22:38:                  22	30.99
22:38:                  52	31.01
22:39:                  22	31.00
22:39:                  52	30.98
22:40:                  22	31.00
22:40:                  53	31.00
22:41:                  23	30.99
22:41:                  53	30.98
22:42:                  23	30.96
22:42:                  53	30.95
22:43:                  23	30.93
22:43:                  53	30.92
22:44:                  23	30.93
22:44:                  53	30.92
22:45:                  23	30.91
22:45:                  53	30.92
22:46:                  23	30.91
22:46:                  53	30.93
22:47:                  23	30.92
22:47:                  53	30.92
22:48:                  23	30.92
22:48:                  53	30.91
22:49:                  23	30.90
22:49:                  53	30.89
22:50:                  23	30.90
22:50:                  53	30.93
22:51:                  23	30.93
22:51:                  53	30.92
22:52:                  23	30.92
22:52:                  53	30.92
22:53:                  23	30.92
22:53:                  53	30.95
22:54:                  23	30.95
22:54:                  53	30.94
22:55:                  23	30.94
22:55:                  53	30.94
22:56:                  23	30.93
22:56:                  53	30.92
22:57:                  23	30.93
22:57:                  53	30.95
22:58:                  23	30.94
22:58:                  53	30.93
22:59:                  23	30.94
22:59:                  54	30.94
23:00:                  24	30.92
23:00:                  54	30.94
23:01:                  24	30.94
23:01:                  54	30.96
23:02:                  24	30.95
23:02:                  54	30.97
23:03:                  24	30.98
23:03:                  54	30.97
23:04:                  24	30.96
23:04:                  54	30.96
23:05:                  24	30.97
23:05:                  54	30.96
23:06:                  24	30.96
23:06:                  54	30.96
23:07:                  24	30.97
23:07:                  54	30.97
23:08:                  24	30.97
23:08:                  54	30.97
23:09:                  24	30.96
23:09:                  54	30.97
23:10:                  24	30.96
23:10:                  54	30.96
23:11:                  24	30.97
23:11:                  54	30.98
23:12:                  24	30.97
23:12:                  54	30.97
23:13:                  24	30.97
23:13:                  54	30.97
23:14:                  24	30.98
23:14:                  54	30.98
23:15:                  24	30.99
23:15:                  54	30.99
23:16:                  25	30.99
23:16:                  55	30.99
23:17:                  25	31.00
23:17:                  55	31.00
23:18:                  25	31.01
23:18:                  55	31.01
23:19:                  25	31.01
23:19:                  55	30.99
23:20:                  25	30.98
23:20:                  55	30.99
23:21:                  25	30.99
23:21:                  55	30.98
23:22:                  25	31.01
23:22:                  55	31.00
23:23:                  25	31.02
23:23:                  55	31.02
23:24:                  25	31.02
23:24:                  55	31.02
23:25:                  25	31.01
23:25:                  55	31.02
23:26:                  25	31.02
23:26:                  55	31.02
23:27:                  25	31.03
23:27:                  55	31.02
23:28:                  25	31.02
23:28:                  55	31.04
23:29:                  25	31.06
23:29:                  55	31.07
23:30:                  25	31.05
23:30:                  55	31.04
23:31:                  25	31.02
23:31:                  56	31.01
23:32:                  26	31.01
23:32:                  56	31.01
23:33:                  26	31.01
23:33:                  56	31.02
23:34:                  26	31.01
23:34:                  56	31.01
23:35:                  26	31.01
23:35:                  56	31.02
23:36:                  26	31.03
23:36:                  56	31.03
23:37:                  26	31.02
23:37:                  56	31.02
23:38:                  26	31.02
23:38:                  56	31.04
23:39:                  26	31.03
23:39:                  56	31.02
23:40:                  26	31.04
23:40:                  56	31.03
23:41:                  26	31.03
23:41:                  56	31.05
23:42:                  26	31.04
23:42:                  56	31.03
23:43:                  26	31.02
23:43:                  56	31.03
23:44:                  26	31.02
23:44:                  56	31.02
23:45:                  26	31.01
23:45:                  56	31.01
23:46:                  26	31.01
23:46:                  56	31.02
23:47:                  26	31.02
23:47:                  56	31.01
23:48:                  26	31.01
23:48:                  56	31.00
23:49:                  26	31.01
23:49:                  56	31.01
23:50:                  27	31.02
23:50:                  57	31.02
23:51:                  27	31.02
23:51:                  57	31.02
23:52:                  27	31.02
23:52:                  57	31.05
23:53:                  27	31.04
23:53:                  57	31.03
23:54:                  27	31.04
23:54:                  57	31.04
23:55:                  27	31.05
23:55:                  57	31.04
23:56:                  27	31.04
23:56:                  57	31.04
23:57:                  27	31.04
23:57:                  57	31.04
23:58:                  27	31.04
23:58:                  57	31.03
23:59:                  27	31.03
23:59:                  57	31.03
