0:00:                   2	28.11
0:00:                  32	28.10
0:01:                   2	28.10
0:01:                  32	28.10
0:02:                   2	28.11
0:02:                  32	28.11
0:03:                   2	28.10
0:03:                  32	28.10
0:04:                   2	28.11
0:04:                  32	28.11
0:05:                   2	28.12
0:05:                  32	28.12
0:06:                   2	28.12
0:06:                  32	28.12
0:07:                   2	28.13
0:07:                  32	28.13
0:08:                   2	28.14
0:08:                  32	28.12
0:09:                   2	28.12
0:09:                  32	28.13
0:10:                   2	28.13
0:10:                  32	28.12
0:11:                   2	28.14
0:11:                  32	28.12
0:12:                   2	28.11
0:12:                  33	28.12
0:13:                   3	28.12
0:13:                  33	28.13
0:14:                   3	28.14
0:14:                  33	28.12
0:15:                   3	28.13
0:15:                  33	28.12
0:16:                   3	28.13
0:16:                  33	28.11
0:17:                   3	28.11
0:17:                  33	28.09
0:18:                   3	28.11
0:18:                  33	28.10
0:19:                   3	28.11
0:19:                  33	28.10
0:20:                   3	28.10
0:20:                  33	28.09
0:21:                   3	28.10
0:21:                  33	28.11
0:22:                   3	28.11
0:22:                  33	28.11
0:23:                   3	28.10
0:23:                  33	28.09
0:24:                   3	28.10
0:24:                  33	28.10
0:25:                   3	28.12
0:25:                  33	28.11
0:26:                   3	28.12
0:26:                  33	28.13
0:27:                   3	28.10
0:27:                  33	28.10
0:28:                   3	28.12
0:28:                  33	28.09
0:29:                   3	28.12
0:29:                  33	28.12
0:30:                   3	28.11
0:30:                  34	28.12
0:31:                   4	28.13
0:31:                  34	28.13
0:32:                   4	28.11
0:32:                  34	28.12
0:33:                   4	28.12
0:33:                  34	28.13
0:34:                   4	28.13
0:34:                  34	28.13
0:35:                   4	28.12
0:35:                  34	28.13
0:36:                   4	28.14
0:36:                  34	28.13
0:37:                   4	28.13
0:37:                  34	28.13
0:38:                   4	28.15
0:38:                  34	28.13
0:39:                   4	28.13
0:39:                  34	28.11
0:40:                   4	28.12
0:40:                  34	28.11
0:41:                   4	28.11
0:41:                  34	28.13
0:42:                   4	28.13
0:42:                  34	28.13
0:43:                   4	28.13
0:43:                  34	28.13
0:44:                   4	28.12
0:44:                  34	28.09
0:45:                   4	28.10
0:45:                  34	28.12
0:46:                   4	28.10
0:46:                  34	28.07
0:47:                   4	28.06
0:47:                  34	28.06
0:48:                   4	28.04
0:48:                  34	28.02
0:49:                   4	28.03
0:49:                  34	28.05
0:50:                   4	28.05
0:50:                  34	28.03
0:51:                   4	28.05
0:51:                  34	28.04
0:52:                   5	28.03
0:52:                  35	28.05
0:53:                   5	28.05
0:53:                  35	28.07
0:54:                   5	28.07
0:54:                  35	28.07
0:55:                   5	28.05
0:55:                  35	28.04
0:56:                   5	28.05
0:56:                  35	28.06
0:57:                   5	28.06
0:57:                  35	28.07
0:58:                   5	28.06
0:58:                  35	28.08
0:59:                   5	28.06
0:59:                  35	28.08
1:00:                   5	28.10
1:00:                  35	28.09
1:01:                   5	28.10
1:01:                  35	28.09
1:02:                   5	28.08
1:02:                  35	28.08
1:03:                   5	28.05
1:03:                  35	28.03
1:04:                   5	28.03
1:04:                  35	28.07
1:05:                   5	28.03
1:05:                  35	28.03
1:06:                   5	28.03
1:06:                  35	28.03
1:07:                   5	28.06
1:07:                  35	28.06
1:08:                   5	28.08
1:08:                  36	28.08
1:09:                   6	28.09
1:09:                  36	28.11
1:10:                   6	28.09
1:10:                  36	28.11
1:11:                   6	28.10
1:11:                  36	28.09
1:12:                   6	28.08
1:12:                  36	28.10
1:13:                   6	28.11
1:13:                  36	28.11
1:14:                   6	28.11
1:14:                  36	28.11
1:15:                   6	28.10
1:15:                  36	28.10
1:16:                   6	28.08
1:16:                  36	28.07
1:17:                   6	28.06
1:17:                  36	28.09
1:18:                   6	28.09
1:18:                  36	28.08
1:19:                   6	28.06
1:19:                  36	28.08
1:20:                   6	28.08
1:20:                  36	28.07
1:21:                   6	28.08
1:21:                  36	28.08
1:22:                   6	28.06
1:22:                  36	28.05
1:23:                   6	28.05
1:23:                  36	28.06
1:24:                   6	28.07
1:24:                  36	28.08
1:25:                   7	28.08
1:25:                  37	28.06
1:26:                   7	28.05
1:26:                  37	28.05
1:27:                   7	28.08
1:27:                  37	28.06
1:28:                   7	28.06
1:28:                  37	28.06
1:29:                   7	28.06
1:29:                  37	28.08
1:30:                   7	28.06
1:30:                  37	28.06
1:31:                   7	28.03
1:31:                  37	28.03
1:32:                   7	28.02
1:32:                  37	28.02
1:33:                   7	28.01
1:33:                  37	28.01
1:34:                   7	28.01
1:34:                  37	28.04
1:35:                   7	28.03
1:35:                  37	28.05
1:36:                   7	28.06
1:36:                  37	28.05
1:37:                   7	28.04
1:37:                  37	28.03
1:38:                   7	28.07
1:38:                  37	28.03
1:39:                   7	28.05
1:39:                  37	28.05
1:40:                   7	28.05
1:40:                  37	28.02
1:41:                   7	28.02
1:41:                  37	28.01
1:42:                   7	28.05
1:42:                  37	28.01
1:43:                   7	28.02
1:43:                  38	28.03
1:44:                   8	28.05
1:44:                  38	28.03
1:45:                   8	28.01
1:45:                  38	28.02
1:46:                   8	28.02
1:46:                  38	28.00
1:47:                   8	28.01
1:47:                  38	28.01
1:48:                   8	28.01
1:48:                  38	27.99
1:49:                   8	28.00
1:49:                  38	28.01
1:50:                   8	28.02
1:50:                  38	28.03
1:51:                   8	28.04
1:51:                  38	28.01
1:52:                   8	28.02
1:52:                  38	28.02
1:53:                   8	28.02
1:53:                  38	28.00
1:54:                   8	28.01
1:54:                  38	28.01
1:55:                   8	28.01
1:55:                  38	28.01
1:56:                   8	28.00
1:56:                  38	27.99
1:57:                   8	27.99
1:57:                  38	28.00
1:58:                   8	28.01
1:58:                  38	28.01
1:59:                   8	28.00
1:59:                  38	28.01
2:00:                   8	27.99
2:00:                  38	28.01
2:01:                   9	27.99
2:01:                  39	27.98
2:02:                   9	27.99
2:02:                  39	28.01
2:03:                   9	28.00
2:03:                  39	27.99
2:04:                   9	27.98
2:04:                  39	27.97
2:05:                   9	27.99
2:05:                  39	27.98
2:06:                   9	28.00
2:06:                  39	27.99
2:07:                   9	28.02
2:07:                  39	27.98
2:08:                   9	27.98
2:08:                  39	27.96
2:09:                   9	27.97
2:09:                  39	27.96
2:10:                   9	27.99
2:10:                  39	27.98
2:11:                   9	27.97
2:11:                  39	27.97
2:12:                   9	27.97
2:12:                  39	27.97
2:13:                   9	27.98
2:13:                  39	27.97
2:14:                   9	27.96
2:14:                  39	27.95
2:15:                   9	27.95
2:15:                  39	27.95
2:16:                   9	27.96
2:16:                  39	27.96
2:17:                   9	27.96
2:17:                  40	27.95
2:18:                  10	27.96
2:18:                  40	27.96
2:19:                  10	27.98
2:19:                  40	27.98
2:20:                  10	27.97
2:20:                  40	27.98
2:21:                  10	27.98
2:21:                  40	28.01
2:22:                  10	28.01
2:22:                  40	28.01
2:23:                  10	28.01
2:23:                  40	27.99
2:24:                  10	27.98
2:24:                  40	27.97
2:25:                  10	27.98
2:25:                  40	27.97
2:26:                  10	27.99
2:26:                  40	28.00
2:27:                  10	27.99
2:27:                  40	28.01
2:28:                  10	28.00
2:28:                  40	27.99
2:29:                  10	27.99
2:29:                  40	27.98
2:30:                  10	27.98
2:30:                  40	27.97
2:31:                  10	27.96
2:31:                  40	27.97
2:32:                  10	27.97
2:32:                  40	27.97
2:33:                  10	27.99
2:33:                  40	28.00
2:34:                  11	27.97
2:34:                  41	27.97
2:35:                  11	27.98
2:35:                  41	27.98
2:36:                  11	27.97
2:36:                  41	27.98
2:37:                  11	27.97
2:37:                  41	27.99
2:38:                  11	28.00
2:38:                  41	27.98
2:39:                  11	27.99
2:39:                  41	27.97
2:40:                  11	27.97
2:40:                  41	27.98
2:41:                  11	27.97
2:41:                  41	27.97
2:42:                  11	27.97
2:42:                  41	27.97
2:43:                  11	27.98
2:43:                  41	27.96
2:44:                  11	27.96
2:44:                  41	27.98
2:45:                  11	27.96
2:45:                  41	27.98
2:46:                  11	27.99
2:46:                  41	27.97
2:47:                  11	27.97
2:47:                  41	27.97
2:48:                  11	27.97
2:48:                  41	27.98
2:49:                  11	27.97
2:49:                  41	27.99
2:50:                  11	28.00
2:50:                  41	27.99
2:51:                  11	28.01
2:51:                  41	28.01
2:52:                  11	28.00
2:52:                  41	27.98
2:53:                  11	27.98
2:53:                  41	27.99
2:54:                  12	27.97
2:54:                  42	28.00
2:55:                  12	28.01
2:55:                  42	28.02
2:56:                  12	28.01
2:56:                  42	28.00
2:57:                  12	28.02
2:57:                  42	27.99
2:58:                  12	28.00
2:58:                  42	28.00
2:59:                  12	27.99
2:59:                  42	28.02
3:00:                  12	28.00
3:00:                  42	27.99
3:01:                  12	28.00
3:01:                  42	27.99
3:02:                  12	27.98
3:02:                  42	27.99
3:03:                  12	28.00
3:03:                  42	28.01
3:04:                  12	27.99
3:04:                  42	28.01
3:05:                  12	27.99
3:05:                  42	27.98
3:06:                  12	28.00
3:06:                  42	28.01
3:07:                  12	27.99
3:07:                  42	28.00
3:08:                  12	27.99
3:08:                  42	28.00
3:09:                  12	28.00
3:09:                  42	28.02
3:10:                  12	28.01
3:10:                  43	27.99
3:11:                  13	28.00
3:11:                  43	27.99
3:12:                  13	28.00
3:12:                  43	28.00
3:13:                  13	28.00
3:13:                  43	28.01
3:14:                  13	28.01
3:14:                  43	28.02
3:15:                  13	28.00
3:15:                  43	27.99
3:16:                  13	27.99
3:16:                  43	27.98
3:17:                  13	27.99
3:17:                  43	28.01
3:18:                  13	28.02
3:18:                  43	28.01
3:19:                  13	28.01
3:19:                  43	28.02
3:20:                  13	28.00
3:20:                  43	28.01
3:21:                  13	28.00
3:21:                  43	27.99
3:22:                  13	28.00
3:22:                  43	28.03
3:23:                  13	28.00
3:23:                  43	27.98
3:24:                  13	27.99
3:24:                  43	27.99
3:25:                  13	28.00
3:25:                  43	28.00
3:26:                  13	28.00
3:26:                  43	28.00
3:27:                  13	28.00
3:27:                  43	27.99
3:28:                  13	28.01
3:28:                  43	28.00
3:29:                  13	28.00
3:29:                  43	27.99
3:30:                  13	28.00
3:30:                  43	28.00
3:31:                  14	27.99
3:31:                  44	27.98
3:32:                  14	27.99
3:32:                  44	27.97
3:33:                  14	27.98
3:33:                  44	27.98
3:34:                  14	28.00
3:34:                  44	28.00
3:35:                  14	27.99
3:35:                  44	28.00
3:36:                  14	28.01
3:36:                  44	28.02
3:37:                  14	27.99
3:37:                  44	28.00
3:38:                  14	27.98
3:38:                  44	28.01
3:39:                  14	28.02
3:39:                  44	27.99
3:40:                  14	28.02
3:40:                  44	27.99
3:41:                  14	27.99
3:41:                  44	28.00
3:42:                  14	28.02
3:42:                  44	28.00
3:43:                  14	27.99
3:43:                  44	27.99
3:44:                  14	28.02
3:44:                  44	28.02
3:45:                  14	28.02
3:45:                  44	28.00
3:46:                  14	28.01
3:46:                  44	28.00
3:47:                  14	28.00
3:47:                  44	28.00
3:48:                  14	27.98
3:48:                  44	27.97
3:49:                  14	27.98
3:49:                  45	27.99
3:50:                  15	28.00
3:50:                  45	28.02
3:51:                  15	28.00
3:51:                  45	28.00
3:52:                  15	27.99
3:52:                  45	28.00
3:53:                  15	27.99
3:53:                  45	27.99
3:54:                  15	28.02
3:54:                  45	27.99
3:55:                  15	28.00
3:55:                  45	28.00
3:56:                  15	28.01
3:56:                  45	28.00
3:57:                  15	28.04
3:57:                  45	28.01
3:58:                  15	28.01
3:58:                  45	28.01
3:59:                  15	28.01
3:59:                  45	28.01
4:00:                  15	28.00
4:00:                  45	28.01
4:01:                  15	27.99
4:01:                  45	27.99
4:02:                  15	28.00
4:02:                  45	27.99
4:03:                  15	27.99
4:03:                  45	27.99
4:04:                  15	28.01
4:04:                  45	28.01
4:05:                  15	28.00
4:05:                  45	27.99
4:06:                  16	28.00
4:06:                  46	27.99
4:07:                  16	28.00
4:07:                  46	28.01
4:08:                  16	28.01
4:08:                  46	28.00
4:09:                  16	28.02
4:09:                  46	27.99
4:10:                  16	27.98
4:10:                  46	27.98
4:11:                  16	27.99
4:11:                  46	28.00
4:12:                  16	28.00
4:12:                  46	27.99
4:13:                  16	27.99
4:13:                  46	28.00
4:14:                  16	28.01
4:14:                  46	28.00
4:15:                  16	27.99
4:15:                  46	27.97
4:16:                  16	27.99
4:16:                  46	27.98
4:17:                  16	27.99
4:17:                  46	27.99
4:18:                  16	28.00
4:18:                  46	27.98
4:19:                  16	27.98
4:19:                  46	27.99
4:20:                  16	27.99
4:20:                  46	28.00
4:21:                  16	28.01
4:21:                  46	28.00
4:22:                  16	28.02
4:22:                  46	28.00
4:23:                  17	28.01
4:23:                  47	28.00
4:24:                  17	28.00
4:24:                  47	27.97
4:25:                  17	27.99
4:25:                  47	27.98
4:26:                  17	28.01
4:26:                  47	28.00
4:27:                  17	27.99
4:27:                  47	28.00
4:28:                  17	27.99
4:28:                  47	28.00
4:29:                  17	28.00
4:29:                  47	27.98
4:30:                  17	27.99
4:30:                  47	27.99
4:31:                  17	27.98
4:31:                  47	27.98
4:32:                  17	27.98
4:32:                  47	27.99
4:33:                  17	28.00
4:33:                  47	28.01
4:34:                  17	28.00
4:34:                  47	28.01
4:35:                  17	28.01
4:35:                  47	28.01
4:36:                  17	28.01
4:36:                  47	28.03
4:37:                  17	28.01
4:37:                  47	28.03
4:38:                  17	28.02
4:38:                  47	28.01
4:39:                  17	28.02
4:39:                  48	28.01
4:40:                  18	28.03
4:40:                  48	28.01
4:41:                  18	28.00
4:41:                  48	27.99
4:42:                  18	28.00
4:42:                  48	28.01
4:43:                  18	28.00
4:43:                  48	27.98
4:44:                  18	27.97
4:44:                  48	27.99
4:45:                  18	28.00
4:45:                  48	27.98
4:46:                  18	27.99
4:46:                  48	27.99
4:47:                  18	27.99
4:47:                  48	28.00
4:48:                  18	27.98
4:48:                  48	27.98
4:49:                  18	28.00
4:49:                  48	27.99
4:50:                  18	28.00
4:50:                  48	28.00
4:51:                  18	28.02
4:51:                  48	28.07
4:52:                  18	28.03
4:52:                  48	28.03
4:53:                  18	28.00
4:53:                  48	28.02
4:54:                  18	28.02
4:54:                  48	28.03
4:55:                  18	28.02
4:55:                  48	28.02
4:56:                  18	28.01
4:56:                  48	28.03
4:57:                  18	28.02
4:57:                  48	28.02
4:58:                  18	28.05
4:58:                  49	28.03
4:59:                  19	28.02
4:59:                  49	28.05
5:00:                  19	28.03
5:00:                  49	28.07
5:01:                  19	28.06
5:01:                  49	28.06
5:02:                  19	28.06
5:02:                  49	28.06
5:03:                  19	28.09
5:03:                  49	28.08
5:04:                  19	28.08
5:04:                  49	28.08
5:05:                  19	28.08
5:05:                  49	28.05
5:06:                  19	28.03
5:06:                  49	28.03
5:07:                  19	28.03
5:07:                  49	28.04
5:08:                  19	28.03
5:08:                  49	28.05
5:09:                  19	28.02
5:09:                  49	28.03
5:10:                  19	28.05
5:10:                  49	28.06
5:11:                  19	28.05
5:11:                  49	28.08
5:12:                  19	28.08
5:12:                  49	28.05
5:13:                  19	28.07
5:13:                  49	28.05
5:14:                  19	28.06
5:14:                  50	28.06
5:15:                  20	28.06
5:15:                  50	28.06
5:16:                  20	28.07
5:16:                  50	28.06
5:17:                  20	28.07
5:17:                  50	28.06
5:18:                  20	28.09
5:18:                  50	28.08
5:19:                  20	28.09
5:19:                  50	28.06
5:20:                  20	28.05
5:20:                  50	28.06
5:21:                  20	28.05
5:21:                  50	28.05
5:22:                  20	28.06
5:22:                  50	28.07
5:23:                  20	28.05
5:23:                  50	28.07
5:24:                  20	28.10
5:24:                  50	28.07
5:25:                  20	28.07
5:25:                  50	28.05
5:26:                  20	28.07
5:26:                  50	28.06
5:27:                  20	28.05
5:27:                  50	28.06
5:28:                  20	28.06
5:28:                  50	28.07
5:29:                  20	28.07
5:29:                  50	28.07
5:30:                  20	28.08
5:30:                  50	28.06
5:31:                  20	28.06
5:31:                  50	28.06
5:32:                  20	28.06
5:32:                  50	28.06
5:33:                  20	28.06
5:33:                  51	28.08
5:34:                  21	28.07
5:34:                  51	28.06
5:35:                  21	28.09
5:35:                  51	28.09
5:36:                  21	28.09
5:36:                  51	28.07
5:37:                  21	28.07
5:37:                  51	28.09
5:38:                  21	28.07
5:38:                  51	28.07
5:39:                  21	28.08
5:39:                  51	28.08
5:40:                  21	28.07
5:40:                  51	28.06
5:41:                  21	28.05
5:41:                  51	28.05
5:42:                  21	28.04
5:42:                  51	28.05
5:43:                  21	28.05
5:43:                  51	28.05
5:44:                  21	28.03
5:44:                  51	28.06
5:45:                  21	28.06
5:45:                  51	28.03
5:46:                  21	28.03
5:46:                  51	28.06
5:47:                  21	28.06
5:47:                  51	28.06
5:48:                  21	28.03
5:48:                  51	28.04
5:49:                  21	28.03
5:49:                  51	28.06
5:50:                  21	28.07
5:50:                  51	28.07
5:51:                  21	28.06
5:51:                  51	28.05
5:52:                  22	28.05
5:52:                  52	28.07
5:53:                  22	28.03
5:53:                  52	28.06
5:54:                  22	28.06
5:54:                  52	28.07
5:55:                  22	28.05
5:55:                  52	28.07
5:56:                  22	28.08
5:56:                  52	28.07
5:57:                  22	28.06
5:57:                  52	28.03
5:58:                  22	28.06
5:58:                  52	28.08
5:59:                  22	28.07
5:59:                  52	28.06
6:00:                  22	28.07
6:00:                  52	28.06
6:01:                  22	28.08
6:01:                  52	28.06
6:02:                  22	28.07
6:02:                  52	28.08
6:03:                  22	28.08
6:03:                  52	28.08
6:04:                  22	28.07
6:04:                  52	28.08
6:05:                  22	28.07
6:05:                  52	28.09
6:06:                  22	28.07
6:06:                  52	28.08
6:07:                  22	28.09
6:07:                  52	28.08
6:08:                  22	28.10
6:08:                  52	28.09
6:09:                  22	28.08
6:09:                  52	28.06
6:10:                  22	28.07
6:10:                  53	28.07
6:11:                  23	28.07
6:11:                  53	28.06
6:12:                  23	28.08
6:12:                  53	28.09
6:13:                  23	28.09
6:13:                  53	28.07
6:14:                  23	28.10
6:14:                  53	28.08
6:15:                  23	28.08
6:15:                  53	28.08
6:16:                  23	28.10
6:16:                  53	28.11
6:17:                  23	28.13
6:17:                  53	28.11
6:18:                  23	28.13
6:18:                  53	28.14
6:19:                  23	28.12
6:19:                  53	28.11
6:20:                  23	28.10
6:20:                  53	28.12
6:21:                  23	28.12
6:21:                  53	28.15
6:22:                  23	28.14
6:22:                  53	28.12
6:23:                  23	28.12
6:23:                  53	28.11
6:24:                  23	28.13
6:24:                  53	28.12
6:25:                  23	28.12
6:25:                  53	28.10
6:26:                  23	28.11
6:26:                  53	28.12
6:27:                  23	28.10
6:27:                  53	28.11
6:28:                  24	28.09
6:28:                  54	28.09
6:29:                  24	28.11
6:29:                  54	28.10
6:30:                  24	28.10
6:30:                  54	28.08
6:31:                  24	28.11
6:31:                  54	28.09
6:32:                  24	28.10
6:32:                  54	28.08
6:33:                  24	28.08
6:33:                  54	28.09
6:34:                  24	28.10
6:34:                  54	28.09
6:35:                  24	28.09
6:35:                  54	28.10
6:36:                  24	28.11
6:36:                  54	28.13
6:37:                  24	28.12
6:37:                  54	28.11
6:38:                  24	28.11
6:38:                  54	28.11
6:39:                  24	28.08
6:39:                  54	28.08
6:40:                  24	28.06
6:40:                  54	28.08
6:41:                  24	28.07
6:41:                  54	28.10
6:42:                  24	28.10
6:42:                  54	28.11
6:43:                  24	28.10
6:43:                  54	28.09
6:44:                  25	28.08
6:44:                  55	28.09
6:45:                  25	28.09
6:45:                  55	28.08
6:46:                  25	28.07
6:46:                  55	28.09
6:47:                  25	28.10
6:47:                  55	28.08
6:48:                  25	28.11
6:48:                  55	28.11
6:49:                  25	28.12
6:49:                  55	28.09
6:50:                  25	28.10
6:50:                  55	28.09
6:51:                  25	28.11
6:51:                  55	28.13
6:52:                  25	28.13
6:52:                  55	28.10
6:53:                  25	28.11
6:53:                  55	28.14
6:54:                  25	28.10
6:54:                  55	28.10
6:55:                  25	28.13
6:55:                  55	28.12
6:56:                  25	28.12
6:56:                  55	28.12
6:57:                  25	28.11
6:57:                  55	28.11
6:58:                  25	28.13
6:58:                  55	28.10
6:59:                  25	28.11
6:59:                  55	28.09
7:00:                  25	28.10
7:00:                  56	28.11
7:01:                  26	28.14
7:01:                  56	28.10
7:02:                  26	28.11
7:02:                  56	28.12
7:03:                  26	28.13
7:03:                  56	28.14
7:04:                  26	28.14
7:04:                  56	28.15
7:05:                  26	28.15
7:05:                  56	28.14
7:06:                  26	28.14
7:06:                  56	28.13
7:07:                  26	28.13
7:07:                  56	28.13
7:08:                  26	28.11
7:08:                  56	28.13
7:09:                  26	28.13
7:09:                  56	28.09
7:10:                  26	28.11
7:10:                  56	28.12
7:11:                  26	28.14
7:11:                  56	28.12
7:12:                  26	28.11
7:12:                  56	28.14
7:13:                  26	28.12
7:13:                  56	28.10
7:14:                  26	28.10
7:14:                  56	28.13
7:15:                  26	28.12
7:15:                  56	28.13
7:16:                  27	28.12
7:16:                  57	28.12
7:17:                  27	28.12
7:17:                  57	28.12
7:18:                  27	28.13
7:18:                  57	28.14
7:19:                  27	28.10
7:19:                  57	28.13
7:20:                  27	28.10
7:20:                  57	28.10
7:21:                  27	28.11
7:21:                  57	28.11
7:22:                  27	28.13
7:22:                  57	28.11
7:23:                  27	28.13
7:23:                  57	28.11
7:24:                  27	28.09
7:24:                  57	28.11
7:25:                  27	28.12
7:25:                  57	28.11
7:26:                  27	28.12
7:26:                  57	28.11
7:27:                  27	28.10
7:27:                  57	28.09
7:28:                  27	28.08
7:28:                  57	28.10
7:29:                  27	28.10
7:29:                  57	28.11
7:30:                  27	28.11
7:30:                  57	28.11
7:31:                  27	28.08
7:31:                  58	28.07
7:32:                  28	28.09
7:32:                  58	28.07
7:33:                  28	28.07
7:33:                  58	28.07
7:34:                  28	28.09
7:34:                  58	28.10
7:35:                  28	28.10
7:35:                  58	28.12
7:36:                  28	28.12
7:36:                  58	28.10
7:37:                  28	28.11
7:37:                  58	28.12
7:38:                  28	28.12
7:38:                  58	28.12
7:39:                  28	28.12
7:39:                  58	28.13
7:40:                  28	28.12
7:40:                  58	28.10
7:41:                  28	28.10
7:41:                  58	28.10
7:42:                  28	28.07
7:42:                  58	28.10
7:43:                  28	28.08
7:43:                  58	28.09
7:44:                  28	28.08
7:44:                  58	28.09
7:45:                  28	28.10
7:45:                  58	28.10
7:46:                  28	28.09
7:46:                  58	28.07
7:47:                  28	28.07
7:47:                  58	28.08
7:48:                  28	28.07
7:48:                  58	28.10
7:49:                  28	28.08
7:49:                  58	28.08
7:50:                  28	28.09
7:50:                  58	28.10
7:51:                  28	28.10
7:51:                  58	28.13
7:52:                  28	28.12
7:52:                  59	28.11
7:53:                  29	28.09
7:53:                  59	28.07
7:54:                  29	28.06
7:54:                  59	28.08
7:55:                  29	28.05
7:55:                  59	28.05
7:56:                  29	28.06
7:56:                  59	28.05
7:57:                  29	28.05
7:57:                  59	28.05
7:58:                  29	28.07
7:58:                  59	28.08
7:59:                  29	28.09
7:59:                  59	28.09
8:00:                  29	28.07
8:00:                  59	28.08
8:01:                  29	28.06
8:01:                  59	28.07
8:02:                  29	28.07
8:02:                  59	28.07
8:03:                  29	28.08
8:03:                  59	28.08
8:04:                  29	28.08
8:04:                  59	28.07
8:05:                  29	28.08
8:05:                  59	28.10
8:06:                  29	28.08
8:06:                  59	28.09
8:07:                  29	28.09
8:07:                  59	28.09
8:08:                  29	28.08
8:08:                  59	28.09
8:09:                  29	28.07
8:09:                  59	28.06
8:10:                  29	28.09
8:10:                  59	28.08
8:11:                  29	28.09
8:11:                  59	28.07
8:12:                  29	28.09
8:13:                   0	28.10
8:13:                  30	28.04
8:14:                   0	28.08
8:14:                  30	28.09
8:15:                   0	28.08
8:15:                  30	28.05
8:16:                   0	28.05
8:16:                  30	28.06
8:17:                   0	28.06
8:17:                  30	28.06
8:18:                   0	28.02
8:18:                  30	28.01
8:19:                   0	28.03
8:19:                  30	28.03
8:20:                   0	28.03
8:20:                  30	28.03
8:21:                   0	28.06
8:21:                  30	28.06
8:22:                   0	28.06
8:22:                  30	28.04
8:23:                   0	28.06
8:23:                  30	28.06
8:24:                   0	28.02
8:24:                  30	28.03
8:25:                   0	28.03
8:25:                  30	28.08
8:26:                   0	28.06
8:26:                  30	28.04
8:27:                   0	28.05
8:27:                  30	28.05
8:28:                   0	28.02
8:28:                  30	28.04
8:29:                   0	28.02
8:29:                  30	28.04
8:30:                   1	28.06
8:30:                  31	28.03
8:31:                   1	28.04
8:31:                  31	28.05
8:32:                   1	28.06
8:32:                  31	28.02
8:33:                   1	28.02
8:33:                  31	28.04
8:34:                   1	28.06
8:34:                  31	28.03
8:35:                   1	28.06
8:35:                  31	28.07
8:36:                   1	28.05
8:36:                  31	28.03
8:37:                   1	28.02
8:37:                  31	28.04
8:38:                   1	28.03
8:38:                  31	28.03
8:39:                   1	28.07
8:39:                  31	28.05
8:40:                   1	28.05
8:40:                  31	28.03
8:41:                   1	28.03
8:41:                  31	28.01
8:42:                   1	28.03
8:42:                  31	28.01
8:43:                   1	28.05
8:43:                  31	28.02
8:44:                   1	28.05
8:44:                  31	28.05
8:45:                   1	28.05
8:45:                  31	28.02
8:46:                   1	28.04
8:46:                  31	28.05
8:47:                   1	28.05
8:47:                  31	28.06
8:48:                   1	28.06
8:48:                  31	28.05
8:49:                   1	28.06
8:49:                  31	28.04
8:50:                   1	28.05
8:50:                  31	28.02
8:51:                   1	28.03
8:51:                  31	28.03
8:52:                   1	28.05
8:52:                  31	28.07
8:53:                   1	28.08
8:53:                  31	28.08
8:54:                   2	28.07
8:54:                  32	28.06
8:55:                   2	28.09
8:55:                  32	28.07
8:56:                   2	28.06
8:56:                  32	28.08
8:57:                   2	28.08
8:57:                  32	28.07
8:58:                   2	28.10
8:58:                  32	28.08
8:59:                   2	28.08
8:59:                  32	28.08
9:00:                   2	28.06
9:00:                  32	28.08
9:01:                   2	28.07
9:01:                  32	28.10
9:02:                   2	28.11
9:02:                  32	28.10
9:03:                   2	28.07
9:03:                  32	28.09
9:04:                   2	28.07
9:04:                  32	28.07
9:05:                   2	28.07
9:05:                  32	28.05
9:06:                   2	28.03
9:06:                  32	28.03
9:07:                   2	28.04
9:07:                  32	28.03
9:08:                   2	28.03
9:08:                  32	28.03
9:09:                   2	28.01
9:09:                  32	28.02
9:10:                   2	28.02
9:10:                  32	28.01
9:11:                   2	28.00
9:11:                  32	27.99
9:12:                   2	28.02
9:12:                  32	28.01
9:13:                   2	27.99
9:13:                  32	28.01
9:14:                   2	28.01
9:14:                  32	28.01
9:15:                   3	28.00
9:15:                  33	28.01
9:16:                   3	28.01
9:16:                  33	27.99
9:17:                   3	27.99
9:17:                  33	28.00
9:18:                   3	28.00
9:18:                  33	28.04
9:19:                   3	28.02
9:19:                  33	28.01
9:20:                   3	28.00
9:20:                  33	28.02
9:21:                   3	28.05
9:21:                  33	28.03
9:22:                   3	28.01
9:22:                  33	27.98
9:23:                   3	28.02
9:23:                  33	28.03
9:24:                   3	28.02
9:24:                  33	28.03
9:25:                   3	28.05
9:25:                  33	28.03
9:26:                   3	28.06
9:26:                  33	28.06
9:27:                   3	28.07
9:27:                  33	28.05
9:28:                   3	28.07
9:28:                  33	28.07
9:29:                   3	28.07
9:29:                  33	28.08
9:30:                   3	28.08
9:30:                  33	28.07
9:31:                   3	28.08
9:31:                  33	28.07
9:32:                   3	28.05
9:32:                  33	28.06
9:33:                   3	28.03
9:33:                  34	28.03
9:34:                   4	28.06
9:34:                  34	28.05
9:35:                   4	28.04
9:35:                  34	28.02
9:36:                   4	28.01
9:36:                  34	28.01
9:37:                   4	28.01
9:37:                  34	28.02
9:38:                   4	28.05
9:38:                  34	28.05
9:39:                   4	28.05
9:39:                  34	28.05
9:40:                   4	28.06
9:40:                  34	28.05
9:41:                   4	28.02
9:41:                  34	28.04
9:42:                   4	28.02
9:42:                  34	28.05
9:43:                   4	28.02
9:43:                  34	28.03
9:44:                   4	28.05
9:44:                  34	28.05
9:45:                   4	28.04
9:45:                  34	28.03
9:46:                   4	28.05
9:46:                  34	28.03
9:47:                   4	28.05
9:47:                  34	28.03
9:48:                   4	28.03
9:48:                  34	28.02
9:49:                   4	28.04
9:49:                  34	28.05
9:50:                   4	28.03
9:50:                  34	28.03
9:51:                   4	28.02
9:51:                  35	28.02
9:52:                   5	28.02
9:52:                  35	28.03
9:53:                   5	28.02
9:53:                  35	28.03
9:54:                   5	28.02
9:54:                  35	28.02
9:55:                   5	28.00
9:55:                  35	28.01
9:56:                   5	28.02
9:56:                  35	28.02
9:57:                   5	28.03
9:57:                  35	28.06
9:58:                   5	28.05
9:58:                  35	28.03
9:59:                   5	28.04
9:59:                  35	28.03
10:00:                   5	28.04
10:00:                  35	28.02
10:01:                   5	28.02
10:01:                  35	28.04
10:02:                   5	28.03
10:02:                  35	28.02
10:03:                   5	28.03
10:03:                  35	28.05
10:04:                   5	28.05
10:04:                  35	28.05
10:05:                   5	28.05
10:05:                  35	28.03
10:06:                   5	28.05
10:06:                  35	28.03
10:07:                   5	28.05
10:07:                  35	28.04
10:08:                   5	28.02
10:08:                  35	28.01
10:09:                   5	28.00
10:09:                  35	28.05
10:10:                   5	28.05
10:10:                  35	28.05
10:11:                   5	28.05
10:11:                  35	28.05
10:12:                   5	28.04
10:12:                  35	28.05
10:13:                   6	28.04
10:13:                  36	28.04
10:14:                   6	28.07
10:14:                  36	28.07
10:15:                   6	28.07
10:15:                  36	28.06
10:16:                   6	28.05
10:16:                  36	28.03
10:17:                   6	28.03
10:17:                  36	28.02
10:18:                   6	28.03
10:18:                  36	28.03
10:19:                   6	28.03
10:19:                  36	28.03
10:20:                   6	28.05
10:20:                  36	28.07
10:21:                   6	28.05
10:21:                  36	28.05
10:22:                   6	28.06
10:22:                  36	28.06
10:23:                   6	28.05
10:23:                  36	28.05
10:24:                   6	28.05
10:24:                  36	28.06
10:25:                   6	28.06
10:25:                  36	28.07
10:26:                   6	28.07
10:26:                  36	28.06
10:27:                   6	28.06
10:27:                  36	28.06
10:28:                   6	28.05
10:28:                  36	28.06
10:29:                   6	28.07
10:29:                  36	28.07
10:30:                   6	28.08
10:30:                  36	28.09
10:31:                   6	28.07
10:31:                  36	28.08
10:32:                   6	28.09
10:32:                  36	28.09
10:33:                   6	28.07
10:33:                  36	28.05
10:34:                   6	28.07
10:34:                  36	28.05
10:35:                   6	28.07
10:35:                  36	28.07
10:36:                   6	28.05
10:36:                  36	28.05
10:37:                   6	28.06
10:37:                  36	28.05
10:38:                   6	28.07
10:38:                  36	28.04
10:39:                   6	28.05
10:39:                  36	28.07
10:40:                   6	28.10
10:40:                  36	28.11
10:41:                   6	28.11
10:41:                  37	28.09
10:42:                   7	28.10
10:42:                  37	28.10
10:43:                   7	28.12
10:43:                  37	28.12
10:44:                   7	28.16
10:44:                  37	28.17
10:45:                   7	28.19
10:45:                  37	28.30
10:46:                   7	28.38
10:46:                  37	28.44
10:47:                   7	28.53
10:47:                  37	28.50
10:48:                   7	28.49
10:48:                  37	28.40
10:49:                   7	28.38
10:49:                  37	28.42
10:50:                   7	28.47
10:50:                  37	28.49
10:51:                   7	28.48
10:51:                  37	28.44
10:52:                   7	28.39
10:52:                  37	28.38
10:53:                   7	28.35
10:53:                  37	28.32
10:54:                   7	28.33
10:54:                  37	28.29
10:55:                   7	28.34
10:55:                  37	28.35
10:56:                   7	28.35
10:56:                  37	28.40
10:57:                   7	28.43
10:57:                  37	28.44
10:58:                   7	28.45
10:58:                  37	28.47
10:59:                   7	28.46
10:59:                  37	28.44
11:00:                   7	28.45
11:00:                  37	28.41
11:01:                   7	28.42
11:01:                  37	28.38
11:02:                   7	28.37
11:02:                  37	28.37
11:03:                   8	28.32
11:03:                  38	28.29
11:04:                   8	28.35
11:04:                  38	28.39
11:05:                   8	28.33
11:05:                  38	28.32
11:06:                   8	28.29
11:06:                  38	28.25
11:07:                   8	28.24
11:07:                  38	28.22
11:08:                   8	28.24
11:08:                  38	28.26
11:09:                   8	28.24
11:09:                  38	28.26
11:10:                   8	28.26
11:10:                  38	28.28
11:11:                   8	28.23
11:11:                  38	28.21
11:12:                   8	28.20
11:12:                  38	28.20
11:13:                   8	28.22
11:13:                  38	28.22
11:14:                   8	28.24
11:14:                  38	28.22
11:15:                   8	28.25
11:15:                  38	28.22
11:16:                   8	28.24
11:16:                  38	28.25
11:17:                   8	28.25
11:17:                  38	28.26
11:18:                   8	28.28
11:18:                  38	28.28
11:19:                   8	28.31
11:19:                  38	28.32
11:20:                   8	28.35
11:20:                  38	28.44
11:21:                   8	28.43
11:21:                  38	28.46
11:22:                   9	28.45
11:22:                  39	28.42
11:23:                   9	28.40
11:23:                  39	28.33
11:24:                   9	28.32
11:24:                  39	28.34
11:25:                   9	28.35
11:25:                  39	28.40
11:26:                   9	28.38
11:26:                  39	28.34
11:27:                   9	28.30
11:27:                  39	28.32
11:28:                   9	28.29
11:28:                  39	28.29
11:29:                   9	28.29
11:29:                  39	28.30
11:30:                   9	28.31
11:30:                  39	28.35
11:31:                   9	28.35
11:31:                  39	28.31
11:32:                   9	28.33
11:32:                  39	28.43
11:33:                   9	28.44
11:33:                  39	28.43
11:34:                   9	28.46
11:34:                  39	28.50
11:35:                   9	28.50
11:35:                  39	28.49
11:36:                   9	28.46
11:36:                  39	28.45
11:37:                   9	28.39
11:37:                  39	28.53
11:38:                   9	28.53
11:38:                  39	28.51
11:39:                   9	28.50
11:39:                  39	28.50
11:40:                   9	28.52
11:40:                  39	28.56
11:41:                  10	28.55
11:41:                  40	28.57
11:42:                  10	28.60
11:42:                  40	28.54
11:43:                  10	28.52
11:43:                  40	28.50
11:44:                  10	28.51
11:44:                  40	28.48
11:45:                  10	28.47
11:45:                  40	28.46
11:46:                  10	28.45
11:46:                  40	28.45
11:47:                  10	28.45
11:47:                  40	28.44
11:48:                  10	28.43
11:48:                  40	28.42
11:49:                  10	28.40
11:49:                  40	28.40
11:50:                  10	28.37
11:50:                  40	28.41
11:51:                  10	28.43
11:51:                  40	28.46
11:52:                  10	28.44
11:52:                  40	28.44
11:53:                  10	28.46
11:53:                  40	28.51
11:54:                  10	28.50
11:54:                  40	28.48
11:55:                  10	28.48
11:55:                  40	28.47
11:56:                  10	28.43
11:56:                  40	28.46
11:57:                  10	28.49
11:57:                  41	28.52
11:58:                  11	28.56
11:58:                  41	28.57
11:59:                  11	28.56
11:59:                  41	28.57
12:00:                  11	28.52
12:00:                  41	28.59
12:01:                  11	28.60
12:01:                  41	28.62
12:02:                  11	28.57
12:02:                  41	28.60
12:03:                  11	28.63
12:03:                  41	28.63
12:04:                  11	28.60
12:04:                  41	28.59
12:05:                  11	28.56
12:05:                  41	28.52
12:06:                  11	28.53
12:06:                  41	28.52
12:07:                  11	28.49
12:07:                  41	28.50
12:08:                  11	28.50
12:08:                  41	28.49
12:09:                  11	28.50
12:09:                  41	28.48
12:10:                  11	28.48
12:10:                  41	28.49
12:11:                  11	28.58
12:11:                  41	28.60
12:12:                  11	28.53
12:12:                  41	28.56
12:13:                  11	28.56
12:13:                  41	28.61
12:14:                  11	28.60
12:14:                  41	28.61
12:15:                  11	28.63
12:15:                  41	28.61
12:16:                  11	28.59
12:16:                  41	28.55
12:17:                  11	28.50
12:17:                  42	28.52
12:18:                  12	28.53
12:18:                  42	28.54
12:19:                  12	28.55
12:19:                  42	28.56
12:20:                  12	28.55
12:20:                  42	28.53
12:21:                  12	28.51
12:21:                  42	28.49
12:22:                  12	28.54
12:22:                  42	28.60
12:23:                  12	28.61
12:23:                  42	28.63
12:24:                  12	28.60
12:24:                  42	28.65
12:25:                  12	28.63
12:25:                  42	28.64
12:26:                  12	28.62
12:26:                  42	28.62
12:27:                  12	28.59
12:27:                  42	28.57
12:28:                  12	28.59
12:28:                  42	28.60
12:29:                  12	28.62
12:29:                  42	28.60
12:30:                  12	28.60
12:30:                  42	28.62
12:31:                  12	28.65
12:31:                  42	28.75
12:32:                  12	28.76
12:32:                  42	28.79
12:33:                  12	28.77
12:33:                  42	28.78
12:34:                  12	28.74
12:34:                  42	28.76
12:35:                  12	28.72
12:35:                  42	28.69
12:36:                  12	28.70
12:36:                  42	28.70
12:37:                  12	28.69
12:37:                  42	28.69
12:38:                  12	28.69
12:38:                  42	28.64
12:39:                  12	28.68
12:39:                  42	28.65
12:40:                  12	28.64
12:40:                  43	28.62
12:41:                  13	28.63
12:41:                  43	28.60
12:42:                  13	28.62
12:42:                  43	28.58
12:43:                  13	28.59
12:43:                  43	28.59
12:44:                  13	28.59
12:44:                  43	28.60
12:45:                  13	28.61
12:45:                  43	28.61
12:46:                  13	28.60
12:46:                  43	28.60
12:47:                  13	28.63
12:47:                  43	28.64
12:48:                  13	28.63
12:48:                  43	28.63
12:49:                  13	28.65
12:49:                  43	28.64
12:50:                  13	28.62
12:50:                  43	28.64
12:51:                  13	28.64
12:51:                  43	28.65
12:52:                  13	28.65
12:52:                  43	28.66
12:53:                  13	28.65
12:53:                  43	28.62
12:54:                  13	28.61
12:54:                  43	28.60
12:55:                  13	28.60
12:55:                  43	28.61
12:56:                  13	28.61
12:56:                  43	28.59
12:57:                  13	28.60
12:57:                  43	28.56
12:58:                  13	28.59
12:58:                  43	28.59
12:59:                  13	28.60
12:59:                  43	28.61
13:00:                  14	28.61
13:00:                  44	28.60
13:01:                  14	28.62
13:01:                  44	28.62
13:02:                  14	28.57
13:02:                  44	28.59
13:03:                  14	28.59
13:03:                  44	28.57
13:04:                  14	28.57
13:04:                  44	28.58
13:05:                  14	28.56
13:05:                  44	28.55
13:06:                  14	28.59
13:06:                  44	28.73
13:07:                  14	28.77
13:07:                  44	28.79
13:08:                  14	28.81
13:08:                  44	28.79
13:09:                  14	28.77
13:09:                  44	28.75
13:10:                  14	28.75
13:10:                  44	28.76
13:11:                  14	28.82
13:11:                  44	28.80
13:12:                  14	28.82
13:12:                  44	28.86
13:13:                  14	28.85
13:13:                  44	28.84
13:14:                  14	28.84
13:14:                  44	28.85
13:15:                  14	28.86
13:15:                  44	28.83
13:16:                  14	28.83
13:16:                  44	28.85
13:17:                  14	28.87
13:17:                  44	28.90
13:18:                  14	28.99
13:18:                  44	29.06
13:19:                  14	29.00
13:19:                  44	29.05
13:20:                  14	29.10
13:20:                  44	29.10
13:21:                  14	29.08
13:21:                  44	29.04
13:22:                  15	29.07
13:22:                  45	29.11
13:23:                  15	29.11
13:23:                  45	29.12
13:24:                  15	29.12
13:24:                  45	29.08
13:25:                  15	29.03
13:25:                  45	29.10
13:26:                  15	29.10
13:26:                  45	29.11
13:27:                  15	29.06
13:27:                  45	29.05
13:28:                  15	29.09
13:28:                  45	29.06
13:29:                  15	29.02
13:29:                  45	29.01
13:30:                  15	28.99
13:30:                  45	28.94
13:31:                  15	29.02
13:31:                  45	29.01
13:32:                  15	28.98
13:32:                  45	28.93
13:33:                  15	28.90
13:33:                  45	28.89
13:34:                  15	28.85
13:34:                  45	28.87
13:35:                  15	28.86
13:35:                  45	28.83
13:36:                  15	28.86
13:36:                  45	28.89
13:37:                  15	28.88
13:37:                  45	28.91
13:38:                  15	28.84
13:38:                  45	28.89
13:39:                  15	28.90
13:39:                  46	28.86
13:40:                  16	28.79
13:40:                  46	28.78
13:41:                  16	28.76
13:41:                  46	28.78
13:42:                  16	28.78
13:42:                  46	28.81
13:43:                  16	28.80
13:43:                  46	28.79
13:44:                  16	28.80
13:44:                  46	28.79
13:45:                  16	28.76
13:45:                  46	28.77
13:46:                  16	28.78
13:46:                  46	28.81
13:47:                  16	28.78
13:47:                  46	28.77
13:48:                  16	28.75
13:48:                  46	28.82
13:49:                  16	28.83
13:49:                  46	28.86
13:50:                  16	28.89
13:50:                  46	28.89
13:51:                  16	28.91
13:51:                  46	28.86
13:52:                  16	28.81
13:52:                  46	28.82
13:53:                  16	28.88
13:53:                  46	28.88
13:54:                  16	28.85
13:54:                  46	28.84
13:55:                  16	28.82
13:55:                  46	28.82
13:56:                  16	28.81
13:56:                  46	28.75
13:57:                  16	28.73
13:57:                  46	28.75
13:58:                  16	28.74
13:58:                  46	28.74
13:59:                  16	28.69
13:59:                  46	28.69
14:00:                  16	28.69
14:00:                  46	28.65
14:01:                  16	28.64
14:01:                  46	28.68
14:02:                  16	28.63
14:02:                  47	28.63
14:03:                  17	28.69
14:03:                  47	28.69
14:04:                  17	28.68
14:04:                  47	28.69
14:05:                  17	28.69
14:05:                  47	28.71
14:06:                  17	28.71
14:06:                  47	28.73
14:07:                  17	28.76
14:07:                  47	28.75
14:08:                  17	28.74
14:08:                  47	28.69
14:09:                  17	28.68
14:09:                  47	28.73
14:10:                  17	28.76
14:10:                  47	28.72
14:11:                  17	28.70
14:11:                  47	28.74
14:12:                  17	28.73
14:12:                  47	28.73
14:13:                  17	28.72
14:13:                  47	28.83
14:14:                  17	28.79
14:14:                  47	28.78
14:15:                  17	28.85
14:15:                  47	28.83
14:16:                  17	28.80
14:16:                  47	28.80
14:17:                  17	28.78
14:17:                  47	28.77
14:18:                  17	28.73
14:18:                  47	28.73
14:19:                  18	28.74
14:19:                  48	28.72
14:20:                  18	28.70
14:20:                  48	28.71
14:21:                  18	28.72
14:21:                  48	28.73
14:22:                  18	28.72
14:22:                  48	28.72
14:23:                  18	28.66
14:23:                  48	28.66
14:24:                  18	28.69
14:24:                  48	28.69
14:25:                  18	28.71
14:25:                  48	28.75
14:26:                  18	28.68
14:26:                  48	28.70
14:27:                  18	28.72
14:27:                  48	28.72
14:28:                  18	28.72
14:28:                  48	28.73
14:29:                  18	28.73
14:29:                  48	28.65
14:30:                  18	28.65
14:30:                  48	28.64
14:31:                  18	28.65
14:31:                  48	28.63
14:32:                  18	28.65
14:32:                  48	28.65
14:33:                  18	28.69
14:33:                  48	28.69
14:34:                  18	28.66
14:34:                  48	28.65
14:35:                  18	28.61
14:35:                  49	28.62
14:36:                  19	28.63
14:36:                  49	28.62
14:37:                  19	28.58
14:37:                  49	28.58
14:38:                  19	28.62
14:38:                  49	28.64
14:39:                  19	28.59
14:39:                  49	28.56
14:40:                  19	28.59
14:40:                  49	28.59
14:41:                  19	28.54
14:41:                  49	28.54
14:42:                  19	28.60
14:42:                  49	28.57
14:43:                  19	28.57
14:43:                  49	28.59
14:44:                  19	28.63
14:44:                  49	28.63
14:45:                  19	28.64
14:45:                  49	28.60
14:46:                  19	28.58
14:46:                  49	28.58
14:47:                  19	28.62
14:47:                  49	28.61
14:48:                  19	28.60
14:48:                  49	28.58
14:49:                  19	28.60
14:49:                  49	28.58
14:50:                  19	28.56
14:50:                  49	28.58
14:51:                  19	28.58
14:51:                  49	28.51
14:52:                  20	28.53
14:52:                  50	28.57
14:53:                  20	28.59
14:53:                  50	28.63
14:54:                  20	28.60
14:54:                  50	28.57
14:55:                  20	28.53
14:55:                  50	28.47
14:56:                  20	28.44
14:56:                  50	28.43
14:57:                  20	28.41
14:57:                  50	28.38
14:58:                  20	28.38
14:58:                  50	28.38
14:59:                  20	28.38
14:59:                  50	28.44
15:00:                  20	28.41
15:00:                  50	28.37
15:01:                  20	28.40
15:01:                  50	28.43
15:02:                  20	28.48
15:02:                  50	28.55
15:03:                  20	28.56
15:03:                  50	28.56
15:04:                  20	28.58
15:04:                  50	28.57
15:05:                  20	28.55
15:05:                  50	28.62
15:06:                  20	28.60
15:06:                  50	28.60
15:07:                  20	28.57
15:07:                  50	28.55
15:08:                  20	28.51
15:08:                  51	28.50
15:09:                  21	28.46
15:09:                  51	28.45
15:10:                  21	28.46
15:10:                  51	28.49
15:11:                  21	28.50
15:11:                  51	28.52
15:12:                  21	28.48
15:12:                  51	28.49
15:13:                  21	28.47
15:13:                  51	28.50
15:14:                  21	28.49
15:14:                  51	28.55
15:15:                  21	28.64
15:15:                  51	28.64
15:16:                  21	28.62
15:16:                  51	28.55
15:17:                  21	28.62
15:17:                  51	28.63
15:18:                  21	28.66
15:18:                  51	28.64
15:19:                  21	28.69
15:19:                  51	28.76
15:20:                  21	28.75
15:20:                  51	28.73
15:21:                  21	28.76
15:21:                  51	28.81
15:22:                  21	28.79
15:22:                  51	28.77
15:23:                  21	28.72
15:23:                  51	28.72
15:24:                  21	28.71
15:24:                  51	28.69
15:25:                  21	28.71
15:25:                  51	28.70
15:26:                  21	28.69
15:26:                  52	28.70
15:27:                  22	28.71
15:27:                  52	28.70
15:28:                  22	28.69
15:28:                  52	28.69
15:29:                  22	28.69
15:29:                  52	28.65
15:30:                  22	28.68
15:30:                  52	28.68
15:31:                  22	28.67
15:31:                  52	28.66
15:32:                  22	28.69
15:32:                  52	28.70
15:33:                  22	28.70
15:33:                  52	28.69
15:34:                  22	28.69
15:34:                  52	28.65
15:35:                  22	28.65
15:35:                  52	28.67
15:36:                  22	28.65
15:36:                  52	28.68
15:37:                  22	28.65
15:37:                  52	28.68
15:38:                  22	28.64
15:38:                  52	28.65
15:39:                  22	28.71
15:39:                  52	28.69
15:40:                  22	28.69
15:40:                  52	28.69
15:41:                  22	28.69
15:41:                  52	28.69
15:42:                  22	28.68
15:42:                  52	28.70
15:43:                  22	28.71
15:43:                  52	28.73
15:44:                  22	28.73
15:44:                  52	28.71
15:45:                  23	28.72
15:45:                  53	28.72
15:46:                  23	28.72
15:46:                  53	28.72
15:47:                  23	28.76
15:47:                  53	28.74
15:48:                  23	28.69
15:48:                  53	28.70
15:49:                  23	28.70
15:49:                  53	28.70
15:50:                  23	28.73
15:50:                  53	28.73
15:51:                  23	28.73
15:51:                  53	28.72
15:52:                  23	28.74
15:52:                  53	28.74
15:53:                  23	28.72
15:53:                  53	28.71
15:54:                  23	28.71
15:54:                  53	28.69
15:55:                  23	28.66
15:55:                  53	28.63
15:56:                  23	28.60
15:56:                  53	28.64
15:57:                  23	28.64
15:57:                  53	28.64
15:58:                  23	28.68
15:58:                  53	28.72
15:59:                  23	28.75
15:59:                  53	28.78
16:00:                  23	28.77
16:00:                  53	28.75
16:01:                  23	28.76
16:01:                  54	28.76
16:02:                  24	28.78
16:02:                  54	28.80
16:03:                  24	28.78
16:03:                  54	28.76
16:04:                  24	28.77
16:04:                  54	28.68
16:05:                  24	28.69
16:05:                  54	28.68
16:06:                  24	28.68
16:06:                  54	28.64
16:07:                  24	28.61
16:07:                  54	28.69
16:08:                  24	28.72
16:08:                  54	28.71
16:09:                  24	28.66
16:09:                  54	28.81
16:10:                  24	28.81
16:10:                  54	28.78
16:11:                  24	28.85
16:11:                  54	28.77
16:12:                  24	28.73
16:12:                  54	28.75
16:13:                  24	28.80
16:13:                  54	28.80
16:14:                  24	28.81
16:14:                  54	28.82
16:15:                  24	28.81
16:15:                  54	28.77
16:16:                  24	28.86
16:16:                  54	28.90
16:17:                  24	28.86
16:17:                  54	28.89
16:18:                  24	28.90
16:18:                  54	28.94
16:19:                  24	28.95
16:19:                  54	28.95
16:20:                  24	28.89
16:20:                  54	28.87
16:21:                  24	28.85
16:21:                  54	28.85
16:22:                  24	28.74
16:22:                  54	28.80
16:23:                  24	28.84
16:23:                  54	28.93
16:24:                  24	28.94
16:24:                  54	28.94
16:25:                  25	28.89
16:25:                  55	28.93
16:26:                  25	29.01
16:26:                  55	28.96
16:27:                  25	28.90
16:27:                  55	28.90
16:28:                  25	28.91
16:28:                  55	28.93
16:29:                  25	28.89
16:29:                  55	28.81
16:30:                  25	28.85
16:30:                  55	28.81
16:31:                  25	28.82
16:31:                  55	28.80
16:32:                  25	28.77
16:32:                  55	28.74
16:33:                  25	28.69
16:33:                  55	28.70
16:34:                  25	28.78
16:34:                  55	28.80
16:35:                  25	28.82
16:35:                  55	28.77
16:36:                  25	28.86
16:36:                  55	28.92
16:37:                  25	28.80
16:37:                  55	28.80
16:38:                  25	28.85
16:38:                  55	28.72
16:39:                  25	28.73
16:39:                  55	28.78
16:40:                  25	28.81
16:40:                  55	28.79
16:41:                  25	28.75
16:41:                  56	28.70
16:42:                  26	28.68
16:42:                  56	28.71
16:43:                  26	28.63
16:43:                  56	28.68
16:44:                  26	28.76
16:44:                  56	28.76
16:45:                  26	28.77
16:45:                  56	28.71
16:46:                  26	28.70
16:46:                  56	28.72
16:47:                  26	28.72
16:47:                  56	28.75
16:48:                  26	28.77
16:48:                  56	28.82
16:49:                  26	28.86
16:49:                  56	28.82
16:50:                  26	28.86
16:50:                  56	28.88
16:51:                  26	28.93
16:51:                  56	28.87
16:52:                  26	28.92
16:52:                  56	28.86
16:53:                  26	28.89
16:53:                  56	28.89
16:54:                  26	28.87
16:54:                  56	28.80
16:55:                  26	28.88
16:55:                  56	28.80
16:56:                  26	28.85
16:56:                  56	28.77
16:57:                  26	28.79
16:57:                  56	28.82
16:58:                  27	28.86
16:58:                  57	28.82
16:59:                  27	28.85
16:59:                  57	28.87
17:00:                  27	28.86
17:00:                  57	28.83
17:01:                  27	28.79
17:01:                  57	28.77
17:02:                  27	28.85
17:02:                  57	28.89
17:03:                  27	28.83
17:03:                  57	28.88
17:04:                  27	28.87
17:04:                  57	28.85
17:05:                  27	28.92
17:05:                  57	29.03
17:06:                  27	28.94
17:06:                  57	29.00
17:07:                  27	28.98
17:07:                  57	28.95
17:08:                  27	28.98
17:08:                  57	29.03
17:09:                  27	29.06
17:09:                  57	29.04
17:10:                  27	29.08
17:10:                  57	29.11
17:11:                  27	29.14
17:11:                  57	29.16
17:12:                  27	29.08
17:12:                  57	29.06
17:13:                  27	29.19
17:13:                  57	29.26
17:14:                  27	29.28
17:14:                  57	29.25
17:15:                  27	29.26
17:15:                  57	29.35
17:16:                  27	29.25
17:16:                  57	29.20
17:17:                  27	29.27
17:17:                  57	29.21
17:18:                  27	29.21
17:18:                  57	29.17
17:19:                  27	29.14
17:19:                  57	29.16
17:20:                  27	29.16
17:20:                  57	29.17
17:21:                  27	29.14
17:21:                  58	29.15
17:22:                  28	29.10
17:22:                  58	29.15
17:23:                  28	29.18
17:23:                  58	29.19
17:24:                  28	29.21
17:24:                  58	29.30
17:25:                  28	29.26
17:25:                  58	29.25
17:26:                  28	29.31
17:26:                  58	29.32
17:27:                  28	29.27
17:27:                  58	29.23
17:28:                  28	29.24
17:28:                  58	29.16
17:29:                  28	29.20
17:29:                  58	29.32
17:30:                  28	29.32
17:30:                  58	29.31
17:31:                  28	29.35
17:31:                  58	29.33
17:32:                  28	29.33
17:32:                  58	29.32
17:33:                  28	29.22
17:33:                  58	29.26
17:34:                  28	29.28
17:34:                  58	29.31
17:35:                  28	29.27
17:35:                  58	29.35
17:36:                  28	29.34
17:36:                  58	29.32
17:37:                  28	29.37
17:37:                  58	29.41
17:38:                  28	29.34
17:38:                  58	29.27
17:39:                  28	29.28
17:39:                  58	29.33
17:40:                  28	29.31
17:40:                  59	29.25
17:41:                  29	29.24
17:41:                  59	29.24
17:42:                  29	29.21
17:42:                  59	29.20
17:43:                  29	29.18
17:43:                  59	29.17
17:44:                  29	29.18
17:44:                  59	29.20
17:45:                  29	29.22
17:45:                  59	29.27
17:46:                  29	29.28
17:46:                  59	29.25
17:47:                  29	29.22
17:47:                  59	29.28
17:48:                  29	29.24
17:48:                  59	29.26
17:49:                  29	29.26
17:49:                  59	29.26
17:50:                  29	29.26
17:50:                  59	29.30
17:51:                  29	29.27
17:51:                  59	29.24
17:52:                  29	29.24
17:52:                  59	29.22
17:53:                  29	29.24
17:53:                  59	29.19
17:54:                  29	29.20
17:54:                  59	29.16
17:55:                  29	29.14
17:55:                  59	29.14
17:56:                  29	29.13
17:56:                  59	29.12
17:57:                  29	29.17
17:57:                  59	29.25
17:58:                  29	29.18
17:58:                  59	29.18
17:59:                  29	29.17
18:00:                   0	29.13
18:00:                  30	29.14
18:01:                   0	29.19
18:01:                  30	29.16
18:02:                   0	29.18
18:02:                  30	29.19
18:03:                   0	29.18
18:03:                  30	29.20
18:04:                   0	29.21
18:04:                  30	29.18
18:05:                   0	29.21
18:05:                  30	29.19
18:06:                   0	29.14
18:06:                  30	29.14
18:07:                   0	29.18
18:07:                  30	29.20
18:08:                   0	29.16
18:08:                  30	29.12
18:09:                   0	29.10
18:09:                  30	29.08
18:10:                   0	29.07
18:10:                  30	29.11
18:11:                   0	29.06
18:11:                  30	28.99
18:12:                   0	28.97
18:12:                  30	28.97
18:13:                   0	28.95
18:13:                  30	29.02
18:14:                   0	28.97
18:14:                  30	28.96
18:15:                   0	28.97
18:15:                  30	29.00
18:16:                   0	29.02
18:16:                  31	29.03
18:17:                   1	29.02
18:17:                  31	29.02
18:18:                   1	29.05
18:18:                  31	29.04
18:19:                   1	28.98
18:19:                  31	28.95
18:20:                   1	28.93
18:20:                  31	28.98
18:21:                   1	28.96
18:21:                  31	28.94
18:22:                   1	28.95
18:22:                  31	28.99
18:23:                   1	29.02
18:23:                  31	29.00
18:24:                   1	28.97
18:24:                  31	28.97
18:25:                   1	28.95
18:25:                  31	28.91
18:26:                   1	28.92
18:26:                  31	28.92
18:27:                   1	28.91
18:27:                  31	28.93
18:28:                   1	28.92
18:28:                  31	28.92
18:29:                   1	28.88
18:29:                  31	28.90
18:30:                   1	28.91
18:30:                  31	28.95
18:31:                   1	28.94
18:31:                  31	28.89
18:32:                   1	28.86
18:32:                  31	28.83
18:33:                   1	28.89
18:33:                  31	28.81
18:34:                   2	28.76
18:34:                  32	28.82
18:35:                   2	28.84
18:35:                  32	28.80
18:36:                   2	28.82
18:36:                  32	28.79
18:37:                   2	28.77
18:37:                  32	28.80
18:38:                   2	28.76
18:38:                  32	28.73
18:39:                   2	28.75
18:39:                  32	28.77
18:40:                   2	28.73
18:40:                  32	28.73
18:41:                   2	28.75
18:41:                  32	28.74
18:42:                   2	28.76
18:42:                  32	28.80
18:43:                   2	28.84
18:43:                  32	28.87
18:44:                   2	28.98
18:44:                  32	29.01
18:45:                   2	29.03
18:45:                  32	29.02
18:46:                   2	28.99
18:46:                  32	28.95
18:47:                   2	28.98
18:47:                  32	29.01
18:48:                   2	29.05
18:48:                  32	29.01
18:49:                   2	28.97
18:49:                  32	29.03
18:50:                   2	29.02
18:50:                  32	29.03
18:51:                   3	29.07
18:51:                  33	29.10
18:52:                   3	29.13
18:52:                  33	29.14
18:53:                   3	29.16
18:53:                  33	29.11
18:54:                   3	29.10
18:54:                  33	29.12
18:55:                   3	29.14
18:55:                  33	29.11
18:56:                   3	29.14
18:56:                  33	29.12
18:57:                   3	29.07
18:57:                  33	28.99
18:58:                   3	28.95
18:58:                  33	28.95
18:59:                   3	29.04
18:59:                  33	29.12
19:00:                   3	29.12
19:00:                  33	29.10
19:01:                   3	29.11
19:01:                  33	29.07
19:02:                   3	29.06
19:02:                  33	28.97
19:03:                   3	28.97
19:03:                  33	28.98
19:04:                   3	28.93
19:04:                  33	28.99
19:05:                   3	29.07
19:05:                  33	29.12
19:06:                   3	29.07
19:06:                  33	29.08
19:07:                   3	29.12
19:07:                  33	29.14
19:08:                   3	29.16
19:08:                  34	29.18
19:09:                   4	29.17
19:09:                  34	29.19
19:10:                   4	29.15
19:10:                  34	29.13
19:11:                   4	29.11
19:11:                  34	29.08
19:12:                   4	29.04
19:12:                  34	29.05
19:13:                   4	29.11
19:13:                  34	29.13
19:14:                   4	29.13
19:14:                  34	29.11
19:15:                   4	29.17
19:15:                  34	29.14
19:16:                   4	29.17
19:16:                  34	29.21
19:17:                   4	29.22
19:17:                  34	29.27
19:18:                   4	29.30
19:18:                  34	29.28
19:19:                   4	29.26
19:19:                  34	29.24
19:20:                   4	29.24
19:20:                  34	29.21
19:21:                   4	29.17
19:21:                  34	29.22
19:22:                   4	29.23
19:22:                  34	29.25
19:23:                   4	29.30
19:23:                  34	29.28
19:24:                   4	29.24
19:24:                  34	29.31
19:25:                   4	29.27
19:25:                  34	29.27
19:26:                   4	29.25
19:26:                  34	29.22
19:27:                   4	29.22
19:27:                  35	29.20
19:28:                   5	29.16
19:28:                  35	29.18
19:29:                   5	29.19
19:29:                  35	29.26
19:30:                   5	29.21
19:30:                  35	29.18
19:31:                   5	29.19
19:31:                  35	29.15
19:32:                   5	29.12
19:32:                  35	29.12
19:33:                   5	29.15
19:33:                  35	29.13
19:34:                   5	29.12
19:34:                  35	29.13
19:35:                   5	29.15
19:35:                  35	29.18
19:36:                   5	29.16
19:36:                  35	29.11
19:37:                   5	29.10
19:37:                  35	29.11
19:38:                   5	29.14
19:38:                  35	29.18
19:39:                   5	29.17
19:39:                  35	29.22
19:40:                   5	29.22
19:40:                  35	29.22
19:41:                   5	29.19
19:41:                  35	29.19
19:42:                   5	29.19
19:42:                  35	29.22
19:43:                   5	29.32
19:43:                  35	29.23
19:44:                   6	29.22
19:44:                  36	29.24
19:45:                   6	29.27
19:45:                  36	29.23
19:46:                   6	29.23
19:46:                  36	29.19
19:47:                   6	29.23
19:47:                  36	29.19
19:48:                   6	29.19
19:48:                  36	29.20
19:49:                   6	29.26
19:49:                  36	29.23
19:50:                   6	29.17
19:50:                  36	29.12
19:51:                   6	29.13
19:51:                  36	29.13
19:52:                   6	29.13
19:52:                  36	29.06
19:53:                   6	29.04
19:53:                  36	29.09
19:54:                   6	29.10
19:54:                  36	29.07
19:55:                   6	29.07
19:55:                  36	29.03
19:56:                   6	29.06
19:56:                  36	29.06
19:57:                   6	29.07
19:57:                  36	29.07
19:58:                   6	29.05
19:58:                  36	29.02
19:59:                   6	29.01
19:59:                  36	29.02
20:00:                   6	29.00
20:00:                  36	28.94
20:01:                   6	28.87
20:01:                  36	28.80
20:02:                   6	28.80
20:02:                  36	28.78
20:03:                   6	28.80
20:03:                  36	28.78
20:04:                   6	28.76
20:04:                  36	28.79
20:05:                   6	28.79
20:05:                  36	28.79
20:06:                   7	28.76
20:06:                  37	28.77
20:07:                   7	28.77
20:07:                  37	28.75
20:08:                   7	28.74
20:08:                  37	28.76
20:09:                   7	28.77
20:09:                  37	28.72
20:10:                   7	28.72
20:10:                  37	28.72
20:11:                   7	28.75
20:11:                  37	28.76
20:12:                   7	28.78
20:12:                  37	28.74
20:13:                   7	28.74
20:13:                  37	28.73
20:14:                   7	28.73
20:14:                  37	28.69
20:15:                   7	28.66
20:15:                  37	28.72
20:16:                   7	28.73
20:16:                  37	28.79
20:17:                   7	28.80
20:17:                  37	28.78
20:18:                   7	28.75
20:18:                  37	28.73
20:19:                   7	28.70
20:19:                  37	28.72
20:20:                   7	28.74
20:20:                  37	28.73
20:21:                   7	28.74
20:21:                  37	28.73
20:22:                   7	28.75
20:22:                  37	28.75
20:23:                   7	28.70
20:23:                  37	28.70
20:24:                   7	28.65
20:24:                  37	28.71
20:25:                   7	28.71
20:25:                  37	28.68
20:26:                   7	28.70
20:26:                  37	28.69
20:27:                   7	28.72
20:27:                  37	28.72
20:28:                   8	28.73
20:28:                  38	28.71
20:29:                   8	28.71
20:29:                  38	28.74
20:30:                   8	28.75
20:30:                  38	28.76
20:31:                   8	28.79
20:31:                  38	28.75
20:32:                   8	28.69
20:32:                  38	28.72
20:33:                   8	28.73
20:33:                  38	28.67
20:34:                   8	28.66
20:34:                  38	28.69
20:35:                   8	28.68
20:35:                  38	28.68
20:36:                   8	28.66
20:36:                  38	28.70
20:37:                   8	28.64
20:37:                  38	28.65
20:38:                   8	28.66
20:38:                  38	28.63
20:39:                   8	28.69
20:39:                  38	28.69
20:40:                   8	28.66
20:40:                  38	28.65
20:41:                   8	28.66
20:41:                  38	28.65
20:42:                   8	28.60
20:42:                  38	28.58
20:43:                   8	28.65
20:43:                  38	28.65
20:44:                   8	28.66
20:44:                  38	28.64
20:45:                   8	28.61
20:45:                  38	28.60
20:46:                   8	28.66
20:46:                  38	28.68
20:47:                   8	28.67
20:47:                  38	28.71
20:48:                   8	28.71
20:48:                  38	28.71
20:49:                   8	28.66
20:49:                  39	28.67
20:50:                   9	28.73
20:50:                  39	28.74
20:51:                   9	28.71
20:51:                  39	28.69
20:52:                   9	28.71
20:52:                  39	28.76
20:53:                   9	28.74
20:53:                  39	28.72
20:54:                   9	28.69
20:54:                  39	28.68
20:55:                   9	28.63
20:55:                  39	28.65
20:56:                   9	28.63
20:56:                  39	28.62
20:57:                   9	28.62
20:57:                  39	28.62
20:58:                   9	28.61
20:58:                  39	28.64
20:59:                   9	28.65
20:59:                  39	28.70
21:00:                   9	28.63
21:00:                  39	28.65
21:01:                   9	28.65
21:01:                  39	28.68
21:02:                   9	28.69
21:02:                  39	28.72
21:03:                   9	28.70
21:03:                  39	28.75
21:04:                   9	28.76
21:04:                  39	28.72
21:05:                   9	28.72
21:05:                  39	28.74
21:06:                  10	28.73
21:06:                  40	28.70
21:07:                  10	28.74
21:07:                  40	28.77
21:08:                  10	28.76
21:08:                  40	28.74
21:09:                  10	28.69
21:09:                  40	28.63
21:10:                  10	28.64
21:10:                  40	28.66
21:11:                  10	28.70
21:11:                  40	28.68
21:12:                  10	28.70
21:12:                  40	28.68
21:13:                  10	28.68
21:13:                  40	28.69
21:14:                  10	28.74
21:14:                  40	28.76
21:15:                  10	28.68
21:15:                  40	28.64
21:16:                  10	28.64
21:16:                  40	28.60
21:17:                  10	28.64
21:17:                  40	28.69
21:18:                  10	28.76
21:18:                  40	28.81
21:19:                  10	28.82
21:19:                  40	28.83
21:20:                  10	28.87
21:20:                  40	28.84
21:21:                  10	28.85
21:21:                  40	28.92
21:22:                  10	28.93
21:22:                  40	28.90
21:23:                  10	28.87
21:23:                  40	28.80
21:24:                  10	28.85
21:24:                  40	28.86
21:25:                  11	28.90
21:25:                  41	28.87
21:26:                  11	28.86
21:26:                  41	28.85
21:27:                  11	28.85
21:27:                  41	28.84
21:28:                  11	28.78
21:28:                  41	28.76
21:29:                  11	28.78
21:29:                  41	28.81
21:30:                  11	28.80
21:30:                  41	28.72
21:31:                  11	28.72
21:31:                  41	28.72
21:32:                  11	28.75
21:32:                  41	28.76
21:33:                  11	28.76
21:33:                  41	28.76
21:34:                  11	28.76
21:34:                  41	28.73
21:35:                  11	28.70
21:35:                  41	28.65
21:36:                  11	28.69
21:36:                  41	28.69
21:37:                  11	28.69
21:37:                  41	28.66
21:38:                  11	28.65
21:38:                  41	28.63
21:39:                  11	28.62
21:39:                  41	28.61
21:40:                  11	28.60
21:40:                  41	28.60
21:41:                  11	28.62
21:41:                  41	28.68
21:42:                  11	28.71
21:42:                  41	28.69
21:43:                  11	28.70
21:43:                  41	28.66
21:44:                  11	28.69
21:44:                  42	28.69
21:45:                  12	28.73
21:45:                  42	28.73
21:46:                  12	28.77
21:46:                  42	28.78
21:47:                  12	28.74
21:47:                  42	28.76
21:48:                  12	28.79
21:48:                  42	28.79
21:49:                  12	28.79
21:49:                  42	28.76
21:50:                  12	28.77
21:50:                  42	28.80
21:51:                  12	28.77
21:51:                  42	28.76
21:52:                  12	28.78
21:52:                  42	28.79
21:53:                  12	28.79
21:53:                  42	28.81
21:54:                  12	28.81
21:54:                  42	28.80
21:55:                  12	28.77
21:55:                  42	28.77
21:56:                  12	28.78
21:56:                  42	28.80
21:57:                  12	28.76
21:57:                  42	28.76
21:58:                  12	28.77
21:58:                  42	28.73
21:59:                  12	28.74
21:59:                  42	28.77
22:00:                  12	28.80
22:00:                  42	28.83
22:01:                  12	28.83
22:01:                  42	28.87
22:02:                  12	28.82
22:02:                  42	28.79
22:03:                  12	28.78
22:03:                  43	28.76
22:04:                  13	28.70
22:04:                  43	28.69
22:05:                  13	28.72
22:05:                  43	28.72
22:06:                  13	28.70
22:06:                  43	28.69
22:07:                  13	28.69
22:07:                  43	28.69
22:08:                  13	28.72
22:08:                  43	28.71
22:09:                  13	28.74
22:09:                  43	28.74
22:10:                  13	28.72
22:10:                  43	28.72
22:11:                  13	28.73
22:11:                  43	28.73
22:12:                  13	28.71
22:12:                  43	28.72
22:13:                  13	28.74
22:13:                  43	28.75
22:14:                  13	28.75
22:14:                  43	28.77
22:15:                  13	28.76
22:15:                  43	28.74
22:16:                  13	28.74
22:16:                  43	28.74
22:17:                  13	28.73
22:17:                  43	28.72
22:18:                  13	28.73
22:18:                  43	28.74
22:19:                  13	28.76
22:19:                  43	28.74
22:20:                  13	28.75
22:20:                  44	28.74
22:21:                  14	28.75
22:21:                  44	28.74
22:22:                  14	28.75
22:22:                  44	28.77
22:23:                  14	28.77
22:23:                  44	28.80
22:24:                  14	28.79
22:24:                  44	28.82
22:25:                  14	28.79
22:25:                  44	28.81
22:26:                  14	28.81
22:26:                  44	28.79
22:27:                  14	28.77
22:27:                  44	28.80
22:28:                  14	28.79
22:28:                  44	28.80
22:29:                  14	28.82
22:29:                  44	28.81
22:30:                  14	28.81
22:30:                  44	28.83
22:31:                  14	28.82
22:31:                  44	28.79
22:32:                  14	28.79
22:32:                  44	28.79
22:33:                  14	28.79
22:33:                  44	28.80
22:34:                  14	28.78
22:34:                  44	28.78
22:35:                  14	28.81
22:35:                  44	28.82
22:36:                  14	28.80
22:36:                  44	28.80
22:37:                  14	28.78
22:37:                  44	28.77
22:38:                  14	28.77
22:38:                  44	28.77
22:39:                  14	28.78
22:39:                  44	28.80
22:40:                  15	28.80
22:40:                  45	28.82
22:41:                  15	28.84
22:41:                  45	28.82
22:42:                  15	28.85
22:42:                  45	28.83
22:43:                  15	28.85
22:43:                  45	28.83
22:44:                  15	28.82
22:44:                  45	28.82
22:45:                  15	28.79
22:45:                  45	28.80
22:46:                  15	28.79
22:46:                  45	28.81
22:47:                  15	28.81
22:47:                  45	28.82
22:48:                  15	28.80
22:48:                  45	28.78
22:49:                  15	28.77
22:49:                  45	28.77
22:50:                  15	28.76
22:50:                  45	28.77
22:51:                  15	28.81
22:51:                  45	28.80
22:52:                  15	28.79
22:52:                  45	28.75
22:53:                  15	28.76
22:53:                  45	28.79
22:54:                  15	28.82
22:54:                  45	28.81
22:55:                  15	28.86
22:55:                  45	28.87
22:56:                  15	28.88
22:56:                  45	28.88
22:57:                  15	28.86
22:57:                  45	28.87
22:58:                  15	28.85
22:58:                  45	28.81
22:59:                  16	28.83
22:59:                  46	28.79
23:00:                  16	28.79
23:00:                  46	28.82
23:01:                  16	28.82
23:01:                  46	28.83
23:02:                  16	28.83
23:02:                  46	28.85
23:03:                  16	28.86
23:03:                  46	28.89
23:04:                  16	28.87
23:04:                  46	28.87
23:05:                  16	28.83
23:05:                  46	28.84
23:06:                  16	28.84
23:06:                  46	28.87
23:07:                  16	28.88
23:07:                  46	28.92
23:08:                  16	28.94
23:08:                  46	28.91
23:09:                  16	28.90
23:09:                  46	28.91
23:10:                  16	28.87
23:10:                  46	28.84
23:11:                  16	28.84
23:11:                  46	28.86
23:12:                  16	28.87
23:12:                  46	28.86
23:13:                  16	28.87
23:13:                  46	28.88
23:14:                  16	28.88
23:14:                  46	28.92
23:15:                  16	28.90
23:15:                  46	28.92
23:16:                  16	28.92
23:16:                  46	28.92
23:17:                  16	28.88
23:17:                  46	28.90
23:18:                  17	28.93
23:18:                  47	28.95
23:19:                  17	28.99
23:19:                  47	28.97
23:20:                  17	28.96
23:20:                  47	28.96
23:21:                  17	28.94
23:21:                  47	28.95
23:22:                  17	28.95
23:22:                  47	28.95
23:23:                  17	28.94
23:23:                  47	28.98
23:24:                  17	28.97
23:24:                  47	28.97
23:25:                  17	28.96
23:25:                  47	28.95
23:26:                  17	28.95
23:26:                  47	28.95
23:27:                  17	28.96
23:27:                  47	28.96
23:28:                  17	28.97
23:28:                  47	28.98
23:29:                  17	28.96
23:29:                  47	29.00
23:30:                  17	29.01
23:30:                  47	29.00
23:31:                  17	29.00
23:31:                  47	29.00
23:32:                  17	29.01
23:32:                  47	29.02
23:33:                  17	29.02
23:33:                  47	29.00
23:34:                  17	28.97
23:34:                  47	28.96
23:35:                  17	28.96
23:35:                  47	28.95
23:36:                  17	28.97
23:36:                  47	29.00
23:37:                  18	28.97
23:37:                  48	28.97
23:38:                  18	28.96
23:38:                  48	28.92
23:39:                  18	28.90
23:39:                  48	28.91
23:40:                  18	28.91
23:40:                  48	28.90
23:41:                  18	28.94
23:41:                  48	28.91
23:42:                  18	28.92
23:42:                  48	28.93
23:43:                  18	28.92
23:43:                  48	28.96
23:44:                  18	28.94
23:44:                  48	28.92
23:45:                  18	28.92
23:45:                  48	28.89
23:46:                  18	28.91
23:46:                  48	28.90
23:47:                  18	28.89
23:47:                  48	28.88
23:48:                  18	28.89
23:48:                  48	28.92
23:49:                  18	28.90
23:49:                  48	28.92
23:50:                  18	28.90
23:50:                  48	28.87
23:51:                  18	28.90
23:51:                  48	28.82
23:52:                  18	28.80
23:52:                  48	28.83
23:53:                  18	28.87
23:53:                  48	28.90
23:54:                  18	28.91
23:54:                  48	28.88
23:55:                  18	28.88
23:55:                  48	28.86
23:56:                  18	28.85
23:56:                  48	28.85
23:57:                  19	28.82
23:57:                  49	28.86
23:58:                  19	28.85
23:58:                  49	28.88
23:59:                  19	28.92
23:59:                  49	28.91
