0:00:                   4	30.17
0:00:                  34	30.17
0:01:                   4	30.16
0:01:                  34	30.16
0:02:                   4	30.17
0:02:                  34	30.16
0:03:                   4	30.17
0:03:                  34	30.16
0:04:                   4	30.16
0:04:                  34	30.16
0:05:                   4	30.15
0:05:                  34	30.16
0:06:                   4	30.16
0:06:                  34	30.15
0:07:                   4	30.15
0:07:                  34	30.14
0:08:                   4	30.15
0:08:                  34	30.15
0:09:                   4	30.15
0:09:                  34	30.14
0:10:                   4	30.16
0:10:                  34	30.15
0:11:                   4	30.14
0:11:                  34	30.15
0:12:                   4	30.15
0:12:                  34	30.14
0:13:                   4	30.13
0:13:                  34	30.12
0:14:                   4	30.14
0:14:                  34	30.13
0:15:                   4	30.13
0:15:                  34	30.13
0:16:                   4	30.13
0:16:                  34	30.12
0:17:                   4	30.11
0:17:                  34	30.12
0:18:                   4	30.11
0:18:                  34	30.10
0:19:                   4	30.12
0:19:                  34	30.12
0:20:                   4	30.09
0:20:                  34	30.09
0:21:                   4	30.09
0:21:                  34	30.08
0:22:                   4	30.08
0:22:                  34	30.07
0:23:                   4	30.08
0:23:                  34	30.07
0:24:                   4	30.06
0:24:                  34	30.05
0:25:                   4	30.06
0:25:                  34	30.06
0:26:                   4	30.04
0:26:                  35	30.04
0:27:                   5	30.03
0:27:                  35	30.04
0:28:                   5	30.03
0:28:                  35	30.03
0:29:                   5	30.03
0:29:                  35	30.02
0:30:                   5	30.01
0:30:                  35	30.01
0:31:                   5	30.01
0:31:                  35	30.01
0:32:                   5	30.01
0:32:                  35	30.00
0:33:                   5	30.01
0:33:                  35	30.01
0:34:                   5	30.01
0:34:                  35	30.00
0:35:                   5	30.00
0:35:                  35	30.01
0:36:                   5	30.00
0:36:                  35	30.00
0:37:                   5	29.99
0:37:                  35	29.99
0:38:                   5	30.00
0:38:                  35	30.00
0:39:                   5	30.00
0:39:                  35	29.99
0:40:                   5	30.00
0:40:                  35	30.00
0:41:                   5	29.98
0:41:                  35	29.99
0:42:                   5	29.98
0:42:                  35	29.98
0:43:                   5	29.98
0:43:                  35	29.98
0:44:                   5	29.98
0:44:                  35	29.98
0:45:                   5	29.98
0:45:                  35	29.97
0:46:                   5	29.98
0:46:                  35	29.97
0:47:                   6	29.97
0:47:                  36	29.97
0:48:                   6	29.97
0:48:                  36	29.96
0:49:                   6	29.97
0:49:                  36	29.96
0:50:                   6	29.95
0:50:                  36	29.96
0:51:                   6	29.96
0:51:                  36	29.97
0:52:                   6	29.96
0:52:                  36	29.97
0:53:                   6	29.96
0:53:                  36	29.96
0:54:                   6	29.97
0:54:                  36	29.97
0:55:                   6	29.96
0:55:                  36	29.96
0:56:                   6	29.96
0:56:                  36	29.97
0:57:                   6	29.96
0:57:                  36	29.96
0:58:                   6	29.95
0:58:                  36	29.96
0:59:                   6	29.95
0:59:                  36	29.96
1:00:                   6	29.95
1:00:                  36	29.95
1:01:                   6	29.95
1:01:                  36	29.95
1:02:                   6	29.95
1:02:                  36	29.94
1:03:                   6	29.94
1:03:                  36	29.94
1:04:                   6	29.94
1:04:                  36	29.94
1:05:                   6	29.94
1:05:                  36	29.93
1:06:                   6	29.94
1:06:                  36	29.94
1:07:                   6	29.94
1:07:                  36	29.94
1:08:                   6	29.94
1:08:                  36	29.95
1:09:                   6	29.94
1:09:                  36	29.94
1:10:                   6	29.94
1:10:                  36	29.94
1:11:                   6	29.94
1:11:                  36	29.94
1:12:                   6	29.94
1:12:                  36	29.94
1:13:                   6	29.94
1:13:                  36	29.94
1:14:                   6	29.94
1:14:                  36	29.92
1:15:                   6	29.93
1:15:                  36	29.91
1:16:                   6	29.91
1:16:                  36	29.91
1:17:                   6	29.91
1:17:                  36	29.91
1:18:                   6	29.92
1:18:                  36	29.91
1:19:                   6	29.91
1:19:                  36	29.90
1:20:                   6	29.91
1:20:                  36	29.90
1:21:                   6	29.90
1:21:                  36	29.91
1:22:                   6	29.90
1:22:                  37	29.89
1:23:                   7	29.90
1:23:                  37	29.90
1:24:                   7	29.90
1:24:                  37	29.91
1:25:                   7	29.90
1:25:                  37	29.89
1:26:                   7	29.88
1:26:                  37	29.89
1:27:                   7	29.89
1:27:                  37	29.88
1:28:                   7	29.89
1:28:                  37	29.88
1:29:                   7	29.89
1:29:                  37	29.89
1:30:                   7	29.87
1:30:                  37	29.88
1:31:                   7	29.89
1:31:                  37	29.87
1:32:                   7	29.88
1:32:                  37	29.87
1:33:                   7	29.86
1:33:                  37	29.87
1:34:                   7	29.87
1:34:                  37	29.87
1:35:                   7	29.87
1:35:                  37	29.87
1:36:                   7	29.87
1:36:                  37	29.87
1:37:                   7	29.87
1:37:                  37	29.87
1:38:                   7	29.87
1:38:                  37	29.86
1:39:                   7	29.87
1:39:                  37	29.88
1:40:                   7	29.87
1:40:                  37	29.87
1:41:                   7	29.86
1:41:                  37	29.87
1:42:                   7	29.87
1:42:                  37	29.87
1:43:                   7	29.86
1:43:                  37	29.87
1:44:                   7	29.87
1:44:                  37	29.87
1:45:                   7	29.86
1:45:                  37	29.87
1:46:                   7	29.86
1:46:                  37	29.87
1:47:                   7	29.87
1:47:                  37	29.85
1:48:                   7	29.86
1:48:                  37	29.86
1:49:                   7	29.86
1:49:                  37	29.86
1:50:                   7	29.85
1:50:                  37	29.85
1:51:                   7	29.84
1:51:                  37	29.85
1:52:                   7	29.84
1:52:                  37	29.85
1:53:                   7	29.85
1:53:                  37	29.84
1:54:                   7	29.84
1:54:                  37	29.84
1:55:                   7	29.83
1:55:                  38	29.83
1:56:                   8	29.83
1:56:                  38	29.82
1:57:                   8	29.83
1:57:                  38	29.83
1:58:                   8	29.83
1:58:                  38	29.83
1:59:                   8	29.84
1:59:                  38	29.83
2:00:                   8	29.82
2:00:                  38	29.82
2:01:                   8	29.83
2:01:                  38	29.82
2:02:                   8	29.82
2:02:                  38	29.82
2:03:                   8	29.82
2:03:                  38	29.83
2:04:                   8	29.81
2:04:                  38	29.82
2:05:                   8	29.81
2:05:                  38	29.81
2:06:                   8	29.81
2:06:                  38	29.81
2:07:                   8	29.80
2:07:                  38	29.81
2:08:                   8	29.79
2:08:                  38	29.80
2:09:                   8	29.79
2:09:                  38	29.77
2:10:                   8	29.78
2:10:                  38	29.78
2:11:                   8	29.77
2:11:                  38	29.79
2:12:                   8	29.80
2:12:                  38	29.79
2:13:                   8	29.78
2:13:                  38	29.78
2:14:                   8	29.79
2:14:                  38	29.79
2:15:                   8	29.79
2:15:                  38	29.79
2:16:                   8	29.78
2:16:                  38	29.78
2:17:                   8	29.79
2:17:                  38	29.78
2:18:                   8	29.78
2:18:                  38	29.77
2:19:                   8	29.77
2:19:                  38	29.77
2:20:                   8	29.79
2:20:                  38	29.76
2:21:                   8	29.77
2:21:                  38	29.76
2:22:                   8	29.78
2:22:                  38	29.76
2:23:                   8	29.76
2:23:                  38	29.76
2:24:                   8	29.77
2:24:                  38	29.77
2:25:                   8	29.77
2:25:                  38	29.75
2:26:                   8	29.75
2:26:                  38	29.75
2:27:                   8	29.75
2:27:                  38	29.75
2:28:                   8	29.76
2:28:                  38	29.76
2:29:                   8	29.76
2:29:                  38	29.77
2:30:                   8	29.76
2:30:                  38	29.76
2:31:                   8	29.76
2:31:                  38	29.77
2:32:                   8	29.76
2:32:                  38	29.76
2:33:                   8	29.76
2:33:                  38	29.75
2:34:                   8	29.76
2:34:                  38	29.75
2:35:                   8	29.75
2:35:                  38	29.76
2:36:                   8	29.75
2:36:                  38	29.74
2:37:                   9	29.74
2:37:                  39	29.74
2:38:                   9	29.73
2:38:                  39	29.74
2:39:                   9	29.74
2:39:                  39	29.74
2:40:                   9	29.74
2:40:                  39	29.73
2:41:                   9	29.73
2:41:                  39	29.73
2:42:                   9	29.74
2:42:                  39	29.74
2:43:                   9	29.74
2:43:                  39	29.74
2:44:                   9	29.73
2:44:                  39	29.73
2:45:                   9	29.73
2:45:                  39	29.75
2:46:                   9	29.73
2:46:                  39	29.75
2:47:                   9	29.74
2:47:                  39	29.74
2:48:                   9	29.73
2:48:                  39	29.73
2:49:                   9	29.72
2:49:                  39	29.72
2:50:                   9	29.73
2:50:                  39	29.72
2:51:                   9	29.72
2:51:                  39	29.72
2:52:                   9	29.73
2:52:                  39	29.73
2:53:                   9	29.73
2:53:                  39	29.74
2:54:                   9	29.74
2:54:                  39	29.74
2:55:                   9	29.74
2:55:                  39	29.74
2:56:                   9	29.74
2:56:                  39	29.74
2:57:                   9	29.73
2:57:                  39	29.73
2:58:                   9	29.73
2:58:                  39	29.73
2:59:                   9	29.74
2:59:                  39	29.72
3:00:                   9	29.72
3:00:                  39	29.73
3:01:                   9	29.73
3:01:                  39	29.73
3:02:                   9	29.73
3:02:                  39	29.73
3:03:                   9	29.72
3:03:                  39	29.72
3:04:                   9	29.72
3:04:                  39	29.71
3:05:                   9	29.72
3:05:                  39	29.71
3:06:                   9	29.71
3:06:                  39	29.71
3:07:                   9	29.70
3:07:                  39	29.71
3:08:                  10	29.69
3:08:                  40	29.69
3:09:                  10	29.69
3:09:                  40	29.69
3:10:                  10	29.70
3:10:                  40	29.70
3:11:                  10	29.70
3:11:                  40	29.70
3:12:                  10	29.70
3:12:                  40	29.70
3:13:                  10	29.70
3:13:                  40	29.71
3:14:                  10	29.70
3:14:                  40	29.70
3:15:                  10	29.70
3:15:                  40	29.70
3:16:                  10	29.70
3:16:                  40	29.71
3:17:                  10	29.71
3:17:                  40	29.69
3:18:                  10	29.69
3:18:                  40	29.70
3:19:                  10	29.71
3:19:                  40	29.71
3:20:                  10	29.71
3:20:                  40	29.72
3:21:                  10	29.70
3:21:                  40	29.71
3:22:                  10	29.70
3:22:                  40	29.71
3:23:                  10	29.71
3:23:                  40	29.71
3:24:                  10	29.71
3:24:                  40	29.72
3:25:                  10	29.71
3:25:                  40	29.71
3:26:                  10	29.71
3:26:                  40	29.70
3:27:                  10	29.70
3:27:                  40	29.69
3:28:                  10	29.69
3:28:                  40	29.69
3:29:                  10	29.69
3:29:                  40	29.68
3:30:                  10	29.69
3:30:                  40	29.68
3:31:                  10	29.69
3:31:                  40	29.67
3:32:                  10	29.69
3:32:                  40	29.69
3:33:                  10	29.68
3:33:                  40	29.69
3:34:                  10	29.69
3:34:                  40	29.69
3:35:                  10	29.68
3:35:                  40	29.69
3:36:                  10	29.69
3:36:                  40	29.68
3:37:                  10	29.68
3:37:                  40	29.68
3:38:                  10	29.68
3:38:                  40	29.67
3:39:                  10	29.68
3:39:                  40	29.69
3:40:                  10	29.68
3:40:                  40	29.69
3:41:                  10	29.68
3:41:                  40	29.68
3:42:                  10	29.67
3:42:                  40	29.67
3:43:                  10	29.69
3:43:                  40	29.68
3:44:                  10	29.69
3:44:                  40	29.68
3:45:                  10	29.67
3:45:                  40	29.67
3:46:                  10	29.68
3:46:                  40	29.67
3:47:                  10	29.67
3:47:                  40	29.66
3:48:                  10	29.66
3:48:                  40	29.66
3:49:                  10	29.66
3:49:                  40	29.65
3:50:                  10	29.66
3:50:                  40	29.66
3:51:                  10	29.66
3:51:                  41	29.66
3:52:                  11	29.66
3:52:                  41	29.66
3:53:                  11	29.67
3:53:                  41	29.66
3:54:                  11	29.66
3:54:                  41	29.67
3:55:                  11	29.66
3:55:                  41	29.67
3:56:                  11	29.69
3:56:                  41	29.67
3:57:                  11	29.68
3:57:                  41	29.67
3:58:                  11	29.68
3:58:                  41	29.67
3:59:                  11	29.69
3:59:                  41	29.69
4:00:                  11	29.69
4:00:                  41	29.69
4:01:                  11	29.67
4:01:                  41	29.68
4:02:                  11	29.69
4:02:                  41	29.68
4:03:                  11	29.68
4:03:                  41	29.68
4:04:                  11	29.67
4:04:                  41	29.69
4:05:                  11	29.68
4:05:                  41	29.68
4:06:                  11	29.68
4:06:                  41	29.69
4:07:                  11	29.69
4:07:                  41	29.68
4:08:                  11	29.69
4:08:                  41	29.69
4:09:                  11	29.69
4:09:                  41	29.70
4:10:                  11	29.69
4:10:                  41	29.71
4:11:                  11	29.70
4:11:                  41	29.70
4:12:                  11	29.69
4:12:                  41	29.69
4:13:                  11	29.70
4:13:                  41	29.70
4:14:                  11	29.70
4:14:                  41	29.70
4:15:                  11	29.70
4:15:                  41	29.70
4:16:                  11	29.69
4:16:                  41	29.68
4:17:                  11	29.69
4:17:                  41	29.69
4:18:                  11	29.69
4:18:                  41	29.70
4:19:                  11	29.70
4:19:                  41	29.70
4:20:                  11	29.70
4:20:                  41	29.70
4:21:                  11	29.70
4:21:                  41	29.70
4:22:                  11	29.70
4:22:                  41	29.71
4:23:                  11	29.69
4:23:                  41	29.69
4:24:                  11	29.70
4:24:                  41	29.69
4:25:                  11	29.70
4:25:                  41	29.69
4:26:                  11	29.69
4:26:                  41	29.70
4:27:                  11	29.69
4:27:                  41	29.70
4:28:                  11	29.69
4:28:                  41	29.69
4:29:                  11	29.70
4:29:                  41	29.68
4:30:                  11	29.67
4:30:                  41	29.69
4:31:                  11	29.69
4:31:                  41	29.69
4:32:                  11	29.68
4:32:                  41	29.68
4:33:                  11	29.69
4:33:                  41	29.68
4:34:                  12	29.69
4:34:                  42	29.68
4:35:                  12	29.69
4:35:                  42	29.68
4:36:                  12	29.68
4:36:                  42	29.68
4:37:                  12	29.68
4:37:                  42	29.68
4:38:                  12	29.69
4:38:                  42	29.67
4:39:                  12	29.67
4:39:                  42	29.70
4:40:                  12	29.69
4:40:                  42	29.69
4:41:                  12	29.70
4:41:                  42	29.69
4:42:                  12	29.69
4:42:                  42	29.69
4:43:                  12	29.69
4:43:                  42	29.68
4:44:                  12	29.68
4:44:                  42	29.69
4:45:                  12	29.68
4:45:                  42	29.67
4:46:                  12	29.69
4:46:                  42	29.67
4:47:                  12	29.67
4:47:                  42	29.67
4:48:                  12	29.67
4:48:                  42	29.66
4:49:                  12	29.67
4:49:                  42	29.66
4:50:                  12	29.67
4:50:                  42	29.67
4:51:                  12	29.66
4:51:                  42	29.65
4:52:                  12	29.66
4:52:                  42	29.66
4:53:                  12	29.67
4:53:                  42	29.66
4:54:                  12	29.67
4:54:                  42	29.67
4:55:                  12	29.67
4:55:                  42	29.67
4:56:                  12	29.66
4:56:                  42	29.67
4:57:                  12	29.67
4:57:                  42	29.67
4:58:                  12	29.66
4:58:                  42	29.67
4:59:                  12	29.67
4:59:                  42	29.66
5:00:                  12	29.66
5:00:                  42	29.66
5:01:                  12	29.66
5:01:                  42	29.65
5:02:                  12	29.65
5:02:                  42	29.65
5:03:                  12	29.65
5:03:                  42	29.65
5:04:                  12	29.64
5:04:                  42	29.65
5:05:                  12	29.65
5:05:                  42	29.64
5:06:                  12	29.65
5:06:                  42	29.64
5:07:                  12	29.65
5:07:                  42	29.64
5:08:                  12	29.64
5:08:                  42	29.64
5:09:                  12	29.66
5:09:                  42	29.65
5:10:                  12	29.65
5:10:                  42	29.65
5:11:                  12	29.65
5:11:                  42	29.65
5:12:                  12	29.65
5:12:                  42	29.65
5:13:                  12	29.65
5:13:                  42	29.66
5:14:                  12	29.65
5:14:                  42	29.64
5:15:                  12	29.65
5:15:                  42	29.65
5:16:                  12	29.65
5:16:                  42	29.65
5:17:                  12	29.64
5:17:                  42	29.64
5:18:                  12	29.64
5:18:                  42	29.64
5:19:                  12	29.64
5:19:                  42	29.65
5:20:                  12	29.65
5:20:                  42	29.65
5:21:                  12	29.65
5:21:                  42	29.64
5:22:                  12	29.64
5:22:                  42	29.65
5:23:                  13	29.65
5:23:                  43	29.64
5:24:                  13	29.64
5:24:                  43	29.63
5:25:                  13	29.64
5:25:                  43	29.63
5:26:                  13	29.63
5:26:                  43	29.63
5:27:                  13	29.64
5:27:                  43	29.64
5:28:                  13	29.63
5:28:                  43	29.63
5:29:                  13	29.63
5:29:                  43	29.63
5:30:                  13	29.62
5:30:                  43	29.63
5:31:                  13	29.63
5:31:                  43	29.63
5:32:                  13	29.63
5:32:                  43	29.63
5:33:                  13	29.63
5:33:                  43	29.64
5:34:                  13	29.64
5:34:                  43	29.63
5:35:                  13	29.63
5:35:                  43	29.64
5:36:                  13	29.63
5:36:                  43	29.63
5:37:                  13	29.63
5:37:                  43	29.64
5:38:                  13	29.63
5:38:                  43	29.63
5:39:                  13	29.63
5:39:                  43	29.63
5:40:                  13	29.63
5:40:                  43	29.63
5:41:                  13	29.63
5:41:                  43	29.63
5:42:                  13	29.63
5:42:                  43	29.63
5:43:                  13	29.63
5:43:                  43	29.63
5:44:                  13	29.62
5:44:                  43	29.63
5:45:                  13	29.63
5:45:                  43	29.63
5:46:                  13	29.63
5:46:                  43	29.62
5:47:                  13	29.63
5:47:                  43	29.62
5:48:                  13	29.62
5:48:                  43	29.62
5:49:                  13	29.63
5:49:                  43	29.61
5:50:                  13	29.61
5:50:                  43	29.63
5:51:                  13	29.62
5:51:                  43	29.61
5:52:                  13	29.60
5:52:                  43	29.62
5:53:                  13	29.61
5:53:                  43	29.61
5:54:                  13	29.60
5:54:                  43	29.60
5:55:                  13	29.60
5:55:                  43	29.60
5:56:                  13	29.60
5:56:                  43	29.60
5:57:                  13	29.60
5:57:                  43	29.60
5:58:                  13	29.60
5:58:                  43	29.59
5:59:                  13	29.60
5:59:                  43	29.60
6:00:                  13	29.59
6:00:                  43	29.60
6:01:                  13	29.60
6:01:                  43	29.60
6:02:                  13	29.60
6:02:                  43	29.60
6:03:                  13	29.61
6:03:                  43	29.60
6:04:                  13	29.60
6:04:                  43	29.59
6:05:                  13	29.60
6:05:                  43	29.60
6:06:                  13	29.60
6:06:                  43	29.60
6:07:                  13	29.60
6:07:                  44	29.60
6:08:                  14	29.60
6:08:                  44	29.60
6:09:                  14	29.60
6:09:                  44	29.61
6:10:                  14	29.60
6:10:                  44	29.61
6:11:                  14	29.60
6:11:                  44	29.61
6:12:                  14	29.61
6:12:                  44	29.61
6:13:                  14	29.62
6:13:                  44	29.62
6:14:                  14	29.60
6:14:                  44	29.61
6:15:                  14	29.61
6:15:                  44	29.60
6:16:                  14	29.62
6:16:                  44	29.62
6:17:                  14	29.61
6:17:                  44	29.61
6:18:                  14	29.63
6:18:                  44	29.61
6:19:                  14	29.62
6:19:                  44	29.62
6:20:                  14	29.62
6:20:                  44	29.63
6:21:                  14	29.63
6:21:                  44	29.63
6:22:                  14	29.63
6:22:                  44	29.64
6:23:                  14	29.63
6:23:                  44	29.63
6:24:                  14	29.62
6:24:                  44	29.62
6:25:                  14	29.61
6:25:                  44	29.63
6:26:                  14	29.63
6:26:                  45	29.64
6:27:                  15	29.64
6:27:                  45	29.64
6:28:                  15	29.64
6:28:                  45	29.65
6:29:                  15	29.64
6:29:                  45	29.64
6:30:                  15	29.65
6:30:                  45	29.64
6:31:                  15	29.65
6:31:                  45	29.65
6:32:                  15	29.64
6:32:                  45	29.65
6:33:                  15	29.64
6:33:                  45	29.64
6:34:                  15	29.64
6:34:                  45	29.64
6:35:                  15	29.64
6:35:                  45	29.64
6:36:                  15	29.63
6:36:                  45	29.63
6:37:                  15	29.63
6:37:                  45	29.63
6:38:                  15	29.63
6:38:                  45	29.63
6:39:                  15	29.62
6:39:                  45	29.62
6:40:                  15	29.63
6:40:                  45	29.63
6:41:                  15	29.63
6:41:                  45	29.62
6:42:                  15	29.63
6:42:                  45	29.63
6:43:                  15	29.63
6:43:                  45	29.61
6:44:                  15	29.60
6:44:                  45	29.60
6:45:                  15	29.60
6:45:                  45	29.59
6:46:                  15	29.60
6:46:                  45	29.60
6:47:                  15	29.60
6:47:                  45	29.60
6:48:                  15	29.59
6:48:                  45	29.59
6:49:                  15	29.58
6:49:                  45	29.59
6:50:                  15	29.59
6:50:                  45	29.59
6:51:                  15	29.60
6:51:                  45	29.59
6:52:                  16	29.60
6:52:                  46	29.60
6:53:                  16	29.59
6:53:                  46	29.59
6:54:                  16	29.59
6:54:                  46	29.59
6:55:                  16	29.59
6:55:                  46	29.58
6:56:                  16	29.59
6:56:                  46	29.58
6:57:                  16	29.60
6:57:                  46	29.58
6:58:                  16	29.58
6:58:                  46	29.58
6:59:                  16	29.57
6:59:                  46	29.58
7:00:                  16	29.57
7:00:                  46	29.58
7:01:                  16	29.58
7:01:                  46	29.58
7:02:                  16	29.58
7:02:                  46	29.59
7:03:                  16	29.59
7:03:                  46	29.60
7:04:                  16	29.60
7:04:                  46	29.60
7:05:                  16	29.60
7:05:                  46	29.60
7:06:                  16	29.60
7:06:                  46	29.61
7:07:                  16	29.61
7:07:                  46	29.60
7:08:                  16	29.60
7:08:                  46	29.61
7:09:                  16	29.62
7:09:                  46	29.61
7:10:                  16	29.62
7:10:                  46	29.62
7:11:                  16	29.61
7:11:                  46	29.62
7:12:                  16	29.60
7:12:                  46	29.63
7:13:                  16	29.61
7:13:                  46	29.62
7:14:                  17	29.61
7:14:                  47	29.61
7:15:                  17	29.61
7:15:                  47	29.62
7:16:                  17	29.62
7:16:                  47	29.63
7:17:                  17	29.62
7:17:                  47	29.63
7:18:                  17	29.63
7:18:                  47	29.63
7:19:                  17	29.63
7:19:                  47	29.63
7:20:                  17	29.62
7:20:                  47	29.61
7:21:                  17	29.61
7:21:                  47	29.62
7:22:                  17	29.62
7:22:                  47	29.61
7:23:                  17	29.59
7:23:                  47	29.60
7:24:                  17	29.60
7:24:                  47	29.61
7:25:                  17	29.60
7:25:                  47	29.59
7:26:                  17	29.60
7:26:                  47	29.60
7:27:                  17	29.59
7:27:                  47	29.59
7:28:                  17	29.60
7:28:                  47	29.59
7:29:                  17	29.59
7:29:                  47	29.59
7:30:                  17	29.59
7:30:                  47	29.59
7:31:                  17	29.60
7:31:                  47	29.57
7:32:                  17	29.54
7:32:                  47	29.53
7:33:                  17	29.49
7:33:                  47	29.51
7:34:                  17	29.53
7:34:                  47	29.46
7:35:                  17	29.45
7:35:                  47	29.45
7:36:                  17	29.44
7:36:                  47	29.45
7:37:                  17	29.45
7:37:                  47	29.43
7:38:                  17	29.45
7:38:                  47	29.46
7:39:                  17	29.48
7:39:                  47	29.49
7:40:                  17	29.49
7:40:                  47	29.51
7:41:                  17	29.51
7:41:                  47	29.52
7:42:                  17	29.53
7:42:                  47	29.54
7:43:                  17	29.55
7:43:                  47	29.56
7:44:                  17	29.56
7:44:                  47	29.58
7:45:                  17	29.58
7:45:                  47	29.59
7:46:                  17	29.59
7:46:                  47	29.60
7:47:                  17	29.60
7:47:                  47	29.61
7:48:                  17	29.62
7:48:                  47	29.63
7:49:                  17	29.64
7:49:                  47	29.64
7:50:                  17	29.64
7:50:                  48	29.65
7:51:                  18	29.66
7:51:                  48	29.65
7:52:                  18	29.66
7:52:                  48	29.65
7:53:                  18	29.67
7:53:                  48	29.66
7:54:                  18	29.66
7:54:                  48	29.66
7:55:                  18	29.66
7:55:                  48	29.67
7:56:                  18	29.67
7:56:                  48	29.67
7:57:                  18	29.67
7:57:                  48	29.66
7:58:                  18	29.66
7:58:                  48	29.67
7:59:                  18	29.66
7:59:                  48	29.67
8:00:                  18	29.68
8:00:                  48	29.68
8:01:                  18	29.68
8:01:                  48	29.68
8:02:                  18	29.69
8:02:                  48	29.70
8:03:                  18	29.70
8:03:                  48	29.70
8:04:                  18	29.70
8:04:                  48	29.70
8:05:                  18	29.71
8:05:                  48	29.70
8:06:                  18	29.71
8:06:                  48	29.71
8:07:                  18	29.70
8:07:                  48	29.71
8:08:                  18	29.71
8:08:                  48	29.71
8:09:                  18	29.72
8:09:                  48	29.72
8:10:                  18	29.73
8:10:                  48	29.72
8:11:                  18	29.72
8:11:                  48	29.72
8:12:                  18	29.72
8:12:                  48	29.72
8:13:                  18	29.73
8:13:                  48	29.73
8:14:                  18	29.72
8:14:                  48	29.73
8:15:                  18	29.73
8:15:                  48	29.73
8:16:                  18	29.73
8:16:                  48	29.72
8:17:                  18	29.72
8:17:                  48	29.72
8:18:                  18	29.73
8:18:                  48	29.72
8:19:                  18	29.72
8:19:                  48	29.72
8:20:                  18	29.72
8:20:                  48	29.72
8:21:                  18	29.72
8:21:                  48	29.72
8:22:                  18	29.72
8:22:                  48	29.72
8:23:                  18	29.73
8:23:                  48	29.72
8:24:                  18	29.72
8:24:                  48	29.73
8:25:                  18	29.73
8:25:                  48	29.73
8:26:                  18	29.74
8:26:                  48	29.72
8:27:                  18	29.72
8:27:                  48	29.73
8:28:                  18	29.72
8:28:                  48	29.72
8:29:                  18	29.73
8:29:                  49	29.73
8:30:                  19	29.72
8:30:                  49	29.72
8:31:                  19	29.72
8:31:                  49	29.72
8:32:                  19	29.71
8:32:                  49	29.72
8:33:                  19	29.71
8:33:                  49	29.72
8:34:                  19	29.71
8:34:                  49	29.72
8:35:                  19	29.71
8:35:                  49	29.72
8:36:                  19	29.72
8:36:                  49	29.72
8:37:                  19	29.72
8:37:                  49	29.71
8:38:                  19	29.71
8:38:                  49	29.72
8:39:                  19	29.72
8:39:                  49	29.72
8:40:                  19	29.72
8:40:                  49	29.72
8:41:                  19	29.72
8:41:                  49	29.72
8:42:                  19	29.72
8:42:                  49	29.72
8:43:                  19	29.73
8:43:                  49	29.72
8:44:                  19	29.72
8:44:                  49	29.72
8:45:                  19	29.72
8:45:                  49	29.72
8:46:                  19	29.72
8:46:                  49	29.72
8:47:                  19	29.73
8:47:                  49	29.74
8:48:                  19	29.73
8:48:                  49	29.73
8:49:                  19	29.74
8:49:                  49	29.73
8:50:                  19	29.73
8:50:                  49	29.73
8:51:                  20	29.72
8:51:                  50	29.73
8:52:                  20	29.74
8:52:                  50	29.73
8:53:                  20	29.73
8:53:                  50	29.73
8:54:                  20	29.74
8:54:                  50	29.74
8:55:                  20	29.73
8:55:                  50	29.74
8:56:                  20	29.74
8:56:                  50	29.74
8:57:                  20	29.74
8:57:                  50	29.73
8:58:                  20	29.73
8:58:                  50	29.75
8:59:                  20	29.76
8:59:                  50	29.74
9:00:                  20	29.75
9:00:                  50	29.73
9:01:                  20	29.75
9:01:                  50	29.75
9:02:                  20	29.76
9:02:                  50	29.76
9:03:                  20	29.76
9:03:                  50	29.76
9:04:                  20	29.75
9:04:                  50	29.75
9:05:                  20	29.75
9:05:                  50	29.76
9:06:                  20	29.76
9:06:                  50	29.76
9:07:                  20	29.75
9:07:                  50	29.75
9:08:                  20	29.76
9:08:                  50	29.77
9:09:                  20	29.76
9:09:                  51	29.77
9:10:                  21	29.76
9:10:                  51	29.76
9:11:                  21	29.78
9:11:                  51	29.76
9:12:                  21	29.77
9:12:                  51	29.77
9:13:                  21	29.78
9:13:                  51	29.78
9:14:                  21	29.78
9:14:                  51	29.79
9:15:                  21	29.78
9:15:                  51	29.78
9:16:                  21	29.79
9:16:                  51	29.78
9:17:                  21	29.78
9:17:                  51	29.80
9:18:                  21	29.78
9:18:                  51	29.80
9:19:                  21	29.79
9:19:                  51	29.79
9:20:                  21	29.81
9:20:                  51	29.80
9:21:                  21	29.80
9:21:                  51	29.80
9:22:                  21	29.81
9:22:                  51	29.80
9:23:                  21	29.82
9:23:                  51	29.81
9:24:                  21	29.82
9:24:                  51	29.82
9:25:                  21	29.82
9:25:                  51	29.83
9:26:                  21	29.82
9:26:                  52	29.83
9:27:                  22	29.83
9:27:                  52	29.84
9:28:                  22	29.85
9:28:                  52	29.83
9:29:                  22	29.84
9:29:                  52	29.85
9:30:                  22	29.85
9:30:                  52	29.85
9:31:                  22	29.87
9:31:                  52	29.87
9:32:                  22	29.87
9:32:                  52	29.88
9:33:                  22	29.88
9:33:                  52	29.89
9:34:                  22	29.88
9:34:                  52	29.89
9:35:                  22	29.90
9:35:                  52	29.91
9:36:                  22	29.91
9:36:                  52	29.92
9:37:                  22	29.93
9:37:                  52	29.94
9:38:                  22	29.93
9:38:                  52	29.94
9:39:                  22	29.95
9:39:                  52	29.96
9:40:                  22	29.96
9:40:                  52	29.96
9:41:                  22	29.96
9:41:                  52	29.97
9:42:                  23	29.97
9:42:                  53	29.98
9:43:                  23	29.98
9:43:                  53	29.98
9:44:                  23	29.99
9:44:                  53	29.99
9:45:                  23	29.99
9:45:                  53	30.00
9:46:                  23	30.00
9:46:                  53	29.99
9:47:                  23	29.99
9:47:                  53	30.01
9:48:                  23	30.01
9:48:                  53	30.02
9:49:                  23	30.03
9:49:                  53	30.03
9:50:                  23	30.03
9:50:                  53	30.04
9:51:                  23	30.04
9:51:                  53	30.04
9:52:                  23	30.05
9:52:                  53	30.04
9:53:                  23	30.05
9:53:                  53	30.06
9:54:                  23	30.06
9:54:                  53	30.05
9:55:                  23	30.06
9:55:                  53	30.06
9:56:                  23	30.07
9:56:                  53	30.06
9:57:                  23	30.07
9:57:                  53	30.08
9:58:                  24	30.07
9:58:                  54	30.08
9:59:                  24	30.08
9:59:                  54	30.08
10:00:                  24	30.08
10:00:                  54	30.09
10:01:                  24	30.09
10:01:                  54	30.09
10:02:                  24	30.09
10:02:                  54	30.10
10:03:                  24	30.11
10:03:                  54	30.11
10:04:                  24	30.13
10:04:                  54	30.13
10:05:                  24	30.13
10:05:                  54	30.14
10:06:                  24	30.13
10:06:                  54	30.13
10:07:                  24	30.13
10:07:                  54	30.13
10:08:                  24	30.14
10:08:                  54	30.14
10:09:                  24	30.14
10:09:                  54	30.14
10:10:                  24	30.14
10:10:                  54	30.15
10:11:                  24	30.15
10:11:                  54	30.15
10:12:                  24	30.15
10:12:                  54	30.15
10:13:                  24	30.15
10:13:                  54	30.15
10:14:                  24	30.16
10:14:                  55	30.16
10:15:                  25	30.16
10:15:                  55	30.16
10:16:                  25	30.16
10:16:                  55	30.16
10:17:                  25	30.17
10:17:                  55	30.16
10:18:                  25	30.16
10:18:                  55	30.17
10:19:                  25	30.19
10:19:                  55	30.19
10:20:                  25	30.20
10:20:                  55	30.22
10:21:                  25	30.24
10:21:                  55	30.24
10:22:                  25	30.26
10:22:                  55	30.27
10:23:                  25	30.28
10:23:                  55	30.30
10:24:                  25	30.30
10:24:                  55	30.32
10:25:                  25	30.33
10:25:                  55	30.34
10:26:                  25	30.35
10:26:                  55	30.37
10:27:                  25	30.39
10:27:                  55	30.40
10:28:                  25	30.40
10:28:                  55	30.42
10:29:                  25	30.44
10:29:                  55	30.44
10:30:                  25	30.45
10:30:                  55	30.47
10:31:                  25	30.48
10:31:                  55	30.46
10:32:                  25	30.45
10:32:                  55	30.45
10:33:                  25	30.47
10:33:                  55	30.45
10:34:                  25	30.48
10:34:                  55	30.49
10:35:                  25	30.50
10:35:                  56	30.50
10:36:                  26	30.50
10:36:                  56	30.51
10:37:                  26	30.52
10:37:                  56	30.54
10:38:                  26	30.57
10:38:                  56	30.58
10:39:                  26	30.59
10:39:                  56	30.60
10:40:                  26	30.61
10:40:                  56	30.63
10:41:                  26	30.64
10:41:                  56	30.65
10:42:                  26	30.65
10:42:                  56	30.67
10:43:                  26	30.66
10:43:                  56	30.66
10:44:                  26	30.68
10:44:                  56	30.68
10:45:                  26	30.70
10:45:                  56	30.69
10:46:                  26	30.71
10:46:                  56	30.72
10:47:                  26	30.73
10:47:                  56	30.74
10:48:                  26	30.74
10:48:                  56	30.76
10:49:                  26	30.78
10:49:                  56	30.80
10:50:                  26	30.82
10:50:                  56	30.83
10:51:                  26	30.85
10:51:                  56	30.87
10:52:                  27	30.91
10:52:                  57	30.92
10:53:                  27	30.93
10:53:                  57	30.96
10:54:                  27	30.99
10:54:                  57	31.01
10:55:                  27	31.04
10:55:                  57	31.06
10:56:                  27	31.09
10:56:                  57	31.13
10:57:                  27	31.14
10:57:                  57	31.20
10:58:                  27	31.21
10:58:                  57	31.25
10:59:                  27	31.30
10:59:                  57	31.34
11:00:                  27	31.36
11:00:                  57	31.40
11:01:                  27	31.42
11:01:                  57	31.44
11:02:                  27	31.46
11:02:                  57	31.49
11:03:                  27	31.54
11:03:                  57	31.56
11:04:                  27	31.57
11:04:                  57	31.60
11:05:                  27	31.61
11:05:                  57	31.64
11:06:                  27	31.63
11:06:                  57	31.66
11:07:                  27	31.67
11:07:                  57	31.71
11:08:                  28	31.73
11:08:                  58	31.74
11:09:                  28	31.75
11:09:                  58	31.79
11:10:                  28	31.79
11:10:                  58	31.83
11:11:                  28	31.83
11:11:                  58	31.90
11:12:                  28	31.96
11:12:                  58	31.98
11:13:                  28	32.01
11:13:                  58	32.05
11:14:                  28	32.08
11:14:                  58	32.14
11:15:                  28	32.15
11:15:                  58	32.19
11:16:                  28	32.21
11:16:                  58	32.23
11:17:                  28	32.27
11:17:                  58	32.31
11:18:                  28	32.34
11:18:                  58	32.35
11:19:                  28	32.38
11:19:                  58	32.40
11:20:                  28	32.42
11:20:                  58	32.47
11:21:                  28	32.50
11:21:                  58	32.54
11:22:                  28	32.56
11:22:                  58	32.57
11:23:                  28	32.63
11:23:                  58	32.70
11:24:                  28	32.69
11:24:                  58	32.66
11:25:                  28	32.66
11:25:                  58	32.61
11:26:                  28	32.59
11:26:                  58	32.57
11:27:                  28	32.60
11:27:                  58	32.57
11:28:                  28	32.58
11:28:                  58	32.57
11:29:                  28	32.55
11:29:                  58	32.56
11:30:                  28	32.53
11:30:                  58	32.50
11:31:                  28	32.51
11:31:                  58	32.46
11:32:                  28	32.42
11:32:                  58	32.39
11:33:                  28	32.34
11:33:                  58	32.38
11:34:                  28	32.37
11:34:                  58	32.39
11:35:                  28	32.38
11:35:                  58	32.47
11:36:                  28	32.46
11:36:                  58	32.49
11:37:                  28	32.44
11:37:                  58	32.45
11:38:                  28	32.54
11:38:                  58	32.55
11:39:                  28	32.57
11:39:                  58	32.57
11:40:                  28	32.56
11:40:                  58	32.57
11:41:                  28	32.56
11:41:                  58	32.58
11:42:                  28	32.57
11:42:                  58	32.59
11:43:                  28	32.63
11:43:                  58	32.62
11:44:                  28	32.65
11:44:                  58	32.66
11:45:                  28	32.68
11:45:                  58	32.66
11:46:                  28	32.64
11:46:                  58	32.65
11:47:                  28	32.66
11:47:                  58	32.67
11:48:                  28	32.64
11:48:                  58	32.68
11:49:                  28	32.69
11:49:                  58	32.66
11:50:                  28	32.64
11:50:                  58	32.62
11:51:                  28	32.67
11:51:                  58	32.67
11:52:                  28	32.66
11:52:                  58	32.67
11:53:                  28	32.65
11:53:                  58	32.63
11:54:                  28	32.67
11:54:                  58	32.69
11:55:                  28	32.72
11:55:                  58	32.76
11:56:                  28	32.75
11:56:                  58	32.78
11:57:                  28	32.78
11:57:                  58	32.79
11:58:                  28	32.78
11:58:                  58	32.77
11:59:                  28	32.80
11:59:                  58	32.83
12:00:                  28	32.86
12:00:                  58	32.94
12:01:                  28	32.95
12:01:                  59	32.98
12:02:                  29	33.00
12:02:                  59	33.03
12:03:                  29	33.03
12:03:                  59	33.05
12:04:                  29	33.08
12:04:                  59	33.09
12:05:                  29	33.12
12:05:                  59	33.11
12:06:                  29	33.07
12:06:                  59	33.09
12:07:                  29	33.04
12:07:                  59	33.04
12:08:                  29	33.00
12:08:                  59	32.97
12:09:                  29	32.97
12:09:                  59	32.93
12:10:                  29	32.90
12:10:                  59	32.88
12:11:                  29	32.89
12:11:                  59	32.88
12:12:                  29	32.86
12:12:                  59	32.86
12:13:                  29	32.88
12:13:                  59	32.87
12:14:                  29	32.90
12:14:                  59	32.89
12:15:                  29	32.91
12:15:                  59	32.91
12:16:                  29	32.89
12:16:                  59	32.85
12:17:                  29	32.84
12:17:                  59	32.84
12:18:                  29	32.83
12:18:                  59	32.82
12:19:                  29	32.79
12:19:                  59	32.79
12:20:                  29	32.76
12:20:                  59	32.80
12:21:                  29	32.84
12:21:                  59	32.84
12:22:                  29	32.91
12:23:                   0	32.97
12:23:                  30	33.01
12:24:                   0	32.99
12:24:                  30	32.99
12:25:                   0	33.00
12:25:                  30	33.00
12:26:                   0	33.06
12:26:                  30	33.13
12:27:                   0	33.16
12:27:                  30	33.18
12:28:                   0	33.23
12:28:                  30	33.26
12:29:                   0	33.27
12:29:                  30	33.31
12:30:                   0	33.34
12:30:                  30	33.35
12:31:                   0	33.37
12:31:                  30	33.44
12:32:                   0	33.46
12:32:                  30	33.47
12:33:                   0	33.49
12:33:                  30	33.53
12:34:                   0	33.54
12:34:                  30	33.59
12:35:                   0	33.61
12:35:                  30	33.60
12:36:                   0	33.63
12:36:                  30	33.65
12:37:                   0	33.68
12:37:                  30	33.72
12:38:                   0	33.70
12:38:                  30	33.73
12:39:                   0	33.75
12:39:                  31	33.74
12:40:                   1	33.69
12:40:                  31	33.65
12:41:                   1	33.65
12:41:                  31	33.70
12:42:                   1	33.72
12:42:                  31	33.74
12:43:                   1	33.77
12:43:                  31	33.82
12:44:                   1	33.87
12:44:                  31	33.81
12:45:                   1	33.75
12:45:                  31	33.70
12:46:                   1	33.67
12:46:                  31	33.69
12:47:                   1	33.75
12:47:                  31	33.79
12:48:                   1	33.83
12:48:                  31	33.88
12:49:                   1	33.90
12:49:                  31	33.89
12:50:                   1	33.91
12:50:                  31	33.91
12:51:                   1	33.92
12:51:                  31	33.90
12:52:                   1	33.89
12:52:                  31	33.91
12:53:                   1	33.93
12:53:                  31	33.92
12:54:                   1	33.92
12:54:                  31	33.92
12:55:                   1	33.92
12:55:                  31	33.90
12:56:                   1	33.88
12:56:                  31	33.91
12:57:                   1	33.91
12:57:                  31	33.90
12:58:                   1	33.86
12:58:                  31	33.86
12:59:                   1	33.91
12:59:                  31	33.96
13:00:                   1	33.94
13:00:                  31	33.94
13:01:                   1	33.98
13:01:                  31	33.96
13:02:                   1	33.98
13:02:                  31	34.07
13:03:                   1	34.11
13:03:                  31	34.10
13:04:                   1	34.10
13:04:                  31	34.15
13:05:                   1	34.17
13:05:                  31	34.14
13:06:                   1	34.12
13:06:                  31	34.10
13:07:                   1	34.06
13:07:                  31	34.06
13:08:                   1	34.06
13:08:                  31	34.07
13:09:                   1	34.05
13:09:                  31	34.09
13:10:                   1	34.08
13:10:                  32	34.11
13:11:                   2	34.16
13:11:                  32	34.21
13:12:                   2	34.26
13:12:                  32	34.23
13:13:                   2	34.27
13:13:                  32	34.22
13:14:                   2	34.18
13:14:                  32	34.13
13:15:                   2	34.11
13:15:                  32	34.07
13:16:                   2	34.01
13:16:                  32	33.95
13:17:                   2	33.91
13:17:                  32	33.87
13:18:                   2	33.83
13:18:                  32	33.78
13:19:                   2	33.74
13:19:                  32	33.71
13:20:                   2	33.66
13:20:                  32	33.64
13:21:                   2	33.64
13:21:                  32	33.64
13:22:                   2	33.60
13:22:                  32	33.63
13:23:                   2	33.63
13:23:                  32	33.66
13:24:                   2	33.61
13:24:                  32	33.60
13:25:                   2	33.63
13:25:                  32	33.62
13:26:                   2	33.67
13:26:                  32	33.65
13:27:                   2	33.62
13:27:                  32	33.59
13:28:                   2	33.57
13:28:                  32	33.59
13:29:                   2	33.61
13:29:                  32	33.64
13:30:                   2	33.67
13:30:                  32	33.73
13:31:                   2	33.78
13:31:                  32	33.83
13:32:                   2	33.89
13:32:                  32	33.93
13:33:                   2	33.97
13:33:                  32	34.01
13:34:                   2	34.07
13:34:                  32	34.11
13:35:                   3	34.16
13:35:                  33	34.19
13:36:                   3	34.24
13:36:                  33	34.25
13:37:                   3	34.26
13:37:                  33	34.29
13:38:                   3	34.26
13:38:                  33	34.26
13:39:                   3	34.21
13:39:                  33	34.17
13:40:                   3	34.15
13:40:                  33	34.12
13:41:                   3	34.07
13:41:                  33	34.03
13:42:                   3	33.97
13:42:                  33	33.94
13:43:                   3	33.93
13:43:                  33	33.91
13:44:                   3	33.86
13:44:                  33	33.84
13:45:                   3	33.81
13:45:                  33	33.79
13:46:                   3	33.79
13:46:                  33	33.76
13:47:                   3	33.72
13:47:                  33	33.66
13:48:                   3	33.61
13:48:                  33	33.59
13:49:                   3	33.55
13:49:                  33	33.53
13:50:                   3	33.50
13:50:                  33	33.46
13:51:                   3	33.44
13:51:                  33	33.42
13:52:                   3	33.40
13:52:                  33	33.36
13:53:                   3	33.33
13:53:                  33	33.31
13:54:                   3	33.27
13:54:                  33	33.22
13:55:                   3	33.19
13:55:                  33	33.18
13:56:                   3	33.19
13:56:                  33	33.22
13:57:                   3	33.22
13:57:                  34	33.23
13:58:                   4	33.27
13:58:                  34	33.31
13:59:                   4	33.35
13:59:                  34	33.43
14:00:                   4	33.50
14:00:                  34	33.53
14:01:                   4	33.58
14:01:                  34	33.60
14:02:                   4	33.59
14:02:                  34	33.65
14:03:                   4	33.70
14:03:                  34	33.74
14:04:                   4	33.81
14:04:                  34	33.84
14:05:                   4	33.83
14:05:                  34	33.79
14:06:                   4	33.77
14:06:                  34	33.73
14:07:                   4	33.70
14:07:                  34	33.73
14:08:                   4	33.77
14:08:                  34	33.80
14:09:                   4	33.75
14:09:                  34	33.71
14:10:                   4	33.72
14:10:                  34	33.64
14:11:                   4	33.62
14:11:                  34	33.59
14:12:                   4	33.59
14:12:                  34	33.54
14:13:                   4	33.49
14:13:                  34	33.47
14:14:                   4	33.44
14:14:                  34	33.42
14:15:                   4	33.41
14:15:                  34	33.38
14:16:                   4	33.37
14:16:                  34	33.36
14:17:                   4	33.35
14:17:                  34	33.34
14:18:                   4	33.31
14:18:                  34	33.30
14:19:                   4	33.27
14:19:                  34	33.25
14:20:                   4	33.22
14:20:                  34	33.20
14:21:                   4	33.15
14:21:                  34	33.15
14:22:                   4	33.13
14:22:                  34	33.11
14:23:                   4	33.10
14:23:                  34	33.09
14:24:                   4	33.09
14:24:                  34	33.06
14:25:                   4	33.02
14:25:                  34	32.99
14:26:                   4	32.95
14:26:                  34	32.95
14:27:                   4	32.96
14:27:                  34	32.95
14:28:                   4	32.94
14:28:                  34	32.94
14:29:                   4	32.94
14:29:                  34	32.89
14:30:                   4	32.88
14:30:                  34	32.84
14:31:                   4	32.81
14:31:                  34	32.82
14:32:                   4	32.79
14:32:                  34	32.77
14:33:                   4	32.75
14:33:                  35	32.73
14:34:                   5	32.72
14:34:                  35	32.71
14:35:                   5	32.74
14:35:                  35	32.77
14:36:                   5	32.81
14:36:                  35	32.84
14:37:                   5	32.85
14:37:                  35	32.85
14:38:                   5	32.86
14:38:                  35	32.86
14:39:                   5	32.91
14:39:                  35	32.91
14:40:                   5	32.87
14:40:                  35	32.85
14:41:                   5	32.85
14:41:                  35	32.84
14:42:                   5	32.81
14:42:                  35	32.86
14:43:                   5	32.85
14:43:                  35	32.86
14:44:                   5	32.87
14:44:                  35	32.89
14:45:                   5	32.90
14:45:                  35	32.93
14:46:                   5	32.94
14:46:                  35	32.90
14:47:                   5	32.88
14:47:                  35	32.90
14:48:                   5	32.89
14:48:                  35	32.88
14:49:                   5	32.87
14:49:                  35	32.87
14:50:                   5	32.85
14:50:                  35	32.84
14:51:                   5	32.81
14:51:                  35	32.82
14:52:                   5	32.80
14:52:                  35	32.77
14:53:                   5	32.74
14:53:                  35	32.72
14:54:                   5	32.69
14:54:                  35	32.66
14:55:                   5	32.65
14:55:                  35	32.63
14:56:                   5	32.59
14:56:                  35	32.61
14:57:                   5	32.60
14:57:                  35	32.60
14:58:                   5	32.58
14:58:                  35	32.58
14:59:                   5	32.57
14:59:                  35	32.56
15:00:                   5	32.57
15:00:                  35	32.55
15:01:                   5	32.54
15:01:                  36	32.51
15:02:                   6	32.51
15:02:                  36	32.49
15:03:                   6	32.49
15:03:                  36	32.46
15:04:                   6	32.42
15:04:                  36	32.40
15:05:                   6	32.38
15:05:                  36	32.36
15:06:                   6	32.36
15:06:                  36	32.36
15:07:                   6	32.33
15:07:                  36	32.34
15:08:                   6	32.33
15:08:                  36	32.31
15:09:                   6	32.29
15:09:                  36	32.27
15:10:                   6	32.28
15:10:                  36	32.26
15:11:                   6	32.28
15:11:                  36	32.27
15:12:                   6	32.26
15:12:                  36	32.25
15:13:                   6	32.25
15:13:                  36	32.24
15:14:                   6	32.22
15:14:                  36	32.19
15:15:                   6	32.18
15:15:                  36	32.17
15:16:                   6	32.12
15:16:                  36	32.12
15:17:                   6	32.10
15:17:                  36	32.08
15:18:                   6	32.05
15:18:                  36	32.05
15:19:                   6	32.01
15:19:                  36	31.98
15:20:                   6	31.96
15:20:                  36	31.94
15:21:                   6	31.92
15:21:                  36	31.90
15:22:                   6	31.89
15:22:                  36	31.87
15:23:                   6	31.82
15:23:                  36	31.79
15:24:                   6	31.80
15:24:                  36	31.80
15:25:                   6	31.79
15:25:                  36	31.78
15:26:                   7	31.78
15:26:                  37	31.73
15:27:                   7	31.72
15:27:                  37	31.71
15:28:                   7	31.69
15:28:                  37	31.68
15:29:                   7	31.68
15:29:                  37	31.66
15:30:                   7	31.64
15:30:                  37	31.61
15:31:                   7	31.58
15:31:                  37	31.57
15:32:                   7	31.57
15:32:                  37	31.56
15:33:                   7	31.56
15:33:                  37	31.55
15:34:                   7	31.52
15:34:                  37	31.53
15:35:                   7	31.53
15:35:                  37	31.50
15:36:                   7	31.49
15:36:                  37	31.47
15:37:                   7	31.49
15:37:                  37	31.49
15:38:                   7	31.53
15:38:                  37	31.54
15:39:                   7	31.54
15:39:                  37	31.53
15:40:                   7	31.55
15:40:                  37	31.56
15:41:                   7	31.59
15:41:                  37	31.57
15:42:                   7	31.59
15:42:                  37	31.60
15:43:                   7	31.60
15:43:                  37	31.62
15:44:                   7	31.60
15:44:                  37	31.57
15:45:                   7	31.58
15:45:                  37	31.59
15:46:                   7	31.59
15:46:                  37	31.60
15:47:                   7	31.58
15:47:                  37	31.60
15:48:                   7	31.60
15:48:                  37	31.59
15:49:                   7	31.56
15:49:                  37	31.57
15:50:                   7	31.58
15:50:                  37	31.58
15:51:                   7	31.59
15:51:                  37	31.59
15:52:                   7	31.61
15:52:                  37	31.60
15:53:                   7	31.62
15:53:                  37	31.65
15:54:                   7	31.66
15:54:                  38	31.67
15:55:                   8	31.65
15:55:                  38	31.60
15:56:                   8	31.63
15:56:                  38	31.63
15:57:                   8	31.64
15:57:                  38	31.65
15:58:                   8	31.66
15:58:                  38	31.72
15:59:                   8	31.73
15:59:                  38	31.76
16:00:                   8	31.80
16:00:                  38	31.83
16:01:                   8	31.84
16:01:                  38	31.84
16:02:                   8	31.84
16:02:                  38	31.84
16:03:                   8	31.83
16:03:                  38	31.84
16:04:                   8	31.85
16:04:                  38	31.81
16:05:                   8	31.79
16:05:                  38	31.82
16:06:                   8	31.82
16:06:                  38	31.75
16:07:                   8	31.73
16:07:                  38	31.73
16:08:                   8	31.72
16:08:                  38	31.76
16:09:                   8	31.76
16:09:                  38	31.77
16:10:                   8	31.77
16:10:                  38	31.71
16:11:                   8	31.72
16:11:                  38	31.71
16:12:                   8	31.71
16:12:                  38	31.71
16:13:                   8	31.68
16:13:                  38	31.68
16:14:                   8	31.70
16:14:                  38	31.70
16:15:                   8	31.71
16:15:                  38	31.71
16:16:                   8	31.74
16:16:                  38	31.74
16:17:                   8	31.74
16:17:                  38	31.75
16:18:                   8	31.77
16:18:                  38	31.77
16:19:                   8	31.77
16:19:                  38	31.77
16:20:                   8	31.79
16:20:                  38	31.77
16:21:                   8	31.78
16:21:                  38	31.78
16:22:                   8	31.79
16:22:                  38	31.76
16:23:                   8	31.79
16:23:                  38	31.81
16:24:                   8	31.79
16:24:                  38	31.79
16:25:                   8	31.77
16:25:                  38	31.75
16:26:                   8	31.76
16:26:                  38	31.77
16:27:                   8	31.77
16:27:                  38	31.77
16:28:                   8	31.77
16:28:                  38	31.76
16:29:                   8	31.77
16:29:                  38	31.82
16:30:                   8	31.83
16:30:                  39	31.81
16:31:                   9	31.82
16:31:                  39	31.83
16:32:                   9	31.79
16:32:                  39	31.76
16:33:                   9	31.75
16:33:                  39	31.76
16:34:                   9	31.75
16:34:                  39	31.75
16:35:                   9	31.73
16:35:                  39	31.73
16:36:                   9	31.74
16:36:                  39	31.72
16:37:                   9	31.71
16:37:                  39	31.70
16:38:                   9	31.68
16:38:                  39	31.66
16:39:                   9	31.64
16:39:                  39	31.63
16:40:                   9	31.61
16:40:                  39	31.61
16:41:                   9	31.61
16:41:                  39	31.60
16:42:                   9	31.59
16:42:                  39	31.60
16:43:                   9	31.58
16:43:                  39	31.56
16:44:                   9	31.57
16:44:                  39	31.51
16:45:                   9	31.51
16:45:                  39	31.48
16:46:                   9	31.51
16:46:                  39	31.53
16:47:                   9	31.54
16:47:                  39	31.54
16:48:                   9	31.53
16:48:                  39	31.51
16:49:                   9	31.54
16:49:                  39	31.56
16:50:                   9	31.59
16:50:                  39	31.61
16:51:                   9	31.62
16:51:                  39	31.60
16:52:                   9	31.62
16:52:                  39	31.64
16:53:                   9	31.63
16:53:                  39	31.65
16:54:                   9	31.63
16:54:                  39	31.63
16:55:                   9	31.62
16:55:                  39	31.62
16:56:                   9	31.61
16:56:                  39	31.60
16:57:                   9	31.59
16:57:                  39	31.58
16:58:                   9	31.57
16:58:                  39	31.54
16:59:                   9	31.53
16:59:                  39	31.54
17:00:                   9	31.55
17:00:                  39	31.52
17:01:                   9	31.52
17:01:                  39	31.53
17:02:                   9	31.54
17:02:                  39	31.55
17:03:                   9	31.55
17:03:                  39	31.56
17:04:                   9	31.57
17:04:                  39	31.58
17:05:                   9	31.56
17:05:                  39	31.58
17:06:                   9	31.60
17:06:                  39	31.61
17:07:                   9	31.61
17:07:                  39	31.60
17:08:                   9	31.60
17:08:                  40	31.62
17:09:                  10	31.61
17:09:                  40	31.62
17:10:                  10	31.62
17:10:                  40	31.61
17:11:                  10	31.61
17:11:                  40	31.60
17:12:                  10	31.60
17:12:                  40	31.62
17:13:                  10	31.63
17:13:                  40	31.63
17:14:                  10	31.62
17:14:                  40	31.62
17:15:                  10	31.62
17:15:                  40	31.61
17:16:                  10	31.60
17:16:                  40	31.59
17:17:                  10	31.60
17:17:                  40	31.59
17:18:                  10	31.59
17:18:                  40	31.61
17:19:                  10	31.62
17:19:                  40	31.63
17:20:                  10	31.61
17:20:                  40	31.61
17:21:                  10	31.62
17:21:                  40	31.63
17:22:                  10	31.62
17:22:                  40	31.62
17:23:                  10	31.61
17:23:                  40	31.61
17:24:                  10	31.62
17:24:                  40	31.64
17:25:                  10	31.64
17:25:                  40	31.66
17:26:                  10	31.66
17:26:                  40	31.66
17:27:                  10	31.66
17:27:                  40	31.66
17:28:                  10	31.64
17:28:                  40	31.63
17:29:                  10	31.63
17:29:                  40	31.63
17:30:                  10	31.64
17:30:                  40	31.64
17:31:                  10	31.65
17:31:                  40	31.65
17:32:                  11	31.65
17:32:                  41	31.62
17:33:                  11	31.60
17:33:                  41	31.59
17:34:                  11	31.58
17:34:                  41	31.57
17:35:                  11	31.58
17:35:                  41	31.58
17:36:                  11	31.57
17:36:                  41	31.57
17:37:                  11	31.57
17:37:                  41	31.58
17:38:                  11	31.57
17:38:                  41	31.57
17:39:                  11	31.57
17:39:                  41	31.57
17:40:                  11	31.55
17:40:                  41	31.55
17:41:                  11	31.55
17:41:                  41	31.55
17:42:                  11	31.55
17:42:                  41	31.55
17:43:                  11	31.55
17:43:                  41	31.57
17:44:                  11	31.54
17:44:                  41	31.53
17:45:                  11	31.54
17:45:                  41	31.53
17:46:                  11	31.53
17:46:                  41	31.52
17:47:                  11	31.50
17:47:                  41	31.51
17:48:                  11	31.50
17:48:                  41	31.51
17:49:                  11	31.49
17:49:                  41	31.51
17:50:                  11	31.50
17:50:                  41	31.50
17:51:                  11	31.50
17:51:                  41	31.52
17:52:                  11	31.52
17:52:                  41	31.52
17:53:                  11	31.54
17:53:                  41	31.52
17:54:                  11	31.52
17:54:                  41	31.53
17:55:                  11	31.55
17:55:                  41	31.55
17:56:                  11	31.54
17:56:                  41	31.55
17:57:                  11	31.55
17:57:                  41	31.57
17:58:                  11	31.58
17:58:                  41	31.60
17:59:                  11	31.60
17:59:                  41	31.61
18:00:                  11	31.62
18:00:                  41	31.61
18:01:                  11	31.60
18:01:                  41	31.59
18:02:                  11	31.58
18:02:                  41	31.57
18:03:                  11	31.58
18:03:                  41	31.58
18:04:                  12	31.56
18:04:                  42	31.55
18:05:                  12	31.54
18:05:                  42	31.54
18:06:                  12	31.53
18:06:                  42	31.55
18:07:                  12	31.55
18:07:                  42	31.55
18:08:                  12	31.56
18:08:                  42	31.55
18:09:                  12	31.55
18:09:                  42	31.57
18:10:                  12	31.55
18:10:                  42	31.55
18:11:                  12	31.56
18:11:                  42	31.56
18:12:                  12	31.56
18:12:                  42	31.57
18:13:                  12	31.57
18:13:                  42	31.57
18:14:                  12	31.55
18:14:                  42	31.57
18:15:                  12	31.54
18:15:                  42	31.52
18:16:                  12	31.52
18:16:                  42	31.52
18:17:                  12	31.49
18:17:                  42	31.53
18:18:                  12	31.49
18:18:                  42	31.48
18:19:                  12	31.47
18:19:                  42	31.45
18:20:                  12	31.45
18:20:                  42	31.44
18:21:                  12	31.41
18:21:                  42	31.42
18:22:                  12	31.41
18:22:                  42	31.41
18:23:                  12	31.40
18:23:                  42	31.37
18:24:                  12	31.38
18:24:                  42	31.36
18:25:                  12	31.37
18:25:                  42	31.34
18:26:                  12	31.32
18:26:                  42	31.31
18:27:                  12	31.30
18:27:                  42	31.31
18:28:                  12	31.28
18:28:                  42	31.29
18:29:                  12	31.27
18:29:                  42	31.27
18:30:                  12	31.27
18:30:                  42	31.26
18:31:                  12	31.25
18:31:                  42	31.24
18:32:                  12	31.24
18:32:                  42	31.24
18:33:                  13	31.22
18:33:                  43	31.22
18:34:                  13	31.21
18:34:                  43	31.21
18:35:                  13	31.20
18:35:                  43	31.20
18:36:                  13	31.20
18:36:                  43	31.18
18:37:                  13	31.19
18:37:                  43	31.19
18:38:                  13	31.17
18:38:                  43	31.19
18:39:                  13	31.16
18:39:                  43	31.18
18:40:                  13	31.16
18:40:                  43	31.16
18:41:                  13	31.16
18:41:                  43	31.14
18:42:                  13	31.15
18:42:                  43	31.15
18:43:                  13	31.13
18:43:                  43	31.12
18:44:                  13	31.14
18:44:                  43	31.15
18:45:                  13	31.17
18:45:                  43	31.17
18:46:                  13	31.17
18:46:                  43	31.16
18:47:                  13	31.15
18:47:                  43	31.16
18:48:                  13	31.14
18:48:                  43	31.13
18:49:                  13	31.13
18:49:                  43	31.12
18:50:                  13	31.11
18:50:                  43	31.09
18:51:                  13	31.11
18:51:                  43	31.12
18:52:                  13	31.12
18:52:                  43	31.10
18:53:                  13	31.12
18:53:                  43	31.12
18:54:                  13	31.13
18:54:                  43	31.12
18:55:                  14	31.12
18:55:                  44	31.13
18:56:                  14	31.13
18:56:                  44	31.13
18:57:                  14	31.14
18:57:                  44	31.11
18:58:                  14	31.12
18:58:                  44	31.13
18:59:                  14	31.13
18:59:                  44	31.14
19:00:                  14	31.13
19:00:                  44	31.14
19:01:                  14	31.13
19:01:                  44	31.13
19:02:                  14	31.12
19:02:                  44	31.12
19:03:                  14	31.12
19:03:                  44	31.13
19:04:                  14	31.13
19:04:                  44	31.12
19:05:                  14	31.14
19:05:                  44	31.13
19:06:                  14	31.13
19:06:                  44	31.13
19:07:                  14	31.12
19:07:                  44	31.12
19:08:                  14	31.13
19:08:                  44	31.13
19:09:                  14	31.12
19:09:                  44	31.12
19:10:                  14	31.13
19:10:                  44	31.10
19:11:                  14	31.12
19:11:                  44	31.12
19:12:                  14	31.12
19:12:                  44	31.11
19:13:                  14	31.12
19:13:                  44	31.11
19:14:                  14	31.12
19:14:                  44	31.12
19:15:                  14	31.10
19:15:                  44	31.10
19:16:                  14	31.11
19:16:                  44	31.11
19:17:                  14	31.11
19:17:                  44	31.11
19:18:                  14	31.11
19:18:                  44	31.11
19:19:                  14	31.11
19:19:                  44	31.10
19:20:                  14	31.11
19:20:                  44	31.11
19:21:                  14	31.11
19:21:                  45	31.10
19:22:                  15	31.10
19:22:                  45	31.09
19:23:                  15	31.09
19:23:                  45	31.09
19:24:                  15	31.09
19:24:                  45	31.08
19:25:                  15	31.10
19:25:                  45	31.10
19:26:                  15	31.09
19:26:                  45	31.09
19:27:                  15	31.09
19:27:                  45	31.08
19:28:                  15	31.08
19:28:                  45	31.08
19:29:                  15	31.09
19:29:                  45	31.09
19:30:                  15	31.09
19:30:                  45	31.09
19:31:                  15	31.09
19:31:                  45	31.09
19:32:                  15	31.08
19:32:                  45	31.08
19:33:                  15	31.09
19:33:                  45	31.08
19:34:                  15	31.09
19:34:                  45	31.10
19:35:                  15	31.10
19:35:                  45	31.10
19:36:                  15	31.10
19:36:                  45	31.11
19:37:                  15	31.12
19:37:                  45	31.11
19:38:                  15	31.11
19:38:                  45	31.11
19:39:                  15	31.11
19:39:                  45	31.11
19:40:                  15	31.07
19:40:                  45	31.06
19:41:                  15	31.05
19:41:                  45	31.07
19:42:                  15	31.08
19:42:                  45	31.09
19:43:                  15	31.07
19:43:                  45	31.05
19:44:                  15	31.07
19:44:                  45	31.02
19:45:                  15	31.03
19:45:                  45	31.01
19:46:                  15	31.03
19:46:                  45	31.02
19:47:                  15	31.04
19:47:                  45	31.04
19:48:                  15	31.04
19:48:                  45	31.04
19:49:                  15	31.04
19:49:                  45	31.05
19:50:                  15	31.05
19:50:                  45	31.05
19:51:                  16	31.05
19:51:                  46	31.05
19:52:                  16	31.05
19:52:                  46	31.05
19:53:                  16	31.06
19:53:                  46	31.04
19:54:                  16	31.06
19:54:                  46	31.06
19:55:                  16	31.07
19:55:                  46	31.06
19:56:                  16	31.05
19:56:                  46	31.05
19:57:                  16	31.07
19:57:                  46	31.07
19:58:                  16	31.07
19:58:                  46	31.07
19:59:                  16	31.07
19:59:                  46	31.07
20:00:                  16	31.04
20:00:                  46	31.05
20:01:                  16	31.05
20:01:                  46	31.06
20:02:                  16	31.06
20:02:                  46	31.06
20:03:                  16	31.07
20:03:                  46	31.05
20:04:                  16	31.06
20:04:                  46	31.06
20:05:                  16	31.06
20:05:                  46	31.05
20:06:                  16	31.05
20:06:                  46	31.05
20:07:                  16	31.05
20:07:                  46	31.05
20:08:                  16	31.05
20:08:                  46	31.05
20:09:                  16	31.05
20:09:                  46	31.03
20:10:                  16	31.05
20:10:                  46	31.05
20:11:                  16	31.04
20:11:                  46	31.05
20:12:                  16	31.05
20:12:                  46	31.04
20:13:                  16	31.05
20:13:                  46	31.06
20:14:                  16	31.07
20:14:                  46	31.03
20:15:                  16	31.05
20:15:                  46	31.04
20:16:                  16	31.05
20:16:                  46	31.03
20:17:                  16	31.03
20:17:                  46	31.05
20:18:                  16	31.05
20:18:                  46	31.05
20:19:                  16	31.05
20:19:                  46	31.04
20:20:                  16	31.06
20:20:                  46	31.05
20:21:                  16	31.05
20:21:                  46	31.04
20:22:                  16	31.05
20:22:                  46	31.06
20:23:                  16	31.05
20:23:                  46	31.05
20:24:                  16	31.06
20:24:                  46	31.05
20:25:                  16	31.05
20:25:                  46	31.06
20:26:                  16	31.06
20:26:                  46	31.05
20:27:                  16	31.06
20:27:                  46	31.05
20:28:                  16	31.05
20:28:                  46	31.06
20:29:                  16	31.05
20:29:                  46	31.06
20:30:                  16	31.06
20:30:                  46	31.05
20:31:                  16	31.03
20:31:                  46	31.04
20:32:                  16	31.04
20:32:                  46	31.03
20:33:                  17	31.03
20:33:                  47	31.05
20:34:                  17	31.04
20:34:                  47	31.05
20:35:                  17	31.04
20:35:                  47	31.03
20:36:                  17	31.02
20:36:                  47	31.03
20:37:                  17	31.04
20:37:                  47	31.04
20:38:                  17	31.03
20:38:                  47	31.04
20:39:                  17	31.03
20:39:                  47	31.04
20:40:                  17	31.05
20:40:                  47	31.05
20:41:                  17	31.06
20:41:                  47	31.06
20:42:                  17	31.05
20:42:                  47	31.07
20:43:                  17	31.06
20:43:                  47	31.06
20:44:                  17	31.06
20:44:                  47	31.07
20:45:                  17	31.07
20:45:                  47	31.07
20:46:                  17	31.06
20:46:                  47	31.07
20:47:                  17	31.07
20:47:                  47	31.07
20:48:                  17	31.06
20:48:                  47	31.07
20:49:                  17	31.06
20:49:                  47	31.07
20:50:                  17	31.06
20:50:                  47	31.06
20:51:                  17	31.07
20:51:                  47	31.06
20:52:                  17	31.07
20:52:                  47	31.08
20:53:                  17	31.08
20:53:                  47	31.08
20:54:                  17	31.08
20:54:                  47	31.08
20:55:                  17	31.08
20:55:                  47	31.08
20:56:                  17	31.08
20:56:                  47	31.09
20:57:                  17	31.09
20:57:                  47	31.08
20:58:                  17	31.07
20:58:                  47	31.06
20:59:                  17	31.05
20:59:                  47	31.04
21:00:                  18	31.03
21:00:                  48	31.04
21:01:                  18	31.02
21:01:                  48	31.03
21:02:                  18	31.02
21:02:                  48	31.03
21:03:                  18	31.03
21:03:                  48	31.03
21:04:                  18	31.03
21:04:                  48	31.00
21:05:                  18	31.01
21:05:                  48	31.01
21:06:                  18	31.02
21:06:                  48	31.01
21:07:                  18	30.97
21:07:                  48	30.99
21:08:                  18	30.99
21:08:                  48	30.99
21:09:                  18	31.00
21:09:                  48	31.01
21:10:                  18	31.01
21:10:                  48	31.01
21:11:                  18	31.01
21:11:                  48	31.01
21:12:                  18	31.01
21:12:                  48	31.03
21:13:                  18	31.03
21:13:                  48	31.02
21:14:                  18	31.03
21:14:                  48	31.04
21:15:                  18	31.03
21:15:                  48	31.05
21:16:                  18	31.03
21:16:                  48	31.04
21:17:                  18	31.03
21:17:                  48	31.03
21:18:                  18	31.04
21:18:                  49	31.04
21:19:                  19	31.05
21:19:                  49	31.03
21:20:                  19	31.04
21:20:                  49	31.03
21:21:                  19	31.05
21:21:                  49	31.04
21:22:                  19	31.04
21:22:                  49	31.04
21:23:                  19	31.03
21:23:                  49	31.03
21:24:                  19	31.04
21:24:                  49	31.03
21:25:                  19	31.03
21:25:                  49	31.03
21:26:                  19	31.03
21:26:                  49	31.03
21:27:                  19	31.04
21:27:                  49	31.04
21:28:                  19	31.03
21:28:                  49	31.03
21:29:                  19	31.03
21:29:                  49	31.03
21:30:                  19	31.02
21:30:                  49	31.02
21:31:                  19	31.02
21:31:                  49	31.01
21:32:                  19	31.01
21:32:                  49	31.01
21:33:                  19	31.02
21:33:                  49	31.02
21:34:                  19	31.01
21:34:                  49	31.00
21:35:                  19	31.01
21:35:                  49	31.01
21:36:                  19	31.01
21:36:                  49	31.02
21:37:                  19	31.03
21:37:                  49	31.02
21:38:                  19	31.02
21:38:                  49	30.99
21:39:                  19	30.95
21:39:                  49	30.98
21:40:                  19	30.93
21:40:                  49	30.92
21:41:                  19	30.93
21:41:                  49	30.94
21:42:                  19	30.95
21:42:                  49	30.94
21:43:                  19	30.95
21:43:                  49	30.95
21:44:                  19	30.96
21:44:                  49	30.97
21:45:                  19	30.96
21:45:                  49	30.96
21:46:                  20	30.96
21:46:                  50	30.97
21:47:                  20	30.98
21:47:                  50	30.97
21:48:                  20	30.97
21:48:                  50	30.98
21:49:                  20	30.99
21:49:                  50	31.00
21:50:                  20	31.00
21:50:                  50	30.99
21:51:                  20	31.00
21:51:                  50	30.99
21:52:                  20	30.98
21:52:                  50	30.99
21:53:                  20	31.01
21:53:                  50	30.99
21:54:                  20	31.00
21:54:                  50	31.00
21:55:                  20	31.01
21:55:                  50	31.00
21:56:                  20	31.02
21:56:                  50	30.98
21:57:                  20	30.96
21:57:                  50	30.95
21:58:                  20	30.97
21:58:                  50	30.97
21:59:                  20	30.91
21:59:                  50	30.93
22:00:                  20	30.95
22:00:                  50	30.96
22:01:                  20	30.96
22:01:                  50	30.96
22:02:                  20	30.96
22:02:                  50	30.96
22:03:                  20	30.97
22:03:                  50	30.98
22:04:                  20	30.97
22:04:                  50	30.97
22:05:                  20	30.98
22:05:                  50	30.98
22:06:                  20	31.00
22:06:                  50	31.00
22:07:                  20	30.98
22:07:                  50	30.99
22:08:                  20	30.98
22:08:                  50	30.99
22:09:                  20	31.00
22:09:                  50	30.99
22:10:                  20	30.99
22:10:                  50	31.00
22:11:                  20	31.00
22:11:                  50	30.99
22:12:                  20	31.00
22:12:                  50	31.00
22:13:                  20	31.01
22:13:                  50	31.01
22:14:                  20	31.02
22:14:                  50	31.01
22:15:                  20	31.01
22:15:                  50	31.01
22:16:                  20	31.01
22:16:                  50	31.01
22:17:                  21	31.02
22:17:                  51	31.01
22:18:                  21	31.01
22:18:                  51	31.01
22:19:                  21	31.01
22:19:                  51	31.01
22:20:                  21	31.02
22:20:                  51	31.01
22:21:                  21	31.02
22:21:                  51	31.01
22:22:                  21	31.01
22:22:                  51	31.01
22:23:                  21	31.01
22:23:                  51	31.03
22:24:                  21	31.04
22:24:                  51	31.02
22:25:                  21	31.03
22:25:                  51	31.04
22:26:                  21	31.03
22:26:                  51	31.04
22:27:                  21	31.03
22:27:                  51	31.03
22:28:                  21	31.02
22:28:                  51	31.02
22:29:                  21	31.03
22:29:                  51	31.03
22:30:                  21	31.04
22:30:                  51	31.03
22:31:                  21	31.03
22:31:                  51	31.03
22:32:                  21	31.03
22:32:                  51	31.04
22:33:                  21	31.04
22:33:                  51	31.04
22:34:                  21	31.03
22:34:                  51	31.03
22:35:                  21	31.04
22:35:                  51	31.03
22:36:                  21	31.03
22:36:                  51	31.02
22:37:                  21	31.03
22:37:                  51	31.02
22:38:                  21	31.02
22:38:                  51	31.02
22:39:                  21	31.02
22:39:                  51	31.02
22:40:                  21	31.02
22:40:                  51	31.03
22:41:                  21	31.03
22:41:                  51	31.01
22:42:                  21	31.02
22:42:                  51	31.03
22:43:                  21	31.02
22:43:                  51	31.03
22:44:                  21	31.03
22:44:                  51	31.03
22:45:                  21	31.02
22:45:                  51	31.02
22:46:                  21	31.00
22:46:                  51	30.99
22:47:                  21	30.99
22:47:                  51	31.00
22:48:                  21	30.88
22:48:                  52	30.92
22:49:                  22	30.93
22:49:                  52	30.95
22:50:                  22	30.97
22:50:                  52	30.97
22:51:                  22	30.97
22:51:                  52	30.96
22:52:                  22	30.96
22:52:                  52	30.97
22:53:                  22	30.97
22:53:                  52	30.97
22:54:                  22	30.97
22:54:                  52	30.96
22:55:                  22	30.97
22:55:                  52	30.96
22:56:                  22	30.96
22:56:                  52	30.97
22:57:                  22	30.96
22:57:                  52	30.96
22:58:                  22	30.96
22:58:                  52	30.96
22:59:                  22	30.96
22:59:                  52	30.97
23:00:                  22	30.97
23:00:                  52	30.96
23:01:                  22	30.97
23:01:                  52	30.97
23:02:                  22	30.96
23:02:                  52	30.96
23:03:                  22	30.95
23:03:                  52	30.96
23:04:                  22	30.96
23:04:                  52	30.98
23:05:                  22	30.96
23:05:                  52	30.96
23:06:                  22	30.97
23:06:                  52	30.98
23:07:                  22	30.98
23:07:                  52	30.98
23:08:                  22	30.97
23:08:                  52	30.97
23:09:                  22	30.97
23:09:                  52	30.97
23:10:                  22	30.96
23:10:                  52	30.99
23:11:                  22	30.97
23:11:                  52	30.97
23:12:                  22	30.98
23:12:                  52	30.98
23:13:                  22	30.98
23:13:                  52	30.98
23:14:                  22	30.98
23:14:                  52	30.98
23:15:                  22	30.97
23:15:                  52	30.97
23:16:                  22	30.98
23:16:                  53	30.97
23:17:                  23	30.97
23:17:                  53	30.97
23:18:                  23	30.96
23:18:                  53	30.96
23:19:                  23	30.97
23:19:                  53	30.96
23:20:                  23	30.96
23:20:                  53	30.97
23:21:                  23	30.96
23:21:                  53	30.95
23:22:                  23	30.95
23:22:                  53	30.95
23:23:                  23	30.95
23:23:                  53	30.96
23:24:                  23	30.95
23:24:                  53	30.94
23:25:                  23	30.94
23:25:                  53	30.93
23:26:                  23	30.94
23:26:                  53	30.93
23:27:                  23	30.92
23:27:                  53	30.93
23:28:                  23	30.92
23:28:                  53	30.92
23:29:                  23	30.92
23:29:                  53	30.93
23:30:                  23	30.92
23:30:                  53	30.93
23:31:                  23	30.92
23:31:                  53	30.91
23:32:                  23	30.92
23:32:                  53	30.92
23:33:                  23	30.93
23:33:                  53	30.93
23:34:                  23	30.93
23:34:                  53	30.92
23:35:                  23	30.92
23:35:                  53	30.92
23:36:                  23	30.91
23:36:                  53	30.91
23:37:                  23	30.92
23:37:                  53	30.92
23:38:                  23	30.91
23:38:                  53	30.91
23:39:                  23	30.90
23:39:                  53	30.91
23:40:                  23	30.91
23:40:                  53	30.90
23:41:                  23	30.90
23:41:                  53	30.91
23:42:                  23	30.90
23:42:                  53	30.90
23:43:                  23	30.91
23:43:                  53	30.90
23:44:                  23	30.88
23:44:                  53	30.89
23:45:                  23	30.88
23:45:                  53	30.89
23:46:                  23	30.89
23:46:                  53	30.88
23:47:                  23	30.89
23:47:                  53	30.87
23:48:                  23	30.86
23:48:                  53	30.87
23:49:                  23	30.88
23:49:                  53	30.88
23:50:                  23	30.88
23:50:                  53	30.86
23:51:                  23	30.86
23:51:                  54	30.87
23:52:                  24	30.88
23:52:                  54	30.88
23:53:                  24	30.88
23:53:                  54	30.86
23:54:                  24	30.87
23:54:                  54	30.86
23:55:                  24	30.86
23:55:                  54	30.85
23:56:                  24	30.86
23:56:                  54	30.87
23:57:                  24	30.85
23:57:                  54	30.86
23:58:                  24	30.85
23:58:                  54	30.86
23:59:                  24	30.85
23:59:                  54	30.85
