0:00:                   4	40.52
0:00:                  34	40.53
0:01:                   4	40.52
0:01:                  34	40.53
0:02:                   4	40.53
0:02:                  34	40.52
0:03:                   4	40.52
0:03:                  34	40.51
0:04:                   4	40.52
0:04:                  35	40.51
0:05:                   5	40.50
0:05:                  35	40.50
0:06:                   5	40.50
0:06:                  35	40.49
0:07:                   5	40.49
0:07:                  35	40.49
0:08:                   5	40.49
0:08:                  35	40.50
0:09:                   5	40.49
0:09:                  35	40.50
0:10:                   5	40.49
0:10:                  35	40.48
0:11:                   5	40.47
0:11:                  35	40.46
0:12:                   5	40.45
0:12:                  35	40.46
0:13:                   5	40.46
0:13:                  35	40.45
0:14:                   5	40.45
0:14:                  35	40.44
0:15:                   5	40.44
0:15:                  35	40.44
0:16:                   5	40.44
0:16:                  35	40.45
0:17:                   5	40.44
0:17:                  35	40.44
0:18:                   5	40.44
0:18:                  35	40.43
0:19:                   5	40.43
0:19:                  35	40.43
0:20:                   5	40.42
0:20:                  35	40.41
0:21:                   5	40.42
0:21:                  35	40.42
0:22:                   5	40.43
0:22:                  35	40.42
0:23:                   5	40.40
0:23:                  35	40.40
0:24:                   5	40.41
0:24:                  35	40.40
0:25:                   5	40.41
0:25:                  35	40.39
0:26:                   5	40.40
0:26:                  35	40.39
0:27:                   5	40.39
0:27:                  35	40.40
0:28:                   5	40.39
0:28:                  35	40.38
0:29:                   5	40.39
0:29:                  36	40.37
0:30:                   6	40.36
0:30:                  36	40.37
0:31:                   6	40.36
0:31:                  36	40.36
0:32:                   6	40.36
0:32:                  36	40.35
0:33:                   6	40.36
0:33:                  36	40.35
0:34:                   6	40.36
0:34:                  36	40.35
0:35:                   6	40.34
0:35:                  36	40.36
0:36:                   6	40.34
0:36:                  36	40.33
0:37:                   6	40.34
0:37:                  36	40.35
0:38:                   6	40.35
0:38:                  36	40.34
0:39:                   6	40.33
0:39:                  36	40.34
0:40:                   6	40.34
0:40:                  36	40.34
0:41:                   6	40.34
0:41:                  36	40.33
0:42:                   6	40.34
0:42:                  36	40.33
0:43:                   6	40.32
0:43:                  36	40.33
0:44:                   6	40.31
0:44:                  36	40.31
0:45:                   6	40.30
0:45:                  36	40.30
0:46:                   6	40.30
0:46:                  36	40.29
0:47:                   6	40.28
0:47:                  36	40.28
0:48:                   6	40.27
0:48:                  36	40.27
0:49:                   6	40.26
0:49:                  36	40.27
0:50:                   6	40.26
0:50:                  36	40.26
0:51:                   6	40.25
0:51:                  36	40.25
0:52:                   6	40.24
0:52:                  37	40.25
0:53:                   7	40.25
0:53:                  37	40.25
0:54:                   7	40.24
0:54:                  37	40.24
0:55:                   7	40.25
0:55:                  37	40.24
0:56:                   7	40.25
0:56:                  37	40.25
0:57:                   7	40.25
0:57:                  37	40.25
0:58:                   7	40.26
0:58:                  37	40.26
0:59:                   7	40.25
0:59:                  37	40.25
1:00:                   7	40.25
1:00:                  37	40.25
1:01:                   7	40.25
1:01:                  37	40.24
1:02:                   7	40.25
1:02:                  37	40.26
1:03:                   7	40.26
1:03:                  37	40.25
1:04:                   7	40.25
1:04:                  37	40.25
1:05:                   7	40.25
1:05:                  37	40.25
1:06:                   7	40.24
1:06:                  37	40.24
1:07:                   7	40.24
1:07:                  37	40.23
1:08:                   7	40.22
1:08:                  37	40.23
1:09:                   7	40.22
1:09:                  37	40.22
1:10:                   7	40.24
1:10:                  37	40.22
1:11:                   7	40.23
1:11:                  37	40.22
1:12:                   7	40.23
1:12:                  37	40.21
1:13:                   7	40.22
1:13:                  37	40.21
1:14:                   7	40.22
1:14:                  37	40.21
1:15:                   7	40.22
1:15:                  37	40.23
1:16:                   7	40.23
1:16:                  37	40.21
1:17:                   7	40.20
1:17:                  37	40.21
1:18:                   7	40.22
1:18:                  37	40.21
1:19:                   7	40.21
1:19:                  37	40.22
1:20:                   7	40.21
1:20:                  37	40.21
1:21:                   7	40.22
1:21:                  37	40.20
1:22:                   7	40.22
1:22:                  37	40.21
1:23:                   7	40.21
1:23:                  37	40.22
1:24:                   7	40.20
1:24:                  37	40.21
1:25:                   7	40.21
1:25:                  37	40.21
1:26:                   7	40.20
1:26:                  37	40.20
1:27:                   7	40.21
1:27:                  37	40.19
1:28:                   7	40.18
1:28:                  37	40.17
1:29:                   7	40.17
1:29:                  38	40.17
1:30:                   8	40.18
1:30:                  38	40.18
1:31:                   8	40.18
1:31:                  38	40.17
1:32:                   8	40.17
1:32:                  38	40.17
1:33:                   8	40.17
1:33:                  38	40.18
1:34:                   8	40.16
1:34:                  38	40.16
1:35:                   8	40.16
1:35:                  38	40.16
1:36:                   8	40.15
1:36:                  38	40.16
1:37:                   8	40.17
1:37:                  38	40.16
1:38:                   8	40.17
1:38:                  38	40.17
1:39:                   8	40.16
1:39:                  38	40.17
1:40:                   8	40.18
1:40:                  38	40.17
1:41:                   8	40.16
1:41:                  38	40.15
1:42:                   8	40.16
1:42:                  38	40.15
1:43:                   8	40.15
1:43:                  38	40.14
1:44:                   8	40.13
1:44:                  38	40.14
1:45:                   8	40.14
1:45:                  38	40.15
1:46:                   8	40.15
1:46:                  38	40.13
1:47:                   8	40.13
1:47:                  38	40.13
1:48:                   8	40.14
1:48:                  38	40.13
1:49:                   8	40.13
1:49:                  38	40.13
1:50:                   8	40.12
1:50:                  38	40.12
1:51:                   8	40.13
1:51:                  38	40.13
1:52:                   8	40.12
1:52:                  38	40.13
1:53:                   8	40.12
1:53:                  38	40.13
1:54:                   9	40.11
1:54:                  39	40.11
1:55:                   9	40.12
1:55:                  39	40.11
1:56:                   9	40.11
1:56:                  39	40.11
1:57:                   9	40.10
1:57:                  39	40.11
1:58:                   9	40.12
1:58:                  39	40.12
1:59:                   9	40.10
1:59:                  39	40.11
2:00:                   9	40.11
2:00:                  39	40.11
2:01:                   9	40.11
2:01:                  39	40.12
2:02:                   9	40.12
2:02:                  39	40.11
2:03:                   9	40.12
2:03:                  39	40.11
2:04:                   9	40.12
2:04:                  39	40.11
2:05:                   9	40.10
2:05:                  39	40.10
2:06:                   9	40.10
2:06:                  39	40.10
2:07:                   9	40.10
2:07:                  39	40.10
2:08:                   9	40.10
2:08:                  39	40.10
2:09:                   9	40.09
2:09:                  39	40.10
2:10:                   9	40.10
2:10:                  39	40.09
2:11:                   9	40.10
2:11:                  39	40.09
2:12:                   9	40.09
2:12:                  39	40.08
2:13:                   9	40.09
2:13:                  39	40.08
2:14:                   9	40.08
2:14:                  39	40.07
2:15:                   9	40.06
2:15:                  39	40.07
2:16:                   9	40.07
2:16:                  39	40.06
2:17:                   9	40.07
2:17:                  39	40.06
2:18:                   9	40.06
2:18:                  39	40.06
2:19:                   9	40.06
2:19:                  39	40.05
2:20:                   9	40.05
2:20:                  39	40.05
2:21:                   9	40.04
2:21:                  40	40.05
2:22:                  10	40.04
2:22:                  40	40.04
2:23:                  10	40.05
2:23:                  40	40.04
2:24:                  10	40.04
2:24:                  40	40.02
2:25:                  10	40.03
2:25:                  40	40.02
2:26:                  10	40.02
2:26:                  40	40.02
2:27:                  10	40.01
2:27:                  40	40.01
2:28:                  10	40.02
2:28:                  40	40.00
2:29:                  10	40.00
2:29:                  40	40.01
2:30:                  10	40.00
2:30:                  40	39.99
2:31:                  10	40.00
2:31:                  40	39.99
2:32:                  10	39.98
2:32:                  40	39.99
2:33:                  10	39.98
2:33:                  40	39.97
2:34:                  10	39.98
2:34:                  40	39.96
2:35:                  10	39.98
2:35:                  40	39.96
2:36:                  10	39.95
2:36:                  40	39.97
2:37:                  10	39.97
2:37:                  40	39.97
2:38:                  10	39.98
2:38:                  40	39.98
2:39:                  10	39.97
2:39:                  40	39.97
2:40:                  10	39.96
2:40:                  40	39.96
2:41:                  10	39.96
2:41:                  40	39.96
2:42:                  10	39.98
2:42:                  40	39.96
2:43:                  10	39.96
2:43:                  40	39.96
2:44:                  10	39.95
2:44:                  40	39.95
2:45:                  10	39.95
2:45:                  40	39.95
2:46:                  10	39.95
2:46:                  40	39.95
2:47:                  10	39.96
2:47:                  40	39.94
2:48:                  10	39.94
2:48:                  40	39.95
2:49:                  10	39.94
2:49:                  40	39.94
2:50:                  10	39.94
2:50:                  40	39.94
2:51:                  10	39.93
2:51:                  40	39.94
2:52:                  10	39.94
2:52:                  40	39.94
2:53:                  10	39.93
2:53:                  40	39.95
2:54:                  10	39.93
2:54:                  40	39.93
2:55:                  10	39.93
2:55:                  41	39.92
2:56:                  11	39.92
2:56:                  41	39.91
2:57:                  11	39.92
2:57:                  41	39.92
2:58:                  11	39.92
2:58:                  41	39.92
2:59:                  11	39.91
2:59:                  41	39.91
3:00:                  11	39.91
3:00:                  41	39.91
3:01:                  11	39.91
3:01:                  41	39.92
3:02:                  11	39.91
3:02:                  41	39.90
3:03:                  11	39.91
3:03:                  41	39.90
3:04:                  11	39.91
3:04:                  41	39.89
3:05:                  11	39.89
3:05:                  41	39.90
3:06:                  11	39.89
3:06:                  41	39.90
3:07:                  11	39.89
3:07:                  41	39.89
3:08:                  11	39.89
3:08:                  41	39.88
3:09:                  11	39.89
3:09:                  41	39.88
3:10:                  11	39.88
3:10:                  41	39.88
3:11:                  11	39.88
3:11:                  41	39.88
3:12:                  11	39.88
3:12:                  41	39.88
3:13:                  11	39.87
3:13:                  41	39.87
3:14:                  11	39.87
3:14:                  41	39.87
3:15:                  11	39.87
3:15:                  41	39.87
3:16:                  11	39.87
3:16:                  41	39.87
3:17:                  11	39.87
3:17:                  41	39.87
3:18:                  11	39.87
3:18:                  41	39.87
3:19:                  11	39.87
3:19:                  41	39.87
3:20:                  12	39.87
3:20:                  42	39.87
3:21:                  12	39.88
3:21:                  42	39.87
3:22:                  12	39.86
3:22:                  42	39.86
3:23:                  12	39.86
3:23:                  42	39.86
3:24:                  12	39.85
3:24:                  42	39.85
3:25:                  12	39.85
3:25:                  42	39.85
3:26:                  12	39.84
3:26:                  42	39.84
3:27:                  12	39.85
3:27:                  42	39.84
3:28:                  12	39.83
3:28:                  42	39.84
3:29:                  12	39.83
3:29:                  42	39.82
3:30:                  12	39.81
3:30:                  42	39.82
3:31:                  12	39.82
3:31:                  42	39.81
3:32:                  12	39.81
3:32:                  42	39.81
3:33:                  12	39.80
3:33:                  42	39.81
3:34:                  12	39.81
3:34:                  42	39.80
3:35:                  12	39.79
3:35:                  42	39.79
3:36:                  12	39.79
3:36:                  42	39.79
3:37:                  12	39.78
3:37:                  42	39.78
3:38:                  12	39.79
3:38:                  42	39.79
3:39:                  12	39.80
3:39:                  42	39.79
3:40:                  12	39.79
3:40:                  42	39.79
3:41:                  12	39.79
3:41:                  42	39.79
3:42:                  12	39.79
3:42:                  42	39.79
3:43:                  12	39.78
3:43:                  42	39.80
3:44:                  13	39.79
3:44:                  43	39.79
3:45:                  13	39.78
3:45:                  43	39.78
3:46:                  13	39.77
3:46:                  43	39.78
3:47:                  13	39.77
3:47:                  43	39.76
3:48:                  13	39.76
3:48:                  43	39.75
3:49:                  13	39.76
3:49:                  43	39.77
3:50:                  13	39.76
3:50:                  43	39.76
3:51:                  13	39.75
3:51:                  43	39.76
3:52:                  13	39.75
3:52:                  43	39.76
3:53:                  13	39.75
3:53:                  43	39.74
3:54:                  13	39.75
3:54:                  43	39.75
3:55:                  13	39.75
3:55:                  43	39.75
3:56:                  13	39.75
3:56:                  43	39.75
3:57:                  13	39.75
3:57:                  43	39.75
3:58:                  13	39.75
3:58:                  43	39.74
3:59:                  13	39.74
3:59:                  43	39.75
4:00:                  13	39.75
4:00:                  43	39.75
4:01:                  13	39.75
4:01:                  43	39.75
4:02:                  13	39.75
4:02:                  43	39.76
4:03:                  13	39.76
4:03:                  43	39.75
4:04:                  13	39.76
4:04:                  43	39.76
4:05:                  13	39.75
4:05:                  43	39.76
4:06:                  13	39.77
4:06:                  43	39.75
4:07:                  13	39.75
4:07:                  43	39.75
4:08:                  13	39.75
4:08:                  43	39.75
4:09:                  13	39.75
4:09:                  43	39.74
4:10:                  13	39.75
4:10:                  43	39.74
4:11:                  13	39.74
4:11:                  43	39.74
4:12:                  13	39.73
4:12:                  43	39.73
4:13:                  13	39.72
4:13:                  43	39.73
4:14:                  13	39.72
4:14:                  44	39.71
4:15:                  14	39.71
4:15:                  44	39.71
4:16:                  14	39.70
4:16:                  44	39.70
4:17:                  14	39.71
4:17:                  44	39.71
4:18:                  14	39.71
4:18:                  44	39.71
4:19:                  14	39.71
4:19:                  44	39.71
4:20:                  14	39.70
4:20:                  44	39.71
4:21:                  14	39.71
4:21:                  44	39.71
4:22:                  14	39.70
4:22:                  44	39.70
4:23:                  14	39.71
4:23:                  44	39.70
4:24:                  14	39.70
4:24:                  44	39.70
4:25:                  14	39.70
4:25:                  44	39.70
4:26:                  14	39.71
4:26:                  44	39.70
4:27:                  14	39.70
4:27:                  44	39.70
4:28:                  14	39.69
4:28:                  44	39.70
4:29:                  14	39.69
4:29:                  44	39.70
4:30:                  14	39.70
4:30:                  44	39.69
4:31:                  14	39.67
4:31:                  44	39.69
4:32:                  14	39.66
4:32:                  44	39.66
4:33:                  14	39.69
4:33:                  44	39.68
4:34:                  14	39.66
4:34:                  44	39.67
4:35:                  14	39.66
4:35:                  44	39.66
4:36:                  14	39.66
4:36:                  44	39.67
4:37:                  14	39.67
4:37:                  44	39.69
4:38:                  14	39.69
4:38:                  44	39.69
4:39:                  14	39.68
4:39:                  44	39.68
4:40:                  14	39.69
4:40:                  44	39.70
4:41:                  14	39.70
4:41:                  44	39.69
4:42:                  14	39.69
4:42:                  44	39.70
4:43:                  14	39.70
4:43:                  44	39.68
4:44:                  14	39.68
4:44:                  44	39.69
4:45:                  14	39.69
4:45:                  44	39.69
4:46:                  14	39.69
4:46:                  44	39.67
4:47:                  15	39.67
4:47:                  45	39.69
4:48:                  15	39.67
4:48:                  45	39.67
4:49:                  15	39.66
4:49:                  45	39.67
4:50:                  15	39.67
4:50:                  45	39.67
4:51:                  15	39.66
4:51:                  45	39.67
4:52:                  15	39.65
4:52:                  45	39.66
4:53:                  15	39.65
4:53:                  45	39.66
4:54:                  15	39.66
4:54:                  45	39.66
4:55:                  15	39.65
4:55:                  45	39.66
4:56:                  15	39.66
4:56:                  45	39.66
4:57:                  15	39.65
4:57:                  45	39.65
4:58:                  15	39.66
4:58:                  45	39.65
4:59:                  15	39.65
4:59:                  45	39.65
5:00:                  15	39.66
5:00:                  45	39.65
5:01:                  15	39.66
5:01:                  45	39.65
5:02:                  15	39.65
5:02:                  45	39.64
5:03:                  15	39.64
5:03:                  45	39.64
5:04:                  15	39.65
5:04:                  45	39.64
5:05:                  15	39.64
5:05:                  45	39.64
5:06:                  15	39.64
5:06:                  46	39.64
5:07:                  16	39.64
5:07:                  46	39.65
5:08:                  16	39.64
5:08:                  46	39.64
5:09:                  16	39.64
5:09:                  46	39.64
5:10:                  16	39.64
5:10:                  46	39.65
5:11:                  16	39.63
5:11:                  46	39.63
5:12:                  16	39.63
5:12:                  46	39.64
5:13:                  16	39.64
5:13:                  46	39.63
5:14:                  16	39.64
5:14:                  46	39.64
5:15:                  16	39.63
5:15:                  46	39.64
5:16:                  16	39.63
5:16:                  46	39.64
5:17:                  16	39.63
5:17:                  46	39.64
5:18:                  16	39.63
5:18:                  46	39.64
5:19:                  16	39.64
5:19:                  46	39.63
5:20:                  16	39.63
5:20:                  46	39.63
5:21:                  16	39.63
5:21:                  46	39.63
5:22:                  16	39.62
5:22:                  46	39.63
5:23:                  16	39.63
5:23:                  46	39.62
5:24:                  16	39.61
5:24:                  46	39.63
5:25:                  16	39.61
5:25:                  46	39.62
5:26:                  16	39.62
5:26:                  46	39.62
5:27:                  16	39.63
5:27:                  46	39.63
5:28:                  16	39.63
5:28:                  46	39.63
5:29:                  16	39.64
5:29:                  46	39.63
5:30:                  17	39.63
5:30:                  47	39.63
5:31:                  17	39.63
5:31:                  47	39.64
5:32:                  17	39.64
5:32:                  47	39.63
5:33:                  17	39.64
5:33:                  47	39.62
5:34:                  17	39.62
5:34:                  47	39.64
5:35:                  17	39.62
5:35:                  47	39.62
5:36:                  17	39.62
5:36:                  47	39.63
5:37:                  17	39.61
5:37:                  47	39.62
5:38:                  17	39.63
5:38:                  47	39.63
5:39:                  17	39.63
5:39:                  47	39.62
5:40:                  17	39.63
5:40:                  47	39.61
5:41:                  17	39.63
5:41:                  47	39.63
5:42:                  17	39.63
5:42:                  47	39.62
5:43:                  17	39.63
5:43:                  47	39.62
5:44:                  17	39.61
5:44:                  47	39.62
5:45:                  17	39.62
5:45:                  47	39.62
5:46:                  17	39.62
5:46:                  47	39.61
5:47:                  17	39.61
5:47:                  47	39.61
5:48:                  17	39.60
5:48:                  47	39.59
5:49:                  17	39.60
5:49:                  47	39.59
5:50:                  17	39.59
5:50:                  47	39.59
5:51:                  17	39.58
5:51:                  47	39.59
5:52:                  17	39.59
5:52:                  47	39.58
5:53:                  17	39.58
5:53:                  47	39.59
5:54:                  17	39.58
5:54:                  47	39.58
5:55:                  17	39.58
5:55:                  47	39.58
5:56:                  17	39.58
5:56:                  47	39.58
5:57:                  17	39.57
5:57:                  47	39.58
5:58:                  17	39.58
5:58:                  48	39.58
5:59:                  18	39.58
5:59:                  48	39.58
6:00:                  18	39.58
6:00:                  48	39.58
6:01:                  18	39.58
6:01:                  48	39.59
6:02:                  18	39.58
6:02:                  48	39.58
6:03:                  18	39.58
6:03:                  48	39.58
6:04:                  18	39.58
6:04:                  48	39.57
6:05:                  18	39.58
6:05:                  48	39.57
6:06:                  18	39.56
6:06:                  48	39.58
6:07:                  18	39.57
6:07:                  48	39.57
6:08:                  18	39.57
6:08:                  48	39.58
6:09:                  18	39.58
6:09:                  48	39.58
6:10:                  18	39.57
6:10:                  48	39.58
6:11:                  18	39.57
6:11:                  48	39.58
6:12:                  18	39.58
6:12:                  48	39.58
6:13:                  18	39.58
6:13:                  48	39.58
6:14:                  18	39.57
6:14:                  48	39.57
6:15:                  18	39.57
6:15:                  48	39.56
6:16:                  18	39.56
6:16:                  48	39.56
6:17:                  18	39.58
6:17:                  48	39.57
6:18:                  18	39.57
6:18:                  48	39.57
6:19:                  18	39.57
6:19:                  48	39.58
6:20:                  18	39.57
6:20:                  48	39.56
6:21:                  18	39.57
6:21:                  48	39.56
6:22:                  18	39.56
6:22:                  48	39.57
6:23:                  18	39.57
6:23:                  48	39.55
6:24:                  19	39.56
6:24:                  49	39.56
6:25:                  19	39.55
6:25:                  49	39.56
6:26:                  19	39.56
6:26:                  49	39.56
6:27:                  19	39.56
6:27:                  49	39.57
6:28:                  19	39.55
6:28:                  49	39.55
6:29:                  19	39.55
6:29:                  49	39.55
6:30:                  19	39.56
6:30:                  49	39.54
6:31:                  19	39.53
6:31:                  49	39.54
6:32:                  19	39.55
6:32:                  49	39.54
6:33:                  19	39.53
6:33:                  49	39.54
6:34:                  19	39.54
6:34:                  49	39.54
6:35:                  19	39.53
6:35:                  49	39.52
6:36:                  19	39.53
6:36:                  49	39.53
6:37:                  19	39.52
6:37:                  49	39.53
6:38:                  19	39.53
6:38:                  49	39.53
6:39:                  19	39.53
6:39:                  49	39.53
6:40:                  19	39.53
6:40:                  49	39.52
6:41:                  19	39.54
6:41:                  49	39.53
6:42:                  19	39.53
6:42:                  49	39.52
6:43:                  19	39.52
6:43:                  49	39.51
6:44:                  19	39.52
6:44:                  49	39.51
6:45:                  19	39.52
6:45:                  49	39.52
6:46:                  19	39.52
6:46:                  49	39.52
6:47:                  19	39.51
6:47:                  49	39.51
6:48:                  19	39.52
6:48:                  49	39.51
6:49:                  19	39.52
6:49:                  49	39.51
6:50:                  19	39.51
6:50:                  49	39.51
6:51:                  20	39.51
6:51:                  50	39.50
6:52:                  20	39.51
6:52:                  50	39.50
6:53:                  20	39.51
6:53:                  50	39.51
6:54:                  20	39.51
6:54:                  50	39.51
6:55:                  20	39.51
6:55:                  50	39.50
6:56:                  20	39.50
6:56:                  50	39.52
6:57:                  20	39.52
6:57:                  50	39.52
6:58:                  20	39.51
6:58:                  50	39.53
6:59:                  20	39.53
6:59:                  50	39.52
7:00:                  20	39.53
7:00:                  50	39.53
7:01:                  20	39.51
7:01:                  50	39.52
7:02:                  20	39.52
7:02:                  50	39.53
7:03:                  20	39.53
7:03:                  50	39.53
7:04:                  20	39.53
7:04:                  50	39.54
7:05:                  20	39.54
7:05:                  50	39.54
7:06:                  20	39.55
7:06:                  50	39.56
7:07:                  20	39.55
7:07:                  50	39.54
7:08:                  20	39.56
7:08:                  50	39.55
7:09:                  20	39.53
7:09:                  50	39.55
7:10:                  20	39.54
7:10:                  50	39.54
7:11:                  20	39.54
7:11:                  50	39.53
7:12:                  20	39.53
7:12:                  50	39.53
7:13:                  20	39.53
7:13:                  50	39.53
7:14:                  20	39.53
7:14:                  50	39.52
7:15:                  20	39.52
7:15:                  51	39.53
7:16:                  21	39.52
7:16:                  51	39.51
7:17:                  21	39.49
7:17:                  51	39.49
7:18:                  21	39.50
7:18:                  51	39.50
7:19:                  21	39.50
7:19:                  51	39.50
7:20:                  21	39.51
7:20:                  51	39.53
7:21:                  21	39.50
7:21:                  51	39.51
7:22:                  21	39.51
7:22:                  51	39.50
7:23:                  21	39.50
7:23:                  51	39.49
7:24:                  21	39.48
7:24:                  51	39.45
7:25:                  21	39.48
7:25:                  51	39.50
7:26:                  21	39.51
7:26:                  51	39.48
7:27:                  21	39.50
7:27:                  51	39.50
7:28:                  21	39.47
7:28:                  51	39.47
7:29:                  21	39.50
7:29:                  51	39.48
7:30:                  21	39.48
7:30:                  51	39.49
7:31:                  21	39.46
7:31:                  51	39.41
7:32:                  21	39.42
7:32:                  51	39.42
7:33:                  21	39.43
7:33:                  51	39.43
7:34:                  21	39.41
7:34:                  51	39.38
7:35:                  21	39.37
7:35:                  51	39.40
7:36:                  21	39.37
7:36:                  51	39.38
7:37:                  21	39.42
7:37:                  51	39.33
7:38:                  21	39.37
7:38:                  51	39.40
7:39:                  21	39.38
7:39:                  51	39.36
7:40:                  21	39.34
7:40:                  51	39.27
7:41:                  21	39.24
7:41:                  51	39.20
7:42:                  21	39.21
7:42:                  51	39.18
7:43:                  21	39.16
7:43:                  51	39.12
7:44:                  21	39.06
7:44:                  51	39.00
7:45:                  21	38.94
7:45:                  51	38.86
7:46:                  21	38.81
7:46:                  52	38.79
7:47:                  22	38.76
7:47:                  52	38.71
7:48:                  22	38.65
7:48:                  52	38.61
7:49:                  22	38.55
7:49:                  52	38.53
7:50:                  22	38.53
7:50:                  52	38.52
7:51:                  22	38.50
7:51:                  52	38.49
7:52:                  22	38.49
7:52:                  52	38.51
7:53:                  22	38.52
7:53:                  52	38.53
7:54:                  22	38.54
7:54:                  52	38.55
7:55:                  22	38.56
7:55:                  52	38.58
7:56:                  22	38.58
7:56:                  52	38.57
7:57:                  22	38.58
7:57:                  52	38.58
7:58:                  22	38.59
7:58:                  52	38.59
7:59:                  22	38.58
7:59:                  52	38.60
8:00:                  22	38.60
8:00:                  52	38.62
8:01:                  22	38.62
8:01:                  52	38.63
8:02:                  22	38.62
8:02:                  52	38.62
8:03:                  22	38.66
8:03:                  52	38.67
8:04:                  22	38.70
8:04:                  52	38.71
8:05:                  22	38.73
8:05:                  52	38.76
8:06:                  22	38.75
8:06:                  52	38.76
8:07:                  22	38.78
8:07:                  52	38.78
8:08:                  22	38.80
8:08:                  52	38.82
8:09:                  22	38.84
8:09:                  52	38.83
8:10:                  22	38.84
8:10:                  52	38.83
8:11:                  22	38.83
8:11:                  52	38.84
8:12:                  22	38.83
8:12:                  52	38.83
8:13:                  22	38.84
8:13:                  52	38.85
8:14:                  23	38.83
8:14:                  53	38.80
8:15:                  23	38.80
8:15:                  53	38.79
8:16:                  23	38.79
8:16:                  53	38.76
8:17:                  23	38.76
8:17:                  53	38.75
8:18:                  23	38.76
8:18:                  53	38.76
8:19:                  23	38.73
8:19:                  53	38.70
8:20:                  23	38.67
8:20:                  53	38.70
8:21:                  23	38.68
8:21:                  53	38.62
8:22:                  23	38.56
8:22:                  53	38.52
8:23:                  23	38.47
8:23:                  53	38.40
8:24:                  23	38.37
8:24:                  53	38.31
8:25:                  23	38.28
8:25:                  53	38.28
8:26:                  23	38.25
8:26:                  53	38.22
8:27:                  23	38.23
8:27:                  53	38.26
8:28:                  23	38.26
8:28:                  53	38.25
8:29:                  23	38.24
8:29:                  53	38.20
8:30:                  23	38.18
8:30:                  53	38.19
8:31:                  23	38.17
8:31:                  53	38.19
8:32:                  23	38.18
8:32:                  53	38.20
8:33:                  23	38.16
8:33:                  53	38.15
8:34:                  23	38.11
8:34:                  53	38.13
8:35:                  23	38.15
8:35:                  53	38.14
8:36:                  23	38.17
8:36:                  54	38.19
8:37:                  24	38.17
8:37:                  54	38.18
8:38:                  24	38.20
8:38:                  54	38.17
8:39:                  24	38.18
8:39:                  54	38.20
8:40:                  24	38.19
8:40:                  54	38.20
8:41:                  24	38.21
8:41:                  54	38.24
8:42:                  24	38.24
8:42:                  54	38.26
8:43:                  24	38.27
8:43:                  54	38.29
8:44:                  24	38.31
8:44:                  54	38.35
8:45:                  24	38.37
8:45:                  54	38.40
8:46:                  24	38.44
8:46:                  54	38.45
8:47:                  24	38.47
8:47:                  54	38.51
8:48:                  24	38.54
8:48:                  54	38.55
8:49:                  24	38.59
8:49:                  54	38.60
8:50:                  24	38.64
8:50:                  54	38.67
8:51:                  24	38.73
8:51:                  54	38.74
8:52:                  24	38.78
8:52:                  54	38.80
8:53:                  24	38.80
8:53:                  54	38.83
8:54:                  24	38.83
8:54:                  54	38.85
8:55:                  24	38.86
8:55:                  54	38.90
8:56:                  24	38.90
8:56:                  54	38.94
8:57:                  24	38.93
8:57:                  54	38.96
8:58:                  24	38.99
8:58:                  54	39.02
8:59:                  24	39.02
8:59:                  54	39.04
9:00:                  24	39.06
9:00:                  54	39.07
9:01:                  25	39.09
9:01:                  55	39.11
9:02:                  25	39.13
9:02:                  55	39.15
9:03:                  25	39.15
9:03:                  55	39.16
9:04:                  25	39.15
9:04:                  55	39.15
9:05:                  25	39.16
9:05:                  55	39.18
9:06:                  25	39.19
9:06:                  55	39.19
9:07:                  25	39.19
9:07:                  55	39.16
9:08:                  25	39.16
9:08:                  55	39.12
9:09:                  25	39.09
9:09:                  55	39.12
9:10:                  25	39.12
9:10:                  55	39.13
9:11:                  25	39.08
9:11:                  55	39.11
9:12:                  25	39.08
9:12:                  55	39.08
9:13:                  25	39.08
9:13:                  55	39.08
9:14:                  25	39.09
9:14:                  55	39.09
9:15:                  25	39.07
9:15:                  55	39.03
9:16:                  25	39.03
9:16:                  55	39.01
9:17:                  25	39.03
9:17:                  55	39.02
9:18:                  25	39.03
9:18:                  55	39.03
9:19:                  25	39.03
9:19:                  55	39.03
9:20:                  25	39.04
9:20:                  55	39.06
9:21:                  26	39.05
9:21:                  56	39.06
9:22:                  26	39.06
9:22:                  56	39.06
9:23:                  26	39.07
9:23:                  56	39.08
9:24:                  26	39.04
9:24:                  56	39.06
9:25:                  26	39.08
9:25:                  56	39.07
9:26:                  26	39.07
9:26:                  56	39.07
9:27:                  26	39.11
9:27:                  56	39.12
9:28:                  26	39.12
9:28:                  56	39.13
9:29:                  26	39.15
9:29:                  56	39.18
9:30:                  26	39.20
9:30:                  56	39.20
9:31:                  26	39.23
9:31:                  56	39.24
9:32:                  26	39.24
9:32:                  56	39.25
9:33:                  26	39.27
9:33:                  56	39.28
9:34:                  26	39.30
9:34:                  56	39.32
9:35:                  26	39.31
9:35:                  56	39.33
9:36:                  26	39.32
9:36:                  56	39.33
9:37:                  26	39.35
9:37:                  56	39.34
9:38:                  26	39.36
9:38:                  56	39.38
9:39:                  26	39.38
9:39:                  56	39.39
9:40:                  26	39.39
9:40:                  56	39.39
9:41:                  26	39.41
9:41:                  57	39.43
9:42:                  27	39.40
9:42:                  57	39.42
9:43:                  27	39.44
9:43:                  57	39.43
9:44:                  27	39.44
9:44:                  57	39.45
9:45:                  27	39.47
9:45:                  57	39.48
9:46:                  27	39.48
9:46:                  57	39.50
9:47:                  27	39.52
9:47:                  57	39.54
9:48:                  27	39.54
9:48:                  57	39.56
9:49:                  27	39.58
9:49:                  57	39.60
9:50:                  27	39.61
9:50:                  57	39.63
9:51:                  27	39.65
9:51:                  57	39.66
9:52:                  27	39.67
9:52:                  57	39.70
9:53:                  27	39.74
9:53:                  57	39.74
9:54:                  27	39.76
9:54:                  57	39.76
9:55:                  27	39.75
9:55:                  57	39.75
9:56:                  27	39.78
9:56:                  57	39.82
9:57:                  27	39.84
9:57:                  57	39.84
9:58:                  27	39.87
9:58:                  57	39.87
9:59:                  27	39.89
9:59:                  57	39.91
10:00:                  27	39.91
10:00:                  57	39.91
10:01:                  28	39.93
10:01:                  58	39.94
10:02:                  28	39.94
10:02:                  58	39.96
10:03:                  28	39.99
10:03:                  58	40.00
10:04:                  28	39.99
10:04:                  58	40.00
10:05:                  28	40.03
10:05:                  58	40.03
10:06:                  28	40.05
10:06:                  58	40.06
10:07:                  28	40.09
10:07:                  58	40.11
10:08:                  28	40.13
10:08:                  58	40.14
10:09:                  28	40.15
10:09:                  58	40.17
10:10:                  28	40.19
10:10:                  58	40.18
10:11:                  28	40.22
10:11:                  58	40.25
10:12:                  28	40.25
10:12:                  58	40.23
10:13:                  28	40.26
10:13:                  58	40.28
10:14:                  28	40.27
10:14:                  58	40.31
10:15:                  28	40.33
10:15:                  58	40.32
10:16:                  28	40.36
10:16:                  58	40.35
10:17:                  28	40.36
10:17:                  58	40.30
10:18:                  28	40.37
10:18:                  58	40.39
10:19:                  28	40.40
10:19:                  58	40.40
10:20:                  28	40.41
10:20:                  58	40.40
10:21:                  28	40.37
10:21:                  58	40.40
10:22:                  28	40.42
10:22:                  58	40.43
10:23:                  28	40.42
10:23:                  59	40.45
10:24:                  29	40.45
10:24:                  59	40.46
10:25:                  29	40.43
10:25:                  59	40.45
10:26:                  29	40.44
10:26:                  59	40.46
10:27:                  29	40.49
10:27:                  59	40.49
10:28:                  29	40.49
10:28:                  59	40.49
10:29:                  29	40.46
10:29:                  59	40.52
10:30:                  29	40.55
10:30:                  59	40.57
10:31:                  29	40.59
10:31:                  59	40.62
10:32:                  29	40.58
10:32:                  59	40.62
10:33:                  29	40.65
10:33:                  59	40.68
10:34:                  29	40.68
10:34:                  59	40.66
10:35:                  29	40.68
10:35:                  59	40.71
10:36:                  29	40.72
10:36:                  59	40.76
10:37:                  29	40.74
10:37:                  59	40.78
10:38:                  29	40.82
10:38:                  59	40.80
10:39:                  29	40.86
10:39:                  59	40.85
10:40:                  29	40.86
10:40:                  59	40.94
10:41:                  29	41.01
10:41:                  59	41.02
10:42:                  29	41.05
10:42:                  59	41.00
10:43:                  29	40.97
10:43:                  59	40.96
10:44:                  29	41.02
10:44:                  59	41.08
10:45:                  29	41.07
10:45:                  59	41.10
10:46:                  29	41.10
10:46:                  59	41.13
10:47:                  29	41.10
10:47:                  59	41.09
10:48:                  29	41.18
10:48:                  59	41.17
10:49:                  29	41.17
10:49:                  59	41.18
10:50:                  29	41.19
10:51:                   0	41.25
10:51:                  30	41.27
10:52:                   0	41.27
10:52:                  30	41.30
10:53:                   0	41.33
10:53:                  30	41.35
10:54:                   0	41.33
10:54:                  30	41.34
10:55:                   0	41.37
10:55:                  30	41.41
10:56:                   0	41.48
10:56:                  30	41.47
10:57:                   0	41.47
10:57:                  30	41.46
10:58:                   0	41.53
10:58:                  30	41.53
10:59:                   0	41.55
10:59:                  30	41.59
11:00:                   0	41.62
11:00:                  30	41.68
11:01:                   0	41.62
11:01:                  30	41.63
11:02:                   0	41.66
11:02:                  30	41.72
11:03:                   0	41.74
11:03:                  30	41.70
11:04:                   0	41.74
11:04:                  30	41.77
11:05:                   0	41.86
11:05:                  30	41.90
11:06:                   0	41.83
11:06:                  30	41.86
11:07:                   0	41.87
11:07:                  30	41.87
11:08:                   0	41.87
11:08:                  30	41.92
11:09:                   0	41.90
11:09:                  30	42.02
11:10:                   0	42.05
11:10:                  30	42.07
11:11:                   0	42.02
11:11:                  31	42.00
11:12:                   1	42.06
11:12:                  31	42.12
11:13:                   1	42.21
11:13:                  31	42.17
11:14:                   1	42.17
11:14:                  31	42.22
11:15:                   1	42.24
11:15:                  31	42.24
11:16:                   1	42.34
11:16:                  31	42.36
11:17:                   1	42.41
11:17:                  31	42.40
11:18:                   1	42.37
11:18:                  31	42.36
11:19:                   1	42.51
11:19:                  31	42.48
11:20:                   1	42.47
11:20:                  31	42.57
11:21:                   1	42.61
11:21:                  31	42.63
11:22:                   1	42.62
11:22:                  31	42.66
11:23:                   1	42.66
11:23:                  31	42.67
11:24:                   1	42.71
11:24:                  31	42.66
11:25:                   1	42.68
11:25:                  31	42.75
11:26:                   1	42.81
11:26:                  31	42.89
11:27:                   1	42.91
11:27:                  31	42.92
11:28:                   1	42.95
11:28:                  31	42.94
11:29:                   1	43.03
11:29:                  31	43.03
11:30:                   1	43.01
11:30:                  31	43.04
11:31:                   1	43.07
11:31:                  31	43.08
11:32:                   1	43.10
11:32:                  31	43.15
11:33:                   1	43.19
11:33:                  31	43.19
11:34:                   2	43.19
11:34:                  32	43.15
11:35:                   2	43.21
11:35:                  32	43.17
11:36:                   2	43.09
11:36:                  32	43.12
11:37:                   2	43.15
11:37:                  32	43.16
11:38:                   2	43.15
11:38:                  32	43.21
11:39:                   2	43.22
11:39:                  32	43.20
11:40:                   2	43.21
11:40:                  32	43.19
11:41:                   2	43.19
11:41:                  32	43.27
11:42:                   2	43.26
11:42:                  32	43.28
11:43:                   2	43.26
11:43:                  32	43.24
11:44:                   2	43.26
11:44:                  32	43.27
11:45:                   2	43.28
11:45:                  32	43.22
11:46:                   2	43.28
11:46:                  32	43.39
11:47:                   2	43.39
11:47:                  32	43.52
11:48:                   2	43.52
11:48:                  32	43.54
11:49:                   2	43.57
11:49:                  32	43.61
11:50:                   2	43.69
11:50:                  32	43.74
11:51:                   2	43.72
11:51:                  32	43.72
11:52:                   2	43.77
11:52:                  32	43.80
11:53:                   2	43.76
11:53:                  32	43.80
11:54:                   2	43.82
11:54:                  32	43.81
11:55:                   2	43.79
11:55:                  32	43.83
11:56:                   3	43.83
11:56:                  33	43.85
11:57:                   3	43.89
11:57:                  33	43.94
11:58:                   3	44.00
11:58:                  33	44.01
11:59:                   3	44.00
11:59:                  33	43.99
12:00:                   3	43.90
12:00:                  33	43.97
12:01:                   3	43.89
12:01:                  33	43.84
12:02:                   3	43.87
12:02:                  33	43.83
12:03:                   3	43.84
12:03:                  33	43.75
12:04:                   3	43.66
12:04:                  33	43.70
12:05:                   3	43.68
12:05:                  33	43.65
12:06:                   3	43.63
12:06:                  33	43.63
12:07:                   3	43.62
12:07:                  33	43.67
12:08:                   3	43.62
12:08:                  33	43.61
12:09:                   3	43.59
12:09:                  33	43.60
12:10:                   3	43.58
12:10:                  33	43.55
12:11:                   3	43.60
12:11:                  33	43.56
12:12:                   3	43.50
12:12:                  33	43.53
12:13:                   3	43.58
12:13:                  33	43.61
12:14:                   3	43.41
12:14:                  33	43.47
12:15:                   3	43.57
12:15:                  33	43.58
12:16:                   3	43.57
12:16:                  33	43.62
12:17:                   3	43.66
12:17:                  33	43.73
12:18:                   3	43.70
12:18:                  33	43.77
12:19:                   3	43.80
12:19:                  33	43.86
12:20:                   3	43.87
12:20:                  33	43.89
12:21:                   3	43.96
12:21:                  33	43.93
12:22:                   3	43.88
12:22:                  33	43.85
12:23:                   3	43.91
12:23:                  33	43.88
12:24:                   3	43.93
12:24:                  33	43.85
12:25:                   3	43.90
12:25:                  33	43.93
12:26:                   3	43.84
12:26:                  33	43.80
12:27:                   3	43.76
12:27:                  33	43.69
12:28:                   3	43.64
12:28:                  33	43.65
12:29:                   3	43.71
12:29:                  33	43.63
12:30:                   4	43.59
12:30:                  34	43.68
12:31:                   4	43.69
12:31:                  34	43.68
12:32:                   4	43.71
12:32:                  34	43.79
12:33:                   4	43.78
12:33:                  34	43.71
12:34:                   4	43.75
12:34:                  34	43.73
12:35:                   4	43.74
12:35:                  34	43.86
12:36:                   4	43.91
12:36:                  34	43.91
12:37:                   4	43.94
12:37:                  34	43.99
12:38:                   4	44.06
12:38:                  34	44.10
12:39:                   4	44.15
12:39:                  34	44.19
12:40:                   4	44.20
12:40:                  34	44.28
12:41:                   4	44.32
12:41:                  34	44.38
12:42:                   4	44.39
12:42:                  34	44.44
12:43:                   4	44.49
12:43:                  34	44.55
12:44:                   4	44.56
12:44:                  34	44.62
12:45:                   4	44.68
12:45:                  34	44.78
12:46:                   4	44.74
12:46:                  34	44.74
12:47:                   4	44.78
12:47:                  34	44.81
12:48:                   4	44.79
12:48:                  34	44.82
12:49:                   4	44.82
12:49:                  34	44.84
12:50:                   5	44.83
12:50:                  35	44.80
12:51:                   5	44.84
12:51:                  35	44.83
12:52:                   5	44.85
12:52:                  35	44.86
12:53:                   5	44.86
12:53:                  35	44.81
12:54:                   5	44.80
12:54:                  35	44.79
12:55:                   5	44.88
12:55:                  35	44.84
12:56:                   5	44.87
12:56:                  35	44.88
12:57:                   5	44.91
12:57:                  35	44.89
12:58:                   5	44.93
12:58:                  35	44.99
12:59:                   5	45.04
12:59:                  35	45.05
13:00:                   5	45.08
13:00:                  35	45.15
13:01:                   5	45.13
13:01:                  35	45.14
13:02:                   5	45.09
13:02:                  35	45.12
13:03:                   5	45.13
13:03:                  35	45.19
13:04:                   5	45.20
13:04:                  35	45.20
13:05:                   5	45.19
13:05:                  35	45.26
13:06:                   5	45.26
13:06:                  35	45.23
13:07:                   5	45.28
13:07:                  35	45.29
13:08:                   5	45.29
13:08:                  35	45.31
13:09:                   5	45.29
13:09:                  35	45.33
13:10:                   5	45.40
13:10:                  35	45.45
13:11:                   5	45.33
13:11:                  35	45.36
13:12:                   5	45.36
13:12:                  35	45.42
13:13:                   5	45.41
13:13:                  35	45.43
13:14:                   5	45.42
13:14:                  35	45.45
13:15:                   6	45.43
13:15:                  36	45.41
13:16:                   6	45.46
13:16:                  36	45.40
13:17:                   6	45.40
13:17:                  36	45.35
13:18:                   6	45.36
13:18:                  36	45.29
13:19:                   6	45.26
13:19:                  36	45.16
13:20:                   6	45.13
13:20:                  36	45.11
13:21:                   6	45.01
13:21:                  36	45.01
13:22:                   6	44.96
13:22:                  36	44.95
13:23:                   6	44.86
13:23:                  36	44.75
13:24:                   6	44.69
13:24:                  36	44.59
13:25:                   6	44.49
13:25:                  36	44.43
13:26:                   6	44.38
13:26:                  36	44.32
13:27:                   6	44.30
13:27:                  36	44.27
13:28:                   6	44.21
13:28:                  36	44.16
13:29:                   6	44.13
13:29:                  36	44.04
13:30:                   6	44.00
13:30:                  36	43.87
13:31:                   6	43.91
13:31:                  36	43.91
13:32:                   6	43.88
13:32:                  36	43.94
13:33:                   6	43.92
13:33:                  36	43.85
13:34:                   6	43.87
13:34:                  36	43.93
13:35:                   6	43.91
13:35:                  36	43.97
13:36:                   6	44.01
13:36:                  36	44.04
13:37:                   6	44.11
13:37:                  36	44.17
13:38:                   6	44.11
13:38:                  36	44.13
13:39:                   6	44.17
13:39:                  36	44.14
13:40:                   6	44.12
13:40:                  36	44.15
13:41:                   6	44.08
13:41:                  36	44.01
13:42:                   6	44.03
13:42:                  36	43.98
13:43:                   6	43.97
13:43:                  36	44.01
13:44:                   6	44.01
13:44:                  36	43.93
13:45:                   6	43.89
13:45:                  36	43.90
13:46:                   7	43.87
13:46:                  37	43.84
13:47:                   7	43.84
13:47:                  37	43.82
13:48:                   7	43.77
13:48:                  37	43.70
13:49:                   7	43.69
13:49:                  37	43.66
13:50:                   7	43.67
13:50:                  37	43.75
13:51:                   7	43.66
13:51:                  37	43.68
13:52:                   7	43.67
13:52:                  37	43.65
13:53:                   7	43.66
13:53:                  37	43.65
13:54:                   7	43.66
13:54:                  37	43.65
13:55:                   7	43.68
13:55:                  37	43.63
13:56:                   7	43.67
13:56:                  37	43.69
13:57:                   7	43.75
13:57:                  37	43.62
13:58:                   7	43.67
13:58:                  37	43.71
13:59:                   7	43.73
13:59:                  37	43.80
14:00:                   7	43.80
14:00:                  37	43.88
14:01:                   7	43.92
14:01:                  37	43.95
14:02:                   7	43.96
14:02:                  37	43.98
14:03:                   7	43.94
14:03:                  37	43.94
14:04:                   7	43.98
14:04:                  37	43.93
14:05:                   7	43.90
14:05:                  37	43.89
14:06:                   7	43.92
14:06:                  38	43.92
14:07:                   8	43.93
14:07:                  38	43.92
14:08:                   8	43.89
14:08:                  38	43.88
14:09:                   8	43.91
14:09:                  38	43.94
14:10:                   8	43.93
14:10:                  38	43.91
14:11:                   8	43.95
14:11:                  38	43.95
14:12:                   8	44.00
14:12:                  38	44.03
14:13:                   8	44.05
14:13:                  38	44.07
14:14:                   8	44.11
14:14:                  38	44.12
14:15:                   8	44.05
14:15:                  38	44.11
14:16:                   8	44.17
14:16:                  38	44.11
14:17:                   8	44.11
14:17:                  38	44.04
14:18:                   8	44.06
14:18:                  38	44.04
14:19:                   8	44.00
14:19:                  38	44.03
14:20:                   8	44.02
14:20:                  38	44.01
14:21:                   8	44.00
14:21:                  38	44.04
14:22:                   8	44.01
14:22:                  38	44.05
14:23:                   8	44.02
14:23:                  38	43.99
14:24:                   9	43.92
14:24:                  39	43.88
14:25:                   9	43.90
14:25:                  39	43.88
14:26:                   9	43.85
14:26:                  39	43.86
14:27:                   9	43.84
14:27:                  39	43.76
14:28:                   9	43.77
14:28:                  39	43.78
14:29:                   9	43.60
14:29:                  39	43.57
14:30:                   9	43.53
14:30:                  39	43.55
14:31:                   9	43.58
14:31:                  39	43.57
14:32:                   9	43.59
14:32:                  39	43.60
14:33:                   9	43.63
14:33:                  39	43.60
14:34:                   9	43.62
14:34:                  39	43.63
14:35:                   9	43.62
14:35:                  39	43.62
14:36:                   9	43.59
14:36:                  39	43.53
14:37:                   9	43.54
14:37:                  39	43.49
14:38:                   9	43.34
14:38:                  39	43.30
14:39:                   9	43.30
14:39:                  39	43.17
14:40:                   9	43.09
14:40:                  39	43.03
14:41:                   9	42.97
14:41:                  39	42.93
14:42:                   9	42.87
14:42:                  39	42.85
14:43:                   9	42.85
14:43:                  40	42.86
14:44:                  10	42.78
14:44:                  40	42.79
14:45:                  10	42.74
14:45:                  40	42.74
14:46:                  10	42.76
14:46:                  40	42.78
14:47:                  10	42.79
14:47:                  40	42.80
14:48:                  10	42.78
14:48:                  40	42.73
14:49:                  10	42.71
14:49:                  40	42.70
14:50:                  10	42.64
14:50:                  40	42.62
14:51:                  10	42.59
14:51:                  40	42.56
14:52:                  10	42.52
14:52:                  40	42.47
14:53:                  10	42.55
14:53:                  40	42.60
14:54:                  10	42.62
14:54:                  40	42.63
14:55:                  10	42.64
14:55:                  40	42.59
14:56:                  10	42.49
14:56:                  40	42.51
14:57:                  10	42.53
14:57:                  40	42.60
14:58:                  10	42.61
14:58:                  40	42.67
14:59:                  10	42.75
14:59:                  40	42.79
15:00:                  10	42.80
15:00:                  40	42.76
15:01:                  10	42.79
15:01:                  40	42.80
15:02:                  10	42.78
15:02:                  40	42.69
15:03:                  10	42.46
15:03:                  40	42.09
15:04:                  10	42.08
15:04:                  41	42.17
15:05:                  11	42.02
15:05:                  41	42.11
15:06:                  11	42.23
15:06:                  41	42.24
15:07:                  11	42.25
15:07:                  41	42.24
15:08:                  11	42.30
15:08:                  41	42.21
15:09:                  11	42.22
15:09:                  41	42.21
15:10:                  11	42.19
15:10:                  41	42.09
15:11:                  11	41.97
15:11:                  41	41.81
15:12:                  11	41.71
15:12:                  41	41.74
15:13:                  11	41.86
15:13:                  41	41.93
15:14:                  11	41.90
15:14:                  41	41.78
15:15:                  11	41.71
15:15:                  41	41.53
15:16:                  11	41.57
15:16:                  41	41.64
15:17:                  11	41.76
15:17:                  41	41.89
15:18:                  11	41.92
15:18:                  41	42.01
15:19:                  11	42.08
15:19:                  41	42.11
15:20:                  11	42.10
15:20:                  41	42.13
15:21:                  11	42.14
15:21:                  41	42.11
15:22:                  11	42.17
15:22:                  41	42.15
15:23:                  11	42.14
15:23:                  41	42.12
15:24:                  11	42.13
15:24:                  41	42.09
15:25:                  12	42.08
15:25:                  42	42.01
15:26:                  12	41.98
15:26:                  42	42.01
15:27:                  12	41.99
15:27:                  42	42.00
15:28:                  12	41.99
15:28:                  42	41.98
15:29:                  12	41.95
15:29:                  42	42.01
15:30:                  12	42.02
15:30:                  42	42.02
15:31:                  12	42.02
15:31:                  42	41.99
15:32:                  12	41.99
15:32:                  42	41.94
15:33:                  12	41.92
15:33:                  42	41.89
15:34:                  12	41.89
15:34:                  42	41.83
15:35:                  12	41.81
15:35:                  42	41.82
15:36:                  12	41.79
15:36:                  42	41.80
15:37:                  12	41.84
15:37:                  42	41.83
15:38:                  12	41.88
15:38:                  42	41.89
15:39:                  12	41.92
15:39:                  42	41.88
15:40:                  12	41.95
15:40:                  42	42.02
15:41:                  12	42.01
15:41:                  42	41.98
15:42:                  12	41.95
15:42:                  42	41.96
15:43:                  13	41.96
15:43:                  43	41.92
15:44:                  13	41.93
15:44:                  43	41.93
15:45:                  13	41.93
15:45:                  43	41.74
15:46:                  13	41.68
15:46:                  43	41.65
15:47:                  13	41.68
15:47:                  43	41.71
15:48:                  13	41.61
15:48:                  43	41.67
15:49:                  13	41.62
15:49:                  43	41.44
15:50:                  13	41.34
15:50:                  43	41.31
15:51:                  13	41.28
15:51:                  43	41.35
15:52:                  13	41.42
15:52:                  43	41.49
15:53:                  13	41.65
15:53:                  43	41.59
15:54:                  13	41.70
15:54:                  43	41.77
15:55:                  13	41.80
15:55:                  43	41.87
15:56:                  13	41.88
15:56:                  43	41.91
15:57:                  13	41.93
15:57:                  43	41.92
15:58:                  13	41.91
15:58:                  43	41.92
15:59:                  13	41.90
15:59:                  43	41.86
16:00:                  14	41.83
16:00:                  44	41.70
16:01:                  14	41.68
16:01:                  44	41.72
16:02:                  14	41.78
16:02:                  44	41.72
16:03:                  14	41.50
16:03:                  44	41.34
16:04:                  14	41.27
16:04:                  44	41.38
16:05:                  14	41.50
16:05:                  44	41.57
16:06:                  14	41.52
16:06:                  44	41.45
16:07:                  14	41.54
16:07:                  44	41.65
16:08:                  14	41.69
16:08:                  44	41.74
16:09:                  14	41.79
16:09:                  44	41.82
16:10:                  14	41.83
16:10:                  44	41.83
16:11:                  14	41.84
16:11:                  44	41.71
16:12:                  14	41.53
16:12:                  44	41.62
16:13:                  14	41.65
16:13:                  44	41.71
16:14:                  14	41.76
16:14:                  44	41.74
16:15:                  14	41.75
16:15:                  44	41.81
16:16:                  14	41.80
16:16:                  44	41.83
16:17:                  14	41.79
16:17:                  45	41.54
16:18:                  15	41.53
16:18:                  45	41.54
16:19:                  15	41.54
16:19:                  45	41.48
16:20:                  15	41.66
16:20:                  45	41.67
16:21:                  15	41.69
16:21:                  45	41.74
16:22:                  15	41.72
16:22:                  45	41.70
16:23:                  15	41.64
16:23:                  45	41.70
16:24:                  15	41.53
16:24:                  45	41.12
16:25:                  15	41.03
16:25:                  45	40.93
16:26:                  15	40.77
16:26:                  45	40.87
16:27:                  15	40.67
16:27:                  45	40.70
16:28:                  15	40.74
16:28:                  45	40.64
16:29:                  15	40.53
16:29:                  45	40.36
16:30:                  15	40.04
16:30:                  45	39.91
16:31:                  15	39.86
16:31:                  45	39.81
16:32:                  15	39.65
16:32:                  45	39.45
16:33:                  15	39.29
16:33:                  45	39.25
16:34:                  15	39.23
16:34:                  45	39.26
16:35:                  15	39.22
16:35:                  45	39.23
16:36:                  15	39.13
16:36:                  45	39.08
16:37:                  15	39.06
16:37:                  46	39.02
16:38:                  16	38.89
16:38:                  46	38.66
16:39:                  16	38.57
16:39:                  46	38.47
16:40:                  16	38.39
16:40:                  46	38.25
16:41:                  16	38.19
16:41:                  46	38.06
16:42:                  16	38.01
16:42:                  46	38.01
16:43:                  16	37.95
16:43:                  46	37.91
16:44:                  16	37.89
16:44:                  46	37.89
16:45:                  16	37.97
16:45:                  46	37.84
16:46:                  16	37.78
16:46:                  46	37.56
16:47:                  16	37.52
16:47:                  46	37.42
16:48:                  16	37.39
16:48:                  46	37.26
16:49:                  16	37.22
16:49:                  46	37.15
16:50:                  16	37.16
16:50:                  46	37.30
16:51:                  16	37.35
16:51:                  46	37.30
16:52:                  16	37.30
16:52:                  46	37.29
16:53:                  16	37.26
16:53:                  46	37.23
16:54:                  16	37.14
16:54:                  46	37.07
16:55:                  16	36.98
16:55:                  47	36.90
16:56:                  17	36.90
16:56:                  47	36.82
16:57:                  17	36.75
16:57:                  47	36.70
16:58:                  17	36.82
16:58:                  47	36.87
16:59:                  17	36.87
16:59:                  47	36.89
17:00:                  17	36.94
17:00:                  47	37.03
17:01:                  17	37.06
17:01:                  47	37.05
17:02:                  17	37.03
17:02:                  47	37.17
17:03:                  17	37.24
17:03:                  47	37.18
17:04:                  17	37.12
17:04:                  47	37.20
17:05:                  17	37.24
17:05:                  47	37.27
17:06:                  17	37.24
17:06:                  47	37.28
17:07:                  17	37.28
17:07:                  47	37.23
17:08:                  17	37.24
17:08:                  47	37.33
17:09:                  17	37.21
17:09:                  47	37.28
17:10:                  17	37.41
17:10:                  47	37.55
17:11:                  17	37.60
17:11:                  47	37.74
17:12:                  17	37.86
17:12:                  47	37.85
17:13:                  18	37.79
17:13:                  48	37.84
17:14:                  18	37.91
17:14:                  48	37.89
17:15:                  18	37.89
17:15:                  48	38.00
17:16:                  18	37.95
17:16:                  48	37.96
17:17:                  18	37.99
17:17:                  48	37.99
17:18:                  18	37.90
17:18:                  48	37.90
17:19:                  18	38.04
17:19:                  48	37.99
17:20:                  18	38.20
17:20:                  48	38.39
17:21:                  18	38.51
17:21:                  48	38.32
17:22:                  18	38.33
17:22:                  48	38.37
17:23:                  18	38.37
17:23:                  48	38.19
17:24:                  18	38.25
17:24:                  48	38.35
17:25:                  18	38.36
17:25:                  48	38.36
17:26:                  18	38.45
17:26:                  48	38.46
17:27:                  18	38.36
17:27:                  48	38.32
17:28:                  18	38.27
17:28:                  48	38.20
17:29:                  18	38.17
17:29:                  48	38.15
17:30:                  18	38.05
17:30:                  48	38.00
17:31:                  19	37.98
17:31:                  49	37.90
17:32:                  19	37.81
17:32:                  49	37.70
17:33:                  19	37.39
17:33:                  49	37.30
17:34:                  19	37.24
17:34:                  49	37.22
17:35:                  19	37.24
17:35:                  49	37.25
17:36:                  19	37.29
17:36:                  49	37.41
17:37:                  19	37.50
17:37:                  49	37.52
17:38:                  19	37.63
17:38:                  49	37.68
17:39:                  19	37.77
17:39:                  49	37.72
17:40:                  19	37.82
17:40:                  49	37.74
17:41:                  19	37.69
17:41:                  49	37.71
17:42:                  19	37.68
17:42:                  49	37.58
17:43:                  19	37.53
17:43:                  49	37.55
17:44:                  19	37.56
17:44:                  49	37.57
17:45:                  19	37.65
17:45:                  49	37.69
17:46:                  19	37.62
17:46:                  49	37.60
17:47:                  19	37.50
17:47:                  49	37.61
17:48:                  19	37.70
17:48:                  49	37.80
17:49:                  19	37.99
17:49:                  49	38.05
17:50:                  19	38.05
17:50:                  50	38.06
17:51:                  20	38.03
17:51:                  50	37.97
17:52:                  20	38.02
17:52:                  50	37.91
17:53:                  20	37.82
17:53:                  50	37.77
17:54:                  20	37.68
17:54:                  50	37.63
17:55:                  20	37.57
17:55:                  50	37.50
17:56:                  20	37.40
17:56:                  50	37.35
17:57:                  20	37.37
17:57:                  50	37.36
17:58:                  20	37.34
17:58:                  50	37.30
17:59:                  20	37.26
17:59:                  50	37.23
18:00:                  20	37.26
18:00:                  50	37.26
18:01:                  20	37.29
18:01:                  50	37.26
18:02:                  20	37.29
18:02:                  50	37.29
18:03:                  20	37.34
18:03:                  50	37.44
18:04:                  20	37.53
18:04:                  50	37.60
18:05:                  20	37.71
18:05:                  50	37.73
18:06:                  20	37.82
18:06:                  50	37.93
18:07:                  20	38.00
18:07:                  50	38.07
18:08:                  20	38.12
18:08:                  50	38.20
18:09:                  20	38.26
18:09:                  50	38.32
18:10:                  20	38.32
18:10:                  50	38.38
18:11:                  20	38.34
18:11:                  50	38.41
18:12:                  20	38.51
18:12:                  50	38.54
18:13:                  20	38.60
18:13:                  51	38.67
18:14:                  21	38.74
18:14:                  51	38.82
18:15:                  21	38.83
18:15:                  51	38.89
18:16:                  21	38.95
18:16:                  51	39.03
18:17:                  21	38.97
18:17:                  51	38.87
18:18:                  21	38.74
18:18:                  51	38.78
18:19:                  21	38.79
18:19:                  51	38.87
18:20:                  21	38.98
18:20:                  51	39.05
18:21:                  21	39.06
18:21:                  51	39.07
18:22:                  21	39.13
18:22:                  51	39.10
18:23:                  21	39.13
18:23:                  51	39.20
18:24:                  21	39.10
18:24:                  51	39.07
18:25:                  21	38.92
18:25:                  51	38.96
18:26:                  21	38.96
18:26:                  51	39.01
18:27:                  21	39.09
18:27:                  51	39.09
18:28:                  21	39.12
18:28:                  51	39.18
18:29:                  21	39.24
18:29:                  51	39.29
18:30:                  21	39.35
18:30:                  51	39.42
18:31:                  21	39.45
18:31:                  51	39.48
18:32:                  21	39.46
18:32:                  51	39.41
18:33:                  21	39.43
18:33:                  51	39.43
18:34:                  21	39.41
18:34:                  51	39.44
18:35:                  21	39.43
18:35:                  51	39.44
18:36:                  22	39.38
18:36:                  52	39.37
18:37:                  22	39.36
18:37:                  52	39.37
18:38:                  22	39.41
18:38:                  52	39.40
18:39:                  22	39.40
18:39:                  52	39.36
18:40:                  22	39.39
18:40:                  52	39.44
18:41:                  22	39.46
18:41:                  52	39.50
18:42:                  22	39.58
18:42:                  52	39.58
18:43:                  22	39.63
18:43:                  52	39.65
18:44:                  22	39.63
18:44:                  52	39.61
18:45:                  22	39.63
18:45:                  52	39.50
18:46:                  22	39.39
18:46:                  52	39.43
18:47:                  22	39.45
18:47:                  52	39.37
18:48:                  22	39.38
18:48:                  52	39.27
18:49:                  22	39.15
18:49:                  52	39.08
18:50:                  22	38.96
18:50:                  52	38.83
18:51:                  22	38.82
18:51:                  52	38.78
18:52:                  22	38.79
18:52:                  52	38.81
18:53:                  22	38.82
18:53:                  52	38.87
18:54:                  23	38.93
18:54:                  53	38.95
18:55:                  23	39.04
18:55:                  53	39.06
18:56:                  23	39.09
18:56:                  53	39.07
18:57:                  23	39.08
18:57:                  53	39.10
18:58:                  23	39.08
18:58:                  53	39.12
18:59:                  23	39.17
18:59:                  53	39.19
19:00:                  23	39.25
19:00:                  53	39.24
19:01:                  23	39.24
19:01:                  53	39.28
19:02:                  23	39.30
19:02:                  53	39.33
19:03:                  23	39.36
19:03:                  53	39.40
19:04:                  23	39.45
19:04:                  53	39.44
19:05:                  23	39.47
19:05:                  53	39.50
19:06:                  23	39.51
19:06:                  53	39.43
19:07:                  23	39.34
19:07:                  53	39.28
19:08:                  23	39.03
19:08:                  53	38.94
19:09:                  23	38.94
19:09:                  53	38.86
19:10:                  23	38.70
19:10:                  53	38.58
19:11:                  23	38.48
19:11:                  53	38.29
19:12:                  23	38.09
19:12:                  53	38.04
19:13:                  23	38.00
19:13:                  53	37.98
19:14:                  23	37.92
19:14:                  53	37.87
19:15:                  23	37.69
19:15:                  53	37.63
19:16:                  23	37.70
19:16:                  53	37.59
19:17:                  23	37.50
19:17:                  53	37.42
19:18:                  23	37.35
19:18:                  53	37.15
19:19:                  23	37.05
19:19:                  53	36.98
19:20:                  23	36.93
19:20:                  53	36.80
19:21:                  23	36.84
19:21:                  53	36.74
19:22:                  23	36.62
19:22:                  53	36.52
19:23:                  23	36.52
19:23:                  53	36.46
19:24:                  23	36.39
19:24:                  53	36.33
19:25:                  23	36.23
19:25:                  53	36.23
19:26:                  23	36.23
19:26:                  53	36.21
19:27:                  23	36.21
19:27:                  53	36.24
19:28:                  23	36.26
19:28:                  53	36.30
19:29:                  23	36.32
19:29:                  53	36.27
19:30:                  23	36.28
19:30:                  53	36.26
19:31:                  23	36.19
19:31:                  53	36.27
19:32:                  23	36.29
19:32:                  53	36.36
19:33:                  23	36.45
19:33:                  54	36.38
19:34:                  24	36.40
19:34:                  54	36.42
19:35:                  24	36.45
19:35:                  54	36.48
19:36:                  24	36.52
19:36:                  54	36.50
19:37:                  24	36.53
19:37:                  54	36.63
19:38:                  24	36.57
19:38:                  54	36.63
19:39:                  24	36.73
19:39:                  54	36.82
19:40:                  24	36.92
19:40:                  54	37.02
19:41:                  24	37.08
19:41:                  54	37.13
19:42:                  24	37.11
19:42:                  54	37.13
19:43:                  24	37.15
19:43:                  54	37.25
19:44:                  24	37.33
19:44:                  54	37.40
19:45:                  24	37.50
19:45:                  54	37.59
19:46:                  24	37.68
19:46:                  54	37.76
19:47:                  24	37.76
19:47:                  54	37.74
19:48:                  24	37.72
19:48:                  54	37.70
19:49:                  24	37.70
19:49:                  54	37.80
19:50:                  24	37.85
19:50:                  54	37.83
19:51:                  24	37.81
19:51:                  54	37.85
19:52:                  24	37.89
19:52:                  54	37.83
19:53:                  24	37.68
19:53:                  54	37.64
19:54:                  24	37.69
19:54:                  54	37.72
19:55:                  24	37.68
19:55:                  54	37.69
19:56:                  24	37.70
19:56:                  54	37.72
19:57:                  24	37.76
19:57:                  54	37.86
19:58:                  24	37.82
19:58:                  54	37.88
19:59:                  24	37.90
19:59:                  54	37.95
20:00:                  24	38.00
20:00:                  54	38.10
20:01:                  24	38.03
20:01:                  54	38.01
20:02:                  24	37.98
20:02:                  54	37.87
20:03:                  24	37.83
20:03:                  55	37.91
20:04:                  25	37.94
20:04:                  55	38.02
20:05:                  25	38.07
20:05:                  55	38.13
20:06:                  25	38.14
20:06:                  55	38.21
20:07:                  25	38.25
20:07:                  55	38.30
20:08:                  25	38.33
20:08:                  55	38.38
20:09:                  25	38.41
20:09:                  55	38.41
20:10:                  25	38.46
20:10:                  55	38.51
20:11:                  25	38.53
20:11:                  55	38.56
20:12:                  25	38.56
20:12:                  55	38.55
20:13:                  25	38.54
20:13:                  55	38.54
20:14:                  25	38.54
20:14:                  55	38.56
20:15:                  25	38.60
20:15:                  55	38.63
20:16:                  25	38.58
20:16:                  55	38.61
20:17:                  25	38.66
20:17:                  55	38.71
20:18:                  25	38.72
20:18:                  55	38.74
20:19:                  25	38.77
20:19:                  55	38.80
20:20:                  25	38.81
20:20:                  55	38.84
20:21:                  25	38.84
20:21:                  55	38.87
20:22:                  25	38.87
20:22:                  55	38.91
20:23:                  25	38.92
20:23:                  55	38.87
20:24:                  25	38.87
20:24:                  55	38.92
20:25:                  25	38.92
20:25:                  55	38.95
20:26:                  25	38.95
20:26:                  55	38.91
20:27:                  25	38.76
20:27:                  55	38.61
20:28:                  25	38.60
20:28:                  55	38.65
20:29:                  25	38.51
20:29:                  55	38.47
20:30:                  25	38.33
20:30:                  55	38.25
20:31:                  25	38.26
20:31:                  55	38.20
20:32:                  25	38.28
20:32:                  55	38.33
20:33:                  25	38.33
20:33:                  56	38.22
20:34:                  26	38.10
20:34:                  56	38.04
20:35:                  26	38.01
20:35:                  56	37.96
20:36:                  26	37.91
20:36:                  56	37.80
20:37:                  26	37.65
20:37:                  56	37.57
20:38:                  26	37.48
20:38:                  56	37.48
20:39:                  26	37.54
20:39:                  56	37.59
20:40:                  26	37.71
20:40:                  56	37.81
20:41:                  26	37.92
20:41:                  56	37.95
20:42:                  26	37.98
20:42:                  56	38.00
20:43:                  26	38.04
20:43:                  56	38.05
20:44:                  26	38.07
20:44:                  56	38.02
20:45:                  26	38.07
20:45:                  56	38.15
20:46:                  26	38.21
20:46:                  56	38.27
20:47:                  26	38.31
20:47:                  56	38.32
20:48:                  26	38.35
20:48:                  56	38.43
20:49:                  26	38.47
20:49:                  56	38.53
20:50:                  26	38.57
20:50:                  56	38.57
20:51:                  26	38.61
20:51:                  56	38.64
20:52:                  26	38.69
20:52:                  56	38.67
20:53:                  26	38.69
20:53:                  56	38.72
20:54:                  26	38.76
20:54:                  56	38.78
20:55:                  26	38.72
20:55:                  56	38.70
20:56:                  26	38.73
20:56:                  56	38.67
20:57:                  26	38.65
20:57:                  56	38.70
20:58:                  26	38.74
20:58:                  56	38.76
20:59:                  26	38.75
20:59:                  56	38.73
21:00:                  26	38.75
21:00:                  56	38.67
21:01:                  26	38.67
21:01:                  56	38.49
21:02:                  26	38.55
21:02:                  56	38.60
21:03:                  26	38.57
21:03:                  56	38.60
21:04:                  26	38.55
21:04:                  57	38.58
21:05:                  27	38.65
21:05:                  57	38.69
21:06:                  27	38.65
21:06:                  57	38.55
21:07:                  27	38.52
21:07:                  57	38.54
21:08:                  27	38.54
21:08:                  57	38.56
21:09:                  27	38.58
21:09:                  57	38.52
21:10:                  27	38.58
21:10:                  57	38.61
21:11:                  27	38.69
21:11:                  57	38.73
21:12:                  27	38.79
21:12:                  57	38.81
21:13:                  27	38.83
21:13:                  57	38.88
21:14:                  27	38.94
21:14:                  57	38.99
21:15:                  27	39.00
21:15:                  57	39.07
21:16:                  27	39.11
21:16:                  57	39.16
21:17:                  27	39.20
21:17:                  57	39.23
21:18:                  27	39.23
21:18:                  57	39.27
21:19:                  27	39.33
21:19:                  57	39.39
21:20:                  27	39.43
21:20:                  57	39.48
21:21:                  27	39.54
21:21:                  57	39.56
21:22:                  27	39.58
21:22:                  57	39.63
21:23:                  27	39.67
21:23:                  57	39.71
21:24:                  27	39.77
21:24:                  57	39.77
21:25:                  27	39.73
21:25:                  57	39.67
21:26:                  27	39.77
21:26:                  57	39.76
21:27:                  27	39.77
21:27:                  57	39.80
21:28:                  27	39.71
21:28:                  57	39.77
21:29:                  27	39.83
21:29:                  57	39.88
21:30:                  27	39.90
21:30:                  57	39.93
21:31:                  27	39.93
21:31:                  57	39.94
21:32:                  27	40.01
21:32:                  57	39.99
21:33:                  27	40.00
21:33:                  57	39.95
21:34:                  27	40.01
21:34:                  57	40.00
21:35:                  27	39.95
21:35:                  58	39.98
21:36:                  28	40.00
21:36:                  58	40.03
21:37:                  28	40.03
21:37:                  58	40.05
21:38:                  28	40.05
21:38:                  58	40.05
21:39:                  28	40.06
21:39:                  58	40.08
21:40:                  28	40.10
21:40:                  58	40.14
21:41:                  28	40.15
21:41:                  58	40.17
21:42:                  28	40.20
21:42:                  58	40.23
21:43:                  28	40.25
21:43:                  58	40.28
21:44:                  28	40.29
21:44:                  58	40.33
21:45:                  28	40.37
21:45:                  58	40.37
21:46:                  28	40.32
21:46:                  58	40.39
21:47:                  28	40.37
21:47:                  58	40.41
21:48:                  28	40.45
21:48:                  58	40.49
21:49:                  28	40.49
21:49:                  58	40.44
21:50:                  28	40.47
21:50:                  58	40.49
21:51:                  28	40.49
21:51:                  58	40.51
21:52:                  28	40.54
21:52:                  58	40.54
21:53:                  28	40.55
21:53:                  58	40.54
21:54:                  28	40.53
21:54:                  58	40.58
21:55:                  28	40.58
21:55:                  58	40.61
21:56:                  28	40.55
21:56:                  58	40.55
21:57:                  28	40.62
21:57:                  58	40.55
21:58:                  28	40.47
21:58:                  58	40.50
21:59:                  28	40.50
21:59:                  58	40.49
22:00:                  28	40.46
22:00:                  58	40.48
22:01:                  28	40.53
22:01:                  58	40.57
22:02:                  28	40.54
22:02:                  58	40.51
22:03:                  28	40.54
22:03:                  58	40.55
22:04:                  28	40.58
22:04:                  58	40.58
22:05:                  28	40.59
22:05:                  58	40.64
22:06:                  28	40.64
22:06:                  58	40.67
22:07:                  28	40.63
22:07:                  58	40.63
22:08:                  28	40.61
22:08:                  58	40.63
22:09:                  28	40.71
22:09:                  58	40.69
22:10:                  28	40.71
22:10:                  58	40.76
22:11:                  28	40.79
22:11:                  58	40.80
22:12:                  28	40.83
22:12:                  58	40.83
22:13:                  28	40.79
22:13:                  59	40.85
22:14:                  29	40.88
22:14:                  59	40.89
22:15:                  29	40.90
22:15:                  59	40.95
22:16:                  29	40.96
22:16:                  59	40.96
22:17:                  29	40.98
22:17:                  59	41.00
22:18:                  29	41.01
22:18:                  59	41.01
22:19:                  29	41.03
22:19:                  59	41.00
22:20:                  29	41.02
22:20:                  59	41.04
22:21:                  29	41.02
22:21:                  59	41.04
22:22:                  29	41.06
22:22:                  59	41.06
22:23:                  29	41.06
22:23:                  59	41.06
22:24:                  29	41.07
22:24:                  59	41.07
22:25:                  29	41.09
22:25:                  59	41.07
22:26:                  29	41.07
22:26:                  59	41.09
22:27:                  29	41.07
22:27:                  59	41.06
22:28:                  29	41.08
22:28:                  59	41.08
22:29:                  29	41.08
22:29:                  59	41.10
22:30:                  29	41.09
22:30:                  59	41.06
22:31:                  29	41.05
22:31:                  59	41.05
22:32:                  29	41.04
22:32:                  59	40.99
22:33:                  29	41.00
22:33:                  59	41.02
22:34:                  29	41.00
22:34:                  59	41.00
22:35:                  29	40.97
22:35:                  59	40.97
22:36:                  30	40.97
22:37:                   0	40.97
22:37:                  30	40.97
22:38:                   0	40.94
22:38:                  30	40.95
22:39:                   0	40.91
22:39:                  30	40.91
22:40:                   0	40.93
22:40:                  30	40.91
22:41:                   0	40.90
22:41:                  30	40.91
22:42:                   0	40.91
22:42:                  30	40.91
22:43:                   0	40.90
22:43:                  30	40.90
22:44:                   0	40.91
22:44:                  30	40.90
22:45:                   0	40.91
22:45:                  30	40.91
22:46:                   0	40.91
22:46:                  30	40.92
22:47:                   0	40.92
22:47:                  30	40.92
22:48:                   0	40.91
22:48:                  30	40.88
22:49:                   0	40.89
22:49:                  30	40.90
22:50:                   0	40.87
22:50:                  30	40.89
22:51:                   0	40.89
22:51:                  30	40.88
22:52:                   0	40.85
22:52:                  30	40.83
22:53:                   0	40.82
22:53:                  30	40.80
22:54:                   0	40.78
22:54:                  30	40.79
22:55:                   0	40.77
22:55:                  30	40.78
22:56:                   0	40.77
22:56:                  30	40.78
22:57:                   0	40.78
22:57:                  30	40.77
22:58:                   0	40.78
22:58:                  30	40.79
22:59:                   0	40.78
22:59:                  30	40.79
23:00:                   0	40.80
23:00:                  30	40.79
23:01:                   0	40.80
23:01:                  30	40.79
23:02:                   1	40.77
23:02:                  31	40.79
23:03:                   1	40.81
23:03:                  31	40.79
23:04:                   1	40.77
23:04:                  31	40.78
23:05:                   1	40.76
23:05:                  31	40.78
23:06:                   1	40.77
23:06:                  31	40.77
23:07:                   1	40.80
23:07:                  31	40.80
23:08:                   1	40.78
23:08:                  31	40.78
23:09:                   1	40.78
23:09:                  31	40.79
23:10:                   1	40.79
23:10:                  31	40.79
23:11:                   1	40.78
23:11:                  31	40.79
23:12:                   1	40.79
23:12:                  31	40.78
23:13:                   1	40.78
23:13:                  31	40.79
23:14:                   1	40.77
23:14:                  31	40.77
23:15:                   1	40.78
23:15:                  31	40.78
23:16:                   1	40.78
23:16:                  31	40.79
23:17:                   1	40.79
23:17:                  31	40.79
23:18:                   1	40.80
23:18:                  31	40.80
23:19:                   1	40.80
23:19:                  31	40.80
23:20:                   1	40.80
23:20:                  31	40.79
23:21:                   1	40.81
23:21:                  31	40.83
23:22:                   1	40.81
23:22:                  31	40.81
23:23:                   1	40.81
23:23:                  31	40.81
23:24:                   1	40.81
23:24:                  31	40.82
23:25:                   1	40.81
23:25:                  31	40.82
23:26:                   1	40.81
23:26:                  31	40.81
23:27:                   1	40.80
23:27:                  31	40.80
23:28:                   1	40.81
23:28:                  31	40.80
23:29:                   1	40.80
23:29:                  32	40.79
23:30:                   2	40.79
23:30:                  32	40.77
23:31:                   2	40.78
23:31:                  32	40.77
23:32:                   2	40.76
23:32:                  32	40.75
23:33:                   2	40.75
23:33:                  32	40.74
23:34:                   2	40.73
23:34:                  32	40.72
23:35:                   2	40.72
23:35:                  32	40.72
23:36:                   2	40.71
23:36:                  32	40.70
23:37:                   2	40.70
23:37:                  32	40.70
23:38:                   2	40.70
23:38:                  32	40.70
23:39:                   2	40.70
23:39:                  32	40.70
23:40:                   2	40.70
23:40:                  32	40.70
23:41:                   2	40.71
23:41:                  32	40.71
23:42:                   2	40.71
23:42:                  32	40.71
23:43:                   2	40.71
23:43:                  32	40.72
23:44:                   2	40.72
23:44:                  32	40.72
23:45:                   2	40.71
23:45:                  32	40.72
23:46:                   2	40.72
23:46:                  32	40.71
23:47:                   2	40.71
23:47:                  32	40.71
23:48:                   2	40.71
23:48:                  32	40.70
23:49:                   2	40.70
23:49:                  32	40.69
23:50:                   2	40.69
23:50:                  32	40.69
23:51:                   2	40.69
23:51:                  32	40.68
23:52:                   2	40.69
23:52:                  32	40.67
23:53:                   2	40.68
23:53:                  32	40.67
23:54:                   2	40.69
23:54:                  32	40.69
23:55:                   2	40.69
23:55:                  32	40.69
23:56:                   2	40.66
23:56:                  32	40.63
23:57:                   2	40.65
23:57:                  32	40.63
23:58:                   2	40.64
23:58:                  32	40.64
23:59:                   2	40.63
23:59:                  32	40.62
