0:00:                  27	30.61
0:00:                  57	30.61
0:01:                  27	30.61
0:01:                  57	30.61
0:02:                  27	30.61
0:02:                  57	30.60
0:03:                  27	30.60
0:03:                  57	30.60
0:04:                  27	30.60
0:04:                  57	30.60
0:05:                  27	30.59
0:05:                  57	30.60
0:06:                  27	30.59
0:06:                  57	30.59
0:07:                  27	30.59
0:07:                  57	30.59
0:08:                  27	30.57
0:08:                  57	30.58
0:09:                  27	30.58
0:09:                  57	30.57
0:10:                  27	30.58
0:10:                  57	30.58
0:11:                  28	30.58
0:11:                  58	30.57
0:12:                  28	30.57
0:12:                  58	30.57
0:13:                  28	30.56
0:13:                  58	30.57
0:14:                  28	30.56
0:14:                  58	30.56
0:15:                  28	30.57
0:15:                  58	30.55
0:16:                  28	30.56
0:16:                  58	30.56
0:17:                  28	30.56
0:17:                  58	30.56
0:18:                  28	30.56
0:18:                  58	30.54
0:19:                  28	30.54
0:19:                  58	30.54
0:20:                  28	30.54
0:20:                  58	30.55
0:21:                  28	30.53
0:21:                  58	30.54
0:22:                  28	30.53
0:22:                  58	30.53
0:23:                  28	30.53
0:23:                  58	30.53
0:24:                  28	30.53
0:24:                  58	30.52
0:25:                  28	30.52
0:25:                  58	30.52
0:26:                  28	30.54
0:26:                  58	30.53
0:27:                  28	30.52
0:27:                  58	30.53
0:28:                  28	30.54
0:28:                  58	30.53
0:29:                  28	30.53
0:29:                  58	30.53
0:30:                  28	30.53
0:30:                  58	30.52
0:31:                  28	30.50
0:31:                  58	30.51
0:32:                  28	30.51
0:32:                  58	30.51
0:33:                  28	30.51
0:33:                  59	30.50
0:34:                  29	30.50
0:34:                  59	30.50
0:35:                  29	30.51
0:35:                  59	30.50
0:36:                  29	30.50
0:36:                  59	30.50
0:37:                  29	30.50
0:37:                  59	30.50
0:38:                  29	30.50
0:38:                  59	30.50
0:39:                  29	30.50
0:39:                  59	30.50
0:40:                  29	30.50
0:40:                  59	30.50
0:41:                  29	30.50
0:41:                  59	30.49
0:42:                  29	30.49
0:42:                  59	30.50
0:43:                  29	30.50
0:43:                  59	30.49
0:44:                  29	30.49
0:44:                  59	30.49
0:45:                  29	30.49
0:45:                  59	30.49
0:46:                  29	30.49
0:46:                  59	30.48
0:47:                  29	30.49
0:47:                  59	30.48
0:48:                  29	30.48
0:48:                  59	30.48
0:49:                  29	30.49
0:49:                  59	30.49
0:50:                  30	30.48
0:51:                   0	30.48
0:51:                  30	30.49
0:52:                   0	30.46
0:52:                  30	30.46
0:53:                   0	30.47
0:53:                  30	30.48
0:54:                   0	30.46
0:54:                  30	30.47
0:55:                   0	30.46
0:55:                  30	30.47
0:56:                   0	30.47
0:56:                  30	30.48
0:57:                   0	30.47
0:57:                  30	30.46
0:58:                   0	30.46
0:58:                  30	30.46
0:59:                   0	30.46
0:59:                  30	30.46
1:00:                   0	30.45
1:00:                  30	30.45
1:01:                   0	30.46
1:01:                  30	30.45
1:02:                   0	30.45
1:02:                  30	30.44
1:03:                   0	30.44
1:03:                  30	30.44
1:04:                   0	30.44
1:04:                  30	30.44
1:05:                   0	30.44
1:05:                  30	30.44
1:06:                   0	30.45
1:06:                  30	30.43
1:07:                   0	30.44
1:07:                  30	30.44
1:08:                   0	30.43
1:08:                  30	30.44
1:09:                   0	30.43
1:09:                  30	30.43
1:10:                   0	30.43
1:10:                  30	30.42
1:11:                   0	30.43
1:11:                  30	30.42
1:12:                   0	30.42
1:12:                  30	30.41
1:13:                   0	30.41
1:13:                  30	30.42
1:14:                   0	30.41
1:14:                  30	30.41
1:15:                   0	30.42
1:15:                  30	30.40
1:16:                   0	30.41
1:16:                  30	30.41
1:17:                   0	30.40
1:17:                  30	30.40
1:18:                   0	30.40
1:18:                  30	30.40
1:19:                   0	30.40
1:19:                  30	30.40
1:20:                   0	30.40
1:20:                  31	30.39
1:21:                   1	30.40
1:21:                  31	30.40
1:22:                   1	30.39
1:22:                  31	30.40
1:23:                   1	30.39
1:23:                  31	30.39
1:24:                   1	30.39
1:24:                  31	30.39
1:25:                   1	30.38
1:25:                  31	30.39
1:26:                   1	30.39
1:26:                  31	30.39
1:27:                   1	30.38
1:27:                  31	30.38
1:28:                   1	30.38
1:28:                  31	30.38
1:29:                   1	30.37
1:29:                  31	30.37
1:30:                   1	30.37
1:30:                  31	30.38
1:31:                   1	30.35
1:31:                  31	30.37
1:32:                   1	30.37
1:32:                  31	30.36
1:33:                   1	30.36
1:33:                  31	30.36
1:34:                   1	30.35
1:34:                  31	30.35
1:35:                   1	30.35
1:35:                  31	30.36
1:36:                   1	30.36
1:36:                  32	30.37
1:37:                   2	30.36
1:37:                  32	30.36
1:38:                   2	30.36
1:38:                  32	30.35
1:39:                   2	30.36
1:39:                  32	30.35
1:40:                   2	30.36
1:40:                  32	30.35
1:41:                   2	30.35
1:41:                  32	30.35
1:42:                   2	30.35
1:42:                  32	30.35
1:43:                   2	30.34
1:43:                  32	30.34
1:44:                   2	30.35
1:44:                  32	30.34
1:45:                   2	30.34
1:45:                  32	30.34
1:46:                   2	30.34
1:46:                  32	30.33
1:47:                   2	30.33
1:47:                  32	30.33
1:48:                   2	30.33
1:48:                  32	30.33
1:49:                   2	30.33
1:49:                  32	30.32
1:50:                   2	30.33
1:50:                  32	30.33
1:51:                   2	30.33
1:51:                  32	30.33
1:52:                   2	30.32
1:52:                  32	30.32
1:53:                   3	30.32
1:53:                  33	30.32
1:54:                   3	30.31
1:54:                  33	30.30
1:55:                   3	30.30
1:55:                  33	30.30
1:56:                   3	30.30
1:56:                  33	30.30
1:57:                   3	30.30
1:57:                  33	30.30
1:58:                   3	30.30
1:58:                  33	30.30
1:59:                   3	30.30
1:59:                  33	30.31
2:00:                   3	30.30
2:00:                  33	30.30
2:01:                   3	30.30
2:01:                  33	30.30
2:02:                   3	30.30
2:02:                  33	30.31
2:03:                   3	30.32
2:03:                  33	30.31
2:04:                   3	30.32
2:04:                  33	30.31
2:05:                   3	30.31
2:05:                  33	30.31
2:06:                   3	30.31
2:06:                  33	30.31
2:07:                   3	30.30
2:07:                  33	30.30
2:08:                   3	30.29
2:08:                  33	30.30
2:09:                   4	30.30
2:09:                  34	30.30
2:10:                   4	30.30
2:10:                  34	30.30
2:11:                   4	30.31
2:11:                  34	30.30
2:12:                   4	30.30
2:12:                  34	30.29
2:13:                   4	30.30
2:13:                  34	30.30
2:14:                   4	30.29
2:14:                  34	30.30
2:15:                   4	30.30
2:15:                  34	30.29
2:16:                   4	30.28
2:16:                  34	30.27
2:17:                   4	30.27
2:17:                  34	30.27
2:18:                   4	30.26
2:18:                  34	30.27
2:19:                   4	30.27
2:19:                  34	30.27
2:20:                   4	30.27
2:20:                  34	30.26
2:21:                   4	30.26
2:21:                  34	30.26
2:22:                   4	30.25
2:22:                  34	30.26
2:23:                   4	30.27
2:23:                  34	30.26
2:24:                   4	30.27
2:24:                  34	30.26
2:25:                   5	30.25
2:25:                  35	30.26
2:26:                   5	30.26
2:26:                  35	30.26
2:27:                   5	30.25
2:27:                  35	30.26
2:28:                   5	30.25
2:28:                  35	30.26
2:29:                   5	30.24
2:29:                  35	30.24
2:30:                   5	30.24
2:30:                  35	30.24
2:31:                   5	30.24
2:31:                  35	30.24
2:32:                   5	30.24
2:32:                  35	30.24
2:33:                   5	30.25
2:33:                  35	30.25
2:34:                   5	30.24
2:34:                  35	30.24
2:35:                   5	30.24
2:35:                  35	30.24
2:36:                   5	30.24
2:36:                  35	30.24
2:37:                   5	30.23
2:37:                  35	30.24
2:38:                   5	30.23
2:38:                  35	30.24
2:39:                   5	30.24
2:39:                  35	30.24
2:40:                   5	30.24
2:40:                  35	30.24
2:41:                   6	30.24
2:41:                  36	30.24
2:42:                   6	30.23
2:42:                  36	30.24
2:43:                   6	30.23
2:43:                  36	30.22
2:44:                   6	30.23
2:44:                  36	30.24
2:45:                   6	30.23
2:45:                  36	30.22
2:46:                   6	30.22
2:46:                  36	30.22
2:47:                   6	30.22
2:47:                  36	30.23
2:48:                   6	30.23
2:48:                  36	30.22
2:49:                   6	30.21
2:49:                  36	30.21
2:50:                   6	30.21
2:50:                  36	30.21
2:51:                   6	30.21
2:51:                  36	30.22
2:52:                   6	30.20
2:52:                  36	30.21
2:53:                   6	30.21
2:53:                  36	30.20
2:54:                   6	30.20
2:54:                  36	30.19
2:55:                   6	30.19
2:55:                  36	30.19
2:56:                   6	30.19
2:56:                  36	30.19
2:57:                   7	30.20
2:57:                  37	30.18
2:58:                   7	30.19
2:58:                  37	30.19
2:59:                   7	30.19
2:59:                  37	30.19
3:00:                   7	30.18
3:00:                  37	30.18
3:01:                   7	30.19
3:01:                  37	30.19
3:02:                   7	30.18
3:02:                  37	30.17
3:03:                   7	30.17
3:03:                  37	30.17
3:04:                   7	30.17
3:04:                  37	30.18
3:05:                   7	30.18
3:05:                  37	30.18
3:06:                   7	30.18
3:06:                  37	30.17
3:07:                   7	30.17
3:07:                  37	30.17
3:08:                   7	30.16
3:08:                  37	30.16
3:09:                   7	30.16
3:09:                  37	30.16
3:10:                   7	30.16
3:10:                  37	30.17
3:11:                   7	30.17
3:11:                  37	30.17
3:12:                   7	30.18
3:12:                  37	30.17
3:13:                   8	30.17
3:13:                  38	30.17
3:14:                   8	30.16
3:14:                  38	30.17
3:15:                   8	30.16
3:15:                  38	30.17
3:16:                   8	30.17
3:16:                  38	30.17
3:17:                   8	30.16
3:17:                  38	30.17
3:18:                   8	30.15
3:18:                  38	30.16
3:19:                   8	30.15
3:19:                  38	30.16
3:20:                   8	30.16
3:20:                  38	30.16
3:21:                   8	30.16
3:21:                  38	30.15
3:22:                   8	30.15
3:22:                  38	30.14
3:23:                   8	30.15
3:23:                  38	30.15
3:24:                   8	30.14
3:24:                  38	30.14
3:25:                   8	30.15
3:25:                  38	30.14
3:26:                   8	30.15
3:26:                  38	30.15
3:27:                   8	30.14
3:27:                  38	30.14
3:28:                   8	30.14
3:28:                  38	30.14
3:29:                   9	30.14
3:29:                  39	30.14
3:30:                   9	30.15
3:30:                  39	30.13
3:31:                   9	30.13
3:31:                  39	30.13
3:32:                   9	30.14
3:32:                  39	30.13
3:33:                   9	30.12
3:33:                  39	30.12
3:34:                   9	30.11
3:34:                  39	30.11
3:35:                   9	30.12
3:35:                  39	30.12
3:36:                   9	30.12
3:36:                  39	30.12
3:37:                   9	30.12
3:37:                  39	30.12
3:38:                   9	30.11
3:38:                  39	30.12
3:39:                   9	30.12
3:39:                  39	30.11
3:40:                   9	30.11
3:40:                  39	30.10
3:41:                   9	30.12
3:41:                  39	30.11
3:42:                   9	30.11
3:42:                  39	30.10
3:43:                   9	30.12
3:43:                  39	30.10
3:44:                   9	30.10
3:44:                  39	30.11
3:45:                  10	30.12
3:45:                  40	30.11
3:46:                  10	30.11
3:46:                  40	30.11
3:47:                  10	30.11
3:47:                  40	30.09
3:48:                  10	30.10
3:48:                  40	30.11
3:49:                  10	30.10
3:49:                  40	30.10
3:50:                  10	30.09
3:50:                  40	30.09
3:51:                  10	30.10
3:51:                  40	30.11
3:52:                  10	30.09
3:52:                  40	30.09
3:53:                  10	30.10
3:53:                  40	30.09
3:54:                  10	30.09
3:54:                  40	30.09
3:55:                  10	30.08
3:55:                  40	30.08
3:56:                  10	30.09
3:56:                  40	30.08
3:57:                  10	30.07
3:57:                  40	30.07
3:58:                  10	30.08
3:58:                  40	30.08
3:59:                  10	30.08
3:59:                  40	30.07
4:00:                  10	30.07
4:00:                  40	30.08
4:01:                  10	30.08
4:01:                  41	30.08
4:02:                  11	30.07
4:02:                  41	30.07
4:03:                  11	30.07
4:03:                  41	30.07
4:04:                  11	30.06
4:04:                  41	30.06
4:05:                  11	30.07
4:05:                  41	30.06
4:06:                  11	30.06
4:06:                  41	30.07
4:07:                  11	30.07
4:07:                  41	30.07
4:08:                  11	30.06
4:08:                  41	30.06
4:09:                  11	30.06
4:09:                  41	30.07
4:10:                  11	30.06
4:10:                  41	30.06
4:11:                  11	30.06
4:11:                  41	30.06
4:12:                  11	30.06
4:12:                  41	30.06
4:13:                  11	30.06
4:13:                  41	30.05
4:14:                  11	30.06
4:14:                  41	30.06
4:15:                  11	30.06
4:15:                  41	30.05
4:16:                  11	30.06
4:16:                  41	30.05
4:17:                  11	30.04
4:17:                  42	30.05
4:18:                  12	30.04
4:18:                  42	30.05
4:19:                  12	30.05
4:19:                  42	30.05
4:20:                  12	30.05
4:20:                  42	30.04
4:21:                  12	30.04
4:21:                  42	30.04
4:22:                  12	30.05
4:22:                  42	30.06
4:23:                  12	30.04
4:23:                  42	30.04
4:24:                  12	30.04
4:24:                  42	30.04
4:25:                  12	30.05
4:25:                  42	30.05
4:26:                  12	30.05
4:26:                  42	30.05
4:27:                  12	30.05
4:27:                  42	30.05
4:28:                  12	30.05
4:28:                  42	30.05
4:29:                  12	30.06
4:29:                  42	30.05
4:30:                  12	30.05
4:30:                  42	30.05
4:31:                  12	30.04
4:31:                  42	30.05
4:32:                  12	30.04
4:32:                  42	30.04
4:33:                  12	30.04
4:33:                  43	30.05
4:34:                  13	30.04
4:34:                  43	30.04
4:35:                  13	30.04
4:35:                  43	30.04
4:36:                  13	30.04
4:36:                  43	30.04
4:37:                  13	30.04
4:37:                  43	30.03
4:38:                  13	30.04
4:38:                  43	30.03
4:39:                  13	30.04
4:39:                  43	30.03
4:40:                  13	30.03
4:40:                  43	30.04
4:41:                  13	30.03
4:41:                  43	30.04
4:42:                  13	30.04
4:42:                  43	30.04
4:43:                  13	30.04
4:43:                  43	30.04
4:44:                  13	30.04
4:44:                  43	30.04
4:45:                  13	30.04
4:45:                  43	30.04
4:46:                  13	30.04
4:46:                  43	30.03
4:47:                  13	30.03
4:47:                  43	30.04
4:48:                  13	30.03
4:48:                  43	30.02
4:49:                  13	30.03
4:49:                  43	30.04
4:50:                  14	30.03
4:50:                  44	30.03
4:51:                  14	30.03
4:51:                  44	30.02
4:52:                  14	30.04
4:52:                  44	30.03
4:53:                  14	30.02
4:53:                  44	30.02
4:54:                  14	30.03
4:54:                  44	30.02
4:55:                  14	30.02
4:55:                  44	30.03
4:56:                  14	30.01
4:56:                  44	30.03
4:57:                  14	30.02
4:57:                  44	30.03
4:58:                  14	30.02
4:58:                  44	30.03
4:59:                  14	30.02
4:59:                  44	30.02
5:00:                  14	30.02
5:00:                  44	30.02
5:01:                  14	30.01
5:01:                  44	30.02
5:02:                  14	30.01
5:02:                  44	30.02
5:03:                  14	30.02
5:03:                  44	30.01
5:04:                  14	30.01
5:04:                  44	30.01
5:05:                  14	30.01
5:05:                  44	30.01
5:06:                  15	30.02
5:06:                  45	30.02
5:07:                  15	30.02
5:07:                  45	30.03
5:08:                  15	30.02
5:08:                  45	30.02
5:09:                  15	30.01
5:09:                  45	30.01
5:10:                  15	30.01
5:10:                  45	30.01
5:11:                  15	30.01
5:11:                  45	30.01
5:12:                  15	30.01
5:12:                  45	30.00
5:13:                  15	30.01
5:13:                  45	30.01
5:14:                  15	30.01
5:14:                  45	30.00
5:15:                  15	30.00
5:15:                  45	30.00
5:16:                  15	30.01
5:16:                  45	30.00
5:17:                  15	29.99
5:17:                  45	30.00
5:18:                  15	29.99
5:18:                  45	29.99
5:19:                  15	30.01
5:19:                  45	29.99
5:20:                  15	29.99
5:20:                  45	29.99
5:21:                  15	29.99
5:21:                  46	29.99
5:22:                  16	29.99
5:22:                  46	29.98
5:23:                  16	29.98
5:23:                  46	29.98
5:24:                  16	29.99
5:24:                  46	29.98
5:25:                  16	29.98
5:25:                  46	29.99
5:26:                  16	29.98
5:26:                  46	29.98
5:27:                  16	29.98
5:27:                  46	29.98
5:28:                  16	29.98
5:28:                  46	29.98
5:29:                  16	29.98
5:29:                  46	29.98
5:30:                  16	29.98
5:30:                  46	29.98
5:31:                  16	29.97
5:31:                  46	29.98
5:32:                  16	29.98
5:32:                  46	29.98
5:33:                  16	29.98
5:33:                  46	29.97
5:34:                  16	29.97
5:34:                  46	29.97
5:35:                  16	29.97
5:35:                  46	29.96
5:36:                  16	29.96
5:36:                  46	29.97
5:37:                  17	29.97
5:37:                  47	29.96
5:38:                  17	29.96
5:38:                  47	29.96
5:39:                  17	29.96
5:39:                  47	29.96
5:40:                  17	29.97
5:40:                  47	29.95
5:41:                  17	29.96
5:41:                  47	29.97
5:42:                  17	29.96
5:42:                  47	29.96
5:43:                  17	29.96
5:43:                  47	29.96
5:44:                  17	29.96
5:44:                  47	29.95
5:45:                  17	29.95
5:45:                  47	29.95
5:46:                  17	29.94
5:46:                  47	29.95
5:47:                  17	29.96
5:47:                  47	29.95
5:48:                  17	29.95
5:48:                  47	29.95
5:49:                  17	29.95
5:49:                  47	29.94
5:50:                  17	29.95
5:50:                  47	29.94
5:51:                  17	29.94
5:51:                  47	29.95
5:52:                  17	29.94
5:52:                  47	29.95
5:53:                  17	29.95
5:53:                  47	29.95
5:54:                  17	29.94
5:54:                  47	29.94
5:55:                  17	29.93
5:55:                  47	29.93
5:56:                  18	29.94
5:56:                  48	29.93
5:57:                  18	29.93
5:57:                  48	29.93
5:58:                  18	29.93
5:58:                  48	29.91
5:59:                  18	29.91
5:59:                  48	29.91
6:00:                  18	29.90
6:00:                  48	29.91
6:01:                  18	29.91
6:01:                  48	29.90
6:02:                  18	29.91
6:02:                  48	29.91
6:03:                  18	29.90
6:03:                  48	29.91
6:04:                  18	29.91
6:04:                  48	29.91
6:05:                  18	29.91
6:05:                  48	29.91
6:06:                  18	29.91
6:06:                  48	29.90
6:07:                  18	29.91
6:07:                  48	29.90
6:08:                  18	29.92
6:08:                  48	29.90
6:09:                  18	29.90
6:09:                  48	29.90
6:10:                  18	29.91
6:10:                  48	29.90
6:11:                  18	29.90
6:11:                  48	29.91
6:12:                  18	29.90
6:12:                  48	29.91
6:13:                  18	29.90
6:13:                  48	29.90
6:14:                  18	29.90
6:14:                  48	29.91
6:15:                  18	29.90
6:15:                  48	29.90
6:16:                  18	29.90
6:16:                  48	29.91
6:17:                  18	29.90
6:17:                  48	29.89
6:18:                  18	29.89
6:18:                  48	29.89
6:19:                  18	29.90
6:19:                  48	29.89
6:20:                  18	29.90
6:20:                  48	29.90
6:21:                  18	29.89
6:21:                  48	29.89
6:22:                  18	29.89
6:22:                  48	29.90
6:23:                  18	29.90
6:23:                  48	29.90
6:24:                  18	29.89
6:24:                  48	29.89
6:25:                  18	29.89
6:25:                  48	29.89
6:26:                  18	29.91
6:26:                  48	29.91
6:27:                  18	29.92
6:27:                  48	29.93
6:28:                  18	29.93
6:28:                  48	29.93
6:29:                  18	29.93
6:29:                  48	29.91
6:30:                  18	29.92
6:30:                  48	29.91
6:31:                  18	29.91
6:31:                  48	29.91
6:32:                  18	29.91
6:32:                  48	29.90
6:33:                  18	29.90
6:33:                  48	29.90
6:34:                  18	29.89
6:34:                  48	29.89
6:35:                  18	29.90
6:35:                  48	29.90
6:36:                  18	29.90
6:36:                  48	29.89
6:37:                  18	29.89
6:37:                  48	29.89
6:38:                  18	29.89
6:38:                  48	29.89
6:39:                  18	29.90
6:39:                  49	29.88
6:40:                  19	29.88
6:40:                  49	29.88
6:41:                  19	29.88
6:41:                  49	29.88
6:42:                  19	29.88
6:42:                  49	29.88
6:43:                  19	29.87
6:43:                  49	29.86
6:44:                  19	29.86
6:44:                  49	29.87
6:45:                  19	29.86
6:45:                  49	29.87
6:46:                  19	29.86
6:46:                  49	29.85
6:47:                  19	29.85
6:47:                  49	29.84
6:48:                  19	29.85
6:48:                  49	29.84
6:49:                  19	29.84
6:49:                  49	29.84
6:50:                  19	29.84
6:50:                  49	29.83
6:51:                  19	29.83
6:51:                  49	29.83
6:52:                  19	29.83
6:52:                  49	29.82
6:53:                  19	29.83
6:53:                  49	29.82
6:54:                  19	29.81
6:54:                  49	29.82
6:55:                  19	29.82
6:55:                  49	29.82
6:56:                  19	29.82
6:56:                  49	29.81
6:57:                  19	29.81
6:57:                  49	29.82
6:58:                  19	29.80
6:58:                  49	29.81
6:59:                  19	29.81
6:59:                  49	29.79
7:00:                  20	29.80
7:00:                  50	29.80
7:01:                  20	29.81
7:01:                  50	29.81
7:02:                  20	29.80
7:02:                  50	29.80
7:03:                  20	29.79
7:03:                  50	29.80
7:04:                  20	29.79
7:04:                  50	29.79
7:05:                  20	29.78
7:05:                  50	29.79
7:06:                  20	29.79
7:06:                  50	29.79
7:07:                  20	29.79
7:07:                  50	29.79
7:08:                  20	29.79
7:08:                  50	29.78
7:09:                  20	29.79
7:09:                  50	29.77
7:10:                  20	29.78
7:10:                  50	29.78
7:11:                  20	29.78
7:11:                  50	29.77
7:12:                  20	29.78
7:12:                  50	29.78
7:13:                  20	29.77
7:13:                  50	29.77
7:14:                  20	29.78
7:14:                  50	29.78
7:15:                  20	29.77
7:15:                  50	29.78
7:16:                  20	29.78
7:16:                  50	29.78
7:17:                  20	29.76
7:17:                  50	29.72
7:18:                  20	29.74
7:18:                  50	29.75
7:19:                  20	29.75
7:19:                  50	29.75
7:20:                  20	29.76
7:20:                  50	29.75
7:21:                  20	29.76
7:21:                  50	29.76
7:22:                  20	29.77
7:22:                  50	29.75
7:23:                  20	29.76
7:23:                  50	29.76
7:24:                  20	29.77
7:24:                  50	29.77
7:25:                  20	29.76
7:25:                  50	29.76
7:26:                  21	29.76
7:26:                  51	29.76
7:27:                  21	29.76
7:27:                  51	29.76
7:28:                  21	29.75
7:28:                  51	29.76
7:29:                  21	29.75
7:29:                  51	29.76
7:30:                  21	29.76
7:30:                  51	29.75
7:31:                  21	29.74
7:31:                  51	29.76
7:32:                  21	29.76
7:32:                  51	29.76
7:33:                  21	29.74
7:33:                  51	29.75
7:34:                  21	29.75
7:34:                  51	29.75
7:35:                  21	29.74
7:35:                  51	29.75
7:36:                  21	29.75
7:36:                  51	29.76
7:37:                  21	29.74
7:37:                  51	29.75
7:38:                  21	29.75
7:38:                  51	29.74
7:39:                  21	29.74
7:39:                  51	29.75
7:40:                  21	29.73
7:40:                  51	29.74
7:41:                  21	29.75
7:41:                  51	29.74
7:42:                  21	29.75
7:42:                  51	29.75
7:43:                  21	29.75
7:43:                  51	29.73
7:44:                  21	29.74
7:44:                  51	29.74
7:45:                  21	29.75
7:45:                  51	29.75
7:46:                  21	29.75
7:46:                  51	29.75
7:47:                  21	29.74
7:47:                  51	29.74
7:48:                  21	29.74
7:48:                  51	29.74
7:49:                  21	29.73
7:49:                  51	29.73
7:50:                  21	29.74
7:50:                  51	29.74
7:51:                  21	29.74
7:51:                  51	29.73
7:52:                  21	29.73
7:52:                  51	29.73
7:53:                  21	29.72
7:53:                  51	29.72
7:54:                  21	29.72
7:54:                  51	29.72
7:55:                  21	29.72
7:55:                  51	29.72
7:56:                  21	29.72
7:56:                  51	29.72
7:57:                  21	29.72
7:57:                  51	29.72
7:58:                  21	29.72
7:58:                  51	29.72
7:59:                  21	29.72
7:59:                  51	29.72
8:00:                  21	29.71
8:00:                  51	29.71
8:01:                  21	29.72
8:01:                  51	29.71
8:02:                  21	29.71
8:02:                  51	29.71
8:03:                  21	29.70
8:03:                  51	29.70
8:04:                  21	29.70
8:04:                  51	29.70
8:05:                  21	29.69
8:05:                  51	29.69
8:06:                  22	29.69
8:06:                  52	29.70
8:07:                  22	29.69
8:07:                  52	29.69
8:08:                  22	29.69
8:08:                  52	29.69
8:09:                  22	29.69
8:09:                  52	29.70
8:10:                  22	29.69
8:10:                  52	29.69
8:11:                  22	29.69
8:11:                  52	29.68
8:12:                  22	29.70
8:12:                  52	29.67
8:13:                  22	29.69
8:13:                  52	29.69
8:14:                  22	29.68
8:14:                  52	29.68
8:15:                  22	29.67
8:15:                  52	29.67
8:16:                  22	29.67
8:16:                  52	29.66
8:17:                  22	29.67
8:17:                  52	29.67
8:18:                  22	29.67
8:18:                  52	29.67
8:19:                  22	29.67
8:19:                  52	29.66
8:20:                  22	29.67
8:20:                  52	29.67
8:21:                  22	29.66
8:21:                  52	29.66
8:22:                  22	29.66
8:22:                  52	29.66
8:23:                  22	29.67
8:23:                  52	29.63
8:24:                  22	29.65
8:24:                  52	29.65
8:25:                  22	29.66
8:25:                  52	29.65
8:26:                  22	29.65
8:26:                  52	29.65
8:27:                  22	29.66
8:27:                  52	29.66
8:28:                  22	29.65
8:28:                  52	29.66
8:29:                  22	29.65
8:29:                  52	29.66
8:30:                  22	29.64
8:30:                  52	29.64
8:31:                  22	29.63
8:31:                  52	29.64
8:32:                  22	29.64
8:32:                  52	29.65
8:33:                  22	29.63
8:33:                  52	29.64
8:34:                  22	29.64
8:34:                  52	29.64
8:35:                  22	29.64
8:35:                  52	29.64
8:36:                  22	29.65
8:36:                  53	29.64
8:37:                  23	29.64
8:37:                  53	29.64
8:38:                  23	29.64
8:38:                  53	29.64
8:39:                  23	29.63
8:39:                  53	29.64
8:40:                  23	29.63
8:40:                  53	29.64
8:41:                  23	29.64
8:41:                  53	29.63
8:42:                  23	29.64
8:42:                  53	29.63
8:43:                  23	29.64
8:43:                  53	29.63
8:44:                  23	29.63
8:44:                  53	29.64
8:45:                  23	29.63
8:45:                  53	29.64
8:46:                  23	29.64
8:46:                  53	29.64
8:47:                  23	29.63
8:47:                  53	29.63
8:48:                  23	29.64
8:48:                  53	29.65
8:49:                  23	29.64
8:49:                  53	29.63
8:50:                  23	29.64
8:50:                  53	29.65
8:51:                  23	29.65
8:51:                  53	29.63
8:52:                  23	29.65
8:52:                  53	29.64
8:53:                  23	29.64
8:53:                  53	29.64
8:54:                  23	29.64
8:54:                  53	29.66
8:55:                  23	29.68
8:55:                  53	29.67
8:56:                  23	29.67
8:56:                  53	29.68
8:57:                  23	29.68
8:57:                  53	29.69
8:58:                  23	29.70
8:58:                  53	29.70
8:59:                  23	29.71
8:59:                  53	29.72
9:00:                  23	29.72
9:00:                  53	29.72
9:01:                  23	29.72
9:01:                  53	29.73
9:02:                  23	29.73
9:02:                  54	29.73
9:03:                  24	29.73
9:03:                  54	29.74
9:04:                  24	29.75
9:04:                  54	29.75
9:05:                  24	29.75
9:05:                  54	29.76
9:06:                  24	29.76
9:06:                  54	29.78
9:07:                  24	29.78
9:07:                  54	29.78
9:08:                  24	29.78
9:08:                  54	29.80
9:09:                  24	29.79
9:09:                  54	29.80
9:10:                  24	29.82
9:10:                  54	29.82
9:11:                  24	29.83
9:11:                  54	29.86
9:12:                  24	29.86
9:12:                  54	29.85
9:13:                  24	29.87
9:13:                  54	29.87
9:14:                  24	29.88
9:14:                  54	29.88
9:15:                  24	29.89
9:15:                  54	29.91
9:16:                  24	29.91
9:16:                  54	29.90
9:17:                  24	29.93
9:17:                  54	29.90
9:18:                  24	29.91
9:18:                  54	29.93
9:19:                  24	29.94
9:19:                  54	29.95
9:20:                  24	29.96
9:20:                  54	29.97
9:21:                  24	29.98
9:21:                  54	29.99
9:22:                  24	29.99
9:22:                  54	30.00
9:23:                  24	30.01
9:23:                  54	30.03
9:24:                  25	30.04
9:24:                  55	30.04
9:25:                  25	30.04
9:25:                  55	30.06
9:26:                  25	30.07
9:26:                  55	30.08
9:27:                  25	30.07
9:27:                  55	30.08
9:28:                  25	30.09
9:28:                  55	30.09
9:29:                  25	30.09
9:29:                  55	30.10
9:30:                  25	30.13
9:30:                  55	30.13
9:31:                  25	30.14
9:31:                  55	30.14
9:32:                  25	30.15
9:32:                  55	30.16
9:33:                  25	30.17
9:33:                  55	30.16
9:34:                  25	30.19
9:34:                  55	30.20
9:35:                  25	30.21
9:35:                  55	30.22
9:36:                  25	30.24
9:36:                  55	30.26
9:37:                  25	30.27
9:37:                  55	30.29
9:38:                  25	30.30
9:38:                  55	30.33
9:39:                  25	30.35
9:39:                  55	30.38
9:40:                  25	30.41
9:40:                  55	30.43
9:41:                  25	30.47
9:41:                  55	30.49
9:42:                  25	30.52
9:42:                  55	30.57
9:43:                  25	30.60
9:43:                  55	30.64
9:44:                  25	30.66
9:44:                  55	30.69
9:45:                  25	30.73
9:45:                  55	30.77
9:46:                  25	30.81
9:46:                  55	30.86
9:47:                  25	30.89
9:47:                  55	30.93
9:48:                  25	30.98
9:48:                  55	31.01
9:49:                  26	31.05
9:49:                  56	31.09
9:50:                  26	31.12
9:50:                  56	31.17
9:51:                  26	31.22
9:51:                  56	31.27
9:52:                  26	31.29
9:52:                  56	31.33
9:53:                  26	31.35
9:53:                  56	31.40
9:54:                  26	31.44
9:54:                  56	31.48
9:55:                  26	31.53
9:55:                  56	31.56
9:56:                  26	31.61
9:56:                  56	31.66
9:57:                  26	31.71
9:57:                  56	31.81
9:58:                  26	31.91
9:58:                  56	32.01
9:59:                  26	32.07
9:59:                  56	32.11
10:00:                  26	32.18
10:00:                  56	32.21
10:01:                  26	32.31
10:01:                  56	32.34
10:02:                  26	32.39
10:02:                  56	32.44
10:03:                  26	32.47
10:03:                  56	32.53
10:04:                  26	32.55
10:04:                  56	32.56
10:05:                  26	32.57
10:05:                  56	32.66
10:06:                  26	32.68
10:06:                  56	32.69
10:07:                  26	32.69
10:07:                  56	32.74
10:08:                  26	32.77
10:08:                  56	32.78
10:09:                  26	32.80
10:09:                  56	32.86
10:10:                  27	32.92
10:10:                  57	32.99
10:11:                  27	33.04
10:11:                  57	33.09
10:12:                  27	33.12
10:12:                  57	33.16
10:13:                  27	33.19
10:13:                  57	33.22
10:14:                  27	33.24
10:14:                  57	33.31
10:15:                  27	33.35
10:15:                  57	33.40
10:16:                  27	33.40
10:16:                  57	33.49
10:17:                  27	33.49
10:17:                  57	33.55
10:18:                  27	33.51
10:18:                  57	33.61
10:19:                  27	33.64
10:19:                  57	33.64
10:20:                  27	33.63
10:20:                  57	33.67
10:21:                  27	33.76
10:21:                  57	33.82
10:22:                  27	33.86
10:22:                  57	33.92
10:23:                  27	33.94
10:23:                  57	34.00
10:24:                  27	34.05
10:24:                  57	34.09
10:25:                  27	34.12
10:25:                  57	34.16
10:26:                  27	34.16
10:26:                  57	34.24
10:27:                  27	34.27
10:27:                  57	34.33
10:28:                  27	34.37
10:28:                  57	34.41
10:29:                  27	34.46
10:29:                  57	34.45
10:30:                  27	34.52
10:30:                  58	34.54
10:31:                  28	34.58
10:31:                  58	34.64
10:32:                  28	34.59
10:32:                  58	34.68
10:33:                  28	34.72
10:33:                  58	34.78
10:34:                  28	34.80
10:34:                  58	34.87
10:35:                  28	34.89
10:35:                  58	34.89
10:36:                  28	34.92
10:36:                  58	34.92
10:37:                  28	34.96
10:37:                  58	34.97
10:38:                  28	34.95
10:38:                  58	34.96
10:39:                  28	34.99
10:39:                  58	35.04
10:40:                  28	35.03
10:40:                  58	35.00
10:41:                  28	35.06
10:41:                  58	35.03
10:42:                  28	35.10
10:42:                  58	35.11
10:43:                  28	35.08
10:43:                  58	35.16
10:44:                  28	35.11
10:44:                  58	35.13
10:45:                  28	35.20
10:45:                  58	35.22
10:46:                  28	35.19
10:46:                  58	35.22
10:47:                  28	35.26
10:47:                  58	35.29
10:48:                  28	35.27
10:48:                  59	35.30
10:49:                  29	35.34
10:49:                  59	35.37
10:50:                  29	35.36
10:50:                  59	35.38
10:51:                  29	35.36
10:51:                  59	35.38
10:52:                  29	35.42
10:52:                  59	35.43
10:53:                  29	35.45
10:53:                  59	35.47
10:54:                  29	35.48
10:54:                  59	35.50
10:55:                  29	35.51
10:55:                  59	35.53
10:56:                  29	35.51
10:56:                  59	35.56
10:57:                  29	35.59
10:57:                  59	35.60
10:58:                  29	35.61
10:58:                  59	35.63
10:59:                  29	35.63
10:59:                  59	35.65
11:00:                  29	35.68
11:00:                  59	35.70
11:01:                  29	35.72
11:01:                  59	35.70
11:02:                  29	35.73
11:02:                  59	35.76
11:03:                  29	35.78
11:03:                  59	35.78
11:04:                  29	35.82
11:04:                  59	35.87
11:05:                  29	35.88
11:05:                  59	35.89
11:06:                  29	35.92
11:06:                  59	35.94
11:07:                  29	35.94
11:07:                  59	35.95
11:08:                  29	35.99
11:08:                  59	35.99
11:09:                  29	36.00
11:09:                  59	36.00
11:10:                  29	36.04
11:10:                  59	36.04
11:11:                  29	36.08
11:11:                  59	36.08
11:12:                  30	36.10
11:13:                   0	36.13
11:13:                  30	36.13
11:14:                   0	36.17
11:14:                  30	36.19
11:15:                   0	36.24
11:15:                  30	36.28
11:16:                   0	36.30
11:16:                  30	36.28
11:17:                   0	36.27
11:17:                  30	36.30
11:18:                   0	36.27
11:18:                  30	36.27
11:19:                   0	36.30
11:19:                  30	36.35
11:20:                   0	36.36
11:20:                  30	36.36
11:21:                   0	36.37
11:21:                  30	36.37
11:22:                   0	36.38
11:22:                  30	36.35
11:23:                   0	36.29
11:23:                  30	36.28
11:24:                   0	36.29
11:24:                  30	36.26
11:25:                   0	36.22
11:25:                  30	36.17
11:26:                   0	36.13
11:26:                  30	36.08
11:27:                   0	36.03
11:27:                  30	35.99
11:28:                   0	35.96
11:28:                  30	35.93
11:29:                   0	35.89
11:29:                  30	35.86
11:30:                   1	35.85
11:30:                  31	35.82
11:31:                   1	35.81
11:31:                  31	35.82
11:32:                   1	35.78
11:32:                  31	35.80
11:33:                   1	35.84
11:33:                  31	35.91
11:34:                   1	35.96
11:34:                  31	36.01
11:35:                   1	36.02
11:35:                  31	36.07
11:36:                   1	36.14
11:36:                  31	36.20
11:37:                   1	36.24
11:37:                  31	36.27
11:38:                   1	36.34
11:38:                  31	36.36
11:39:                   1	36.40
11:39:                  31	36.45
11:40:                   1	36.49
11:40:                  31	36.55
11:41:                   1	36.57
11:41:                  31	36.58
11:42:                   1	36.58
11:42:                  31	36.59
11:43:                   1	36.60
11:43:                  31	36.61
11:44:                   1	36.62
11:44:                  31	36.62
11:45:                   1	36.60
11:45:                  31	36.59
11:46:                   1	36.58
11:46:                  31	36.56
11:47:                   1	36.57
11:47:                  31	36.59
11:48:                   1	36.51
11:48:                  32	36.49
11:49:                   2	36.56
11:49:                  32	36.57
11:50:                   2	36.56
11:50:                  32	36.57
11:51:                   2	36.60
11:51:                  32	36.60
11:52:                   2	36.62
11:52:                  32	36.65
11:53:                   2	36.64
11:53:                  32	36.62
11:54:                   2	36.64
11:54:                  32	36.71
11:55:                   2	36.73
11:55:                  32	36.74
11:56:                   2	36.74
11:56:                  32	36.73
11:57:                   2	36.71
11:57:                  32	36.68
11:58:                   2	36.68
11:58:                  32	36.69
11:59:                   2	36.70
11:59:                  32	36.70
12:00:                   2	36.70
12:00:                  32	36.71
12:01:                   2	36.69
12:01:                  32	36.69
12:02:                   2	36.67
12:02:                  32	36.66
12:03:                   2	36.68
12:03:                  32	36.69
12:04:                   2	36.71
12:04:                  32	36.70
12:05:                   2	36.72
12:05:                  32	36.72
12:06:                   3	36.72
12:06:                  33	36.73
12:07:                   3	36.70
12:07:                  33	36.67
12:08:                   3	36.67
12:08:                  33	36.67
12:09:                   3	36.68
12:09:                  33	36.68
12:10:                   3	36.69
12:10:                  33	36.73
12:11:                   3	36.72
12:11:                  33	36.70
12:12:                   3	36.69
12:12:                  33	36.68
12:13:                   3	36.69
12:13:                  33	36.68
12:14:                   3	36.68
12:14:                  33	36.68
12:15:                   3	36.67
12:15:                  33	36.68
12:16:                   3	36.68
12:16:                  33	36.67
12:17:                   3	36.66
12:17:                  33	36.66
12:18:                   3	36.67
12:18:                  33	36.67
12:19:                   3	36.66
12:19:                  33	36.63
12:20:                   3	36.66
12:20:                  33	36.68
12:21:                   3	36.73
12:21:                  33	36.76
12:22:                   3	36.76
12:22:                  34	36.73
12:23:                   4	36.76
12:23:                  34	36.76
12:24:                   4	36.77
12:24:                  34	36.79
12:25:                   4	36.78
12:25:                  34	36.76
12:26:                   4	36.78
12:26:                  34	36.74
12:27:                   4	36.74
12:27:                  34	36.75
12:28:                   4	36.75
12:28:                  34	36.75
12:29:                   4	36.76
12:29:                  34	36.75
12:30:                   4	36.77
12:30:                  34	36.81
12:31:                   4	36.84
12:31:                  34	36.83
12:32:                   4	36.85
12:32:                  34	36.82
12:33:                   4	36.84
12:33:                  34	36.82
12:34:                   4	36.82
12:34:                  34	36.84
12:35:                   4	36.86
12:35:                  34	36.88
12:36:                   4	36.85
12:36:                  34	36.90
12:37:                   4	36.87
12:37:                  34	36.86
12:38:                   4	36.87
12:38:                  34	36.88
12:39:                   4	36.85
12:39:                  34	36.87
12:40:                   4	36.90
12:40:                  34	36.90
12:41:                   4	36.90
12:41:                  34	36.95
12:42:                   5	36.94
12:42:                  35	36.93
12:43:                   5	36.93
12:43:                  35	36.96
12:44:                   5	36.96
12:44:                  35	36.99
12:45:                   5	37.02
12:45:                  35	37.02
12:46:                   5	37.01
12:46:                  35	37.00
12:47:                   5	36.97
12:47:                  35	37.00
12:48:                   5	37.00
12:48:                  35	37.01
12:49:                   5	37.01
12:49:                  35	37.00
12:50:                   5	36.99
12:50:                  35	36.98
12:51:                   5	36.96
12:51:                  35	36.95
12:52:                   5	36.98
12:52:                  35	37.00
12:53:                   5	37.01
12:53:                  35	36.99
12:54:                   5	37.00
12:54:                  35	36.96
12:55:                   5	36.97
12:55:                  35	36.96
12:56:                   5	36.94
12:56:                  35	36.98
12:57:                   5	36.96
12:57:                  35	36.99
12:58:                   6	37.03
12:58:                  36	37.04
12:59:                   6	37.08
12:59:                  36	37.12
13:00:                   6	37.12
13:00:                  36	37.13
13:01:                   6	37.12
13:01:                  36	37.13
13:02:                   6	37.14
13:02:                  36	37.14
13:03:                   6	37.11
13:03:                  36	37.14
13:04:                   6	37.12
13:04:                  36	37.14
13:05:                   6	37.13
13:05:                  36	37.13
13:06:                   6	37.13
13:06:                  36	37.13
13:07:                   6	37.15
13:07:                  36	37.13
13:08:                   6	37.11
13:08:                  36	37.12
13:09:                   6	37.09
13:09:                  36	37.09
13:10:                   6	37.12
13:10:                  36	37.13
13:11:                   6	37.14
13:11:                  36	37.15
13:12:                   6	37.19
13:12:                  36	37.19
13:13:                   6	37.22
13:13:                  37	37.21
13:14:                   7	37.23
13:14:                  37	37.24
13:15:                   7	37.24
13:15:                  37	37.21
13:16:                   7	37.23
13:16:                  37	37.22
13:17:                   7	37.21
13:17:                  37	37.20
13:18:                   7	37.22
13:18:                  37	37.22
13:19:                   7	37.22
13:19:                  37	37.18
13:20:                   7	37.15
13:20:                  37	37.17
13:21:                   7	37.16
13:21:                  37	37.15
13:22:                   7	37.14
13:22:                  37	37.12
13:23:                   7	37.13
13:23:                  37	37.11
13:24:                   7	37.10
13:24:                  37	37.13
13:25:                   7	37.11
13:25:                  37	37.09
13:26:                   7	37.09
13:26:                  37	37.06
13:27:                   7	37.01
13:27:                  37	36.99
13:28:                   7	37.01
13:28:                  37	37.03
13:29:                   7	37.02
13:29:                  38	36.98
13:30:                   8	36.98
13:30:                  38	36.98
13:31:                   8	36.96
13:31:                  38	36.87
13:32:                   8	36.85
13:32:                  38	36.78
13:33:                   8	36.74
13:33:                  38	36.72
13:34:                   8	36.73
13:34:                  38	36.70
13:35:                   8	36.71
13:35:                  38	36.69
13:36:                   8	36.66
13:36:                  38	36.63
13:37:                   8	36.63
13:37:                  38	36.59
13:38:                   8	36.59
13:38:                  38	36.59
13:39:                   8	36.57
13:39:                  38	36.52
13:40:                   8	36.51
13:40:                  38	36.48
13:41:                   8	36.46
13:41:                  38	36.43
13:42:                   8	36.38
13:42:                  38	36.37
13:43:                   8	36.35
13:43:                  38	36.33
13:44:                   8	36.31
13:44:                  38	36.27
13:45:                   8	36.24
13:45:                  38	36.23
13:46:                   9	36.20
13:46:                  39	36.18
13:47:                   9	36.15
13:47:                  39	36.12
13:48:                   9	36.12
13:48:                  39	36.08
13:49:                   9	36.08
13:49:                  39	36.06
13:50:                   9	36.03
13:50:                  39	36.02
13:51:                   9	36.01
13:51:                  39	35.99
13:52:                   9	35.94
13:52:                  39	35.93
13:53:                   9	35.90
13:53:                  39	35.88
13:54:                   9	35.85
13:54:                  39	35.85
13:55:                   9	35.84
13:55:                  39	35.85
13:56:                   9	35.84
13:56:                  39	35.84
13:57:                   9	35.83
13:57:                  39	35.84
13:58:                   9	35.84
13:58:                  39	35.87
13:59:                   9	35.85
13:59:                  39	35.77
14:00:                   9	35.73
14:00:                  39	35.72
14:01:                   9	35.69
14:01:                  39	35.68
14:02:                  10	35.65
14:02:                  40	35.59
14:03:                  10	35.55
14:03:                  40	35.56
14:04:                  10	35.51
14:04:                  40	35.47
14:05:                  10	35.45
14:05:                  40	35.42
14:06:                  10	35.42
14:06:                  40	35.41
14:07:                  10	35.38
14:07:                  40	35.33
14:08:                  10	35.30
14:08:                  40	35.25
14:09:                  10	35.22
14:09:                  40	35.15
14:10:                  10	35.13
14:10:                  40	35.12
14:11:                  10	35.07
14:11:                  40	35.04
14:12:                  10	35.01
14:12:                  40	34.99
14:13:                  10	34.97
14:13:                  40	34.90
14:14:                  10	34.89
14:14:                  40	34.85
14:15:                  10	34.83
14:15:                  40	34.81
14:16:                  10	34.78
14:16:                  40	34.74
14:17:                  10	34.70
14:17:                  40	34.66
14:18:                  10	34.63
14:18:                  40	34.58
14:19:                  10	34.54
14:19:                  40	34.50
14:20:                  10	34.51
14:20:                  40	34.47
14:21:                  11	34.45
14:21:                  41	34.43
14:22:                  11	34.38
14:22:                  41	34.36
14:23:                  11	34.33
14:23:                  41	34.28
14:24:                  11	34.23
14:24:                  41	34.20
14:25:                  11	34.17
14:25:                  41	34.13
14:26:                  11	34.10
14:26:                  41	34.05
14:27:                  11	34.03
14:27:                  41	33.97
14:28:                  11	33.95
14:28:                  41	33.94
14:29:                  11	33.91
14:29:                  41	33.83
14:30:                  11	33.80
14:30:                  41	33.78
14:31:                  11	33.75
14:31:                  41	33.67
14:32:                  11	33.61
14:32:                  41	33.61
14:33:                  11	33.58
14:33:                  41	33.53
14:34:                  11	33.50
14:34:                  41	33.48
14:35:                  11	33.48
14:35:                  41	33.41
14:36:                  11	33.40
14:36:                  41	33.36
14:37:                  11	33.37
14:37:                  41	33.33
14:38:                  11	33.25
14:38:                  42	33.20
14:39:                  12	33.16
14:39:                  42	33.15
14:40:                  12	33.16
14:40:                  42	33.05
14:41:                  12	33.04
14:41:                  42	33.05
14:42:                  12	33.03
14:42:                  42	33.01
14:43:                  12	33.04
14:43:                  42	33.03
14:44:                  12	33.01
14:44:                  42	32.95
14:45:                  12	32.93
14:45:                  42	32.87
14:46:                  12	32.88
14:46:                  42	32.83
14:47:                  12	32.78
14:47:                  42	32.72
14:48:                  12	32.74
14:48:                  42	32.71
14:49:                  12	32.66
14:49:                  42	32.63
14:50:                  12	32.62
14:50:                  42	32.63
14:51:                  12	32.65
14:51:                  42	32.68
14:52:                  12	32.69
14:52:                  42	32.68
14:53:                  12	32.71
14:53:                  42	32.67
14:54:                  12	32.66
14:54:                  42	32.67
14:55:                  12	32.64
14:55:                  42	32.65
14:56:                  12	32.64
14:56:                  43	32.66
14:57:                  13	32.64
14:57:                  43	32.61
14:58:                  13	32.55
14:58:                  43	32.51
14:59:                  13	32.50
14:59:                  43	32.52
15:00:                  13	32.51
15:00:                  43	32.54
15:01:                  13	32.54
15:01:                  43	32.53
15:02:                  13	32.41
15:02:                  43	32.34
15:03:                  13	32.37
15:03:                  43	32.38
15:04:                  13	32.38
15:04:                  43	32.37
15:05:                  13	32.39
15:05:                  43	32.39
15:06:                  13	32.41
15:06:                  43	32.41
15:07:                  13	32.35
15:07:                  43	32.33
15:08:                  13	32.35
15:08:                  43	32.37
15:09:                  13	32.39
15:09:                  43	32.43
15:10:                  13	32.42
15:10:                  43	32.44
15:11:                  13	32.45
15:11:                  43	32.48
15:12:                  13	32.50
15:12:                  44	32.48
15:13:                  14	32.48
15:13:                  44	32.46
15:14:                  14	32.46
15:14:                  44	32.48
15:15:                  14	32.46
15:15:                  44	32.45
15:16:                  14	32.46
15:16:                  44	32.45
15:17:                  14	32.44
15:17:                  44	32.41
15:18:                  14	32.40
15:18:                  44	32.38
15:19:                  14	32.38
15:19:                  44	32.39
15:20:                  14	32.42
15:20:                  44	32.40
15:21:                  14	32.41
15:21:                  44	32.40
15:22:                  14	32.42
15:22:                  44	32.40
15:23:                  14	32.33
15:23:                  44	32.34
15:24:                  14	32.30
15:24:                  44	32.27
15:25:                  14	32.23
15:25:                  44	32.26
15:26:                  14	32.26
15:26:                  44	32.26
15:27:                  14	32.23
15:27:                  44	32.26
15:28:                  14	32.32
15:28:                  44	32.31
15:29:                  14	32.30
15:29:                  44	32.31
15:30:                  14	32.31
15:30:                  44	32.27
15:31:                  14	32.28
15:31:                  44	32.29
15:32:                  15	32.27
15:32:                  45	32.30
15:33:                  15	32.27
15:33:                  45	32.24
15:34:                  15	32.19
15:34:                  45	32.17
15:35:                  15	32.20
15:35:                  45	32.24
15:36:                  15	32.22
15:36:                  45	32.18
15:37:                  15	32.16
15:37:                  45	32.15
15:38:                  15	32.12
15:38:                  45	32.15
15:39:                  15	32.14
15:39:                  45	32.11
15:40:                  15	32.15
15:40:                  45	32.17
15:41:                  15	32.14
15:41:                  45	32.12
15:42:                  15	32.11
15:42:                  45	32.10
15:43:                  15	32.14
15:43:                  45	32.12
15:44:                  15	32.06
15:44:                  45	32.08
15:45:                  15	32.11
15:45:                  45	32.07
15:46:                  15	32.12
15:46:                  45	32.14
15:47:                  15	32.14
15:47:                  45	32.18
15:48:                  15	32.24
15:48:                  45	32.27
15:49:                  15	32.30
15:49:                  45	32.30
15:50:                  15	32.29
15:50:                  45	32.30
15:51:                  15	32.31
15:51:                  45	32.26
15:52:                  15	32.25
15:52:                  45	32.27
15:53:                  15	32.29
15:53:                  45	32.28
15:54:                  16	32.28
15:54:                  46	32.28
15:55:                  16	32.30
15:55:                  46	32.33
15:56:                  16	32.32
15:56:                  46	32.32
15:57:                  16	32.32
15:57:                  46	32.33
15:58:                  16	32.34
15:58:                  46	32.34
15:59:                  16	32.32
15:59:                  46	32.30
16:00:                  16	32.28
16:00:                  46	32.30
16:01:                  16	32.29
16:01:                  46	32.28
16:02:                  16	32.25
16:02:                  46	32.26
16:03:                  16	32.26
16:03:                  46	32.27
16:04:                  16	32.27
16:04:                  46	32.26
16:05:                  16	32.25
16:05:                  46	32.27
16:06:                  16	32.26
16:06:                  46	32.25
16:07:                  16	32.25
16:07:                  46	32.24
16:08:                  16	32.25
16:08:                  46	32.27
16:09:                  16	32.24
16:09:                  46	32.26
16:10:                  16	32.22
16:10:                  46	32.21
16:11:                  16	32.20
16:11:                  46	32.21
16:12:                  16	32.20
16:12:                  46	32.18
16:13:                  16	32.16
16:13:                  46	32.17
16:14:                  16	32.17
16:14:                  46	32.17
16:15:                  16	32.17
16:15:                  46	32.17
16:16:                  16	32.14
16:16:                  46	32.15
16:17:                  16	32.15
16:17:                  46	32.14
16:18:                  16	32.14
16:18:                  46	32.11
16:19:                  16	32.10
16:19:                  46	32.10
16:20:                  17	32.11
16:20:                  47	32.10
16:21:                  17	32.11
16:21:                  47	32.09
16:22:                  17	32.08
16:22:                  47	32.09
16:23:                  17	32.07
16:23:                  47	32.07
16:24:                  17	32.07
16:24:                  47	32.09
16:25:                  17	32.07
16:25:                  47	32.08
16:26:                  17	32.07
16:26:                  47	32.04
16:27:                  17	32.05
16:27:                  47	32.06
16:28:                  17	32.07
16:28:                  47	32.08
16:29:                  17	32.06
16:29:                  47	32.05
16:30:                  17	32.04
16:30:                  47	32.04
16:31:                  17	32.06
16:31:                  47	32.07
16:32:                  17	32.06
16:32:                  47	32.06
16:33:                  17	32.01
16:33:                  47	31.92
16:34:                  17	31.93
16:34:                  47	31.92
16:35:                  17	31.93
16:35:                  47	31.93
16:36:                  17	31.93
16:36:                  47	31.89
16:37:                  17	31.88
16:37:                  47	31.88
16:38:                  17	31.87
16:38:                  47	31.87
16:39:                  17	31.89
16:39:                  47	31.89
16:40:                  17	31.87
16:40:                  47	31.88
16:41:                  17	31.87
16:41:                  47	31.86
16:42:                  17	31.85
16:42:                  47	31.86
16:43:                  18	31.75
16:43:                  48	31.76
16:44:                  18	31.77
16:44:                  48	31.76
16:45:                  18	31.74
16:45:                  48	31.74
16:46:                  18	31.74
16:46:                  48	31.75
16:47:                  18	31.74
16:47:                  48	31.73
16:48:                  18	31.63
16:48:                  48	31.68
16:49:                  18	31.69
16:49:                  48	31.68
16:50:                  18	31.69
16:50:                  48	31.68
16:51:                  18	31.69
16:51:                  48	31.68
16:52:                  18	31.70
16:52:                  48	31.71
16:53:                  18	31.71
16:53:                  48	31.66
16:54:                  18	31.68
16:54:                  48	31.69
16:55:                  18	31.67
16:55:                  48	31.68
16:56:                  18	31.70
16:56:                  48	31.70
16:57:                  18	31.70
16:57:                  48	31.71
16:58:                  18	31.67
16:58:                  48	31.68
16:59:                  18	31.69
16:59:                  48	31.68
17:00:                  18	31.69
17:00:                  48	31.69
17:01:                  18	31.67
17:01:                  49	31.61
17:02:                  19	31.64
17:02:                  49	31.66
17:03:                  19	31.64
17:03:                  49	31.65
17:04:                  19	31.66
17:04:                  49	31.67
17:05:                  19	31.68
17:05:                  49	31.67
17:06:                  19	31.65
17:06:                  49	31.67
17:07:                  19	31.63
17:07:                  49	31.65
17:08:                  19	31.63
17:08:                  49	31.64
17:09:                  19	31.61
17:09:                  49	31.56
17:10:                  19	31.56
17:10:                  49	31.57
17:11:                  19	31.59
17:11:                  49	31.60
17:12:                  19	31.58
17:12:                  49	31.55
17:13:                  19	31.54
17:13:                  49	31.54
17:14:                  19	31.53
17:14:                  49	31.54
17:15:                  19	31.54
17:15:                  49	31.55
17:16:                  19	31.52
17:16:                  49	31.49
17:17:                  19	31.46
17:17:                  49	31.45
17:18:                  19	31.40
17:18:                  49	31.42
17:19:                  19	31.38
17:19:                  49	31.37
17:20:                  19	31.39
17:20:                  49	31.40
17:21:                  19	31.41
17:21:                  49	31.35
17:22:                  20	31.29
17:22:                  50	31.32
17:23:                  20	31.33
17:23:                  50	31.27
17:24:                  20	31.27
17:24:                  50	31.26
17:25:                  20	31.28
17:25:                  50	31.29
17:26:                  20	31.28
17:26:                  50	31.29
17:27:                  20	31.29
17:27:                  50	31.24
17:28:                  20	31.21
17:28:                  50	31.18
17:29:                  20	31.21
17:29:                  50	31.21
17:30:                  20	31.23
17:30:                  50	31.24
17:31:                  20	31.23
17:31:                  50	31.25
17:32:                  20	31.24
17:32:                  50	31.24
17:33:                  20	31.24
17:33:                  50	31.24
17:34:                  20	31.24
17:34:                  50	31.23
17:35:                  20	31.23
17:35:                  50	31.23
17:36:                  20	31.21
17:36:                  50	31.22
17:37:                  20	31.23
17:37:                  50	31.22
17:38:                  20	31.15
17:38:                  50	31.16
17:39:                  20	31.16
17:39:                  50	31.16
17:40:                  20	31.15
17:40:                  50	31.14
17:41:                  20	31.15
17:41:                  50	31.16
17:42:                  20	31.13
17:42:                  50	31.11
17:43:                  20	31.10
17:43:                  50	31.10
17:44:                  20	31.09
17:44:                  50	31.06
17:45:                  20	31.05
17:45:                  50	31.05
17:46:                  20	31.05
17:46:                  50	31.05
17:47:                  20	31.04
17:47:                  50	31.03
17:48:                  20	31.03
17:48:                  50	31.03
17:49:                  20	31.01
17:49:                  50	31.01
17:50:                  20	30.96
17:50:                  50	30.97
17:51:                  20	30.98
17:51:                  50	30.99
17:52:                  20	30.98
17:52:                  50	30.98
17:53:                  20	30.96
17:53:                  51	30.96
17:54:                  21	30.95
17:54:                  51	30.92
17:55:                  21	30.82
17:55:                  51	30.81
17:56:                  21	30.79
17:56:                  51	30.81
17:57:                  21	30.83
17:57:                  51	30.86
17:58:                  21	30.89
17:58:                  51	30.89
17:59:                  21	30.91
17:59:                  51	30.92
18:00:                  21	30.92
18:00:                  51	30.93
18:01:                  21	30.95
18:01:                  51	30.95
18:02:                  21	30.96
18:02:                  51	30.97
18:03:                  21	30.97
18:03:                  51	30.98
18:04:                  21	30.98
18:04:                  51	31.00
18:05:                  21	30.99
18:05:                  51	31.00
18:06:                  21	31.01
18:06:                  51	31.01
18:07:                  21	31.02
18:07:                  51	31.02
18:08:                  21	31.02
18:08:                  51	31.01
18:09:                  21	31.01
18:09:                  51	31.02
18:10:                  21	31.03
18:10:                  51	31.03
18:11:                  21	31.03
18:11:                  51	31.03
18:12:                  21	31.02
18:12:                  51	31.03
18:13:                  21	31.03
18:13:                  51	31.03
18:14:                  21	31.04
18:14:                  51	31.04
18:15:                  21	31.03
18:15:                  51	31.03
18:16:                  21	31.04
18:16:                  51	31.03
18:17:                  21	31.03
18:17:                  51	31.03
18:18:                  21	31.05
18:18:                  51	31.05
18:19:                  21	31.06
18:19:                  51	31.06
18:20:                  21	31.06
18:20:                  51	31.06
18:21:                  22	31.05
18:21:                  52	31.04
18:22:                  22	31.05
18:22:                  52	31.05
18:23:                  22	31.05
18:23:                  52	31.05
18:24:                  22	31.05
18:24:                  52	31.04
18:25:                  22	31.05
18:25:                  52	31.03
18:26:                  22	31.02
18:26:                  52	31.04
18:27:                  22	31.04
18:27:                  52	31.03
18:28:                  22	31.03
18:28:                  52	31.02
18:29:                  22	31.03
18:29:                  52	31.05
18:30:                  22	31.03
18:30:                  52	31.04
18:31:                  22	31.03
18:31:                  52	31.01
18:32:                  22	31.01
18:32:                  52	31.01
18:33:                  22	31.02
18:33:                  52	31.02
18:34:                  22	31.02
18:34:                  52	31.03
18:35:                  22	31.02
18:35:                  52	31.03
18:36:                  22	31.02
18:36:                  52	31.01
18:37:                  22	30.99
18:37:                  52	31.01
18:38:                  22	31.03
18:38:                  52	31.01
18:39:                  22	31.01
18:39:                  52	31.02
18:40:                  22	31.03
18:40:                  52	31.02
18:41:                  22	31.02
18:41:                  52	31.01
18:42:                  22	31.00
18:42:                  52	31.01
18:43:                  23	31.01
18:43:                  53	31.01
18:44:                  23	31.01
18:44:                  53	31.01
18:45:                  23	31.01
18:45:                  53	31.01
18:46:                  23	31.00
18:46:                  53	31.01
18:47:                  23	30.99
18:47:                  53	31.00
18:48:                  23	31.00
18:48:                  53	31.00
18:49:                  23	31.01
18:49:                  53	31.00
18:50:                  23	31.01
18:50:                  53	31.01
18:51:                  23	31.01
18:51:                  53	31.01
18:52:                  23	30.98
18:52:                  53	31.01
18:53:                  23	31.00
18:53:                  53	30.99
18:54:                  23	31.01
18:54:                  53	30.98
18:55:                  23	30.96
18:55:                  53	30.97
18:56:                  23	30.97
18:56:                  53	30.98
18:57:                  23	30.98
18:57:                  53	30.98
18:58:                  23	30.96
18:58:                  53	30.96
18:59:                  23	30.97
18:59:                  53	30.95
19:00:                  23	30.95
19:00:                  53	30.95
19:01:                  23	30.95
19:01:                  53	30.94
19:02:                  23	30.94
19:02:                  53	30.93
19:03:                  23	30.93
19:03:                  53	30.92
19:04:                  23	30.91
19:04:                  53	30.92
19:05:                  23	30.91
19:05:                  53	30.91
19:06:                  23	30.91
19:06:                  53	30.91
19:07:                  23	30.91
19:07:                  53	30.90
19:08:                  23	30.90
19:08:                  53	30.89
19:09:                  24	30.88
19:09:                  54	30.87
19:10:                  24	30.90
19:10:                  54	30.89
19:11:                  24	30.89
19:11:                  54	30.88
19:12:                  24	30.88
19:12:                  54	30.88
19:13:                  24	30.87
19:13:                  54	30.85
19:14:                  24	30.85
19:14:                  54	30.85
19:15:                  24	30.85
19:15:                  54	30.85
19:16:                  24	30.86
19:16:                  54	30.85
19:17:                  24	30.84
19:17:                  54	30.85
19:18:                  24	30.83
19:18:                  54	30.83
19:19:                  24	30.84
19:19:                  54	30.82
19:20:                  24	30.82
19:20:                  54	30.82
19:21:                  24	30.82
19:21:                  54	30.82
19:22:                  24	30.82
19:22:                  54	30.81
19:23:                  24	30.81
19:23:                  54	30.81
19:24:                  24	30.77
19:24:                  54	30.76
19:25:                  24	30.77
19:25:                  54	30.78
19:26:                  24	30.76
19:26:                  54	30.76
19:27:                  24	30.77
19:27:                  55	30.76
19:28:                  25	30.77
19:28:                  55	30.75
19:29:                  25	30.74
19:29:                  55	30.74
19:30:                  25	30.74
19:30:                  55	30.73
19:31:                  25	30.71
19:31:                  55	30.69
19:32:                  25	30.69
19:32:                  55	30.68
19:33:                  25	30.69
19:33:                  55	30.69
19:34:                  25	30.70
19:34:                  55	30.71
19:35:                  25	30.70
19:35:                  55	30.71
19:36:                  25	30.72
19:36:                  55	30.72
19:37:                  25	30.71
19:37:                  55	30.72
19:38:                  25	30.72
19:38:                  55	30.73
19:39:                  25	30.72
19:39:                  55	30.72
19:40:                  25	30.72
19:40:                  55	30.73
19:41:                  25	30.71
19:41:                  55	30.71
19:42:                  25	30.71
19:42:                  55	30.71
19:43:                  25	30.71
19:43:                  55	30.72
19:44:                  25	30.71
19:44:                  55	30.71
19:45:                  25	30.71
19:45:                  56	30.72
19:46:                  26	30.71
19:46:                  56	30.72
19:47:                  26	30.71
19:47:                  56	30.71
19:48:                  26	30.72
19:48:                  56	30.72
19:49:                  26	30.73
19:49:                  56	30.72
19:50:                  26	30.68
19:50:                  56	30.63
19:51:                  26	30.64
19:51:                  56	30.66
19:52:                  26	30.67
19:52:                  56	30.67
19:53:                  26	30.67
19:53:                  56	30.67
19:54:                  26	30.62
19:54:                  56	30.54
19:55:                  26	30.53
19:55:                  56	30.51
19:56:                  26	30.55
19:56:                  56	30.58
19:57:                  26	30.62
19:57:                  56	30.64
19:58:                  26	30.66
19:58:                  56	30.69
19:59:                  26	30.72
19:59:                  56	30.75
20:00:                  26	30.79
20:00:                  56	30.80
20:01:                  26	30.82
20:01:                  56	30.84
20:02:                  26	30.90
20:02:                  56	30.93
20:03:                  26	30.98
20:03:                  56	31.00
20:04:                  26	31.02
20:04:                  56	31.01
20:05:                  26	30.98
20:05:                  56	30.99
20:06:                  26	31.01
20:06:                  56	31.02
20:07:                  26	31.04
20:07:                  56	31.06
20:08:                  26	31.08
20:08:                  56	31.07
20:09:                  26	31.08
20:09:                  56	31.09
20:10:                  26	31.09
20:10:                  56	31.10
20:11:                  26	31.09
20:11:                  56	31.10
20:12:                  26	31.11
20:12:                  56	31.10
20:13:                  26	31.11
20:13:                  57	31.11
20:14:                  27	31.12
20:14:                  57	31.11
20:15:                  27	31.13
20:15:                  57	31.12
20:16:                  27	31.12
20:16:                  57	31.13
20:17:                  27	31.13
20:17:                  57	31.13
20:18:                  27	31.12
20:18:                  57	31.13
20:19:                  27	31.14
20:19:                  57	31.13
20:20:                  27	31.13
20:20:                  57	31.13
20:21:                  27	31.14
20:21:                  57	31.15
20:22:                  27	31.13
20:22:                  57	31.14
20:23:                  27	31.14
20:23:                  57	31.13
20:24:                  27	31.14
20:24:                  57	31.14
20:25:                  27	31.14
20:25:                  57	31.14
20:26:                  27	31.15
20:26:                  57	31.14
20:27:                  27	31.15
20:27:                  57	31.14
20:28:                  27	31.15
20:28:                  57	31.15
20:29:                  27	31.15
20:29:                  57	31.14
20:30:                  27	31.15
20:30:                  57	31.14
20:31:                  27	31.15
20:31:                  57	31.15
20:32:                  27	31.14
20:32:                  57	31.15
20:33:                  27	31.14
20:33:                  57	31.15
20:34:                  27	31.14
20:34:                  58	31.14
20:35:                  28	31.13
20:35:                  58	31.14
20:36:                  28	31.15
20:36:                  58	31.14
20:37:                  28	31.10
20:37:                  58	31.11
20:38:                  28	31.12
20:38:                  58	31.11
20:39:                  28	31.13
20:39:                  58	31.12
20:40:                  28	31.13
20:40:                  58	31.12
20:41:                  28	31.13
20:41:                  58	31.12
20:42:                  28	31.10
20:42:                  58	31.06
20:43:                  28	31.02
20:43:                  58	31.02
20:44:                  28	31.04
20:44:                  58	31.03
20:45:                  28	31.00
20:45:                  58	31.01
20:46:                  28	31.02
20:46:                  58	31.03
20:47:                  28	31.02
20:47:                  58	31.03
20:48:                  28	31.03
20:48:                  58	31.03
20:49:                  28	31.02
20:49:                  58	31.03
20:50:                  28	31.05
20:50:                  58	31.06
20:51:                  28	31.05
20:51:                  59	31.07
20:52:                  29	31.07
20:52:                  59	31.07
20:53:                  29	31.08
20:53:                  59	31.08
20:54:                  29	31.09
20:54:                  59	31.09
20:55:                  29	31.09
20:55:                  59	31.06
20:56:                  29	31.09
20:56:                  59	31.08
20:57:                  29	31.10
20:57:                  59	31.10
20:58:                  29	31.11
20:58:                  59	31.10
20:59:                  29	31.11
20:59:                  59	31.11
21:00:                  29	31.11
21:00:                  59	31.11
21:01:                  29	31.11
21:01:                  59	31.11
21:02:                  29	31.10
21:02:                  59	31.12
21:03:                  29	31.11
21:03:                  59	31.11
21:04:                  29	31.11
21:04:                  59	31.11
21:05:                  29	31.10
21:05:                  59	31.12
21:06:                  29	31.11
21:06:                  59	31.10
21:07:                  29	31.09
21:07:                  59	31.11
21:08:                  29	31.09
21:08:                  59	31.11
21:09:                  29	31.11
21:09:                  59	31.11
21:10:                  29	31.11
21:10:                  59	31.12
21:11:                  29	31.11
21:11:                  59	31.11
21:12:                  29	31.11
21:12:                  59	31.11
21:13:                  29	31.11
21:14:                   0	31.11
21:14:                  30	31.12
21:15:                   0	31.11
21:15:                  30	31.12
21:16:                   0	31.08
21:16:                  30	31.09
21:17:                   0	31.10
21:17:                  30	31.10
21:18:                   0	31.09
21:18:                  30	31.10
21:19:                   0	31.11
21:19:                  30	31.10
21:20:                   0	31.10
21:20:                  30	31.11
21:21:                   0	31.11
21:21:                  30	31.11
21:22:                   0	31.12
21:22:                  30	31.11
21:23:                   0	31.10
21:23:                  30	31.11
21:24:                   0	31.11
21:24:                  30	31.11
21:25:                   0	31.11
21:25:                  30	31.10
21:26:                   0	31.11
21:26:                  30	31.11
21:27:                   0	31.11
21:27:                  30	31.10
21:28:                   0	31.10
21:28:                  30	31.10
21:29:                   0	31.11
21:29:                  30	31.11
21:30:                   0	31.11
21:30:                  30	31.11
21:31:                   1	31.11
21:31:                  31	31.11
21:32:                   1	31.11
21:32:                  31	31.10
21:33:                   1	31.10
21:33:                  31	31.09
21:34:                   1	31.09
21:34:                  31	31.10
21:35:                   1	31.10
21:35:                  31	31.10
21:36:                   1	31.10
21:36:                  31	31.09
21:37:                   1	31.10
21:37:                  31	31.09
21:38:                   1	31.09
21:38:                  31	31.09
21:39:                   1	31.08
21:39:                  31	31.08
21:40:                   1	31.09
21:40:                  31	31.09
21:41:                   1	31.09
21:41:                  31	31.09
21:42:                   1	31.10
21:42:                  31	31.09
21:43:                   1	31.10
21:43:                  31	31.09
21:44:                   1	31.09
21:44:                  31	31.09
21:45:                   1	31.10
21:45:                  31	31.10
21:46:                   1	31.09
21:46:                  31	31.10
21:47:                   1	31.10
21:47:                  31	31.09
21:48:                   1	31.10
21:48:                  31	31.00
21:49:                   1	31.01
21:49:                  31	31.02
21:50:                   1	31.01
21:50:                  31	31.01
21:51:                   1	31.01
21:51:                  31	31.01
21:52:                   1	31.02
21:52:                  31	31.01
21:53:                   1	31.02
21:53:                  31	31.02
21:54:                   1	31.02
21:54:                  31	31.03
21:55:                   1	31.02
21:55:                  31	30.98
21:56:                   1	30.99
21:56:                  31	30.99
21:57:                   2	31.00
21:57:                  32	31.00
21:58:                   2	31.01
21:58:                  32	31.01
21:59:                   2	31.01
21:59:                  32	31.02
22:00:                   2	31.02
22:00:                  32	31.02
22:01:                   2	31.02
22:01:                  32	31.02
22:02:                   2	31.03
22:02:                  32	31.02
22:03:                   2	31.03
22:03:                  32	31.02
22:04:                   2	31.03
22:04:                  32	31.02
22:05:                   2	31.03
22:05:                  32	31.02
22:06:                   2	31.02
22:06:                  32	31.02
22:07:                   2	31.02
22:07:                  32	31.02
22:08:                   2	31.02
22:08:                  32	31.02
22:09:                   2	31.02
22:09:                  32	31.02
22:10:                   2	31.02
22:10:                  32	31.03
22:11:                   2	31.03
22:11:                  32	31.03
22:12:                   2	31.03
22:12:                  32	31.03
22:13:                   2	31.03
22:13:                  32	31.03
22:14:                   2	31.03
22:14:                  32	31.03
22:15:                   2	31.04
22:15:                  32	31.03
22:16:                   2	31.04
22:16:                  32	31.04
22:17:                   2	31.01
22:17:                  32	31.02
22:18:                   2	31.00
22:18:                  32	31.00
22:19:                   2	31.00
22:19:                  32	30.99
22:20:                   2	30.98
22:20:                  32	30.98
22:21:                   2	30.97
22:21:                  32	30.97
22:22:                   2	30.96
22:22:                  33	30.96
22:23:                   3	30.97
22:23:                  33	30.97
22:24:                   3	30.96
22:24:                  33	30.96
22:25:                   3	30.95
22:25:                  33	30.95
22:26:                   3	30.96
22:26:                  33	30.96
22:27:                   3	30.96
22:27:                  33	30.96
22:28:                   3	30.98
22:28:                  33	30.96
22:29:                   3	30.97
22:29:                  33	30.97
22:30:                   3	30.98
22:30:                  33	30.97
22:31:                   3	30.97
22:31:                  33	30.98
22:32:                   3	30.98
22:32:                  33	30.97
22:33:                   3	30.97
22:33:                  33	30.96
22:34:                   3	30.96
22:34:                  33	30.97
22:35:                   3	30.96
22:35:                  33	30.96
22:36:                   3	30.95
22:36:                  33	30.95
22:37:                   3	30.95
22:37:                  33	30.94
22:38:                   3	30.93
22:38:                  33	30.93
22:39:                   3	30.93
22:39:                  33	30.92
22:40:                   3	30.90
22:40:                  33	30.90
22:41:                   3	30.93
22:41:                  33	30.92
22:42:                   3	30.92
22:42:                  33	30.91
22:43:                   3	30.92
22:43:                  33	30.91
22:44:                   3	30.91
22:44:                  33	30.91
22:45:                   3	30.89
22:45:                  34	30.90
22:46:                   4	30.90
22:46:                  34	30.90
22:47:                   4	30.89
22:47:                  34	30.89
22:48:                   4	30.89
22:48:                  34	30.90
22:49:                   4	30.88
22:49:                  34	30.90
22:50:                   4	30.88
22:50:                  34	30.87
22:51:                   4	30.88
22:51:                  34	30.86
22:52:                   4	30.85
22:52:                  34	30.86
22:53:                   4	30.86
22:53:                  34	30.86
22:54:                   4	30.85
22:54:                  34	30.85
22:55:                   4	30.85
22:55:                  34	30.84
22:56:                   4	30.85
22:56:                  34	30.84
22:57:                   4	30.83
22:57:                  34	30.83
22:58:                   4	30.82
22:58:                  34	30.82
22:59:                   4	30.82
22:59:                  34	30.80
23:00:                   4	30.81
23:00:                  34	30.81
23:01:                   4	30.79
23:01:                  34	30.80
23:02:                   4	30.81
23:02:                  34	30.81
23:03:                   4	30.80
23:03:                  34	30.81
23:04:                   4	30.79
23:04:                  34	30.79
23:05:                   4	30.79
23:05:                  34	30.79
23:06:                   4	30.78
23:06:                  34	30.77
23:07:                   4	30.77
23:07:                  34	30.77
23:08:                   5	30.77
23:08:                  35	30.77
23:09:                   5	30.78
23:09:                  35	30.77
23:10:                   5	30.78
23:10:                  35	30.76
23:11:                   5	30.77
23:11:                  35	30.76
23:12:                   5	30.76
23:12:                  35	30.76
23:13:                   5	30.76
23:13:                  35	30.75
23:14:                   5	30.76
23:14:                  35	30.75
23:15:                   5	30.75
23:15:                  35	30.75
23:16:                   5	30.74
23:16:                  35	30.74
23:17:                   5	30.73
23:17:                  35	30.73
23:18:                   5	30.74
23:18:                  35	30.73
23:19:                   5	30.72
23:19:                  35	30.73
23:20:                   5	30.74
23:20:                  35	30.73
23:21:                   5	30.73
23:21:                  35	30.73
23:22:                   5	30.72
23:22:                  35	30.72
23:23:                   5	30.72
23:23:                  35	30.71
23:24:                   5	30.73
23:24:                  35	30.72
23:25:                   5	30.73
23:25:                  36	30.71
23:26:                   6	30.72
23:26:                  36	30.71
23:27:                   6	30.72
23:27:                  36	30.71
23:28:                   6	30.72
23:28:                  36	30.71
23:29:                   6	30.71
23:29:                  36	30.72
23:30:                   6	30.71
23:30:                  36	30.70
23:31:                   6	30.71
23:31:                  36	30.71
23:32:                   6	30.70
23:32:                  36	30.71
23:33:                   6	30.70
23:33:                  36	30.68
23:34:                   6	30.70
23:34:                  36	30.70
23:35:                   6	30.70
23:35:                  36	30.70
23:36:                   6	30.69
23:36:                  36	30.70
23:37:                   6	30.70
23:37:                  36	30.69
23:38:                   6	30.69
23:38:                  36	30.69
23:39:                   6	30.69
23:39:                  36	30.69
23:40:                   6	30.68
23:40:                  36	30.69
23:41:                   6	30.69
23:41:                  36	30.68
23:42:                   6	30.69
23:42:                  36	30.68
23:43:                   6	30.68
23:43:                  36	30.67
23:44:                   6	30.66
23:44:                  36	30.67
23:45:                   6	30.67
23:45:                  36	30.66
23:46:                   6	30.67
23:46:                  36	30.66
23:47:                   6	30.67
23:47:                  36	30.67
23:48:                   6	30.67
23:48:                  36	30.67
23:49:                   6	30.67
23:49:                  36	30.67
23:50:                   6	30.67
23:50:                  36	30.66
23:51:                   6	30.66
23:51:                  36	30.66
23:52:                   6	30.65
23:52:                  36	30.65
23:53:                   6	30.65
23:53:                  36	30.64
23:54:                   6	30.64
23:54:                  36	30.64
23:55:                   6	30.64
23:55:                  36	30.63
23:56:                   6	30.63
23:56:                  36	30.63
23:57:                   6	30.63
23:57:                  36	30.61
23:58:                   6	30.63
23:58:                  36	30.62
23:59:                   6	30.61
23:59:                  36	30.61
