0:00:                  23	37.94
0:00:                  53	37.93
0:01:                  23	37.92
0:01:                  53	37.92
0:02:                  23	37.91
0:02:                  53	37.90
0:03:                  23	37.90
0:03:                  53	37.88
0:04:                  23	37.88
0:04:                  53	37.88
0:05:                  23	37.87
0:05:                  53	37.87
0:06:                  23	37.84
0:06:                  53	37.87
0:07:                  23	37.87
0:07:                  53	37.83
0:08:                  23	37.85
0:08:                  53	37.85
0:09:                  23	37.85
0:09:                  53	37.85
0:10:                  23	37.83
0:10:                  53	37.81
0:11:                  24	37.82
0:11:                  54	37.80
0:12:                  24	37.80
0:12:                  54	37.81
0:13:                  24	37.80
0:13:                  54	37.79
0:14:                  24	37.77
0:14:                  54	37.76
0:15:                  24	37.79
0:15:                  54	37.77
0:16:                  24	37.77
0:16:                  54	37.77
0:17:                  24	37.77
0:17:                  54	37.76
0:18:                  24	37.76
0:18:                  54	37.75
0:19:                  24	37.76
0:19:                  54	37.75
0:20:                  24	37.73
0:20:                  54	37.73
0:21:                  24	37.73
0:21:                  54	37.72
0:22:                  24	37.72
0:22:                  54	37.73
0:23:                  24	37.70
0:23:                  54	37.70
0:24:                  24	37.70
0:24:                  54	37.68
0:25:                  24	37.68
0:25:                  54	37.68
0:26:                  24	37.67
0:26:                  54	37.66
0:27:                  24	37.66
0:27:                  54	37.65
0:28:                  24	37.63
0:28:                  54	37.63
0:29:                  24	37.63
0:29:                  54	37.63
0:30:                  24	37.63
0:30:                  54	37.62
0:31:                  24	37.63
0:31:                  54	37.61
0:32:                  24	37.60
0:32:                  54	37.61
0:33:                  24	37.59
0:33:                  54	37.57
0:34:                  24	37.58
0:34:                  54	37.58
0:35:                  24	37.59
0:35:                  54	37.57
0:36:                  24	37.58
0:36:                  54	37.59
0:37:                  24	37.59
0:37:                  54	37.58
0:38:                  24	37.57
0:38:                  54	37.57
0:39:                  24	37.56
0:39:                  54	37.56
0:40:                  25	37.56
0:40:                  55	37.54
0:41:                  25	37.53
0:41:                  55	37.53
0:42:                  25	37.53
0:42:                  55	37.52
0:43:                  25	37.50
0:43:                  55	37.51
0:44:                  25	37.50
0:44:                  55	37.50
0:45:                  25	37.49
0:45:                  55	37.48
0:46:                  25	37.48
0:46:                  55	37.47
0:47:                  25	37.44
0:47:                  55	37.43
0:48:                  25	37.43
0:48:                  55	37.44
0:49:                  25	37.44
0:49:                  55	37.43
0:50:                  25	37.41
0:50:                  55	37.43
0:51:                  25	37.41
0:51:                  55	37.41
0:52:                  25	37.42
0:52:                  55	37.42
0:53:                  25	37.40
0:53:                  55	37.40
0:54:                  25	37.38
0:54:                  55	37.40
0:55:                  25	37.40
0:55:                  55	37.41
0:56:                  25	37.40
0:56:                  55	37.39
0:57:                  25	37.38
0:57:                  55	37.37
0:58:                  25	37.36
0:58:                  55	37.36
0:59:                  25	37.36
0:59:                  55	37.36
1:00:                  26	37.36
1:00:                  56	37.35
1:01:                  26	37.37
1:01:                  56	37.35
1:02:                  26	37.36
1:02:                  56	37.33
1:03:                  26	37.33
1:03:                  56	37.32
1:04:                  26	37.30
1:04:                  56	37.31
1:05:                  26	37.30
1:05:                  56	37.29
1:06:                  26	37.30
1:06:                  56	37.28
1:07:                  26	37.28
1:07:                  56	37.26
1:08:                  26	37.29
1:08:                  56	37.29
1:09:                  26	37.28
1:09:                  56	37.30
1:10:                  26	37.28
1:10:                  56	37.30
1:11:                  26	37.30
1:11:                  56	37.29
1:12:                  26	37.28
1:12:                  56	37.28
1:13:                  26	37.28
1:13:                  56	37.27
1:14:                  26	37.26
1:14:                  56	37.28
1:15:                  26	37.29
1:15:                  56	37.27
1:16:                  26	37.29
1:16:                  56	37.29
1:17:                  26	37.30
1:17:                  56	37.29
1:18:                  26	37.28
1:18:                  56	37.27
1:19:                  26	37.26
1:19:                  56	37.27
1:20:                  27	37.27
1:20:                  57	37.26
1:21:                  27	37.26
1:21:                  57	37.25
1:22:                  27	37.24
1:22:                  57	37.22
1:23:                  27	37.23
1:23:                  57	37.24
1:24:                  27	37.23
1:24:                  57	37.22
1:25:                  27	37.23
1:25:                  57	37.23
1:26:                  27	37.22
1:26:                  57	37.20
1:27:                  27	37.21
1:27:                  57	37.20
1:28:                  27	37.20
1:28:                  57	37.21
1:29:                  27	37.22
1:29:                  57	37.20
1:30:                  27	37.20
1:30:                  57	37.18
1:31:                  27	37.19
1:31:                  57	37.18
1:32:                  27	37.18
1:32:                  57	37.15
1:33:                  27	37.14
1:33:                  57	37.14
1:34:                  27	37.13
1:34:                  57	37.17
1:35:                  27	37.17
1:35:                  57	37.17
1:36:                  27	37.15
1:36:                  57	37.16
1:37:                  27	37.14
1:37:                  57	37.15
1:38:                  27	37.18
1:38:                  57	37.14
1:39:                  27	37.14
1:39:                  57	37.15
1:40:                  27	37.14
1:40:                  57	37.15
1:41:                  27	37.15
1:41:                  57	37.12
1:42:                  27	37.12
1:42:                  57	37.13
1:43:                  28	37.13
1:43:                  58	37.13
1:44:                  28	37.12
1:44:                  58	37.11
1:45:                  28	37.11
1:45:                  58	37.10
1:46:                  28	37.12
1:46:                  58	37.12
1:47:                  28	37.12
1:47:                  58	37.11
1:48:                  28	37.10
1:48:                  58	37.10
1:49:                  28	37.08
1:49:                  58	37.10
1:50:                  28	37.10
1:50:                  58	37.08
1:51:                  28	37.05
1:51:                  58	37.06
1:52:                  28	37.06
1:52:                  58	37.07
1:53:                  28	37.05
1:53:                  58	37.06
1:54:                  28	37.07
1:54:                  58	37.06
1:55:                  28	37.07
1:55:                  58	37.07
1:56:                  28	37.07
1:56:                  58	37.07
1:57:                  28	37.08
1:57:                  58	37.05
1:58:                  28	37.06
1:58:                  58	37.05
1:59:                  28	37.04
1:59:                  58	37.02
2:00:                  28	37.03
2:00:                  58	37.03
2:01:                  28	37.04
2:01:                  59	37.06
2:02:                  29	37.05
2:02:                  59	37.04
2:03:                  29	37.04
2:03:                  59	37.04
2:04:                  29	37.02
2:04:                  59	37.00
2:05:                  29	37.01
2:05:                  59	37.00
2:06:                  29	37.02
2:06:                  59	37.01
2:07:                  29	37.01
2:07:                  59	37.01
2:08:                  29	37.00
2:08:                  59	37.00
2:09:                  29	37.00
2:09:                  59	36.99
2:10:                  29	37.00
2:10:                  59	36.98
2:11:                  29	36.98
2:11:                  59	36.98
2:12:                  29	36.98
2:12:                  59	37.01
2:13:                  29	37.00
2:13:                  59	36.98
2:14:                  29	36.98
2:14:                  59	36.99
2:15:                  29	36.99
2:15:                  59	36.99
2:16:                  29	36.98
2:16:                  59	36.98
2:17:                  29	36.98
2:17:                  59	36.99
2:18:                  29	36.99
2:18:                  59	36.99
2:19:                  29	36.96
2:19:                  59	36.98
2:20:                  29	36.97
2:20:                  59	36.98
2:21:                  29	36.96
2:21:                  59	36.97
2:22:                  29	36.96
2:22:                  59	36.96
2:23:                  29	36.95
2:23:                  59	36.95
2:24:                  29	36.95
2:24:                  59	36.95
2:25:                  30	36.95
2:26:                   0	36.95
2:26:                  30	36.94
2:27:                   0	36.93
2:27:                  30	36.93
2:28:                   0	36.93
2:28:                  30	36.94
2:29:                   0	36.93
2:29:                  30	36.92
2:30:                   0	36.91
2:30:                  30	36.91
2:31:                   0	36.92
2:31:                  30	36.90
2:32:                   0	36.92
2:32:                  30	36.91
2:33:                   0	36.91
2:33:                  30	36.92
2:34:                   0	36.89
2:34:                  30	36.88
2:35:                   0	36.90
2:35:                  30	36.92
2:36:                   0	36.91
2:36:                  30	36.92
2:37:                   0	36.92
2:37:                  30	36.92
2:38:                   0	36.90
2:38:                  30	36.88
2:39:                   0	36.91
2:39:                  30	36.91
2:40:                   0	36.91
2:40:                  30	36.92
2:41:                   0	36.92
2:41:                  30	36.92
2:42:                   0	36.92
2:42:                  30	36.91
2:43:                   0	36.90
2:43:                  30	36.90
2:44:                   0	36.89
2:44:                  30	36.90
2:45:                   0	36.88
2:45:                  30	36.88
2:46:                   0	36.89
2:46:                  30	36.89
2:47:                   0	36.88
2:47:                  30	36.88
2:48:                   0	36.89
2:48:                  30	36.90
2:49:                   0	36.89
2:49:                  30	36.90
2:50:                   0	36.90
2:50:                  30	36.90
2:51:                   0	36.89
2:51:                  30	36.86
2:52:                   0	36.87
2:52:                  30	36.86
2:53:                   0	36.87
2:53:                  30	36.87
2:54:                   0	36.84
2:54:                  30	36.86
2:55:                   0	36.87
2:55:                  30	36.86
2:56:                   0	36.86
2:56:                  30	36.87
2:57:                   0	36.88
2:57:                  30	36.87
2:58:                   0	36.86
2:58:                  30	36.89
2:59:                   0	36.87
2:59:                  30	36.86
3:00:                   1	36.87
3:00:                  31	36.85
3:01:                   1	36.84
3:01:                  31	36.85
3:02:                   1	36.82
3:02:                  31	36.84
3:03:                   1	36.85
3:03:                  31	36.86
3:04:                   1	36.84
3:04:                  31	36.85
3:05:                   1	36.86
3:05:                  31	36.87
3:06:                   1	36.86
3:06:                  31	36.87
3:07:                   1	36.87
3:07:                  31	36.87
3:08:                   1	36.86
3:08:                  31	36.87
3:09:                   1	36.86
3:09:                  31	36.86
3:10:                   1	36.86
3:10:                  31	36.86
3:11:                   1	36.87
3:11:                  31	36.88
3:12:                   1	36.87
3:12:                  31	36.86
3:13:                   1	36.86
3:13:                  31	36.87
3:14:                   1	36.85
3:14:                  31	36.85
3:15:                   1	36.86
3:15:                  31	36.87
3:16:                   1	36.87
3:16:                  31	36.85
3:17:                   1	36.86
3:17:                  31	36.87
3:18:                   1	36.86
3:18:                  31	36.86
3:19:                   1	36.86
3:19:                  31	36.88
3:20:                   1	36.86
3:20:                  31	36.85
3:21:                   1	36.85
3:21:                  32	36.84
3:22:                   2	36.85
3:22:                  32	36.85
3:23:                   2	36.84
3:23:                  32	36.85
3:24:                   2	36.84
3:24:                  32	36.82
3:25:                   2	36.82
3:25:                  32	36.84
3:26:                   2	36.85
3:26:                  32	36.82
3:27:                   2	36.81
3:27:                  32	36.84
3:28:                   2	36.83
3:28:                  32	36.84
3:29:                   2	36.84
3:29:                  32	36.82
3:30:                   2	36.82
3:30:                  32	36.82
3:31:                   2	36.82
3:31:                  32	36.81
3:32:                   2	36.81
3:32:                  32	36.80
3:33:                   2	36.82
3:33:                  32	36.81
3:34:                   2	36.80
3:34:                  32	36.80
3:35:                   2	36.84
3:35:                  32	36.81
3:36:                   2	36.81
3:36:                  32	36.83
3:37:                   2	36.82
3:37:                  32	36.83
3:38:                   2	36.84
3:38:                  32	36.83
3:39:                   2	36.84
3:39:                  32	36.84
3:40:                   2	36.84
3:40:                  32	36.84
3:41:                   2	36.82
3:41:                  32	36.81
3:42:                   2	36.82
3:42:                  33	36.81
3:43:                   3	36.82
3:43:                  33	36.80
3:44:                   3	36.80
3:44:                  33	36.78
3:45:                   3	36.80
3:45:                  33	36.81
3:46:                   3	36.80
3:46:                  33	36.79
3:47:                   3	36.79
3:47:                  33	36.81
3:48:                   3	36.81
3:48:                  33	36.80
3:49:                   3	36.80
3:49:                  33	36.80
3:50:                   3	36.79
3:50:                  33	36.79
3:51:                   3	36.79
3:51:                  33	36.80
3:52:                   3	36.81
3:52:                  33	36.79
3:53:                   3	36.79
3:53:                  33	36.79
3:54:                   3	36.78
3:54:                  33	36.76
3:55:                   3	36.77
3:55:                  33	36.78
3:56:                   3	36.77
3:56:                  33	36.78
3:57:                   3	36.78
3:57:                  33	36.77
3:58:                   3	36.77
3:58:                  33	36.76
3:59:                   3	36.77
3:59:                  33	36.76
4:00:                   3	36.77
4:00:                  33	36.77
4:01:                   3	36.76
4:01:                  33	36.77
4:02:                   3	36.77
4:02:                  33	36.77
4:03:                   3	36.77
4:03:                  33	36.77
4:04:                   3	36.76
4:04:                  33	36.77
4:05:                   3	36.78
4:05:                  34	36.77
4:06:                   4	36.78
4:06:                  34	36.78
4:07:                   4	36.76
4:07:                  34	36.78
4:08:                   4	36.79
4:08:                  34	36.78
4:09:                   4	36.78
4:09:                  34	36.78
4:10:                   4	36.78
4:10:                  34	36.78
4:11:                   4	36.78
4:11:                  34	36.77
4:12:                   4	36.79
4:12:                  34	36.79
4:13:                   4	36.79
4:13:                  34	36.80
4:14:                   4	36.79
4:14:                  34	36.80
4:15:                   4	36.80
4:15:                  34	36.79
4:16:                   4	36.80
4:16:                  34	36.78
4:17:                   4	36.78
4:17:                  34	36.82
4:18:                   4	36.80
4:18:                  34	36.79
4:19:                   4	36.81
4:19:                  34	36.80
4:20:                   4	36.78
4:20:                  34	36.80
4:21:                   4	36.78
4:21:                  34	36.78
4:22:                   4	36.80
4:22:                  34	36.78
4:23:                   4	36.79
4:23:                  34	36.78
4:24:                   4	36.77
4:24:                  34	36.76
4:25:                   5	36.76
4:25:                  35	36.76
4:26:                   5	36.75
4:26:                  35	36.72
4:27:                   5	36.74
4:27:                  35	36.73
4:28:                   5	36.73
4:28:                  35	36.73
4:29:                   5	36.73
4:29:                  35	36.74
4:30:                   5	36.74
4:30:                  35	36.75
4:31:                   5	36.74
4:31:                  35	36.73
4:32:                   5	36.74
4:32:                  35	36.72
4:33:                   5	36.72
4:33:                  35	36.73
4:34:                   5	36.73
4:34:                  35	36.73
4:35:                   5	36.73
4:35:                  35	36.74
4:36:                   5	36.76
4:36:                  35	36.75
4:37:                   5	36.75
4:37:                  35	36.74
4:38:                   5	36.74
4:38:                  35	36.75
4:39:                   5	36.75
4:39:                  35	36.75
4:40:                   5	36.74
4:40:                  35	36.75
4:41:                   5	36.73
4:41:                  35	36.73
4:42:                   5	36.74
4:42:                  35	36.74
4:43:                   5	36.74
4:43:                  35	36.74
4:44:                   5	36.75
4:44:                  35	36.75
4:45:                   5	36.75
4:45:                  35	36.74
4:46:                   5	36.74
4:46:                  35	36.75
4:47:                   5	36.74
4:47:                  36	36.76
4:48:                   6	36.74
4:48:                  36	36.74
4:49:                   6	36.74
4:49:                  36	36.73
4:50:                   6	36.75
4:50:                  36	36.74
4:51:                   6	36.75
4:51:                  36	36.74
4:52:                   6	36.74
4:52:                  36	36.73
4:53:                   6	36.73
4:53:                  36	36.72
4:54:                   6	36.73
4:54:                  36	36.74
4:55:                   6	36.73
4:55:                  36	36.73
4:56:                   6	36.75
4:56:                  36	36.74
4:57:                   6	36.73
4:57:                  36	36.74
4:58:                   6	36.73
4:58:                  36	36.71
4:59:                   6	36.70
4:59:                  36	36.71
5:00:                   6	36.71
5:00:                  36	36.71
5:01:                   6	36.72
5:01:                  36	36.69
5:02:                   6	36.69
5:02:                  36	36.71
5:03:                   6	36.69
5:03:                  36	36.70
5:04:                   6	36.69
5:04:                  36	36.70
5:05:                   6	36.69
5:05:                  36	36.68
5:06:                   6	36.69
5:06:                  36	36.68
5:07:                   6	36.68
5:07:                  36	36.68
5:08:                   6	36.69
5:08:                  36	36.69
5:09:                   7	36.67
5:09:                  37	36.68
5:10:                   7	36.68
5:10:                  37	36.69
5:11:                   7	36.68
5:11:                  37	36.69
5:12:                   7	36.69
5:12:                  37	36.68
5:13:                   7	36.68
5:13:                  37	36.68
5:14:                   7	36.68
5:14:                  37	36.68
5:15:                   7	36.67
5:15:                  37	36.67
5:16:                   7	36.66
5:16:                  37	36.67
5:17:                   7	36.66
5:17:                  37	36.65
5:18:                   7	36.64
5:18:                  37	36.64
5:19:                   7	36.65
5:19:                  37	36.65
5:20:                   7	36.64
5:20:                  37	36.63
5:21:                   7	36.63
5:21:                  37	36.62
5:22:                   7	36.61
5:22:                  37	36.63
5:23:                   7	36.61
5:23:                  37	36.61
5:24:                   7	36.61
5:24:                  37	36.61
5:25:                   7	36.61
5:25:                  37	36.61
5:26:                   7	36.61
5:26:                  37	36.62
5:27:                   7	36.61
5:27:                  37	36.61
5:28:                   7	36.60
5:28:                  37	36.61
5:29:                   7	36.60
5:29:                  37	36.60
5:30:                   7	36.60
5:30:                  37	36.60
5:31:                   7	36.60
5:31:                  37	36.60
5:32:                   7	36.60
5:32:                  37	36.61
5:33:                   8	36.60
5:33:                  38	36.60
5:34:                   8	36.61
5:34:                  38	36.61
5:35:                   8	36.62
5:35:                  38	36.62
5:36:                   8	36.61
5:36:                  38	36.61
5:37:                   8	36.62
5:37:                  38	36.62
5:38:                   8	36.61
5:38:                  38	36.59
5:39:                   8	36.59
5:39:                  38	36.58
5:40:                   8	36.60
5:40:                  38	36.59
5:41:                   8	36.58
5:41:                  38	36.58
5:42:                   8	36.57
5:42:                  38	36.56
5:43:                   8	36.57
5:43:                  38	36.56
5:44:                   8	36.55
5:44:                  38	36.56
5:45:                   8	36.57
5:45:                  38	36.57
5:46:                   8	36.55
5:46:                  38	36.54
5:47:                   8	36.55
5:47:                  38	36.53
5:48:                   8	36.54
5:48:                  38	36.54
5:49:                   8	36.55
5:49:                  38	36.54
5:50:                   8	36.53
5:50:                  38	36.53
5:51:                   8	36.52
5:51:                  38	36.52
5:52:                   8	36.52
5:52:                  38	36.53
5:53:                   8	36.52
5:53:                  38	36.52
5:54:                   8	36.51
5:54:                  38	36.51
5:55:                   8	36.52
5:55:                  38	36.52
5:56:                   8	36.55
5:56:                  38	36.55
5:57:                   9	36.55
5:57:                  39	36.56
5:58:                   9	36.57
5:58:                  39	36.56
5:59:                   9	36.56
5:59:                  39	36.55
6:00:                   9	36.55
6:00:                  39	36.55
6:01:                   9	36.56
6:01:                  39	36.53
6:02:                   9	36.55
6:02:                  39	36.53
6:03:                   9	36.56
6:03:                  39	36.55
6:04:                   9	36.53
6:04:                  39	36.54
6:05:                   9	36.54
6:05:                  39	36.53
6:06:                   9	36.52
6:06:                  39	36.54
6:07:                   9	36.54
6:07:                  39	36.53
6:08:                   9	36.51
6:08:                  39	36.52
6:09:                   9	36.51
6:09:                  39	36.50
6:10:                   9	36.50
6:10:                  39	36.51
6:11:                   9	36.51
6:11:                  39	36.50
6:12:                   9	36.51
6:12:                  39	36.50
6:13:                   9	36.50
6:13:                  39	36.49
6:14:                   9	36.48
6:14:                  39	36.49
6:15:                   9	36.49
6:15:                  39	36.47
6:16:                   9	36.49
6:16:                  39	36.49
6:17:                   9	36.49
6:17:                  39	36.48
6:18:                   9	36.50
6:18:                  39	36.49
6:19:                   9	36.48
6:19:                  39	36.49
6:20:                   9	36.50
6:20:                  39	36.49
6:21:                   9	36.50
6:21:                  39	36.51
6:22:                   9	36.49
6:22:                  39	36.47
6:23:                   9	36.47
6:23:                  39	36.47
6:24:                   9	36.48
6:24:                  39	36.46
6:25:                   9	36.47
6:25:                  39	36.45
6:26:                   9	36.46
6:26:                  39	36.46
6:27:                   9	36.47
6:27:                  39	36.47
6:28:                   9	36.48
6:28:                  39	36.47
6:29:                   9	36.47
6:29:                  39	36.48
6:30:                   9	36.47
6:30:                  39	36.48
6:31:                   9	36.48
6:31:                  39	36.46
6:32:                  10	36.48
6:32:                  40	36.46
6:33:                  10	36.46
6:33:                  40	36.47
6:34:                  10	36.47
6:34:                  40	36.46
6:35:                  10	36.46
6:35:                  40	36.46
6:36:                  10	36.45
6:36:                  40	36.46
6:37:                  10	36.45
6:37:                  40	36.45
6:38:                  10	36.45
6:38:                  40	36.46
6:39:                  10	36.46
6:39:                  40	36.46
6:40:                  10	36.46
6:40:                  40	36.46
6:41:                  10	36.46
6:41:                  40	36.46
6:42:                  10	36.45
6:42:                  40	36.43
6:43:                  10	36.44
6:43:                  40	36.45
6:44:                  10	36.46
6:44:                  40	36.44
6:45:                  10	36.45
6:45:                  40	36.35
6:46:                  10	36.42
6:46:                  40	36.40
6:47:                  10	36.40
6:47:                  40	36.42
6:48:                  10	36.43
6:48:                  40	36.42
6:49:                  10	36.43
6:49:                  40	36.43
6:50:                  10	36.44
6:50:                  40	36.43
6:51:                  10	36.44
6:51:                  40	36.44
6:52:                  10	36.46
6:52:                  40	36.46
6:53:                  10	36.46
6:53:                  40	36.47
6:54:                  10	36.46
6:54:                  40	36.47
6:55:                  10	36.48
6:55:                  40	36.49
6:56:                  10	36.51
6:56:                  40	36.52
6:57:                  10	36.52
6:57:                  41	36.54
6:58:                  11	36.51
6:58:                  41	36.52
6:59:                  11	36.52
6:59:                  41	36.53
7:00:                  11	36.54
7:00:                  41	36.55
7:01:                  11	36.56
7:01:                  41	36.56
7:02:                  11	36.57
7:02:                  41	36.57
7:03:                  11	36.57
7:03:                  41	36.57
7:04:                  11	36.56
7:04:                  41	36.57
7:05:                  11	36.56
7:05:                  41	36.58
7:06:                  11	36.57
7:06:                  41	36.57
7:07:                  11	36.57
7:07:                  41	36.57
7:08:                  11	36.58
7:08:                  41	36.58
7:09:                  11	36.58
7:09:                  41	36.57
7:10:                  11	36.57
7:10:                  41	36.59
7:11:                  11	36.58
7:11:                  41	36.60
7:12:                  11	36.60
7:12:                  41	36.59
7:13:                  11	36.58
7:13:                  41	36.59
7:14:                  11	36.58
7:14:                  41	36.60
7:15:                  11	36.60
7:15:                  41	36.62
7:16:                  11	36.61
7:16:                  41	36.62
7:17:                  11	36.62
7:17:                  41	36.63
7:18:                  11	36.63
7:18:                  41	36.61
7:19:                  11	36.62
7:19:                  41	36.63
7:20:                  11	36.63
7:20:                  41	36.62
7:21:                  11	36.63
7:21:                  41	36.62
7:22:                  11	36.63
7:22:                  41	36.63
7:23:                  11	36.62
7:23:                  41	36.63
7:24:                  12	36.62
7:24:                  42	36.63
7:25:                  12	36.62
7:25:                  42	36.63
7:26:                  12	36.62
7:26:                  42	36.62
7:27:                  12	36.62
7:27:                  42	36.62
7:28:                  12	36.62
7:28:                  42	36.63
7:29:                  12	36.63
7:29:                  42	36.64
7:30:                  12	36.64
7:30:                  42	36.65
7:31:                  12	36.65
7:31:                  42	36.65
7:32:                  12	36.64
7:32:                  42	36.66
7:33:                  12	36.66
7:33:                  42	36.66
7:34:                  12	36.67
7:34:                  42	36.66
7:35:                  12	36.66
7:35:                  42	36.68
7:36:                  12	36.67
7:36:                  42	36.68
7:37:                  12	36.69
7:37:                  42	36.70
7:38:                  12	36.70
7:38:                  42	36.71
7:39:                  12	36.71
7:39:                  42	36.71
7:40:                  12	36.72
7:40:                  42	36.72
7:41:                  12	36.72
7:41:                  42	36.72
7:42:                  12	36.72
7:42:                  42	36.71
7:43:                  12	36.72
7:43:                  42	36.72
7:44:                  12	36.72
7:44:                  42	36.71
7:45:                  12	36.72
7:45:                  42	36.72
7:46:                  12	36.72
7:46:                  42	36.72
7:47:                  12	36.71
7:47:                  42	36.71
7:48:                  12	36.71
7:48:                  42	36.72
7:49:                  12	36.72
7:49:                  42	36.72
7:50:                  12	36.73
7:50:                  42	36.73
7:51:                  12	36.72
7:51:                  42	36.72
7:52:                  12	36.72
7:52:                  42	36.73
7:53:                  12	36.72
7:53:                  42	36.73
7:54:                  12	36.72
7:54:                  43	36.72
7:55:                  13	36.72
7:55:                  43	36.73
7:56:                  13	36.73
7:56:                  43	36.74
7:57:                  13	36.74
7:57:                  43	36.74
7:58:                  13	36.74
7:58:                  43	36.73
7:59:                  13	36.74
7:59:                  43	36.74
8:00:                  13	36.75
8:00:                  43	36.73
8:01:                  13	36.73
8:01:                  43	36.74
8:02:                  13	36.74
8:02:                  43	36.75
8:03:                  13	36.74
8:03:                  43	36.73
8:04:                  13	36.74
8:04:                  43	36.74
8:05:                  13	36.74
8:05:                  43	36.73
8:06:                  13	36.72
8:06:                  43	36.74
8:07:                  13	36.74
8:07:                  43	36.73
8:08:                  13	36.74
8:08:                  43	36.73
8:09:                  13	36.72
8:09:                  43	36.72
8:10:                  13	36.72
8:10:                  43	36.73
8:11:                  13	36.74
8:11:                  44	36.73
8:12:                  14	36.72
8:12:                  44	36.73
8:13:                  14	36.72
8:13:                  44	36.72
8:14:                  14	36.72
8:14:                  44	36.72
8:15:                  14	36.72
8:15:                  44	36.74
8:16:                  14	36.73
8:16:                  44	36.73
8:17:                  14	36.73
8:17:                  44	36.73
8:18:                  14	36.73
8:18:                  44	36.73
8:19:                  14	36.74
8:19:                  44	36.73
8:20:                  14	36.74
8:20:                  44	36.73
8:21:                  14	36.73
8:21:                  44	36.74
8:22:                  14	36.74
8:22:                  44	36.73
8:23:                  14	36.73
8:23:                  44	36.73
8:24:                  14	36.72
8:24:                  44	36.73
8:25:                  14	36.74
8:25:                  44	36.72
8:26:                  14	36.73
8:26:                  44	36.73
8:27:                  14	36.73
8:27:                  44	36.73
8:28:                  14	36.72
8:28:                  44	36.72
8:29:                  14	36.71
8:29:                  44	36.72
8:30:                  14	36.71
8:30:                  44	36.71
8:31:                  14	36.70
8:31:                  44	36.69
8:32:                  14	36.70
8:32:                  44	36.69
8:33:                  14	36.69
8:33:                  44	36.69
8:34:                  14	36.69
8:34:                  44	36.68
8:35:                  14	36.68
8:35:                  44	36.69
8:36:                  15	36.68
8:36:                  45	36.67
8:37:                  15	36.69
8:37:                  45	36.68
8:38:                  15	36.68
8:38:                  45	36.69
8:39:                  15	36.68
8:39:                  45	36.68
8:40:                  15	36.68
8:40:                  45	36.68
8:41:                  15	36.66
8:41:                  45	36.67
8:42:                  15	36.67
8:42:                  45	36.67
8:43:                  15	36.67
8:43:                  45	36.67
8:44:                  15	36.67
8:44:                  45	36.68
8:45:                  15	36.66
8:45:                  45	36.66
8:46:                  15	36.66
8:46:                  45	36.67
8:47:                  15	36.67
8:47:                  45	36.66
8:48:                  15	36.66
8:48:                  45	36.65
8:49:                  15	36.65
8:49:                  45	36.65
8:50:                  15	36.65
8:50:                  45	36.66
8:51:                  15	36.65
8:51:                  45	36.66
8:52:                  15	36.65
8:52:                  45	36.65
8:53:                  15	36.65
8:53:                  45	36.65
8:54:                  15	36.66
8:54:                  45	36.66
8:55:                  15	36.66
8:55:                  46	36.67
8:56:                  16	36.67
8:56:                  46	36.68
8:57:                  16	36.67
8:57:                  46	36.67
8:58:                  16	36.68
8:58:                  46	36.68
8:59:                  16	36.68
8:59:                  46	36.68
9:00:                  16	36.68
9:00:                  46	36.61
9:01:                  16	36.60
9:01:                  46	36.51
9:02:                  16	36.50
9:02:                  46	36.55
9:03:                  16	36.53
9:03:                  46	36.49
9:04:                  16	36.46
9:04:                  46	36.44
9:05:                  16	36.45
9:05:                  46	36.45
9:06:                  16	36.42
9:06:                  46	36.36
9:07:                  16	36.36
9:07:                  46	36.37
9:08:                  16	36.36
9:08:                  46	36.33
9:09:                  16	36.28
9:09:                  46	36.24
9:10:                  16	36.23
9:10:                  46	36.18
9:11:                  16	36.19
9:11:                  46	36.24
9:12:                  16	36.25
9:12:                  46	36.25
9:13:                  16	36.28
9:13:                  46	36.29
9:14:                  16	36.27
9:14:                  46	36.26
9:15:                  16	36.26
9:15:                  46	36.25
9:16:                  16	36.27
9:16:                  46	36.28
9:17:                  16	36.30
9:17:                  46	36.30
9:18:                  16	36.28
9:18:                  46	36.31
9:19:                  16	36.31
9:19:                  46	36.33
9:20:                  16	36.33
9:20:                  46	36.34
9:21:                  16	36.35
9:21:                  46	36.33
9:22:                  16	36.28
9:22:                  46	36.27
9:23:                  16	36.27
9:23:                  46	36.30
9:24:                  16	36.30
9:24:                  46	36.30
9:25:                  16	36.30
9:25:                  47	36.33
9:26:                  17	36.33
9:26:                  47	36.36
9:27:                  17	36.31
9:27:                  47	36.17
9:28:                  17	36.08
9:28:                  47	35.94
9:29:                  17	35.90
9:29:                  47	35.88
9:30:                  17	35.88
9:30:                  47	35.94
9:31:                  17	35.93
9:31:                  47	35.88
9:32:                  17	35.92
9:32:                  47	35.95
9:33:                  17	36.00
9:33:                  47	36.01
9:34:                  17	36.03
9:34:                  47	36.06
9:35:                  17	36.11
9:35:                  47	36.16
9:36:                  17	36.19
9:36:                  47	36.21
9:37:                  17	36.23
9:37:                  47	36.22
9:38:                  17	36.26
9:38:                  47	36.29
9:39:                  17	36.31
9:39:                  47	36.31
9:40:                  17	36.33
9:40:                  47	36.36
9:41:                  17	36.37
9:41:                  47	36.40
9:42:                  17	36.43
9:42:                  47	36.43
9:43:                  17	36.45
9:43:                  47	36.46
9:44:                  17	36.46
9:44:                  47	36.46
9:45:                  17	36.48
9:45:                  47	36.49
9:46:                  17	36.50
9:46:                  47	36.51
9:47:                  17	36.53
9:47:                  47	36.51
9:48:                  17	36.49
9:48:                  47	36.54
9:49:                  17	36.58
9:49:                  47	36.61
9:50:                  18	36.64
9:50:                  48	36.66
9:51:                  18	36.70
9:51:                  48	36.71
9:52:                  18	36.72
9:52:                  48	36.75
9:53:                  18	36.78
9:53:                  48	36.82
9:54:                  18	36.84
9:54:                  48	36.86
9:55:                  18	36.84
9:55:                  48	36.86
9:56:                  18	36.89
9:56:                  48	36.93
9:57:                  18	36.96
9:57:                  48	36.99
9:58:                  18	36.98
9:58:                  48	37.01
9:59:                  18	36.98
9:59:                  48	36.99
10:00:                  18	37.02
10:00:                  48	37.02
10:01:                  18	37.06
10:01:                  48	37.05
10:02:                  18	37.09
10:02:                  48	37.11
10:03:                  18	37.13
10:03:                  48	37.12
10:04:                  18	37.15
10:04:                  48	37.14
10:05:                  18	37.15
10:05:                  48	37.12
10:06:                  18	37.14
10:06:                  48	37.18
10:07:                  18	37.19
10:07:                  48	37.20
10:08:                  18	37.22
10:08:                  48	37.27
10:09:                  18	37.24
10:09:                  48	37.22
10:10:                  18	37.21
10:10:                  48	37.22
10:11:                  18	37.19
10:11:                  48	37.20
10:12:                  18	37.20
10:12:                  48	37.21
10:13:                  18	37.21
10:13:                  48	37.16
10:14:                  18	37.16
10:14:                  48	37.09
10:15:                  18	37.06
10:15:                  48	36.89
10:16:                  18	36.97
10:16:                  48	36.98
10:17:                  19	36.93
10:17:                  49	36.82
10:18:                  19	36.79
10:18:                  49	36.79
10:19:                  19	36.77
10:19:                  49	36.77
10:20:                  19	36.67
10:20:                  49	36.64
10:21:                  19	36.56
10:21:                  49	36.54
10:22:                  19	36.59
10:22:                  49	36.52
10:23:                  19	36.49
10:23:                  49	36.48
10:24:                  19	36.48
10:24:                  49	36.48
10:25:                  19	36.55
10:25:                  49	36.63
10:26:                  19	36.70
10:26:                  49	36.73
10:27:                  19	36.77
10:27:                  49	36.80
10:28:                  19	36.84
10:28:                  49	36.82
10:29:                  19	36.84
10:29:                  49	36.86
10:30:                  19	36.93
10:30:                  49	36.98
10:31:                  19	37.03
10:31:                  49	37.07
10:32:                  19	37.12
10:32:                  49	37.16
10:33:                  19	37.15
10:33:                  49	37.21
10:34:                  19	37.24
10:34:                  49	37.32
10:35:                  19	37.35
10:35:                  49	37.38
10:36:                  19	37.43
10:36:                  49	37.47
10:37:                  19	37.51
10:37:                  49	37.55
10:38:                  19	37.58
10:38:                  49	37.57
10:39:                  19	37.60
10:39:                  49	37.66
10:40:                  19	37.70
10:40:                  49	37.69
10:41:                  19	37.70
10:41:                  49	37.71
10:42:                  19	37.68
10:42:                  49	37.71
10:43:                  19	37.75
10:43:                  49	37.79
10:44:                  19	37.89
10:44:                  49	37.92
10:45:                  20	37.92
10:45:                  50	37.94
10:46:                  20	37.98
10:46:                  50	38.02
10:47:                  20	38.06
10:47:                  50	38.11
10:48:                  20	38.15
10:48:                  50	38.19
10:49:                  20	38.18
10:49:                  50	38.18
10:50:                  20	38.25
10:50:                  50	38.30
10:51:                  20	38.32
10:51:                  50	38.29
10:52:                  20	38.33
10:52:                  50	38.28
10:53:                  20	38.34
10:53:                  50	38.39
10:54:                  20	38.44
10:54:                  50	38.44
10:55:                  20	38.50
10:55:                  50	38.55
10:56:                  20	38.58
10:56:                  50	38.58
10:57:                  20	38.64
10:57:                  50	38.68
10:58:                  20	38.77
10:58:                  50	38.75
10:59:                  20	38.79
10:59:                  50	38.80
11:00:                  20	38.83
11:00:                  50	38.87
11:01:                  20	38.97
11:01:                  50	38.98
11:02:                  20	38.94
11:02:                  50	38.97
11:03:                  20	39.07
11:03:                  50	39.06
11:04:                  20	39.06
11:04:                  50	39.14
11:05:                  20	39.11
11:05:                  50	39.17
11:06:                  20	39.19
11:06:                  50	39.25
11:07:                  20	39.20
11:07:                  50	39.26
11:08:                  20	39.27
11:08:                  51	39.32
11:09:                  21	39.35
11:09:                  51	39.33
11:10:                  21	39.37
11:10:                  51	39.46
11:11:                  21	39.46
11:11:                  51	39.39
11:12:                  21	39.46
11:12:                  51	39.50
11:13:                  21	39.48
11:13:                  51	39.54
11:14:                  21	39.56
11:14:                  51	39.58
11:15:                  21	39.63
11:15:                  51	39.70
11:16:                  21	39.73
11:16:                  51	39.78
11:17:                  21	39.76
11:17:                  51	39.82
11:18:                  21	39.82
11:18:                  51	39.83
11:19:                  21	39.88
11:19:                  51	39.93
11:20:                  21	39.93
11:20:                  51	39.94
11:21:                  21	39.96
11:21:                  51	40.01
11:22:                  21	39.94
11:22:                  51	40.00
11:23:                  21	40.08
11:23:                  51	40.12
11:24:                  21	40.09
11:24:                  51	40.09
11:25:                  21	40.08
11:25:                  51	40.09
11:26:                  21	40.09
11:26:                  51	40.15
11:27:                  21	40.19
11:27:                  51	40.18
11:28:                  21	40.19
11:28:                  51	40.26
11:29:                  21	40.27
11:29:                  51	40.18
11:30:                  21	40.23
11:30:                  51	40.26
11:31:                  21	40.29
11:31:                  51	40.34
11:32:                  21	40.35
11:32:                  51	40.33
11:33:                  21	40.36
11:33:                  51	40.40
11:34:                  21	40.43
11:34:                  51	40.42
11:35:                  21	40.45
11:35:                  51	40.50
11:36:                  21	40.57
11:36:                  51	40.62
11:37:                  21	40.61
11:37:                  51	40.67
11:38:                  21	40.53
11:38:                  51	40.54
11:39:                  21	40.58
11:39:                  52	40.66
11:40:                  22	40.67
11:40:                  52	40.74
11:41:                  22	40.76
11:41:                  52	40.69
11:42:                  22	40.63
11:42:                  52	40.66
11:43:                  22	40.64
11:43:                  52	40.64
11:44:                  22	40.67
11:44:                  52	40.64
11:45:                  22	40.60
11:45:                  52	40.66
11:46:                  22	40.74
11:46:                  52	40.68
11:47:                  22	40.71
11:47:                  52	40.79
11:48:                  22	40.76
11:48:                  52	40.82
11:49:                  22	40.83
11:49:                  52	40.86
11:50:                  22	40.89
11:50:                  52	40.86
11:51:                  22	40.89
11:51:                  52	40.88
11:52:                  22	40.91
11:52:                  52	40.99
11:53:                  22	40.95
11:53:                  52	41.05
11:54:                  22	41.10
11:54:                  52	41.16
11:55:                  22	41.17
11:55:                  52	41.25
11:56:                  22	41.28
11:56:                  52	41.33
11:57:                  22	41.34
11:57:                  52	41.35
11:58:                  22	41.40
11:58:                  52	41.43
11:59:                  22	41.49
11:59:                  52	41.53
12:00:                  22	41.59
12:00:                  52	41.62
12:01:                  22	41.66
12:01:                  52	41.68
12:02:                  22	41.71
12:02:                  52	41.76
12:03:                  22	41.75
12:03:                  52	41.77
12:04:                  22	41.81
12:04:                  52	41.85
12:05:                  23	41.87
12:05:                  53	41.88
12:06:                  23	41.93
12:06:                  53	41.95
12:07:                  23	41.97
12:07:                  53	41.99
12:08:                  23	42.00
12:08:                  53	42.04
12:09:                  23	42.09
12:09:                  53	42.12
12:10:                  23	42.12
12:10:                  53	42.16
12:11:                  23	42.18
12:11:                  53	42.19
12:12:                  23	42.22
12:12:                  53	42.26
12:13:                  23	42.24
12:13:                  53	42.26
12:14:                  23	42.30
12:14:                  53	42.30
12:15:                  23	42.31
12:15:                  53	42.28
12:16:                  23	42.32
12:16:                  53	42.35
12:17:                  23	42.37
12:17:                  53	42.38
12:18:                  23	42.42
12:18:                  53	42.46
12:19:                  23	42.46
12:19:                  53	42.51
12:20:                  23	42.51
12:20:                  53	42.54
12:21:                  23	42.54
12:21:                  53	42.53
12:22:                  23	42.54
12:22:                  53	42.56
12:23:                  23	42.57
12:23:                  53	42.59
12:24:                  23	42.60
12:24:                  53	42.61
12:25:                  23	42.58
12:25:                  53	42.65
12:26:                  23	42.64
12:26:                  53	42.67
12:27:                  23	42.64
12:27:                  53	42.70
12:28:                  23	42.74
12:28:                  53	42.76
12:29:                  24	42.72
12:29:                  54	42.71
12:30:                  24	42.70
12:30:                  54	42.72
12:31:                  24	42.74
12:31:                  54	42.80
12:32:                  24	42.80
12:32:                  54	42.75
12:33:                  24	42.79
12:33:                  54	42.80
12:34:                  24	42.82
12:34:                  54	42.89
12:35:                  24	42.86
12:35:                  54	42.81
12:36:                  24	42.82
12:36:                  54	42.85
12:37:                  24	42.89
12:37:                  54	42.87
12:38:                  24	42.92
12:38:                  54	42.94
12:39:                  24	42.97
12:39:                  54	42.97
12:40:                  24	42.99
12:40:                  54	43.01
12:41:                  24	43.00
12:41:                  54	43.02
12:42:                  24	43.03
12:42:                  54	43.04
12:43:                  24	43.06
12:43:                  54	43.06
12:44:                  24	43.06
12:44:                  54	43.05
12:45:                  24	43.05
12:45:                  54	43.00
12:46:                  24	42.90
12:46:                  54	42.92
12:47:                  24	42.90
12:47:                  54	42.91
12:48:                  24	42.72
12:48:                  54	42.57
12:49:                  24	42.59
12:49:                  54	42.39
12:50:                  24	42.19
12:50:                  54	41.93
12:51:                  24	41.93
12:51:                  54	41.77
12:52:                  24	41.74
12:52:                  54	41.60
12:53:                  24	41.49
12:53:                  54	41.46
12:54:                  24	41.44
12:54:                  54	41.33
12:55:                  24	41.35
12:55:                  54	41.30
12:56:                  24	41.19
12:56:                  54	41.20
12:57:                  24	41.14
12:57:                  54	41.14
12:58:                  24	40.99
12:58:                  54	41.11
12:59:                  24	41.01
12:59:                  54	41.02
13:00:                  24	40.99
13:00:                  54	40.91
13:01:                  24	40.97
13:01:                  55	40.93
13:02:                  25	40.88
13:02:                  55	40.97
13:03:                  25	41.00
13:03:                  55	41.06
13:04:                  25	41.03
13:04:                  55	41.02
13:05:                  25	41.02
13:05:                  55	41.10
13:06:                  25	41.14
13:06:                  55	41.13
13:07:                  25	41.10
13:07:                  55	41.15
13:08:                  25	41.18
13:08:                  55	41.25
13:09:                  25	41.24
13:09:                  55	41.15
13:10:                  25	41.19
13:10:                  55	41.05
13:11:                  25	41.04
13:11:                  55	40.97
13:12:                  25	40.89
13:12:                  55	40.93
13:13:                  25	40.92
13:13:                  55	40.88
13:14:                  25	40.87
13:14:                  55	40.78
13:15:                  25	40.90
13:15:                  55	40.91
13:16:                  25	40.86
13:16:                  55	40.90
13:17:                  25	40.95
13:17:                  55	41.04
13:18:                  25	41.05
13:18:                  55	41.01
13:19:                  25	40.89
13:19:                  55	40.97
13:20:                  25	40.98
13:20:                  55	40.95
13:21:                  25	40.97
13:21:                  55	40.97
13:22:                  25	40.99
13:22:                  55	40.92
13:23:                  25	40.97
13:23:                  55	41.02
13:24:                  25	41.03
13:24:                  55	41.07
13:25:                  25	41.17
13:25:                  55	41.17
13:26:                  25	41.06
13:26:                  55	41.11
13:27:                  25	41.17
13:27:                  55	41.15
13:28:                  25	41.19
13:28:                  55	41.21
13:29:                  25	41.31
13:29:                  55	41.37
13:30:                  25	41.31
13:30:                  56	41.40
13:31:                  26	41.40
13:31:                  56	41.39
13:32:                  26	41.36
13:32:                  56	41.40
13:33:                  26	41.41
13:33:                  56	41.47
13:34:                  26	41.45
13:34:                  56	41.47
13:35:                  26	41.51
13:35:                  56	41.50
13:36:                  26	41.44
13:36:                  56	41.49
13:37:                  26	41.55
13:37:                  56	41.54
13:38:                  26	41.59
13:38:                  56	41.64
13:39:                  26	41.58
13:39:                  56	41.56
13:40:                  26	41.63
13:40:                  56	41.68
13:41:                  26	41.71
13:41:                  56	41.66
13:42:                  26	41.67
13:42:                  56	41.67
13:43:                  26	41.69
13:43:                  56	41.69
13:44:                  26	41.81
13:44:                  56	41.86
13:45:                  26	41.90
13:45:                  56	41.92
13:46:                  26	41.94
13:46:                  56	41.95
13:47:                  26	41.99
13:47:                  56	41.89
13:48:                  26	41.92
13:48:                  56	41.94
13:49:                  26	41.98
13:49:                  56	41.89
13:50:                  26	41.93
13:50:                  56	41.91
13:51:                  26	41.81
13:51:                  56	41.80
13:52:                  26	41.79
13:52:                  57	41.86
13:53:                  27	41.87
13:53:                  57	41.82
13:54:                  27	41.69
13:54:                  57	41.77
13:55:                  27	41.80
13:55:                  57	41.76
13:56:                  27	41.78
13:56:                  57	41.86
13:57:                  27	41.83
13:57:                  57	41.86
13:58:                  27	41.89
13:58:                  57	41.87
13:59:                  27	41.87
13:59:                  57	41.94
14:00:                  27	41.92
14:00:                  57	41.95
14:01:                  27	41.94
14:01:                  57	41.89
14:02:                  27	41.96
14:02:                  57	42.00
14:03:                  27	41.99
14:03:                  57	41.99
14:04:                  27	41.95
14:04:                  57	42.05
14:05:                  27	42.10
14:05:                  57	42.10
14:06:                  27	42.06
14:06:                  57	42.03
14:07:                  27	41.99
14:07:                  57	41.97
14:08:                  27	42.01
14:08:                  57	42.00
14:09:                  27	42.02
14:09:                  57	41.99
14:10:                  27	41.97
14:10:                  57	41.94
14:11:                  27	41.92
14:11:                  57	41.92
14:12:                  27	41.72
14:12:                  57	41.82
14:13:                  27	41.76
14:13:                  58	41.76
14:14:                  28	41.67
14:14:                  58	41.68
14:15:                  28	41.66
14:15:                  58	41.54
14:16:                  28	41.50
14:16:                  58	41.48
14:17:                  28	41.47
14:17:                  58	41.48
14:18:                  28	41.40
14:18:                  58	41.43
14:19:                  28	41.40
14:19:                  58	41.28
14:20:                  28	41.32
14:20:                  58	41.29
14:21:                  28	41.25
14:21:                  58	41.32
14:22:                  28	41.29
14:22:                  58	41.23
14:23:                  28	41.26
14:23:                  58	41.24
14:24:                  28	41.18
14:24:                  58	41.13
14:25:                  28	41.10
14:25:                  58	41.16
14:26:                  28	41.22
14:26:                  58	41.23
14:27:                  28	41.19
14:27:                  58	41.27
14:28:                  28	41.37
14:28:                  58	41.40
14:29:                  28	41.51
14:29:                  58	41.53
14:30:                  28	41.49
14:30:                  58	41.55
14:31:                  28	41.60
14:31:                  58	41.67
14:32:                  28	41.75
14:32:                  58	41.73
14:33:                  28	41.79
14:33:                  58	41.83
14:34:                  28	41.86
14:34:                  58	41.90
14:35:                  28	41.87
14:35:                  58	41.98
14:36:                  28	41.99
14:36:                  58	41.98
14:37:                  28	41.83
14:37:                  58	41.84
14:38:                  28	41.83
14:38:                  58	41.80
14:39:                  29	41.82
14:39:                  59	41.74
14:40:                  29	41.66
14:40:                  59	41.67
14:41:                  29	41.71
14:41:                  59	41.62
14:42:                  29	41.58
14:42:                  59	41.56
14:43:                  29	41.47
14:43:                  59	41.51
14:44:                  29	41.45
14:44:                  59	41.43
14:45:                  29	41.39
14:45:                  59	41.39
14:46:                  29	41.45
14:46:                  59	41.37
14:47:                  29	41.37
14:47:                  59	41.37
14:48:                  29	41.37
14:48:                  59	41.32
14:49:                  29	41.20
14:49:                  59	41.20
14:50:                  29	41.26
14:50:                  59	41.12
14:51:                  29	41.11
14:51:                  59	41.05
14:52:                  29	40.86
14:52:                  59	40.92
14:53:                  29	40.92
14:53:                  59	40.91
14:54:                  29	40.86
14:54:                  59	40.86
14:55:                  29	40.82
14:55:                  59	40.70
14:56:                  29	40.72
14:56:                  59	40.68
14:57:                  29	40.64
14:57:                  59	40.68
14:58:                  29	40.62
14:58:                  59	40.55
14:59:                  29	40.53
14:59:                  59	40.57
15:00:                  29	40.35
15:00:                  59	40.35
15:01:                  29	40.47
15:01:                  59	40.50
15:02:                  29	40.45
15:02:                  59	40.50
15:03:                  29	40.53
15:03:                  59	40.55
15:04:                  29	40.52
15:04:                  59	40.63
15:05:                  29	40.67
15:05:                  59	40.73
15:06:                  29	40.80
15:06:                  59	40.72
15:07:                  29	40.72
15:07:                  59	40.76
15:08:                  30	40.81
15:09:                   0	40.67
15:09:                  30	40.72
15:10:                   0	40.69
15:10:                  30	40.71
15:11:                   0	40.86
15:11:                  30	40.88
15:12:                   0	40.96
15:12:                  30	41.02
15:13:                   0	41.00
15:13:                  30	41.05
15:14:                   0	41.06
15:14:                  30	41.08
15:15:                   0	41.12
15:15:                  30	41.02
15:16:                   0	40.97
15:16:                  30	41.03
15:17:                   0	41.04
15:17:                  30	41.08
15:18:                   0	41.12
15:18:                  30	41.12
15:19:                   0	41.08
15:19:                  30	41.14
15:20:                   0	41.20
15:20:                  30	41.28
15:21:                   0	41.34
15:21:                  30	41.39
15:22:                   0	41.38
15:22:                  30	41.44
15:23:                   0	41.27
15:23:                  30	41.31
15:24:                   0	41.23
15:24:                  30	41.23
15:25:                   0	41.13
15:25:                  30	40.96
15:26:                   0	40.93
15:26:                  30	40.95
15:27:                   0	41.03
15:27:                  30	40.92
15:28:                   0	40.91
15:28:                  30	41.04
15:29:                   0	40.92
15:29:                  30	40.90
15:30:                   1	40.90
15:30:                  31	41.01
15:31:                   1	40.84
15:31:                  31	40.88
15:32:                   1	40.83
15:32:                  31	40.83
15:33:                   1	40.83
15:33:                  31	40.82
15:34:                   1	40.90
15:34:                  31	40.83
15:35:                   1	40.66
15:35:                  31	40.52
15:36:                   1	40.66
15:36:                  31	40.65
15:37:                   1	40.57
15:37:                  31	40.48
15:38:                   1	40.55
15:38:                  31	40.61
15:39:                   1	40.49
15:39:                  31	40.51
15:40:                   1	40.48
15:40:                  31	40.55
15:41:                   1	40.53
15:41:                  31	40.54
15:42:                   1	40.42
15:42:                  31	40.03
15:43:                   1	40.11
15:43:                  31	40.22
15:44:                   1	40.27
15:44:                  31	40.10
15:45:                   1	40.09
15:45:                  31	40.10
15:46:                   1	40.13
15:46:                  31	40.10
15:47:                   1	40.13
15:47:                  31	40.27
15:48:                   1	40.06
15:48:                  31	40.10
15:49:                   1	40.09
15:49:                  31	40.00
15:50:                   1	40.07
15:50:                  32	40.11
15:51:                   2	40.10
15:51:                  32	39.83
15:52:                   2	39.92
15:52:                  32	39.94
15:53:                   2	39.79
15:53:                  32	39.76
15:54:                   2	39.76
15:54:                  32	39.61
15:55:                   2	39.63
15:55:                  32	39.69
15:56:                   2	39.83
15:56:                  32	39.99
15:57:                   2	40.02
15:57:                  32	39.85
15:58:                   2	39.58
15:58:                  32	39.36
15:59:                   2	39.30
15:59:                  32	39.27
16:00:                   2	39.33
16:00:                  32	39.32
16:01:                   2	39.48
16:01:                  32	39.43
16:02:                   2	39.54
16:02:                  32	39.58
16:03:                   2	39.57
16:03:                  32	39.41
16:04:                   2	39.42
16:04:                  32	39.26
16:05:                   2	39.11
16:05:                  32	39.02
16:06:                   2	38.89
16:06:                  32	38.86
16:07:                   2	38.84
16:07:                  32	39.06
16:08:                   2	38.96
16:08:                  32	38.94
16:09:                   2	39.01
16:09:                  32	39.10
16:10:                   2	39.01
16:10:                  32	38.98
16:11:                   2	39.06
16:11:                  32	39.19
16:12:                   2	39.30
16:12:                  32	39.32
16:13:                   2	39.30
16:13:                  32	39.32
16:14:                   2	39.42
16:14:                  32	39.49
16:15:                   2	39.36
16:15:                  32	39.23
16:16:                   3	39.11
16:16:                  33	39.16
16:17:                   3	39.26
16:17:                  33	39.22
16:18:                   3	39.32
16:18:                  33	39.47
16:19:                   3	39.48
16:19:                  33	39.57
16:20:                   3	39.55
16:20:                  33	39.53
16:21:                   3	39.57
16:21:                  33	39.54
16:22:                   3	39.55
16:22:                  33	39.30
16:23:                   3	39.35
16:23:                  33	39.25
16:24:                   3	39.21
16:24:                  33	39.34
16:25:                   3	39.50
16:25:                  33	39.63
16:26:                   3	39.78
16:26:                  33	39.88
16:27:                   3	39.99
16:27:                  33	40.08
16:28:                   3	40.13
16:28:                  33	40.23
16:29:                   3	40.30
16:29:                  33	40.37
16:30:                   3	40.45
16:30:                  33	40.50
16:31:                   3	40.56
16:31:                  33	40.62
16:32:                   3	40.66
16:32:                  33	40.70
16:33:                   3	40.75
16:33:                  33	40.77
16:34:                   3	40.82
16:34:                  33	40.85
16:35:                   3	40.88
16:35:                  33	40.92
16:36:                   3	40.95
16:36:                  33	40.99
16:37:                   3	41.01
16:37:                  33	41.03
16:38:                   3	41.05
16:38:                  33	41.09
16:39:                   3	41.10
16:39:                  33	41.11
16:40:                   4	41.10
16:40:                  34	41.13
16:41:                   4	41.15
16:41:                  34	41.14
16:42:                   4	41.15
16:42:                  34	41.17
16:43:                   4	41.18
16:43:                  34	41.18
16:44:                   4	41.19
16:44:                  34	41.19
16:45:                   4	41.20
16:45:                  34	41.19
16:46:                   4	41.17
16:46:                  34	41.18
16:47:                   4	41.18
16:47:                  34	41.18
16:48:                   4	41.19
16:48:                  34	41.18
16:49:                   4	41.19
16:49:                  34	41.19
16:50:                   4	41.19
16:50:                  34	41.20
16:51:                   4	41.20
16:51:                  34	41.20
16:52:                   4	41.19
16:52:                  34	41.20
16:53:                   4	41.20
16:53:                  34	41.19
16:54:                   4	41.19
16:54:                  34	41.19
16:55:                   4	41.20
16:55:                  34	41.20
16:56:                   4	41.20
16:56:                  34	41.19
16:57:                   4	40.99
16:57:                  34	40.96
16:58:                   4	40.98
16:58:                  34	40.91
16:59:                   4	40.91
16:59:                  34	40.83
17:00:                   4	40.78
17:00:                  34	40.48
17:01:                   4	40.46
17:01:                  34	40.38
17:02:                   4	40.33
17:02:                  34	40.34
17:03:                   4	40.36
17:03:                  34	40.24
17:04:                   4	40.25
17:04:                  34	40.08
17:05:                   4	39.90
17:05:                  34	39.63
17:06:                   4	39.70
17:06:                  34	39.51
17:07:                   4	39.46
17:07:                  34	39.51
17:08:                   4	39.51
17:08:                  34	39.48
17:09:                   4	39.29
17:09:                  34	39.37
17:10:                   4	39.37
17:10:                  34	39.39
17:11:                   4	39.20
17:11:                  34	39.10
17:12:                   5	39.18
17:12:                  35	39.19
17:13:                   5	39.25
17:13:                  35	39.22
17:14:                   5	39.25
17:14:                  35	39.29
17:15:                   5	39.11
17:15:                  35	39.16
17:16:                   5	39.21
17:16:                  35	39.27
17:17:                   5	39.25
17:17:                  35	39.27
17:18:                   5	39.30
17:18:                  35	39.31
17:19:                   5	39.41
17:19:                  35	39.50
17:20:                   5	39.40
17:20:                  35	39.29
17:21:                   5	39.24
17:21:                  35	39.23
17:22:                   5	39.14
17:22:                  35	39.18
17:23:                   5	39.21
17:23:                  35	39.24
17:24:                   5	39.26
17:24:                  35	39.24
17:25:                   5	39.19
17:25:                  35	39.15
17:26:                   5	39.08
17:26:                  35	39.06
17:27:                   5	39.07
17:27:                  35	39.00
17:28:                   5	39.01
17:28:                  35	39.09
17:29:                   5	39.07
17:29:                  35	39.04
17:30:                   5	38.99
17:30:                  35	39.08
17:31:                   5	39.04
17:31:                  35	39.03
17:32:                   5	38.90
17:32:                  35	38.99
17:33:                   5	39.05
17:33:                  35	38.91
17:34:                   5	38.80
17:34:                  35	38.66
17:35:                   5	38.63
17:35:                  35	38.66
17:36:                   5	38.64
17:36:                  35	38.54
17:37:                   5	38.56
17:37:                  35	38.51
17:38:                   5	38.59
17:38:                  35	38.64
17:39:                   5	38.47
17:39:                  35	38.46
17:40:                   5	38.48
17:40:                  35	38.41
17:41:                   5	38.38
17:41:                  35	38.40
17:42:                   5	38.33
17:42:                  36	38.46
17:43:                   6	38.58
17:43:                  36	38.54
17:44:                   6	38.51
17:44:                  36	38.46
17:45:                   6	38.49
17:45:                  36	38.53
17:46:                   6	38.57
17:46:                  36	38.66
17:47:                   6	38.77
17:47:                  36	38.80
17:48:                   6	38.86
17:48:                  36	38.75
17:49:                   6	38.83
17:49:                  36	38.80
17:50:                   6	38.78
17:50:                  36	38.59
17:51:                   6	38.61
17:51:                  36	38.56
17:52:                   6	38.38
17:52:                  36	38.29
17:53:                   6	38.28
17:53:                  36	38.36
17:54:                   6	38.38
17:54:                  36	38.40
17:55:                   6	38.55
17:55:                  36	38.63
17:56:                   6	38.56
17:56:                  36	38.50
17:57:                   6	38.36
17:57:                  36	38.34
17:58:                   6	38.20
17:58:                  36	38.02
17:59:                   6	37.95
17:59:                  36	37.91
18:00:                   6	37.99
18:00:                  36	37.98
18:01:                   6	38.04
18:01:                  36	38.06
18:02:                   6	38.00
18:02:                  36	37.92
18:03:                   6	37.94
18:03:                  36	37.98
18:04:                   6	38.00
18:04:                  36	38.05
18:05:                   6	37.94
18:05:                  36	37.84
18:06:                   6	37.83
18:06:                  36	37.64
18:07:                   6	37.57
18:07:                  36	37.49
18:08:                   6	37.55
18:08:                  36	37.45
18:09:                   6	37.32
18:09:                  36	37.24
18:10:                   6	37.14
18:10:                  36	37.16
18:11:                   6	37.22
18:11:                  36	37.14
18:12:                   7	37.23
18:12:                  37	37.12
18:13:                   7	37.10
18:13:                  37	37.30
18:14:                   7	37.47
18:14:                  37	37.54
18:15:                   7	37.68
18:15:                  37	37.80
18:16:                   7	37.91
18:16:                  37	37.98
18:17:                   7	38.02
18:17:                  37	38.09
18:18:                   7	38.12
18:18:                  37	38.05
18:19:                   7	38.07
18:19:                  37	38.12
18:20:                   7	38.20
18:20:                  37	38.27
18:21:                   7	38.33
18:21:                  37	38.25
18:22:                   7	38.11
18:22:                  37	38.07
18:23:                   7	38.01
18:23:                  37	38.03
18:24:                   7	38.02
18:24:                  37	37.84
18:25:                   7	37.84
18:25:                  37	37.85
18:26:                   7	37.89
18:26:                  37	38.01
18:27:                   7	38.10
18:27:                  37	38.17
18:28:                   7	38.15
18:28:                  37	38.13
18:29:                   7	38.03
18:29:                  37	37.76
18:30:                   7	37.91
18:30:                  37	38.00
18:31:                   7	37.98
18:31:                  37	37.81
18:32:                   7	37.90
18:32:                  37	37.96
18:33:                   7	37.99
18:33:                  37	38.02
18:34:                   7	38.08
18:34:                  37	38.13
18:35:                   7	38.19
18:35:                  37	38.21
18:36:                   7	38.08
18:36:                  37	38.05
18:37:                   7	38.01
18:37:                  38	38.01
18:38:                   8	37.86
18:38:                  38	37.87
18:39:                   8	37.85
18:39:                  38	37.90
18:40:                   8	37.94
18:40:                  38	37.99
18:41:                   8	37.96
18:41:                  38	38.03
18:42:                   8	38.01
18:42:                  38	38.05
18:43:                   8	37.99
18:43:                  38	37.95
18:44:                   8	37.99
18:44:                  38	37.99
18:45:                   8	37.97
18:45:                  38	37.99
18:46:                   8	37.98
18:46:                  38	37.96
18:47:                   8	37.88
18:47:                  38	37.82
18:48:                   8	37.85
18:48:                  38	37.90
18:49:                   8	37.77
18:49:                  38	37.73
18:50:                   8	37.68
18:50:                  38	37.71
18:51:                   8	37.72
18:51:                  38	37.58
18:52:                   8	37.37
18:52:                  38	37.28
18:53:                   8	37.38
18:53:                  38	37.38
18:54:                   8	37.37
18:54:                  38	37.34
18:55:                   8	37.33
18:55:                  38	37.38
18:56:                   8	37.28
18:56:                  38	37.11
18:57:                   8	37.10
18:57:                  38	37.15
18:58:                   8	37.24
18:58:                  38	37.35
18:59:                   8	37.34
18:59:                  39	37.37
19:00:                   9	37.44
19:00:                  39	37.41
19:01:                   9	37.47
19:01:                  39	37.49
19:02:                   9	37.49
19:02:                  39	37.42
19:03:                   9	37.47
19:03:                  39	37.40
19:04:                   9	37.43
19:04:                  39	37.50
19:05:                   9	37.56
19:05:                  39	37.62
19:06:                   9	37.56
19:06:                  39	37.51
19:07:                   9	37.35
19:07:                  39	37.25
19:08:                   9	37.24
19:08:                  39	37.24
19:09:                   9	37.29
19:09:                  39	37.31
19:10:                   9	37.34
19:10:                  39	37.36
19:11:                   9	37.41
19:11:                  39	37.42
19:12:                   9	37.44
19:12:                  39	37.49
19:13:                   9	37.52
19:13:                  39	37.51
19:14:                   9	37.55
19:14:                  39	37.60
19:15:                   9	37.51
19:15:                  39	37.54
19:16:                   9	37.57
19:16:                  39	37.61
19:17:                   9	37.50
19:17:                  39	37.35
19:18:                   9	37.42
19:18:                  39	37.45
19:19:                   9	37.48
19:19:                  39	37.47
19:20:                   9	37.37
19:20:                  40	37.39
19:21:                  10	37.30
19:21:                  40	37.16
19:22:                  10	37.24
19:22:                  40	37.26
19:23:                  10	37.23
19:23:                  40	36.91
19:24:                  10	36.97
19:24:                  40	37.02
19:25:                  10	36.99
19:25:                  40	37.13
19:26:                  10	37.23
19:26:                  40	37.30
19:27:                  10	37.38
19:27:                  40	37.41
19:28:                  10	37.49
19:28:                  40	37.56
19:29:                  10	37.60
19:29:                  40	37.68
19:30:                  10	37.74
19:30:                  40	37.81
19:31:                  10	37.89
19:31:                  40	37.93
19:32:                  10	37.97
19:32:                  40	38.01
19:33:                  10	38.05
19:33:                  40	38.11
19:34:                  10	38.14
19:34:                  40	38.17
19:35:                  10	38.22
19:35:                  40	38.24
19:36:                  10	38.27
19:36:                  40	38.30
19:37:                  10	38.34
19:37:                  40	38.37
19:38:                  10	38.40
19:38:                  41	38.43
19:39:                  11	38.46
19:39:                  41	38.48
19:40:                  11	38.51
19:40:                  41	38.54
19:41:                  11	38.54
19:41:                  41	38.55
19:42:                  11	38.59
19:42:                  41	38.61
19:43:                  11	38.63
19:43:                  41	38.66
19:44:                  11	38.67
19:44:                  41	38.68
19:45:                  11	38.68
19:45:                  41	38.70
19:46:                  11	38.72
19:46:                  41	38.72
19:47:                  11	38.75
19:47:                  41	38.73
19:48:                  11	38.75
19:48:                  41	38.77
19:49:                  11	38.78
19:49:                  41	38.80
19:50:                  11	38.80
19:50:                  41	38.82
19:51:                  11	38.81
19:51:                  41	38.83
19:52:                  11	38.84
19:52:                  41	38.85
19:53:                  11	38.85
19:53:                  41	38.86
19:54:                  11	38.87
19:54:                  41	38.88
19:55:                  11	38.86
19:55:                  41	38.89
19:56:                  11	38.89
19:56:                  41	38.88
19:57:                  11	38.90
19:57:                  41	38.92
19:58:                  11	38.93
19:58:                  41	38.94
19:59:                  12	38.94
19:59:                  42	38.93
20:00:                  12	38.95
20:00:                  42	38.96
20:01:                  12	38.96
20:01:                  42	38.97
20:02:                  12	38.94
20:02:                  42	38.94
20:03:                  12	38.95
20:03:                  42	38.98
20:04:                  12	38.98
20:04:                  42	38.97
20:05:                  12	38.98
20:05:                  42	39.00
20:06:                  12	39.00
20:06:                  42	38.99
20:07:                  12	39.00
20:07:                  42	38.98
20:08:                  12	39.00
20:08:                  42	38.99
20:09:                  12	39.00
20:09:                  42	39.02
20:10:                  12	39.01
20:10:                  42	38.99
20:11:                  12	39.00
20:11:                  42	39.01
20:12:                  12	39.02
20:12:                  42	39.00
20:13:                  12	38.99
20:13:                  42	39.00
20:14:                  12	39.01
20:14:                  42	39.00
20:15:                  12	39.02
20:15:                  43	39.03
20:16:                  13	38.95
20:16:                  43	39.00
20:17:                  13	39.02
20:17:                  43	39.01
20:18:                  13	39.01
20:18:                  43	38.99
20:19:                  13	38.98
20:19:                  43	38.95
20:20:                  13	38.94
20:20:                  43	38.90
20:21:                  13	38.88
20:21:                  43	38.86
20:22:                  13	38.84
20:22:                  43	38.83
20:23:                  13	38.84
20:23:                  43	38.83
20:24:                  13	38.83
20:24:                  43	38.67
20:25:                  13	38.66
20:25:                  43	38.67
20:26:                  13	38.68
20:26:                  43	38.69
20:27:                  13	38.70
20:27:                  43	38.73
20:28:                  13	38.70
20:28:                  43	38.72
20:29:                  13	38.72
20:29:                  43	38.71
20:30:                  13	38.73
20:30:                  43	38.69
20:31:                  13	38.70
20:31:                  43	38.69
20:32:                  13	38.69
20:32:                  43	38.68
20:33:                  13	38.67
20:33:                  43	38.64
20:34:                  13	38.64
20:34:                  43	38.63
20:35:                  13	38.63
20:35:                  43	38.60
20:36:                  13	38.61
20:36:                  43	38.61
20:37:                  13	38.61
20:37:                  43	38.60
20:38:                  13	38.61
20:38:                  43	38.61
20:39:                  13	38.59
20:39:                  43	38.57
20:40:                  13	38.58
20:40:                  43	38.60
20:41:                  13	38.61
20:41:                  43	38.60
20:42:                  13	38.61
20:42:                  43	38.61
20:43:                  13	38.60
20:43:                  43	38.60
20:44:                  13	38.61
20:44:                  43	38.59
20:45:                  13	38.58
20:45:                  43	38.57
20:46:                  14	38.59
20:46:                  44	38.58
20:47:                  14	38.58
20:47:                  44	38.56
20:48:                  14	38.55
20:48:                  44	38.57
20:49:                  14	38.55
20:49:                  44	38.56
20:50:                  14	38.56
20:50:                  44	38.54
20:51:                  14	38.53
20:51:                  44	38.54
20:52:                  14	38.55
20:52:                  44	38.53
20:53:                  14	38.54
20:53:                  44	38.54
20:54:                  14	38.54
20:54:                  44	38.44
20:55:                  14	38.22
20:55:                  44	38.24
20:56:                  14	38.16
20:56:                  44	38.20
20:57:                  14	38.23
20:57:                  44	38.25
20:58:                  14	38.26
20:58:                  44	38.23
20:59:                  14	38.23
20:59:                  44	38.25
21:00:                  14	38.23
21:00:                  44	38.03
21:01:                  14	38.05
21:01:                  44	38.11
21:02:                  14	38.13
21:02:                  44	38.14
21:03:                  14	38.16
21:03:                  44	38.16
21:04:                  14	38.17
21:04:                  44	38.18
21:05:                  14	38.17
21:05:                  44	38.18
21:06:                  14	38.18
21:06:                  45	38.16
21:07:                  15	38.02
21:07:                  45	38.02
21:08:                  15	38.05
21:08:                  45	38.07
21:09:                  15	38.10
21:09:                  45	38.07
21:10:                  15	38.07
21:10:                  45	38.09
21:11:                  15	38.06
21:11:                  45	38.07
21:12:                  15	38.06
21:12:                  45	38.06
21:13:                  15	38.10
21:13:                  45	38.02
21:14:                  15	38.02
21:14:                  45	38.05
21:15:                  15	37.86
21:15:                  45	37.73
21:16:                  15	37.72
21:16:                  45	37.75
21:17:                  15	37.80
21:17:                  45	37.86
21:18:                  15	37.87
21:18:                  45	37.89
21:19:                  15	37.92
21:19:                  45	37.92
21:20:                  15	37.95
21:20:                  45	37.97
21:21:                  15	37.99
21:21:                  45	38.02
21:22:                  15	38.03
21:22:                  45	38.04
21:23:                  15	38.05
21:23:                  45	38.06
21:24:                  16	38.07
21:24:                  46	38.11
21:25:                  16	38.12
21:25:                  46	38.14
21:26:                  16	38.14
21:26:                  46	38.13
21:27:                  16	38.15
21:27:                  46	38.15
21:28:                  16	38.17
21:28:                  46	38.17
21:29:                  16	38.17
21:29:                  46	38.18
21:30:                  16	38.15
21:30:                  46	38.18
21:31:                  16	38.18
21:31:                  46	38.18
21:32:                  16	38.21
21:32:                  46	38.22
21:33:                  16	38.21
21:33:                  46	38.20
21:34:                  16	38.20
21:34:                  46	38.23
21:35:                  16	38.23
21:35:                  46	38.25
21:36:                  16	38.25
21:36:                  46	38.27
21:37:                  16	38.29
21:37:                  46	38.29
21:38:                  16	38.31
21:38:                  46	38.32
21:39:                  16	38.33
21:39:                  46	38.34
21:40:                  16	38.34
21:40:                  46	38.35
21:41:                  16	38.28
21:41:                  46	38.25
21:42:                  17	38.27
21:42:                  47	38.28
21:43:                  17	38.28
21:43:                  47	38.29
21:44:                  17	38.27
21:44:                  47	38.25
21:45:                  17	38.24
21:45:                  47	38.26
21:46:                  17	38.25
21:46:                  47	38.25
21:47:                  17	38.25
21:47:                  47	38.25
21:48:                  17	38.24
21:48:                  47	38.27
21:49:                  17	38.27
21:49:                  47	38.21
21:50:                  17	37.99
21:50:                  47	37.95
21:51:                  17	38.04
21:51:                  47	38.06
21:52:                  17	38.09
21:52:                  47	38.10
21:53:                  17	38.10
21:53:                  47	38.09
21:54:                  17	38.06
21:54:                  47	38.12
21:55:                  17	38.12
21:55:                  47	38.15
21:56:                  17	38.15
21:56:                  47	38.17
21:57:                  17	38.17
21:57:                  47	38.20
21:58:                  17	38.24
21:58:                  47	38.18
21:59:                  17	38.22
21:59:                  47	38.25
22:00:                  17	38.26
22:00:                  47	38.22
22:01:                  17	38.24
22:01:                  47	38.25
22:02:                  17	38.27
22:02:                  47	38.28
22:03:                  17	38.29
22:03:                  47	38.30
22:04:                  17	38.33
22:04:                  47	38.32
22:05:                  17	38.38
22:05:                  47	38.38
22:06:                  17	38.36
22:06:                  47	38.40
22:07:                  17	38.41
22:07:                  47	38.44
22:08:                  17	38.47
22:08:                  47	38.48
22:09:                  17	38.47
22:09:                  47	38.49
22:10:                  17	38.52
22:10:                  47	38.53
22:11:                  17	38.52
22:11:                  47	38.54
22:12:                  17	38.55
22:12:                  47	38.55
22:13:                  17	38.56
22:13:                  47	38.53
22:14:                  18	38.54
22:14:                  48	38.51
22:15:                  18	38.54
22:15:                  48	38.56
22:16:                  18	38.52
22:16:                  48	38.49
22:17:                  18	38.52
22:17:                  48	38.55
22:18:                  18	38.57
22:18:                  48	38.58
22:19:                  18	38.57
22:19:                  48	38.59
22:20:                  18	38.62
22:20:                  48	38.58
22:21:                  18	38.58
22:21:                  48	38.63
22:22:                  18	38.66
22:22:                  48	38.66
22:23:                  18	38.67
22:23:                  48	38.68
22:24:                  18	38.70
22:24:                  48	38.71
22:25:                  18	38.72
22:25:                  48	38.74
22:26:                  18	38.74
22:26:                  48	38.77
22:27:                  18	38.75
22:27:                  48	38.74
22:28:                  18	38.76
22:28:                  48	38.79
22:29:                  18	38.80
22:29:                  48	38.79
22:30:                  18	38.78
22:30:                  48	38.80
22:31:                  18	38.84
22:31:                  48	38.86
22:32:                  18	38.87
22:32:                  48	38.90
22:33:                  18	38.95
22:33:                  48	38.98
22:34:                  18	38.99
22:34:                  48	39.00
22:35:                  18	39.01
22:35:                  48	39.06
22:36:                  18	39.04
22:36:                  48	39.07
22:37:                  18	39.12
22:37:                  48	39.13
22:38:                  18	39.15
22:38:                  48	39.19
22:39:                  18	39.21
22:39:                  48	39.23
22:40:                  18	39.24
22:40:                  48	39.28
22:41:                  18	39.28
22:41:                  48	39.31
22:42:                  18	39.31
22:42:                  48	39.30
22:43:                  18	39.30
22:43:                  48	39.30
22:44:                  18	39.32
22:44:                  48	39.32
22:45:                  18	39.33
22:45:                  48	39.36
22:46:                  18	39.37
22:46:                  48	39.37
22:47:                  18	39.37
22:47:                  48	39.39
22:48:                  18	39.42
22:48:                  48	39.43
22:49:                  18	39.44
22:49:                  48	39.44
22:50:                  19	39.47
22:50:                  49	39.50
22:51:                  19	39.53
22:51:                  49	39.52
22:52:                  19	39.52
22:52:                  49	39.51
22:53:                  19	39.53
22:53:                  49	39.53
22:54:                  19	39.52
22:54:                  49	39.48
22:55:                  19	39.51
22:55:                  49	39.52
22:56:                  19	39.52
22:56:                  49	39.51
22:57:                  19	39.52
22:57:                  49	39.57
22:58:                  19	39.56
22:58:                  49	39.57
22:59:                  19	39.44
22:59:                  49	39.52
23:00:                  19	39.51
23:00:                  49	39.53
23:01:                  19	39.52
23:01:                  49	39.51
23:02:                  19	39.53
23:02:                  49	39.53
23:03:                  19	39.43
23:03:                  49	39.49
23:04:                  19	39.52
23:04:                  49	39.52
23:05:                  19	39.52
23:05:                  49	39.52
23:06:                  19	39.51
23:06:                  49	39.52
23:07:                  19	39.52
23:07:                  49	39.52
23:08:                  19	39.51
23:08:                  49	39.52
23:09:                  19	39.52
23:09:                  49	39.49
23:10:                  19	39.49
23:10:                  49	39.49
23:11:                  19	39.49
23:11:                  49	39.48
23:12:                  19	39.49
23:12:                  49	39.47
23:13:                  19	39.47
23:13:                  49	39.46
23:14:                  19	39.45
23:14:                  49	39.45
23:15:                  19	39.43
23:15:                  49	39.43
23:16:                  20	39.44
23:16:                  50	39.42
23:17:                  20	39.42
23:17:                  50	39.43
23:18:                  20	39.43
23:18:                  50	39.44
23:19:                  20	39.43
23:19:                  50	39.40
23:20:                  20	39.40
23:20:                  50	39.40
23:21:                  20	39.41
23:21:                  50	39.38
23:22:                  20	39.38
23:22:                  50	39.38
23:23:                  20	39.38
23:23:                  50	39.38
23:24:                  20	39.39
23:24:                  50	39.38
23:25:                  20	39.38
23:25:                  50	39.39
23:26:                  20	39.38
23:26:                  50	39.38
23:27:                  20	39.37
23:27:                  50	39.37
23:28:                  20	39.36
23:28:                  50	39.36
23:29:                  20	39.35
23:29:                  50	39.35
23:30:                  20	39.34
23:30:                  50	39.33
23:31:                  20	39.32
23:31:                  50	39.32
23:32:                  20	39.32
23:32:                  50	39.32
23:33:                  20	39.32
23:33:                  50	39.32
23:34:                  20	39.31
23:34:                  50	39.30
23:35:                  20	39.30
23:35:                  50	39.29
23:36:                  20	39.29
23:36:                  50	39.29
23:37:                  20	39.27
23:37:                  50	39.27
23:38:                  20	39.26
23:38:                  50	39.26
23:39:                  20	39.25
23:39:                  50	39.25
23:40:                  20	39.26
23:40:                  50	39.25
23:41:                  20	39.25
23:41:                  50	39.25
23:42:                  20	39.26
23:42:                  50	39.25
23:43:                  20	39.25
23:43:                  50	39.26
23:44:                  20	39.25
23:44:                  50	39.24
23:45:                  20	39.24
23:45:                  50	39.23
23:46:                  21	39.21
23:46:                  51	39.22
23:47:                  21	39.20
23:47:                  51	39.20
23:48:                  21	39.19
23:48:                  51	39.18
23:49:                  21	39.19
23:49:                  51	39.17
23:50:                  21	39.18
23:50:                  51	39.18
23:51:                  21	39.17
23:51:                  51	39.16
23:52:                  21	39.16
23:52:                  51	39.15
23:53:                  21	39.16
23:53:                  51	39.16
23:54:                  21	39.16
23:54:                  51	39.16
23:55:                  21	39.15
23:55:                  51	39.15
23:56:                  21	39.14
23:56:                  51	39.13
23:57:                  21	39.13
23:57:                  51	39.13
23:58:                  21	39.13
23:58:                  51	39.12
23:59:                  21	39.12
23:59:                  51	39.11
