0:00:                  12	32.93
0:00:                  42	32.95
0:01:                  12	32.95
0:01:                  42	32.95
0:02:                  12	32.96
0:02:                  42	32.95
0:03:                  12	32.96
0:03:                  42	32.96
0:04:                  12	32.95
0:04:                  43	32.97
0:05:                  13	32.96
0:05:                  43	32.97
0:06:                  13	32.97
0:06:                  43	32.97
0:07:                  13	32.98
0:07:                  43	32.99
0:08:                  13	32.98
0:08:                  43	32.98
0:09:                  13	32.99
0:09:                  43	32.99
0:10:                  13	33.00
0:10:                  43	33.00
0:11:                  13	32.99
0:11:                  43	33.01
0:12:                  13	33.01
0:12:                  43	33.01
0:13:                  13	33.01
0:13:                  43	33.02
0:14:                  13	33.00
0:14:                  43	33.00
0:15:                  13	33.01
0:15:                  43	33.00
0:16:                  13	33.01
0:16:                  43	33.01
0:17:                  13	33.00
0:17:                  43	33.01
0:18:                  13	33.00
0:18:                  43	32.99
0:19:                  13	32.99
0:19:                  43	32.99
0:20:                  13	32.99
0:20:                  43	32.99
0:21:                  13	32.99
0:21:                  43	32.98
0:22:                  13	33.00
0:22:                  43	32.99
0:23:                  13	32.99
0:23:                  43	33.00
0:24:                  13	33.00
0:24:                  43	32.99
0:25:                  13	32.98
0:25:                  43	32.98
0:26:                  13	32.96
0:26:                  44	32.96
0:27:                  14	32.96
0:27:                  44	32.98
0:28:                  14	32.98
0:28:                  44	32.98
0:29:                  14	32.99
0:29:                  44	32.98
0:30:                  14	32.98
0:30:                  44	32.98
0:31:                  14	32.99
0:31:                  44	32.98
0:32:                  14	32.97
0:32:                  44	32.97
0:33:                  14	32.97
0:33:                  44	32.96
0:34:                  14	32.95
0:34:                  44	32.94
0:35:                  14	32.93
0:35:                  44	32.92
0:36:                  14	32.93
0:36:                  44	32.93
0:37:                  14	32.91
0:37:                  44	32.91
0:38:                  14	32.92
0:38:                  44	32.94
0:39:                  14	32.92
0:39:                  44	32.91
0:40:                  14	32.92
0:40:                  44	32.92
0:41:                  14	32.91
0:41:                  44	32.92
0:42:                  14	32.90
0:42:                  44	32.90
0:43:                  14	32.91
0:43:                  44	32.91
0:44:                  14	32.91
0:44:                  44	32.91
0:45:                  14	32.91
0:45:                  44	32.91
0:46:                  14	32.91
0:46:                  44	32.91
0:47:                  14	32.90
0:47:                  44	32.90
0:48:                  14	32.90
0:48:                  44	32.91
0:49:                  14	32.90
0:49:                  44	32.91
0:50:                  14	32.90
0:50:                  44	32.91
0:51:                  14	32.91
0:51:                  45	32.91
0:52:                  15	32.92
0:52:                  45	32.92
0:53:                  15	32.92
0:53:                  45	32.91
0:54:                  15	32.93
0:54:                  45	32.93
0:55:                  15	32.92
0:55:                  45	32.94
0:56:                  15	32.93
0:56:                  45	32.92
0:57:                  15	32.93
0:57:                  45	32.93
0:58:                  15	32.93
0:58:                  45	32.94
0:59:                  15	32.94
0:59:                  45	32.94
1:00:                  15	32.93
1:00:                  45	32.93
1:01:                  15	32.93
1:01:                  45	32.93
1:02:                  15	32.94
1:02:                  45	32.93
1:03:                  15	32.93
1:03:                  45	32.93
1:04:                  15	32.92
1:04:                  45	32.91
1:05:                  15	32.90
1:05:                  45	32.87
1:06:                  15	32.86
1:06:                  45	32.85
1:07:                  15	32.86
1:07:                  45	32.86
1:08:                  15	32.84
1:08:                  45	32.83
1:09:                  15	32.83
1:09:                  45	32.82
1:10:                  15	32.83
1:10:                  45	32.83
1:11:                  16	32.83
1:11:                  46	32.84
1:12:                  16	32.83
1:12:                  46	32.85
1:13:                  16	32.85
1:13:                  46	32.86
1:14:                  16	32.86
1:14:                  46	32.87
1:15:                  16	32.87
1:15:                  46	32.89
1:16:                  16	32.88
1:16:                  46	32.89
1:17:                  16	32.89
1:17:                  46	32.88
1:18:                  16	32.89
1:18:                  46	32.89
1:19:                  16	32.88
1:19:                  46	32.89
1:20:                  16	32.87
1:20:                  46	32.87
1:21:                  16	32.86
1:21:                  46	32.87
1:22:                  16	32.87
1:22:                  46	32.87
1:23:                  16	32.87
1:23:                  46	32.87
1:24:                  16	32.86
1:24:                  46	32.85
1:25:                  16	32.85
1:25:                  46	32.84
1:26:                  16	32.83
1:26:                  46	32.83
1:27:                  16	32.81
1:27:                  46	32.81
1:28:                  16	32.80
1:28:                  46	32.80
1:29:                  16	32.80
1:29:                  46	32.79
1:30:                  16	32.79
1:30:                  46	32.79
1:31:                  16	32.78
1:31:                  46	32.78
1:32:                  17	32.78
1:32:                  47	32.78
1:33:                  17	32.77
1:33:                  47	32.75
1:34:                  17	32.75
1:34:                  47	32.75
1:35:                  17	32.75
1:35:                  47	32.74
1:36:                  17	32.75
1:36:                  47	32.73
1:37:                  17	32.72
1:37:                  47	32.74
1:38:                  17	32.74
1:38:                  47	32.77
1:39:                  17	32.76
1:39:                  47	32.75
1:40:                  17	32.74
1:40:                  47	32.74
1:41:                  17	32.73
1:41:                  47	32.74
1:42:                  17	32.73
1:42:                  47	32.73
1:43:                  17	32.72
1:43:                  47	32.71
1:44:                  17	32.71
1:44:                  47	32.71
1:45:                  17	32.71
1:45:                  47	32.71
1:46:                  17	32.71
1:46:                  47	32.72
1:47:                  17	32.72
1:47:                  47	32.71
1:48:                  17	32.71
1:48:                  47	32.72
1:49:                  17	32.72
1:49:                  47	32.73
1:50:                  17	32.74
1:50:                  47	32.75
1:51:                  17	32.75
1:51:                  47	32.74
1:52:                  17	32.75
1:52:                  48	32.74
1:53:                  18	32.74
1:53:                  48	32.74
1:54:                  18	32.73
1:54:                  48	32.72
1:55:                  18	32.73
1:55:                  48	32.72
1:56:                  18	32.72
1:56:                  48	32.71
1:57:                  18	32.71
1:57:                  48	32.71
1:58:                  18	32.72
1:58:                  48	32.71
1:59:                  18	32.71
1:59:                  48	32.72
2:00:                  18	32.72
2:00:                  48	32.71
2:01:                  18	32.71
2:01:                  48	32.72
2:02:                  18	32.72
2:02:                  48	32.72
2:03:                  18	32.73
2:03:                  48	32.74
2:04:                  18	32.75
2:04:                  48	32.75
2:05:                  18	32.75
2:05:                  48	32.73
2:06:                  18	32.74
2:06:                  48	32.73
2:07:                  18	32.72
2:07:                  48	32.73
2:08:                  18	32.73
2:08:                  48	32.73
2:09:                  18	32.72
2:09:                  48	32.73
2:10:                  18	32.73
2:10:                  48	32.73
2:11:                  18	32.73
2:11:                  48	32.71
2:12:                  18	32.72
2:12:                  48	32.73
2:13:                  18	32.72
2:13:                  48	32.71
2:14:                  18	32.71
2:14:                  48	32.73
2:15:                  19	32.72
2:15:                  49	32.72
2:16:                  19	32.72
2:16:                  49	32.71
2:17:                  19	32.70
2:17:                  49	32.70
2:18:                  19	32.71
2:18:                  49	32.70
2:19:                  19	32.70
2:19:                  49	32.69
2:20:                  19	32.70
2:20:                  49	32.71
2:21:                  19	32.72
2:21:                  49	32.72
2:22:                  19	32.71
2:22:                  49	32.70
2:23:                  19	32.71
2:23:                  49	32.71
2:24:                  19	32.72
2:24:                  49	32.73
2:25:                  19	32.73
2:25:                  49	32.73
2:26:                  19	32.73
2:26:                  49	32.73
2:27:                  19	32.72
2:27:                  49	32.72
2:28:                  19	32.72
2:28:                  49	32.74
2:29:                  19	32.74
2:29:                  49	32.74
2:30:                  19	32.73
2:30:                  49	32.73
2:31:                  19	32.74
2:31:                  49	32.73
2:32:                  20	32.74
2:32:                  50	32.73
2:33:                  20	32.72
2:33:                  50	32.71
2:34:                  20	32.71
2:34:                  50	32.71
2:35:                  20	32.69
2:35:                  50	32.70
2:36:                  20	32.69
2:36:                  50	32.69
2:37:                  20	32.71
2:37:                  50	32.70
2:38:                  20	32.70
2:38:                  50	32.70
2:39:                  20	32.69
2:39:                  50	32.69
2:40:                  20	32.69
2:40:                  50	32.69
2:41:                  20	32.68
2:41:                  50	32.69
2:42:                  20	32.69
2:42:                  50	32.68
2:43:                  20	32.70
2:43:                  50	32.70
2:44:                  20	32.71
2:44:                  50	32.70
2:45:                  20	32.69
2:45:                  50	32.69
2:46:                  20	32.69
2:46:                  50	32.69
2:47:                  20	32.69
2:47:                  50	32.68
2:48:                  21	32.68
2:48:                  51	32.69
2:49:                  21	32.70
2:49:                  51	32.68
2:50:                  21	32.69
2:50:                  51	32.70
2:51:                  21	32.68
2:51:                  51	32.69
2:52:                  21	32.68
2:52:                  51	32.69
2:53:                  21	32.69
2:53:                  51	32.70
2:54:                  21	32.70
2:54:                  51	32.70
2:55:                  21	32.69
2:55:                  51	32.69
2:56:                  21	32.69
2:56:                  51	32.69
2:57:                  21	32.70
2:57:                  51	32.68
2:58:                  21	32.68
2:58:                  51	32.69
2:59:                  21	32.69
2:59:                  51	32.69
3:00:                  21	32.70
3:00:                  51	32.70
3:01:                  21	32.70
3:01:                  51	32.71
3:02:                  21	32.69
3:02:                  51	32.69
3:03:                  21	32.68
3:03:                  51	32.68
3:04:                  21	32.69
3:04:                  51	32.68
3:05:                  21	32.69
3:05:                  51	32.68
3:06:                  21	32.67
3:06:                  51	32.68
3:07:                  21	32.68
3:07:                  51	32.70
3:08:                  22	32.70
3:08:                  52	32.71
3:09:                  22	32.70
3:09:                  52	32.69
3:10:                  22	32.70
3:10:                  52	32.70
3:11:                  22	32.70
3:11:                  52	32.70
3:12:                  22	32.69
3:12:                  52	32.69
3:13:                  22	32.69
3:13:                  52	32.68
3:14:                  22	32.70
3:14:                  52	32.69
3:15:                  22	32.70
3:15:                  52	32.70
3:16:                  22	32.71
3:16:                  52	32.70
3:17:                  22	32.70
3:17:                  52	32.72
3:18:                  22	32.70
3:18:                  52	32.69
3:19:                  22	32.69
3:19:                  52	32.69
3:20:                  22	32.69
3:20:                  52	32.69
3:21:                  22	32.68
3:21:                  52	32.67
3:22:                  22	32.69
3:22:                  52	32.70
3:23:                  22	32.69
3:23:                  52	32.71
3:24:                  22	32.70
3:24:                  53	32.70
3:25:                  23	32.71
3:25:                  53	32.72
3:26:                  23	32.74
3:26:                  53	32.74
3:27:                  23	32.74
3:27:                  53	32.75
3:28:                  23	32.74
3:28:                  53	32.75
3:29:                  23	32.75
3:29:                  53	32.77
3:30:                  23	32.78
3:30:                  53	32.77
3:31:                  23	32.78
3:31:                  53	32.77
3:32:                  23	32.77
3:32:                  53	32.76
3:33:                  23	32.77
3:33:                  53	32.78
3:34:                  23	32.78
3:34:                  53	32.77
3:35:                  23	32.77
3:35:                  53	32.75
3:36:                  23	32.75
3:36:                  53	32.74
3:37:                  23	32.75
3:37:                  53	32.75
3:38:                  23	32.74
3:38:                  53	32.73
3:39:                  23	32.75
3:39:                  53	32.75
3:40:                  23	32.73
3:40:                  53	32.73
3:41:                  23	32.73
3:41:                  53	32.74
3:42:                  23	32.75
3:42:                  53	32.77
3:43:                  23	32.77
3:43:                  53	32.79
3:44:                  24	32.78
3:44:                  54	32.77
3:45:                  24	32.74
3:45:                  54	32.73
3:46:                  24	32.72
3:46:                  54	32.72
3:47:                  24	32.71
3:47:                  54	32.70
3:48:                  24	32.70
3:48:                  54	32.70
3:49:                  24	32.71
3:49:                  54	32.70
3:50:                  24	32.71
3:50:                  54	32.71
3:51:                  24	32.71
3:51:                  54	32.71
3:52:                  24	32.69
3:52:                  54	32.70
3:53:                  24	32.68
3:53:                  54	32.70
3:54:                  24	32.68
3:54:                  54	32.69
3:55:                  24	32.68
3:55:                  54	32.69
3:56:                  24	32.69
3:56:                  54	32.68
3:57:                  24	32.66
3:57:                  54	32.67
3:58:                  24	32.66
3:58:                  54	32.66
3:59:                  24	32.67
3:59:                  54	32.67
4:00:                  24	32.69
4:00:                  55	32.70
4:01:                  25	32.69
4:01:                  55	32.68
4:02:                  25	32.69
4:02:                  55	32.68
4:03:                  25	32.70
4:03:                  55	32.69
4:04:                  25	32.69
4:04:                  55	32.71
4:05:                  25	32.71
4:05:                  55	32.71
4:06:                  25	32.70
4:06:                  55	32.70
4:07:                  25	32.70
4:07:                  55	32.69
4:08:                  25	32.69
4:08:                  55	32.69
4:09:                  25	32.69
4:09:                  55	32.69
4:10:                  25	32.68
4:10:                  55	32.69
4:11:                  25	32.67
4:11:                  55	32.67
4:12:                  25	32.68
4:12:                  55	32.67
4:13:                  25	32.67
4:13:                  55	32.68
4:14:                  25	32.67
4:14:                  55	32.67
4:15:                  25	32.68
4:15:                  55	32.67
4:16:                  25	32.66
4:16:                  55	32.66
4:17:                  25	32.67
4:17:                  55	32.67
4:18:                  25	32.66
4:18:                  55	32.65
4:19:                  25	32.65
4:19:                  55	32.64
4:20:                  26	32.65
4:20:                  56	32.65
4:21:                  26	32.64
4:21:                  56	32.64
4:22:                  26	32.63
4:22:                  56	32.64
4:23:                  26	32.65
4:23:                  56	32.65
4:24:                  26	32.65
4:24:                  56	32.65
4:25:                  26	32.65
4:25:                  56	32.65
4:26:                  26	32.64
4:26:                  56	32.65
4:27:                  26	32.65
4:27:                  56	32.66
4:28:                  26	32.64
4:28:                  56	32.65
4:29:                  26	32.63
4:29:                  56	32.64
4:30:                  26	32.63
4:30:                  56	32.64
4:31:                  26	32.64
4:31:                  56	32.62
4:32:                  26	32.62
4:32:                  56	32.62
4:33:                  26	32.62
4:33:                  56	32.63
4:34:                  26	32.62
4:34:                  56	32.61
4:35:                  26	32.61
4:35:                  56	32.63
4:36:                  26	32.61
4:36:                  56	32.60
4:37:                  26	32.59
4:37:                  56	32.60
4:38:                  26	32.61
4:38:                  56	32.61
4:39:                  26	32.62
4:39:                  56	32.61
4:40:                  26	32.61
4:40:                  56	32.60
4:41:                  26	32.59
4:41:                  56	32.59
4:42:                  26	32.60
4:42:                  56	32.60
4:43:                  26	32.60
4:43:                  56	32.60
4:44:                  26	32.59
4:44:                  56	32.60
4:45:                  26	32.60
4:45:                  56	32.60
4:46:                  26	32.60
4:46:                  56	32.60
4:47:                  26	32.60
4:47:                  56	32.60
4:48:                  26	32.61
4:48:                  57	32.61
4:49:                  27	32.63
4:49:                  57	32.61
4:50:                  27	32.61
4:50:                  57	32.60
4:51:                  27	32.61
4:51:                  57	32.61
4:52:                  27	32.61
4:52:                  57	32.61
4:53:                  27	32.60
4:53:                  57	32.62
4:54:                  27	32.62
4:54:                  57	32.61
4:55:                  27	32.60
4:55:                  57	32.60
4:56:                  27	32.61
4:56:                  57	32.61
4:57:                  27	32.60
4:57:                  57	32.61
4:58:                  27	32.61
4:58:                  57	32.61
4:59:                  27	32.59
4:59:                  57	32.60
5:00:                  27	32.59
5:00:                  57	32.60
5:01:                  27	32.61
5:01:                  57	32.61
5:02:                  27	32.61
5:02:                  57	32.60
5:03:                  27	32.60
5:03:                  57	32.61
5:04:                  27	32.61
5:04:                  57	32.62
5:05:                  27	32.62
5:05:                  57	32.62
5:06:                  27	32.61
5:06:                  57	32.63
5:07:                  27	32.62
5:07:                  57	32.63
5:08:                  27	32.61
5:08:                  57	32.62
5:09:                  27	32.62
5:09:                  57	32.64
5:10:                  27	32.64
5:10:                  58	32.64
5:11:                  28	32.64
5:11:                  58	32.64
5:12:                  28	32.64
5:12:                  58	32.64
5:13:                  28	32.64
5:13:                  58	32.64
5:14:                  28	32.65
5:14:                  58	32.65
5:15:                  28	32.66
5:15:                  58	32.66
5:16:                  28	32.66
5:16:                  58	32.66
5:17:                  28	32.66
5:17:                  58	32.65
5:18:                  28	32.66
5:18:                  58	32.65
5:19:                  28	32.65
5:19:                  58	32.65
5:20:                  28	32.65
5:20:                  58	32.64
5:21:                  28	32.65
5:21:                  58	32.65
5:22:                  28	32.65
5:22:                  58	32.64
5:23:                  28	32.64
5:23:                  58	32.61
5:24:                  28	32.61
5:24:                  58	32.60
5:25:                  28	32.61
5:25:                  58	32.60
5:26:                  28	32.59
5:26:                  58	32.59
5:27:                  28	32.59
5:27:                  58	32.58
5:28:                  28	32.59
5:28:                  58	32.59
5:29:                  28	32.60
5:29:                  58	32.59
5:30:                  29	32.59
5:30:                  59	32.58
5:31:                  29	32.58
5:31:                  59	32.58
5:32:                  29	32.58
5:32:                  59	32.57
5:33:                  29	32.57
5:33:                  59	32.58
5:34:                  29	32.58
5:34:                  59	32.58
5:35:                  29	32.59
5:35:                  59	32.58
5:36:                  29	32.59
5:36:                  59	32.59
5:37:                  29	32.57
5:37:                  59	32.57
5:38:                  29	32.58
5:38:                  59	32.58
5:39:                  29	32.57
5:39:                  59	32.58
5:40:                  29	32.58
5:40:                  59	32.59
5:41:                  29	32.58
5:41:                  59	32.58
5:42:                  29	32.59
5:42:                  59	32.58
5:43:                  29	32.58
5:43:                  59	32.59
5:44:                  29	32.60
5:44:                  59	32.59
5:45:                  29	32.59
5:45:                  59	32.59
5:46:                  29	32.58
5:47:                   0	32.59
5:47:                  30	32.59
5:48:                   0	32.59
5:48:                  30	32.59
5:49:                   0	32.59
5:49:                  30	32.59
5:50:                   0	32.60
5:50:                  30	32.59
5:51:                   0	32.60
5:51:                  30	32.60
5:52:                   0	32.61
5:52:                  30	32.61
5:53:                   0	32.59
5:53:                  30	32.59
5:54:                   0	32.60
5:54:                  30	32.60
5:55:                   0	32.58
5:55:                  30	32.60
5:56:                   0	32.59
5:56:                  30	32.58
5:57:                   0	32.60
5:57:                  30	32.58
5:58:                   0	32.59
5:58:                  30	32.60
5:59:                   0	32.60
5:59:                  30	32.61
6:00:                   0	32.60
6:00:                  30	32.60
6:01:                   0	32.59
6:01:                  30	32.61
6:02:                   0	32.60
6:02:                  30	32.60
6:03:                   0	32.61
6:03:                  30	32.60
6:04:                   1	32.61
6:04:                  31	32.61
6:05:                   1	32.61
6:05:                  31	32.62
6:06:                   1	32.61
6:06:                  31	32.63
6:07:                   1	32.61
6:07:                  31	32.61
6:08:                   1	32.62
6:08:                  31	32.63
6:09:                   1	32.64
6:09:                  31	32.63
6:10:                   1	32.63
6:10:                  31	32.63
6:11:                   1	32.63
6:11:                  31	32.64
6:12:                   1	32.63
6:12:                  31	32.63
6:13:                   1	32.62
6:13:                  31	32.63
6:14:                   1	32.64
6:14:                  31	32.64
6:15:                   1	32.62
6:15:                  31	32.63
6:16:                   1	32.63
6:16:                  31	32.63
6:17:                   1	32.62
6:17:                  31	32.61
6:18:                   1	32.62
6:18:                  31	32.62
6:19:                   1	32.61
6:19:                  31	32.60
6:20:                   1	32.60
6:20:                  32	32.61
6:21:                   2	32.60
6:21:                  32	32.61
6:22:                   2	32.60
6:22:                  32	32.60
6:23:                   2	32.60
6:23:                  32	32.61
6:24:                   2	32.62
6:24:                  32	32.61
6:25:                   2	32.61
6:25:                  32	32.61
6:26:                   2	32.60
6:26:                  32	32.61
6:27:                   2	32.59
6:27:                  32	32.60
6:28:                   2	32.59
6:28:                  32	32.59
6:29:                   2	32.60
6:29:                  32	32.59
6:30:                   2	32.59
6:30:                  32	32.59
6:31:                   2	32.59
6:31:                  32	32.60
6:32:                   2	32.62
6:32:                  32	32.63
6:33:                   2	32.62
6:33:                  32	32.62
6:34:                   2	32.62
6:34:                  32	32.62
6:35:                   2	32.64
6:35:                  32	32.64
6:36:                   2	32.63
6:36:                  32	32.61
6:37:                   2	32.60
6:37:                  32	32.60
6:38:                   2	32.61
6:38:                  33	32.61
6:39:                   3	32.63
6:39:                  33	32.63
6:40:                   3	32.62
6:40:                  33	32.62
6:41:                   3	32.62
6:41:                  33	32.62
6:42:                   3	32.62
6:42:                  33	32.61
6:43:                   3	32.62
6:43:                  33	32.60
6:44:                   3	32.64
6:44:                  33	32.64
6:45:                   3	32.65
6:45:                  33	32.66
6:46:                   3	32.66
6:46:                  33	32.66
6:47:                   3	32.66
6:47:                  33	32.67
6:48:                   3	32.66
6:48:                  33	32.65
6:49:                   3	32.66
6:49:                  33	32.65
6:50:                   3	32.66
6:50:                  33	32.65
6:51:                   3	32.65
6:51:                  33	32.66
6:52:                   3	32.66
6:52:                  33	32.65
6:53:                   3	32.66
6:53:                  33	32.66
6:54:                   3	32.67
6:54:                  33	32.66
6:55:                   3	32.65
6:55:                  33	32.65
6:56:                   3	32.64
6:56:                  33	32.64
6:57:                   4	32.64
6:57:                  34	32.65
6:58:                   4	32.64
6:58:                  34	32.64
6:59:                   4	32.64
6:59:                  34	32.64
7:00:                   4	32.64
7:00:                  34	32.64
7:01:                   4	32.62
7:01:                  34	32.61
7:02:                   4	32.64
7:02:                  34	32.64
7:03:                   4	32.63
7:03:                  34	32.63
7:04:                   4	32.62
7:04:                  34	32.62
7:05:                   4	32.62
7:05:                  34	32.63
7:06:                   4	32.62
7:06:                  34	32.63
7:07:                   4	32.63
7:07:                  34	32.64
7:08:                   4	32.64
7:08:                  34	32.64
7:09:                   4	32.63
7:09:                  34	32.64
7:10:                   4	32.65
7:10:                  34	32.64
7:11:                   4	32.64
7:11:                  34	32.65
7:12:                   4	32.65
7:12:                  34	32.66
7:13:                   4	32.66
7:13:                  34	32.65
7:14:                   4	32.63
7:14:                  34	32.64
7:15:                   5	32.64
7:15:                  35	32.65
7:16:                   5	32.64
7:16:                  35	32.64
7:17:                   5	32.64
7:17:                  35	32.63
7:18:                   5	32.63
7:18:                  35	32.61
7:19:                   5	32.62
7:19:                  35	32.61
7:20:                   5	32.60
7:20:                  35	32.59
7:21:                   5	32.59
7:21:                  35	32.59
7:22:                   5	32.60
7:22:                  35	32.60
7:23:                   5	32.59
7:23:                  35	32.59
7:24:                   5	32.59
7:24:                  35	32.59
7:25:                   5	32.58
7:25:                  35	32.59
7:26:                   5	32.60
7:26:                  35	32.61
7:27:                   5	32.60
7:27:                  35	32.60
7:28:                   5	32.58
7:28:                  35	32.58
7:29:                   5	32.60
7:29:                  35	32.59
7:30:                   5	32.59
7:30:                  35	32.59
7:31:                   5	32.59
7:31:                  35	32.61
7:32:                   5	32.64
7:32:                  35	32.65
7:33:                   5	32.65
7:33:                  36	32.65
7:34:                   6	32.65
7:34:                  36	32.67
7:35:                   6	32.67
7:35:                  36	32.67
7:36:                   6	32.66
7:36:                  36	32.66
7:37:                   6	32.68
7:37:                  36	32.66
7:38:                   6	32.66
7:38:                  36	32.65
7:39:                   6	32.65
7:39:                  36	32.66
7:40:                   6	32.66
7:40:                  36	32.65
7:41:                   6	32.66
7:41:                  36	32.65
7:42:                   6	32.66
7:42:                  36	32.64
7:43:                   6	32.65
7:43:                  36	32.65
7:44:                   6	32.65
7:44:                  36	32.65
7:45:                   6	32.65
7:45:                  36	32.65
7:46:                   6	32.66
7:46:                  36	32.66
7:47:                   6	32.65
7:47:                  36	32.66
7:48:                   6	32.65
7:48:                  36	32.65
7:49:                   6	32.63
7:49:                  36	32.62
7:50:                   7	32.63
7:50:                  37	32.63
7:51:                   7	32.64
7:51:                  37	32.63
7:52:                   7	32.62
7:52:                  37	32.61
7:53:                   7	32.60
7:53:                  37	32.60
7:54:                   7	32.61
7:54:                  37	32.61
7:55:                   7	32.61
7:55:                  37	32.60
7:56:                   7	32.59
7:56:                  37	32.59
7:57:                   7	32.60
7:57:                  37	32.60
7:58:                   7	32.60
7:58:                  37	32.59
7:59:                   7	32.60
7:59:                  37	32.60
8:00:                   7	32.59
8:00:                  37	32.58
8:01:                   7	32.59
8:01:                  37	32.59
8:02:                   7	32.59
8:02:                  37	32.60
8:03:                   7	32.60
8:03:                  37	32.60
8:04:                   7	32.59
8:04:                  37	32.60
8:05:                   7	32.60
8:05:                  37	32.60
8:06:                   7	32.60
8:06:                  38	32.60
8:07:                   8	32.60
8:07:                  38	32.60
8:08:                   8	32.60
8:08:                  38	32.57
8:09:                   8	32.57
8:09:                  38	32.58
8:10:                   8	32.57
8:10:                  38	32.59
8:11:                   8	32.57
8:11:                  38	32.59
8:12:                   8	32.58
8:12:                  38	32.58
8:13:                   8	32.58
8:13:                  38	32.57
8:14:                   8	32.56
8:14:                  38	32.57
8:15:                   8	32.55
8:15:                  38	32.55
8:16:                   8	32.55
8:16:                  38	32.55
8:17:                   8	32.57
8:17:                  38	32.57
8:18:                   8	32.56
8:18:                  38	32.56
8:19:                   8	32.56
8:19:                  38	32.56
8:20:                   8	32.56
8:20:                  38	32.55
8:21:                   8	32.57
8:21:                  38	32.57
8:22:                   8	32.58
8:22:                  38	32.57
8:23:                   8	32.57
8:23:                  39	32.57
8:24:                   9	32.57
8:24:                  39	32.57
8:25:                   9	32.56
8:25:                  39	32.57
8:26:                   9	32.57
8:26:                  39	32.57
8:27:                   9	32.57
8:27:                  39	32.56
8:28:                   9	32.56
8:28:                  39	32.55
8:29:                   9	32.55
8:29:                  39	32.54
8:30:                   9	32.54
8:30:                  39	32.53
8:31:                   9	32.53
8:31:                  39	32.53
8:32:                   9	32.54
8:32:                  39	32.54
8:33:                   9	32.54
8:33:                  39	32.56
8:34:                   9	32.55
8:34:                  39	32.56
8:35:                   9	32.55
8:35:                  39	32.56
8:36:                   9	32.56
8:36:                  39	32.54
8:37:                   9	32.53
8:37:                  39	32.53
8:38:                   9	32.52
8:38:                  39	32.52
8:39:                   9	32.52
8:39:                  39	32.50
8:40:                  10	32.51
8:40:                  40	32.52
8:41:                  10	32.52
8:41:                  40	32.50
8:42:                  10	32.49
8:42:                  40	32.49
8:43:                  10	32.48
8:43:                  40	32.49
8:44:                  10	32.47
8:44:                  40	32.49
8:45:                  10	32.49
8:45:                  40	32.48
8:46:                  10	32.48
8:46:                  40	32.49
8:47:                  10	32.49
8:47:                  40	32.48
8:48:                  10	32.47
8:48:                  40	32.47
8:49:                  10	32.47
8:49:                  40	32.47
8:50:                  10	32.47
8:50:                  40	32.46
8:51:                  10	32.46
8:51:                  40	32.46
8:52:                  10	32.46
8:52:                  40	32.47
8:53:                  10	32.48
8:53:                  40	32.48
8:54:                  10	32.47
8:54:                  40	32.48
8:55:                  10	32.48
8:55:                  40	32.47
8:56:                  10	32.46
8:56:                  41	32.46
8:57:                  11	32.46
8:57:                  41	32.47
8:58:                  11	32.47
8:58:                  41	32.48
8:59:                  11	32.48
8:59:                  41	32.47
9:00:                  11	32.46
9:00:                  41	32.47
9:01:                  11	32.46
9:01:                  41	32.46
9:02:                  11	32.47
9:02:                  41	32.47
9:03:                  11	32.46
9:03:                  41	32.46
9:04:                  11	32.47
9:04:                  41	32.46
9:05:                  11	32.46
9:05:                  41	32.47
9:06:                  11	32.49
9:06:                  41	32.49
9:07:                  11	32.49
9:07:                  41	32.48
9:08:                  11	32.48
9:08:                  41	32.47
9:09:                  11	32.47
9:09:                  41	32.47
9:10:                  11	32.46
9:10:                  41	32.46
9:11:                  11	32.46
9:11:                  41	32.47
9:12:                  11	32.48
9:12:                  41	32.46
9:13:                  11	32.45
9:13:                  42	32.45
9:14:                  12	32.45
9:14:                  42	32.44
9:15:                  12	32.45
9:15:                  42	32.44
9:16:                  12	32.44
9:16:                  42	32.46
9:17:                  12	32.47
9:17:                  42	32.46
9:18:                  12	32.46
9:18:                  42	32.46
9:19:                  12	32.46
9:19:                  42	32.46
9:20:                  12	32.47
9:20:                  42	32.48
9:21:                  12	32.48
9:21:                  42	32.48
9:22:                  12	32.48
9:22:                  42	32.48
9:23:                  12	32.47
9:23:                  42	32.46
9:24:                  12	32.46
9:24:                  42	32.47
9:25:                  12	32.48
9:25:                  42	32.48
9:26:                  12	32.48
9:26:                  42	32.45
9:27:                  12	32.46
9:27:                  42	32.48
9:28:                  12	32.47
9:28:                  42	32.46
9:29:                  12	32.47
9:29:                  42	32.47
9:30:                  13	32.47
9:30:                  43	32.46
9:31:                  13	32.46
9:31:                  43	32.48
9:32:                  13	32.48
9:32:                  43	32.49
9:33:                  13	32.49
9:33:                  43	32.49
9:34:                  13	32.49
9:34:                  43	32.47
9:35:                  13	32.47
9:35:                  43	32.49
9:36:                  13	32.50
9:36:                  43	32.49
9:37:                  13	32.50
9:37:                  43	32.49
9:38:                  13	32.49
9:38:                  43	32.48
9:39:                  13	32.48
9:39:                  43	32.48
9:40:                  13	32.47
9:40:                  43	32.48
9:41:                  13	32.49
9:41:                  43	32.49
9:42:                  13	32.50
9:42:                  43	32.48
9:43:                  13	32.49
9:43:                  43	32.48
9:44:                  13	32.46
9:44:                  43	32.47
9:45:                  13	32.47
9:45:                  43	32.48
9:46:                  13	32.49
9:46:                  44	32.49
9:47:                  14	32.48
9:47:                  44	32.47
9:48:                  14	32.47
9:48:                  44	32.49
9:49:                  14	32.48
9:49:                  44	32.48
9:50:                  14	32.47
9:50:                  44	32.47
9:51:                  14	32.49
9:51:                  44	32.49
9:52:                  14	32.48
9:52:                  44	32.47
9:53:                  14	32.47
9:53:                  44	32.47
9:54:                  14	32.47
9:54:                  44	32.49
9:55:                  14	32.49
9:55:                  44	32.48
9:56:                  14	32.51
9:56:                  44	32.50
9:57:                  14	32.50
9:57:                  44	32.51
9:58:                  14	32.49
9:58:                  44	32.50
9:59:                  14	32.51
9:59:                  44	32.52
10:00:                  14	32.52
10:00:                  44	32.53
10:01:                  14	32.53
10:01:                  44	32.51
10:02:                  14	32.51
10:02:                  44	32.52
10:03:                  15	32.52
10:03:                  45	32.51
10:04:                  15	32.52
10:04:                  45	32.52
10:05:                  15	32.49
10:05:                  45	32.48
10:06:                  15	32.49
10:06:                  45	32.50
10:07:                  15	32.52
10:07:                  45	32.52
10:08:                  15	32.53
10:08:                  45	32.52
10:09:                  15	32.52
10:09:                  45	32.52
10:10:                  15	32.53
10:10:                  45	32.52
10:11:                  15	32.51
10:11:                  45	32.53
10:12:                  15	32.55
10:12:                  45	32.55
10:13:                  15	32.54
10:13:                  45	32.55
10:14:                  15	32.55
10:14:                  45	32.54
10:15:                  15	32.56
10:15:                  45	32.54
10:16:                  15	32.54
10:16:                  45	32.54
10:17:                  15	32.57
10:17:                  45	32.57
10:18:                  15	32.57
10:18:                  45	32.57
10:19:                  15	32.57
10:19:                  46	32.57
10:20:                  16	32.56
10:20:                  46	32.57
10:21:                  16	32.58
10:21:                  46	32.58
10:22:                  16	32.57
10:22:                  46	32.57
10:23:                  16	32.58
10:23:                  46	32.59
10:24:                  16	32.60
10:24:                  46	32.61
10:25:                  16	32.62
10:25:                  46	32.64
10:26:                  16	32.65
10:26:                  46	32.65
10:27:                  16	32.63
10:27:                  46	32.64
10:28:                  16	32.64
10:28:                  46	32.64
10:29:                  16	32.65
10:29:                  46	32.64
10:30:                  16	32.62
10:30:                  46	32.62
10:31:                  16	32.62
10:31:                  46	32.64
10:32:                  16	32.64
10:32:                  46	32.65
10:33:                  16	32.65
10:33:                  46	32.64
10:34:                  16	32.65
10:34:                  46	32.64
10:35:                  16	32.64
10:35:                  46	32.65
10:36:                  17	32.64
10:36:                  47	32.64
10:37:                  17	32.62
10:37:                  47	32.64
10:38:                  17	32.66
10:38:                  47	32.72
10:39:                  17	32.78
10:39:                  47	32.85
10:40:                  17	32.88
10:40:                  47	32.92
10:41:                  17	32.97
10:41:                  47	32.97
10:42:                  17	32.93
10:42:                  47	32.92
10:43:                  17	32.93
10:43:                  47	32.95
10:44:                  17	32.95
10:44:                  47	32.95
10:45:                  17	32.96
10:45:                  47	32.96
10:46:                  17	32.96
10:46:                  47	32.98
10:47:                  17	32.98
10:47:                  47	32.98
10:48:                  17	33.00
10:48:                  47	33.00
10:49:                  17	33.01
10:49:                  47	33.01
10:50:                  17	33.01
10:50:                  47	33.03
10:51:                  17	33.05
10:51:                  47	33.07
10:52:                  17	33.09
10:52:                  48	33.10
10:53:                  18	33.12
10:53:                  48	33.13
10:54:                  18	33.15
10:54:                  48	33.17
10:55:                  18	33.18
10:55:                  48	33.19
10:56:                  18	33.19
10:56:                  48	33.21
10:57:                  18	33.22
10:57:                  48	33.23
10:58:                  18	33.27
10:58:                  48	33.30
10:59:                  18	33.33
10:59:                  48	33.35
11:00:                  18	33.35
11:00:                  48	33.35
11:01:                  18	33.35
11:01:                  48	33.34
11:02:                  18	33.35
11:02:                  48	33.37
11:03:                  18	33.40
11:03:                  48	33.43
11:04:                  18	33.44
11:04:                  48	33.47
11:05:                  18	33.47
11:05:                  48	33.48
11:06:                  18	33.51
11:06:                  48	33.51
11:07:                  18	33.51
11:07:                  48	33.52
11:08:                  18	33.53
11:08:                  48	33.53
11:09:                  19	33.52
11:09:                  49	33.54
11:10:                  19	33.54
11:10:                  49	33.54
11:11:                  19	33.56
11:11:                  49	33.58
11:12:                  19	33.59
11:12:                  49	33.61
11:13:                  19	33.62
11:13:                  49	33.62
11:14:                  19	33.63
11:14:                  49	33.66
11:15:                  19	33.66
11:15:                  49	33.68
11:16:                  19	33.71
11:16:                  49	33.73
11:17:                  19	33.71
11:17:                  49	33.71
11:18:                  19	33.72
11:18:                  49	33.73
11:19:                  19	33.75
11:19:                  49	33.76
11:20:                  19	33.76
11:20:                  49	33.77
11:21:                  19	33.78
11:21:                  49	33.79
11:22:                  19	33.80
11:22:                  49	33.81
11:23:                  19	33.81
11:23:                  49	33.82
11:24:                  19	33.80
11:24:                  49	33.77
11:25:                  19	33.80
11:25:                  49	33.82
11:26:                  19	33.82
11:26:                  49	33.83
11:27:                  19	33.85
11:27:                  49	33.86
11:28:                  20	33.86
11:28:                  50	33.86
11:29:                  20	33.87
11:29:                  50	33.87
11:30:                  20	33.86
11:30:                  50	33.86
11:31:                  20	33.86
11:31:                  50	33.87
11:32:                  20	33.90
11:32:                  50	33.88
11:33:                  20	33.92
11:33:                  50	33.92
11:34:                  20	33.89
11:34:                  50	33.89
11:35:                  20	33.89
11:35:                  50	33.89
11:36:                  20	33.90
11:36:                  50	33.90
11:37:                  20	33.87
11:37:                  50	33.87
11:38:                  20	33.89
11:38:                  50	33.90
11:39:                  20	33.92
11:39:                  50	33.94
11:40:                  20	33.95
11:40:                  50	33.97
11:41:                  20	33.99
11:41:                  50	33.98
11:42:                  20	33.96
11:42:                  50	33.96
11:43:                  20	33.97
11:43:                  50	33.97
11:44:                  20	33.98
11:44:                  50	34.00
11:45:                  20	34.03
11:45:                  50	34.05
11:46:                  20	34.04
11:46:                  50	34.05
11:47:                  20	34.05
11:47:                  50	34.07
11:48:                  20	34.09
11:48:                  50	34.09
11:49:                  20	34.09
11:49:                  50	34.12
11:50:                  20	34.11
11:50:                  50	34.11
11:51:                  21	34.12
11:51:                  51	34.13
11:52:                  21	34.15
11:52:                  51	34.16
11:53:                  21	34.15
11:53:                  51	34.14
11:54:                  21	34.12
11:54:                  51	34.11
11:55:                  21	34.11
11:55:                  51	34.12
11:56:                  21	34.13
11:56:                  51	34.14
11:57:                  21	34.14
11:57:                  51	34.15
11:58:                  21	34.15
11:58:                  51	34.16
11:59:                  21	34.17
11:59:                  51	34.18
12:00:                  21	34.19
12:00:                  51	34.19
12:01:                  21	34.19
12:01:                  51	34.19
12:02:                  21	34.18
12:02:                  51	34.19
12:03:                  21	34.19
12:03:                  51	34.17
12:04:                  21	34.18
12:04:                  51	34.18
12:05:                  21	34.18
12:05:                  51	34.17
12:06:                  21	34.17
12:06:                  51	34.18
12:07:                  21	34.15
12:07:                  52	34.17
12:08:                  22	34.17
12:08:                  52	34.20
12:09:                  22	34.20
12:09:                  52	34.22
12:10:                  22	34.21
12:10:                  52	34.22
12:11:                  22	34.23
12:11:                  52	34.23
12:12:                  22	34.23
12:12:                  52	34.23
12:13:                  22	34.24
12:13:                  52	34.23
12:14:                  22	34.24
12:14:                  52	34.23
12:15:                  22	34.24
12:15:                  52	34.23
12:16:                  22	34.23
12:16:                  52	34.22
12:17:                  22	34.24
12:17:                  52	34.24
12:18:                  22	34.25
12:18:                  52	34.25
12:19:                  22	34.24
12:19:                  52	34.24
12:20:                  22	34.25
12:20:                  52	34.24
12:21:                  22	34.24
12:21:                  52	34.24
12:22:                  22	34.24
12:22:                  52	34.23
12:23:                  22	34.23
12:23:                  52	34.23
12:24:                  22	34.24
12:24:                  52	34.24
12:25:                  22	34.24
12:25:                  52	34.25
12:26:                  22	34.27
12:26:                  53	34.25
12:27:                  23	34.23
12:27:                  53	34.22
12:28:                  23	34.24
12:28:                  53	34.28
12:29:                  23	34.30
12:29:                  53	34.30
12:30:                  23	34.29
12:30:                  53	34.29
12:31:                  23	34.26
12:31:                  53	34.26
12:32:                  23	34.26
12:32:                  53	34.25
12:33:                  23	34.25
12:33:                  53	34.25
12:34:                  23	34.25
12:34:                  53	34.25
12:35:                  23	34.27
12:35:                  53	34.27
12:36:                  23	34.30
12:36:                  53	34.30
12:37:                  23	34.31
12:37:                  53	34.33
12:38:                  23	34.34
12:38:                  53	34.32
12:39:                  23	34.31
12:39:                  53	34.32
12:40:                  23	34.31
12:40:                  53	34.31
12:41:                  23	34.30
12:41:                  53	34.30
12:42:                  23	34.29
12:42:                  53	34.30
12:43:                  23	34.29
12:43:                  53	34.31
12:44:                  23	34.30
12:44:                  53	34.29
12:45:                  23	34.29
12:45:                  53	34.33
12:46:                  24	34.34
12:46:                  54	34.31
12:47:                  24	34.31
12:47:                  54	34.29
12:48:                  24	34.28
12:48:                  54	34.29
12:49:                  24	34.29
12:49:                  54	34.29
12:50:                  24	34.26
12:50:                  54	34.25
12:51:                  24	34.24
12:51:                  54	34.26
12:52:                  24	34.26
12:52:                  54	34.27
12:53:                  24	34.29
12:53:                  54	34.29
12:54:                  24	34.27
12:54:                  54	34.26
12:55:                  24	34.27
12:55:                  54	34.30
12:56:                  24	34.29
12:56:                  54	34.30
12:57:                  24	34.29
12:57:                  54	34.33
12:58:                  24	34.31
12:58:                  54	34.33
12:59:                  24	34.33
12:59:                  54	34.33
13:00:                  24	34.33
13:00:                  54	34.31
13:01:                  24	34.34
13:01:                  54	34.35
13:02:                  24	34.35
13:02:                  54	34.34
13:03:                  24	34.34
13:03:                  54	34.35
13:04:                  24	34.35
13:04:                  54	34.36
13:05:                  24	34.35
13:05:                  54	34.35
13:06:                  24	34.35
13:06:                  54	34.36
13:07:                  24	34.37
13:07:                  54	34.37
13:08:                  25	34.37
13:08:                  55	34.37
13:09:                  25	34.38
13:09:                  55	34.36
13:10:                  25	34.35
13:10:                  55	34.34
13:11:                  25	34.33
13:11:                  55	34.33
13:12:                  25	34.35
13:12:                  55	34.35
13:13:                  25	34.34
13:13:                  55	34.34
13:14:                  25	34.35
13:14:                  55	34.35
13:15:                  25	34.36
13:15:                  55	34.35
13:16:                  25	34.35
13:16:                  55	34.35
13:17:                  25	34.37
13:17:                  55	34.36
13:18:                  25	34.38
13:18:                  55	34.38
13:19:                  25	34.39
13:19:                  55	34.39
13:20:                  25	34.40
13:20:                  55	34.41
13:21:                  25	34.43
13:21:                  55	34.44
13:22:                  25	34.46
13:22:                  55	34.49
13:23:                  25	34.48
13:23:                  55	34.48
13:24:                  25	34.52
13:24:                  55	34.52
13:25:                  25	34.52
13:25:                  55	34.54
13:26:                  25	34.57
13:26:                  55	34.54
13:27:                  25	34.55
13:27:                  55	34.59
13:28:                  25	34.59
13:28:                  55	34.60
13:29:                  25	34.61
13:29:                  55	34.64
13:30:                  25	34.64
13:30:                  56	34.64
13:31:                  26	34.68
13:31:                  56	34.69
13:32:                  26	34.70
13:32:                  56	34.72
13:33:                  26	34.71
13:33:                  56	34.71
13:34:                  26	34.75
13:34:                  56	34.76
13:35:                  26	34.77
13:35:                  56	34.76
13:36:                  26	34.77
13:36:                  56	34.79
13:37:                  26	34.79
13:37:                  56	34.80
13:38:                  26	34.83
13:38:                  56	34.85
13:39:                  26	34.84
13:39:                  56	34.83
13:40:                  26	34.85
13:40:                  56	34.82
13:41:                  26	34.78
13:41:                  56	34.75
13:42:                  26	34.78
13:42:                  56	34.79
13:43:                  26	34.80
13:43:                  56	34.79
13:44:                  26	34.79
13:44:                  56	34.78
13:45:                  26	34.77
13:45:                  56	34.75
13:46:                  26	34.75
13:46:                  56	34.76
13:47:                  26	34.73
13:47:                  56	34.72
13:48:                  26	34.71
13:48:                  56	34.68
13:49:                  26	34.68
13:49:                  56	34.66
13:50:                  26	34.67
13:50:                  56	34.67
13:51:                  27	34.68
13:51:                  57	34.68
13:52:                  27	34.70
13:52:                  57	34.69
13:53:                  27	34.67
13:53:                  57	34.68
13:54:                  27	34.68
13:54:                  57	34.68
13:55:                  27	34.66
13:55:                  57	34.65
13:56:                  27	34.66
13:56:                  57	34.67
13:57:                  27	34.68
13:57:                  57	34.68
13:58:                  27	34.66
13:58:                  57	34.64
13:59:                  27	34.65
13:59:                  57	34.63
14:00:                  27	34.63
14:00:                  57	34.62
14:01:                  27	34.63
14:01:                  57	34.64
14:02:                  27	34.62
14:02:                  57	34.63
14:03:                  27	34.64
14:03:                  57	34.63
14:04:                  27	34.63
14:04:                  57	34.63
14:05:                  27	34.64
14:05:                  57	34.64
14:06:                  27	34.62
14:06:                  57	34.64
14:07:                  27	34.64
14:07:                  57	34.67
14:08:                  27	34.67
14:08:                  57	34.67
14:09:                  27	34.66
14:09:                  57	34.66
14:10:                  27	34.64
14:10:                  57	34.63
14:11:                  27	34.64
14:11:                  57	34.63
14:12:                  27	34.62
14:12:                  57	34.60
14:13:                  27	34.59
14:13:                  57	34.55
14:14:                  27	34.54
14:14:                  57	34.55
14:15:                  27	34.57
14:15:                  57	34.58
14:16:                  27	34.57
14:16:                  57	34.56
14:17:                  27	34.58
14:17:                  57	34.58
14:18:                  27	34.58
14:18:                  58	34.57
14:19:                  28	34.57
14:19:                  58	34.59
14:20:                  28	34.62
14:20:                  58	34.63
14:21:                  28	34.62
14:21:                  58	34.60
14:22:                  28	34.61
14:22:                  58	34.60
14:23:                  28	34.61
14:23:                  58	34.60
14:24:                  28	34.55
14:24:                  58	34.55
14:25:                  28	34.57
14:25:                  58	34.59
14:26:                  28	34.58
14:26:                  58	34.54
14:27:                  28	34.55
14:27:                  58	34.54
14:28:                  28	34.52
14:28:                  58	34.48
14:29:                  28	34.46
14:29:                  58	34.45
14:30:                  28	34.44
14:30:                  58	34.42
14:31:                  28	34.39
14:31:                  58	34.38
14:32:                  28	34.35
14:32:                  58	34.33
14:33:                  28	34.30
14:33:                  58	34.28
14:34:                  28	34.26
14:34:                  58	34.23
14:35:                  28	34.21
14:35:                  58	34.18
14:36:                  28	34.17
14:36:                  58	34.14
14:37:                  28	34.12
14:37:                  58	34.11
14:38:                  29	34.08
14:38:                  59	34.06
14:39:                  29	34.04
14:39:                  59	34.01
14:40:                  29	34.00
14:40:                  59	33.98
14:41:                  29	33.95
14:41:                  59	33.94
14:42:                  29	33.93
14:42:                  59	33.90
14:43:                  29	33.90
14:43:                  59	33.86
14:44:                  29	33.83
14:44:                  59	33.81
14:45:                  29	33.80
14:45:                  59	33.79
14:46:                  29	33.75
14:46:                  59	33.75
14:47:                  29	33.73
14:47:                  59	33.70
14:48:                  29	33.68
14:48:                  59	33.67
14:49:                  29	33.65
14:49:                  59	33.63
14:50:                  29	33.61
14:50:                  59	33.61
14:51:                  29	33.58
14:51:                  59	33.57
14:52:                  29	33.56
14:52:                  59	33.56
14:53:                  29	33.55
14:53:                  59	33.53
14:54:                  29	33.52
14:54:                  59	33.49
14:55:                  29	33.47
14:55:                  59	33.45
14:56:                  29	33.44
14:56:                  59	33.42
14:57:                  29	33.42
14:57:                  59	33.41
14:58:                  30	33.37
14:59:                   0	33.38
14:59:                  30	33.35
15:00:                   0	33.35
15:00:                  30	33.34
15:01:                   0	33.33
15:01:                  30	33.34
15:02:                   0	33.33
15:02:                  30	33.33
15:03:                   0	33.32
15:03:                  30	33.31
15:04:                   0	33.29
15:04:                  30	33.30
15:05:                   0	33.28
15:05:                  30	33.28
15:06:                   0	33.25
15:06:                  30	33.24
15:07:                   0	33.24
15:07:                  30	33.23
15:08:                   0	33.22
15:08:                  30	33.22
15:09:                   0	33.22
15:09:                  30	33.21
15:10:                   0	33.20
15:10:                  30	33.20
15:11:                   0	33.17
15:11:                  30	33.17
15:12:                   0	33.16
15:12:                  30	33.14
15:13:                   0	33.15
15:13:                  30	33.13
15:14:                   0	33.13
15:14:                  30	33.13
15:15:                   1	33.13
15:15:                  31	33.13
15:16:                   1	33.12
15:16:                  31	33.10
15:17:                   1	33.09
15:17:                  31	33.07
15:18:                   1	33.07
15:18:                  31	33.08
15:19:                   1	33.06
15:19:                  31	33.05
15:20:                   1	33.06
15:20:                  31	33.04
15:21:                   1	33.03
15:21:                  31	33.03
15:22:                   1	33.01
15:22:                  31	33.01
15:23:                   1	33.02
15:23:                  31	33.00
15:24:                   1	33.00
15:24:                  31	33.00
15:25:                   1	32.99
15:25:                  31	32.99
15:26:                   1	32.98
15:26:                  31	32.97
15:27:                   1	32.95
15:27:                  31	32.95
15:28:                   1	32.94
15:28:                  31	32.94
15:29:                   1	32.94
15:29:                  31	32.93
15:30:                   1	32.93
15:30:                  31	32.92
15:31:                   1	32.92
15:31:                  31	32.90
15:32:                   1	32.90
15:32:                  31	32.89
15:33:                   1	32.89
15:33:                  31	32.90
15:34:                   1	32.89
15:34:                  31	32.89
15:35:                   2	32.88
15:35:                  32	32.89
15:36:                   2	32.89
15:36:                  32	32.89
15:37:                   2	32.89
15:37:                  32	32.87
15:38:                   2	32.86
15:38:                  32	32.86
15:39:                   2	32.86
15:39:                  32	32.86
15:40:                   2	32.86
15:40:                  32	32.84
15:41:                   2	32.84
15:41:                  32	32.83
15:42:                   2	32.83
15:42:                  32	32.82
15:43:                   2	32.83
15:43:                  32	32.82
15:44:                   2	32.83
15:44:                  32	32.84
15:45:                   2	32.84
15:45:                  32	32.84
15:46:                   2	32.83
15:46:                  32	32.83
15:47:                   2	32.84
15:47:                  32	32.85
15:48:                   2	32.86
15:48:                  32	32.87
15:49:                   2	32.87
15:49:                  32	32.89
15:50:                   2	32.88
15:50:                  32	32.88
15:51:                   2	32.88
15:51:                  32	32.87
15:52:                   2	32.87
15:52:                  32	32.86
15:53:                   2	32.86
15:53:                  32	32.86
15:54:                   2	32.87
15:54:                  32	32.86
15:55:                   2	32.85
15:55:                  32	32.84
15:56:                   2	32.83
15:56:                  32	32.83
15:57:                   2	32.83
15:57:                  32	32.83
15:58:                   2	32.82
15:58:                  32	32.82
15:59:                   2	32.81
15:59:                  32	32.80
16:00:                   3	32.80
16:00:                  33	32.80
16:01:                   3	32.80
16:01:                  33	32.80
16:02:                   3	32.78
16:02:                  33	32.78
16:03:                   3	32.78
16:03:                  33	32.79
16:04:                   3	32.78
16:04:                  33	32.77
16:05:                   3	32.77
16:05:                  33	32.77
16:06:                   3	32.75
16:06:                  33	32.75
16:07:                   3	32.75
16:07:                  33	32.74
16:08:                   3	32.74
16:08:                  33	32.73
16:09:                   3	32.73
16:09:                  33	32.74
16:10:                   3	32.73
16:10:                  33	32.73
16:11:                   3	32.74
16:11:                  33	32.72
16:12:                   3	32.72
16:12:                  33	32.70
16:13:                   3	32.70
16:13:                  33	32.70
16:14:                   3	32.71
16:14:                  33	32.72
16:15:                   3	32.72
16:15:                  33	32.69
16:16:                   3	32.69
16:16:                  33	32.70
16:17:                   3	32.70
16:17:                  33	32.70
16:18:                   3	32.71
16:18:                  33	32.71
16:19:                   4	32.70
16:19:                  34	32.69
16:20:                   4	32.70
16:20:                  34	32.68
16:21:                   4	32.68
16:21:                  34	32.69
16:22:                   4	32.68
16:22:                  34	32.68
16:23:                   4	32.68
16:23:                  34	32.68
16:24:                   4	32.66
16:24:                  34	32.66
16:25:                   4	32.67
16:25:                  34	32.65
16:26:                   4	32.66
16:26:                  34	32.65
16:27:                   4	32.65
16:27:                  34	32.65
16:28:                   4	32.64
16:28:                  34	32.63
16:29:                   4	32.65
16:29:                  34	32.64
16:30:                   4	32.63
16:30:                  34	32.61
16:31:                   4	32.62
16:31:                  34	32.61
16:32:                   4	32.60
16:32:                  34	32.60
16:33:                   4	32.61
16:33:                  34	32.60
16:34:                   4	32.60
16:34:                  34	32.60
16:35:                   4	32.59
16:35:                  34	32.59
16:36:                   4	32.58
16:36:                  34	32.58
16:37:                   4	32.58
16:37:                  34	32.58
16:38:                   4	32.59
16:38:                  35	32.58
16:39:                   5	32.57
16:39:                  35	32.57
16:40:                   5	32.57
16:40:                  35	32.56
16:41:                   5	32.57
16:41:                  35	32.56
16:42:                   5	32.55
16:42:                  35	32.55
16:43:                   5	32.55
16:43:                  35	32.55
16:44:                   5	32.54
16:44:                  35	32.54
16:45:                   5	32.54
16:45:                  35	32.53
16:46:                   5	32.54
16:46:                  35	32.53
16:47:                   5	32.53
16:47:                  35	32.53
16:48:                   5	32.54
16:48:                  35	32.53
16:49:                   5	32.54
16:49:                  35	32.53
16:50:                   5	32.52
16:50:                  35	32.51
16:51:                   5	32.51
16:51:                  35	32.51
16:52:                   5	32.50
16:52:                  35	32.50
16:53:                   5	32.49
16:53:                  35	32.50
16:54:                   5	32.50
16:54:                  35	32.50
16:55:                   5	32.48
16:55:                  35	32.48
16:56:                   5	32.47
16:56:                  35	32.46
16:57:                   5	32.47
16:57:                  36	32.46
16:58:                   6	32.46
16:58:                  36	32.45
16:59:                   6	32.46
16:59:                  36	32.45
17:00:                   6	32.46
17:00:                  36	32.45
17:01:                   6	32.45
17:01:                  36	32.44
17:02:                   6	32.45
17:02:                  36	32.45
17:03:                   6	32.45
17:03:                  36	32.43
17:04:                   6	32.42
17:04:                  36	32.42
17:05:                   6	32.42
17:05:                  36	32.44
17:06:                   6	32.42
17:06:                  36	32.42
17:07:                   6	32.40
17:07:                  36	32.40
17:08:                   6	32.40
17:08:                  36	32.40
17:09:                   6	32.39
17:09:                  36	32.40
17:10:                   6	32.40
17:10:                  36	32.40
17:11:                   6	32.40
17:11:                  36	32.39
17:12:                   6	32.40
17:12:                  36	32.39
17:13:                   6	32.39
17:13:                  36	32.38
17:14:                   6	32.38
17:14:                  36	32.38
17:15:                   6	32.39
17:15:                  36	32.39
17:16:                   6	32.38
17:16:                  36	32.38
17:17:                   6	32.37
17:17:                  36	32.37
17:18:                   6	32.37
17:18:                  36	32.38
17:19:                   6	32.37
17:19:                  37	32.37
17:20:                   7	32.37
17:20:                  37	32.37
17:21:                   7	32.36
17:21:                  37	32.37
17:22:                   7	32.38
17:22:                  37	32.38
17:23:                   7	32.38
17:23:                  37	32.37
17:24:                   7	32.36
17:24:                  37	32.37
17:25:                   7	32.36
17:25:                  37	32.36
17:26:                   7	32.35
17:26:                  37	32.35
17:27:                   7	32.35
17:27:                  37	32.35
17:28:                   7	32.34
17:28:                  37	32.35
17:29:                   7	32.34
17:29:                  37	32.34
17:30:                   7	32.33
17:30:                  37	32.33
17:31:                   7	32.33
17:31:                  37	32.34
17:32:                   7	32.34
17:32:                  37	32.33
17:33:                   7	32.33
17:33:                  37	32.33
17:34:                   7	32.33
17:34:                  37	32.32
17:35:                   7	32.31
17:35:                  37	32.32
17:36:                   7	32.31
17:36:                  37	32.32
17:37:                   7	32.32
17:37:                  37	32.32
17:38:                   7	32.31
17:38:                  38	32.31
17:39:                   8	32.31
17:39:                  38	32.31
17:40:                   8	32.31
17:40:                  38	32.29
17:41:                   8	32.30
17:41:                  38	32.30
17:42:                   8	32.30
17:42:                  38	32.31
17:43:                   8	32.31
17:43:                  38	32.30
17:44:                   8	32.29
17:44:                  38	32.30
17:45:                   8	32.30
17:45:                  38	32.29
17:46:                   8	32.28
17:46:                  38	32.28
17:47:                   8	32.28
17:47:                  38	32.28
17:48:                   8	32.28
17:48:                  38	32.28
17:49:                   8	32.28
17:49:                  38	32.28
17:50:                   8	32.27
17:50:                  38	32.27
17:51:                   8	32.27
17:51:                  38	32.27
17:52:                   8	32.28
17:52:                  38	32.28
17:53:                   8	32.27
17:53:                  38	32.27
17:54:                   8	32.28
17:54:                  38	32.29
17:55:                   9	32.27
17:55:                  39	32.28
17:56:                   9	32.28
17:56:                  39	32.28
17:57:                   9	32.27
17:57:                  39	32.28
17:58:                   9	32.28
17:58:                  39	32.27
17:59:                   9	32.27
17:59:                  39	32.26
18:00:                   9	32.26
18:00:                  39	32.27
18:01:                   9	32.27
18:01:                  39	32.27
18:02:                   9	32.27
18:02:                  39	32.26
18:03:                   9	32.25
18:03:                  39	32.25
18:04:                   9	32.26
18:04:                  39	32.25
18:05:                   9	32.25
18:05:                  39	32.24
18:06:                   9	32.25
18:06:                  39	32.26
18:07:                   9	32.24
18:07:                  39	32.26
18:08:                   9	32.24
18:08:                  39	32.24
18:09:                   9	32.24
18:09:                  39	32.23
18:10:                   9	32.25
18:10:                  39	32.24
18:11:                   9	32.23
18:11:                  40	32.22
18:12:                  10	32.22
18:12:                  40	32.22
18:13:                  10	32.21
18:13:                  40	32.22
18:14:                  10	32.23
18:14:                  40	32.22
18:15:                  10	32.21
18:15:                  40	32.22
18:16:                  10	32.22
18:16:                  40	32.22
18:17:                  10	32.21
18:17:                  40	32.19
18:18:                  10	32.20
18:18:                  40	32.21
18:19:                  10	32.19
18:19:                  40	32.20
18:20:                  10	32.21
18:20:                  40	32.20
18:21:                  10	32.20
18:21:                  40	32.21
18:22:                  10	32.21
18:22:                  40	32.21
18:23:                  10	32.20
18:23:                  40	32.20
18:24:                  10	32.20
18:24:                  40	32.20
18:25:                  10	32.20
18:25:                  40	32.20
18:26:                  10	32.20
18:26:                  40	32.18
18:27:                  10	32.20
18:27:                  40	32.20
18:28:                  10	32.20
18:28:                  41	32.19
18:29:                  11	32.20
18:29:                  41	32.19
18:30:                  11	32.18
18:30:                  41	32.18
18:31:                  11	32.18
18:31:                  41	32.18
18:32:                  11	32.18
18:32:                  41	32.18
18:33:                  11	32.18
18:33:                  41	32.18
18:34:                  11	32.18
18:34:                  41	32.17
18:35:                  11	32.18
18:35:                  41	32.16
18:36:                  11	32.17
18:36:                  41	32.17
18:37:                  11	32.16
18:37:                  41	32.17
18:38:                  11	32.17
18:38:                  41	32.17
18:39:                  11	32.17
18:39:                  41	32.18
18:40:                  11	32.18
18:40:                  41	32.18
18:41:                  11	32.19
18:41:                  41	32.19
18:42:                  11	32.19
18:42:                  41	32.19
18:43:                  11	32.20
18:43:                  41	32.19
18:44:                  11	32.20
18:44:                  41	32.21
18:45:                  12	32.20
18:45:                  42	32.19
18:46:                  12	32.18
18:46:                  42	32.18
18:47:                  12	32.17
18:47:                  42	32.17
18:48:                  12	32.17
18:48:                  42	32.17
18:49:                  12	32.18
18:49:                  42	32.17
18:50:                  12	32.18
18:50:                  42	32.17
18:51:                  12	32.18
18:51:                  42	32.18
18:52:                  12	32.19
18:52:                  42	32.21
18:53:                  12	32.21
18:53:                  42	32.20
18:54:                  12	32.20
18:54:                  42	32.20
18:55:                  12	32.20
18:55:                  42	32.20
18:56:                  12	32.20
18:56:                  42	32.20
18:57:                  12	32.21
18:57:                  42	32.21
18:58:                  12	32.22
18:58:                  42	32.22
18:59:                  12	32.22
18:59:                  42	32.23
19:00:                  12	32.23
19:00:                  42	32.23
19:01:                  12	32.25
19:01:                  43	32.24
19:02:                  13	32.24
19:02:                  43	32.25
19:03:                  13	32.25
19:03:                  43	32.25
19:04:                  13	32.25
19:04:                  43	32.25
19:05:                  13	32.25
19:05:                  43	32.25
19:06:                  13	32.26
19:06:                  43	32.26
19:07:                  13	32.26
19:07:                  43	32.26
19:08:                  13	32.26
19:08:                  43	32.27
19:09:                  13	32.26
19:09:                  43	32.27
19:10:                  13	32.28
19:10:                  43	32.28
19:11:                  13	32.27
19:11:                  43	32.28
19:12:                  13	32.29
19:12:                  43	32.27
19:13:                  13	32.29
19:13:                  43	32.28
19:14:                  13	32.28
19:14:                  43	32.29
19:15:                  13	32.29
19:15:                  43	32.28
19:16:                  13	32.30
19:16:                  43	32.30
19:17:                  13	32.30
19:17:                  43	32.31
19:18:                  14	32.31
19:18:                  44	32.31
19:19:                  14	32.31
19:19:                  44	32.31
19:20:                  14	32.31
19:20:                  44	32.31
19:21:                  14	32.31
19:21:                  44	32.32
19:22:                  14	32.31
19:22:                  44	32.32
19:23:                  14	32.32
19:23:                  44	32.32
19:24:                  14	32.33
19:24:                  44	32.32
19:25:                  14	32.34
19:25:                  44	32.33
19:26:                  14	32.34
19:26:                  44	32.34
19:27:                  14	32.34
19:27:                  44	32.34
19:28:                  14	32.35
19:28:                  44	32.35
19:29:                  14	32.34
19:29:                  44	32.36
19:30:                  14	32.37
19:30:                  44	32.36
19:31:                  14	32.37
19:31:                  44	32.37
19:32:                  14	32.38
19:32:                  44	32.37
19:33:                  14	32.38
19:33:                  44	32.38
19:34:                  14	32.39
19:34:                  45	32.39
19:35:                  15	32.38
19:35:                  45	32.38
19:36:                  15	32.38
19:36:                  45	32.38
19:37:                  15	32.40
19:37:                  45	32.40
19:38:                  15	32.40
19:38:                  45	32.41
19:39:                  15	32.42
19:39:                  45	32.43
19:40:                  15	32.42
19:40:                  45	32.44
19:41:                  15	32.44
19:41:                  45	32.43
19:42:                  15	32.45
19:42:                  45	32.44
19:43:                  15	32.45
19:43:                  45	32.45
19:44:                  15	32.44
19:44:                  45	32.46
19:45:                  15	32.46
19:45:                  45	32.46
19:46:                  15	32.46
19:46:                  45	32.46
19:47:                  15	32.48
19:47:                  45	32.47
19:48:                  15	32.47
19:48:                  45	32.48
19:49:                  15	32.47
19:49:                  45	32.48
19:50:                  15	32.48
19:50:                  45	32.48
19:51:                  15	32.48
19:51:                  46	32.49
19:52:                  16	32.50
19:52:                  46	32.50
19:53:                  16	32.50
19:53:                  46	32.50
19:54:                  16	32.50
19:54:                  46	32.50
19:55:                  16	32.50
19:55:                  46	32.50
19:56:                  16	32.49
19:56:                  46	32.49
19:57:                  16	32.51
19:57:                  46	32.52
19:58:                  16	32.53
19:58:                  46	32.54
19:59:                  16	32.56
19:59:                  46	32.56
20:00:                  16	32.56
20:00:                  46	32.56
20:01:                  16	32.56
20:01:                  46	32.56
20:02:                  16	32.55
20:02:                  46	32.55
20:03:                  16	32.56
20:03:                  46	32.56
20:04:                  16	32.56
20:04:                  46	32.56
20:05:                  16	32.56
20:05:                  46	32.55
20:06:                  16	32.56
20:06:                  46	32.56
20:07:                  16	32.57
20:07:                  46	32.57
20:08:                  17	32.57
20:08:                  47	32.57
20:09:                  17	32.57
20:09:                  47	32.57
20:10:                  17	32.58
20:10:                  47	32.58
20:11:                  17	32.59
20:11:                  47	32.60
20:12:                  17	32.59
20:12:                  47	32.58
20:13:                  17	32.59
20:13:                  47	32.60
20:14:                  17	32.59
20:14:                  47	32.59
20:15:                  17	32.60
20:15:                  47	32.61
20:16:                  17	32.62
20:16:                  47	32.63
20:17:                  17	32.64
20:17:                  47	32.64
20:18:                  17	32.65
20:18:                  47	32.66
20:19:                  17	32.65
20:19:                  47	32.66
20:20:                  17	32.67
20:20:                  47	32.67
20:21:                  17	32.68
20:21:                  47	32.70
20:22:                  17	32.72
20:22:                  47	32.73
20:23:                  17	32.73
20:23:                  47	32.72
20:24:                  17	32.72
20:24:                  48	32.71
20:25:                  18	32.71
20:25:                  48	32.72
20:26:                  18	32.71
20:26:                  48	32.72
20:27:                  18	32.72
20:27:                  48	32.71
20:28:                  18	32.72
20:28:                  48	32.72
20:29:                  18	32.72
20:29:                  48	32.72
20:30:                  18	32.72
20:30:                  48	32.72
20:31:                  18	32.73
20:31:                  48	32.73
20:32:                  18	32.74
20:32:                  48	32.73
20:33:                  18	32.74
20:33:                  48	32.73
20:34:                  18	32.74
20:34:                  48	32.73
20:35:                  18	32.73
20:35:                  48	32.72
20:36:                  18	32.71
20:36:                  48	32.72
20:37:                  18	32.72
20:37:                  48	32.72
20:38:                  18	32.72
20:38:                  48	32.73
20:39:                  18	32.73
20:39:                  48	32.72
20:40:                  18	32.73
20:40:                  48	32.73
20:41:                  18	32.74
20:41:                  49	32.74
20:42:                  19	32.75
20:42:                  49	32.77
20:43:                  19	32.75
20:43:                  49	32.75
20:44:                  19	32.75
20:44:                  49	32.74
20:45:                  19	32.74
20:45:                  49	32.74
20:46:                  19	32.75
20:46:                  49	32.75
20:47:                  19	32.76
20:47:                  49	32.77
20:48:                  19	32.74
20:48:                  49	32.76
20:49:                  19	32.77
20:49:                  49	32.77
20:50:                  19	32.77
20:50:                  49	32.75
20:51:                  19	32.75
20:51:                  49	32.75
20:52:                  19	32.75
20:52:                  49	32.75
20:53:                  19	32.75
20:53:                  49	32.75
20:54:                  19	32.77
20:54:                  49	32.75
20:55:                  19	32.75
20:55:                  49	32.77
20:56:                  19	32.77
20:56:                  49	32.76
20:57:                  19	32.74
20:57:                  49	32.75
20:58:                  20	32.76
20:58:                  50	32.77
20:59:                  20	32.78
20:59:                  50	32.78
21:00:                  20	32.78
21:00:                  50	32.79
21:01:                  20	32.79
21:01:                  50	32.78
21:02:                  20	32.79
21:02:                  50	32.78
21:03:                  20	32.78
21:03:                  50	32.79
21:04:                  20	32.79
21:04:                  50	32.80
21:05:                  20	32.80
21:05:                  50	32.81
21:06:                  20	32.81
21:06:                  50	32.81
21:07:                  20	32.82
21:07:                  50	32.81
21:08:                  20	32.79
21:08:                  50	32.79
21:09:                  20	32.80
21:09:                  50	32.81
21:10:                  20	32.80
21:10:                  50	32.80
21:11:                  20	32.81
21:11:                  50	32.82
21:12:                  20	32.83
21:12:                  50	32.81
21:13:                  20	32.82
21:13:                  50	32.82
21:14:                  20	32.81
21:14:                  51	32.80
21:15:                  21	32.81
21:15:                  51	32.80
21:16:                  21	32.81
21:16:                  51	32.81
21:17:                  21	32.81
21:17:                  51	32.81
21:18:                  21	32.81
21:18:                  51	32.81
21:19:                  21	32.81
21:19:                  51	32.81
21:20:                  21	32.83
21:20:                  51	32.81
21:21:                  21	32.80
21:21:                  51	32.81
21:22:                  21	32.81
21:22:                  51	32.81
21:23:                  21	32.81
21:23:                  51	32.81
21:24:                  21	32.82
21:24:                  51	32.82
21:25:                  21	32.81
21:25:                  51	32.81
21:26:                  21	32.82
21:26:                  51	32.83
21:27:                  21	32.81
21:27:                  51	32.82
21:28:                  21	32.82
21:28:                  51	32.81
21:29:                  21	32.81
21:29:                  51	32.81
21:30:                  21	32.82
21:30:                  51	32.82
21:31:                  22	32.81
21:31:                  52	32.82
21:32:                  22	32.81
21:32:                  52	32.82
21:33:                  22	32.82
21:33:                  52	32.82
21:34:                  22	32.82
21:34:                  52	32.83
21:35:                  22	32.81
21:35:                  52	32.82
21:36:                  22	32.83
21:36:                  52	32.82
21:37:                  22	32.83
21:37:                  52	32.83
21:38:                  22	32.83
21:38:                  52	32.85
21:39:                  22	32.86
21:39:                  52	32.85
21:40:                  22	32.85
21:40:                  52	32.86
21:41:                  22	32.86
21:41:                  52	32.86
21:42:                  22	32.87
21:42:                  52	32.86
21:43:                  22	32.86
21:43:                  52	32.87
21:44:                  22	32.87
21:44:                  52	32.86
21:45:                  22	32.88
21:45:                  52	32.87
21:46:                  22	32.87
21:46:                  52	32.87
21:47:                  22	32.88
21:47:                  53	32.88
21:48:                  23	32.88
21:48:                  53	32.89
21:49:                  23	32.89
21:49:                  53	32.89
21:50:                  23	32.89
21:50:                  53	32.90
21:51:                  23	32.90
21:51:                  53	32.90
21:52:                  23	32.91
21:52:                  53	32.92
21:53:                  23	32.92
21:53:                  53	32.92
21:54:                  23	32.92
21:54:                  53	32.92
21:55:                  23	32.92
21:55:                  53	32.91
21:56:                  23	32.92
21:56:                  53	32.92
21:57:                  23	32.92
21:57:                  53	32.93
21:58:                  23	32.92
21:58:                  53	32.93
21:59:                  23	32.94
21:59:                  53	32.94
22:00:                  23	32.94
22:00:                  53	32.94
22:01:                  23	32.95
22:01:                  53	32.95
22:02:                  23	32.96
22:02:                  53	32.95
22:03:                  23	32.94
22:03:                  53	32.95
22:04:                  24	32.95
22:04:                  54	32.96
22:05:                  24	32.96
22:05:                  54	32.96
22:06:                  24	32.95
22:06:                  54	32.95
22:07:                  24	32.96
22:07:                  54	32.96
22:08:                  24	32.95
22:08:                  54	32.96
22:09:                  24	32.96
22:09:                  54	32.96
22:10:                  24	32.95
22:10:                  54	32.96
22:11:                  24	32.97
22:11:                  54	32.96
22:12:                  24	32.97
22:12:                  54	32.96
22:13:                  24	32.96
22:13:                  54	32.97
22:14:                  24	32.97
22:14:                  54	32.96
22:15:                  24	32.97
22:15:                  54	32.97
22:16:                  24	32.97
22:16:                  54	32.96
22:17:                  24	32.96
22:17:                  54	32.96
22:18:                  24	32.96
22:18:                  54	32.96
22:19:                  24	32.95
22:19:                  54	32.95
22:20:                  24	32.96
22:20:                  54	32.96
22:21:                  24	32.97
22:21:                  54	32.96
22:22:                  24	32.96
22:22:                  54	32.95
22:23:                  24	32.95
22:23:                  55	32.95
22:24:                  25	32.96
22:24:                  55	32.97
22:25:                  25	32.97
22:25:                  55	32.98
22:26:                  25	32.99
22:26:                  55	32.99
22:27:                  25	32.99
22:27:                  55	32.98
22:28:                  25	33.00
22:28:                  55	33.00
22:29:                  25	33.00
22:29:                  55	32.99
22:30:                  25	32.99
22:30:                  55	32.99
22:31:                  25	32.98
22:31:                  55	33.00
22:32:                  25	33.01
22:32:                  55	33.01
22:33:                  25	33.02
22:33:                  55	33.03
22:34:                  25	33.05
22:34:                  55	33.09
22:35:                  25	33.08
22:35:                  55	33.09
22:36:                  25	33.10
22:36:                  55	33.13
22:37:                  25	33.15
22:37:                  55	33.16
22:38:                  25	33.18
22:38:                  55	33.18
22:39:                  25	33.17
22:39:                  55	33.16
22:40:                  26	33.18
22:40:                  56	33.20
22:41:                  26	33.20
22:41:                  56	33.21
22:42:                  26	33.21
22:42:                  56	33.21
22:43:                  26	33.22
22:43:                  56	33.23
22:44:                  26	33.25
22:44:                  56	33.25
22:45:                  26	33.26
22:45:                  56	33.26
22:46:                  26	33.27
22:46:                  56	33.26
22:47:                  26	33.28
22:47:                  56	33.30
22:48:                  26	33.31
22:48:                  56	33.31
22:49:                  26	33.31
22:49:                  56	33.32
22:50:                  26	33.33
22:50:                  56	33.35
22:51:                  26	33.34
22:51:                  56	33.34
22:52:                  26	33.35
22:52:                  56	33.35
22:53:                  26	33.34
22:53:                  56	33.33
22:54:                  26	33.33
22:54:                  56	33.33
22:55:                  26	33.34
22:55:                  56	33.35
22:56:                  26	33.36
22:56:                  57	33.37
22:57:                  27	33.35
22:57:                  57	33.34
22:58:                  27	33.32
22:58:                  57	33.33
22:59:                  27	33.32
22:59:                  57	33.32
23:00:                  27	33.32
23:00:                  57	33.31
23:01:                  27	33.32
23:01:                  57	33.33
23:02:                  27	33.33
23:02:                  57	33.32
23:03:                  27	33.32
23:03:                  57	33.33
23:04:                  27	33.32
23:04:                  57	33.33
23:05:                  27	33.33
23:05:                  57	33.33
23:06:                  27	33.34
23:06:                  57	33.33
23:07:                  27	33.31
23:07:                  57	33.31
23:08:                  27	33.31
23:08:                  57	33.31
23:09:                  27	33.32
23:09:                  57	33.32
23:10:                  27	33.32
23:10:                  57	33.33
23:11:                  27	33.35
23:11:                  57	33.37
23:12:                  27	33.36
23:12:                  57	33.37
23:13:                  27	33.37
23:13:                  57	33.35
23:14:                  27	33.35
23:14:                  57	33.35
23:15:                  28	33.35
23:15:                  58	33.36
23:16:                  28	33.35
23:16:                  58	33.35
23:17:                  28	33.35
23:17:                  58	33.35
23:18:                  28	33.36
23:18:                  58	33.37
23:19:                  28	33.37
23:19:                  58	33.36
23:20:                  28	33.35
23:20:                  58	33.36
23:21:                  28	33.36
23:21:                  58	33.36
23:22:                  28	33.37
23:22:                  58	33.36
23:23:                  28	33.36
23:23:                  58	33.36
23:24:                  28	33.35
23:24:                  58	33.33
23:25:                  28	33.32
23:25:                  58	33.31
23:26:                  28	33.31
23:26:                  58	33.31
23:27:                  28	33.30
23:27:                  58	33.30
23:28:                  28	33.28
23:28:                  58	33.28
23:29:                  28	33.27
23:29:                  58	33.27
23:30:                  28	33.27
23:30:                  58	33.27
23:31:                  28	33.26
23:31:                  58	33.26
23:32:                  28	33.26
23:32:                  58	33.26
23:33:                  28	33.26
23:33:                  59	33.26
23:34:                  29	33.25
23:34:                  59	33.24
23:35:                  29	33.26
23:35:                  59	33.25
23:36:                  29	33.26
23:36:                  59	33.27
23:37:                  29	33.28
23:37:                  59	33.26
23:38:                  29	33.24
23:38:                  59	33.27
23:39:                  29	33.26
23:39:                  59	33.27
23:40:                  29	33.27
23:40:                  59	33.27
23:41:                  29	33.27
23:41:                  59	33.27
23:42:                  29	33.28
23:42:                  59	33.29
23:43:                  29	33.28
23:43:                  59	33.29
23:44:                  29	33.28
23:44:                  59	33.28
23:45:                  29	33.28
23:45:                  59	33.28
23:46:                  29	33.29
23:46:                  59	33.31
23:47:                  29	33.32
23:47:                  59	33.31
23:48:                  29	33.32
23:48:                  59	33.32
23:49:                  29	33.32
23:49:                  59	33.32
23:50:                  30	33.31
23:51:                   0	33.30
23:51:                  30	33.31
23:52:                   0	33.32
23:52:                  30	33.31
23:53:                   0	33.32
23:53:                  30	33.32
23:54:                   0	33.32
23:54:                  30	33.32
23:55:                   0	33.31
23:55:                  30	33.31
23:56:                   0	33.30
23:56:                  30	33.30
23:57:                   0	33.30
23:57:                  30	33.28
23:58:                   0	33.27
23:58:                  30	33.28
23:59:                   0	33.27
23:59:                  30	33.27
