0:00:                  16	30.55
0:00:                  46	30.56
0:01:                  16	30.56
0:01:                  47	30.56
0:02:                  17	30.56
0:02:                  47	30.57
0:03:                  17	30.58
0:03:                  47	30.57
0:04:                  17	30.56
0:04:                  47	30.57
0:05:                  17	30.56
0:05:                  47	30.56
0:06:                  17	30.56
0:06:                  47	30.54
0:07:                  17	30.54
0:07:                  47	30.54
0:08:                  17	30.54
0:08:                  47	30.53
0:09:                  17	30.53
0:09:                  47	30.54
0:10:                  17	30.54
0:10:                  47	30.53
0:11:                  17	30.54
0:11:                  47	30.55
0:12:                  17	30.56
0:12:                  47	30.55
0:13:                  17	30.57
0:13:                  47	30.56
0:14:                  17	30.56
0:14:                  47	30.57
0:15:                  17	30.54
0:15:                  47	30.54
0:16:                  17	30.54
0:16:                  47	30.55
0:17:                  17	30.56
0:17:                  47	30.57
0:18:                  17	30.57
0:18:                  47	30.58
0:19:                  17	30.57
0:19:                  47	30.56
0:20:                  17	30.57
0:20:                  47	30.59
0:21:                  18	30.59
0:21:                  48	30.61
0:22:                  18	30.61
0:22:                  48	30.59
0:23:                  18	30.59
0:23:                  48	30.58
0:24:                  18	30.58
0:24:                  48	30.58
0:25:                  18	30.58
0:25:                  48	30.58
0:26:                  18	30.57
0:26:                  48	30.57
0:27:                  18	30.58
0:27:                  48	30.58
0:28:                  18	30.57
0:28:                  48	30.58
0:29:                  18	30.58
0:29:                  48	30.57
0:30:                  18	30.59
0:30:                  48	30.60
0:31:                  18	30.59
0:31:                  48	30.59
0:32:                  18	30.58
0:32:                  48	30.57
0:33:                  18	30.58
0:33:                  48	30.56
0:34:                  18	30.57
0:34:                  48	30.58
0:35:                  18	30.58
0:35:                  48	30.59
0:36:                  18	30.58
0:36:                  48	30.58
0:37:                  18	30.58
0:37:                  48	30.58
0:38:                  19	30.58
0:38:                  49	30.58
0:39:                  19	30.59
0:39:                  49	30.60
0:40:                  19	30.60
0:40:                  49	30.60
0:41:                  19	30.60
0:41:                  49	30.59
0:42:                  19	30.59
0:42:                  49	30.59
0:43:                  19	30.61
0:43:                  49	30.62
0:44:                  19	30.63
0:44:                  49	30.61
0:45:                  19	30.63
0:45:                  49	30.62
0:46:                  19	30.62
0:46:                  49	30.63
0:47:                  19	30.63
0:47:                  49	30.62
0:48:                  19	30.63
0:48:                  49	30.62
0:49:                  19	30.61
0:49:                  49	30.60
0:50:                  19	30.59
0:50:                  49	30.59
0:51:                  19	30.59
0:51:                  49	30.61
0:52:                  19	30.60
0:52:                  49	30.60
0:53:                  19	30.61
0:53:                  49	30.63
0:54:                  19	30.63
0:54:                  50	30.62
0:55:                  20	30.62
0:55:                  50	30.61
0:56:                  20	30.61
0:56:                  50	30.62
0:57:                  20	30.61
0:57:                  50	30.61
0:58:                  20	30.59
0:58:                  50	30.60
0:59:                  20	30.60
0:59:                  50	30.60
1:00:                  20	30.59
1:00:                  50	30.61
1:01:                  20	30.62
1:01:                  50	30.63
1:02:                  20	30.62
1:02:                  50	30.62
1:03:                  20	30.62
1:03:                  50	30.61
1:04:                  20	30.61
1:04:                  50	30.61
1:05:                  20	30.61
1:05:                  50	30.61
1:06:                  20	30.63
1:06:                  50	30.62
1:07:                  20	30.61
1:07:                  50	30.62
1:08:                  20	30.62
1:08:                  50	30.61
1:09:                  20	30.61
1:09:                  50	30.64
1:10:                  20	30.63
1:10:                  50	30.63
1:11:                  21	30.62
1:11:                  51	30.62
1:12:                  21	30.66
1:12:                  51	30.65
1:13:                  21	30.64
1:13:                  51	30.64
1:14:                  21	30.64
1:14:                  51	30.63
1:15:                  21	30.64
1:15:                  51	30.64
1:16:                  21	30.63
1:16:                  51	30.61
1:17:                  21	30.60
1:17:                  51	30.60
1:18:                  21	30.61
1:18:                  51	30.62
1:19:                  21	30.61
1:19:                  51	30.61
1:20:                  21	30.61
1:20:                  51	30.63
1:21:                  21	30.62
1:21:                  51	30.59
1:22:                  21	30.59
1:22:                  51	30.60
1:23:                  21	30.60
1:23:                  51	30.59
1:24:                  21	30.60
1:24:                  51	30.59
1:25:                  21	30.60
1:25:                  51	30.60
1:26:                  21	30.59
1:26:                  51	30.59
1:27:                  21	30.60
1:27:                  51	30.62
1:28:                  21	30.62
1:28:                  51	30.63
1:29:                  21	30.63
1:29:                  51	30.63
1:30:                  21	30.62
1:30:                  51	30.60
1:31:                  22	30.59
1:31:                  52	30.59
1:32:                  22	30.59
1:32:                  52	30.60
1:33:                  22	30.60
1:33:                  52	30.60
1:34:                  22	30.60
1:34:                  52	30.60
1:35:                  22	30.58
1:35:                  52	30.58
1:36:                  22	30.59
1:36:                  52	30.59
1:37:                  22	30.58
1:37:                  52	30.58
1:38:                  22	30.58
1:38:                  52	30.58
1:39:                  22	30.59
1:39:                  52	30.59
1:40:                  22	30.59
1:40:                  52	30.59
1:41:                  22	30.59
1:41:                  52	30.60
1:42:                  22	30.60
1:42:                  52	30.60
1:43:                  22	30.59
1:43:                  52	30.60
1:44:                  22	30.59
1:44:                  52	30.60
1:45:                  22	30.59
1:45:                  52	30.59
1:46:                  22	30.59
1:46:                  52	30.61
1:47:                  22	30.59
1:47:                  52	30.60
1:48:                  22	30.60
1:48:                  52	30.59
1:49:                  22	30.59
1:49:                  52	30.60
1:50:                  22	30.59
1:50:                  52	30.59
1:51:                  23	30.61
1:51:                  53	30.61
1:52:                  23	30.61
1:52:                  53	30.60
1:53:                  23	30.59
1:53:                  53	30.58
1:54:                  23	30.59
1:54:                  53	30.58
1:55:                  23	30.57
1:55:                  53	30.58
1:56:                  23	30.58
1:56:                  53	30.58
1:57:                  23	30.59
1:57:                  53	30.59
1:58:                  23	30.59
1:58:                  53	30.58
1:59:                  23	30.58
1:59:                  53	30.58
2:00:                  23	30.61
2:00:                  53	30.62
2:01:                  23	30.61
2:01:                  53	30.60
2:02:                  23	30.60
2:02:                  53	30.60
2:03:                  23	30.60
2:03:                  53	30.61
2:04:                  23	30.61
2:04:                  53	30.60
2:05:                  23	30.62
2:05:                  53	30.62
2:06:                  23	30.61
2:06:                  53	30.60
2:07:                  23	30.61
2:07:                  53	30.60
2:08:                  24	30.59
2:08:                  54	30.59
2:09:                  24	30.59
2:09:                  54	30.60
2:10:                  24	30.59
2:10:                  54	30.59
2:11:                  24	30.60
2:11:                  54	30.59
2:12:                  24	30.58
2:12:                  54	30.59
2:13:                  24	30.61
2:13:                  54	30.62
2:14:                  24	30.60
2:14:                  54	30.61
2:15:                  24	30.59
2:15:                  54	30.59
2:16:                  24	30.60
2:16:                  54	30.63
2:17:                  24	30.62
2:17:                  54	30.62
2:18:                  24	30.63
2:18:                  54	30.61
2:19:                  24	30.60
2:19:                  54	30.60
2:20:                  24	30.61
2:20:                  54	30.61
2:21:                  24	30.61
2:21:                  54	30.60
2:22:                  24	30.61
2:22:                  54	30.61
2:23:                  24	30.61
2:23:                  54	30.62
2:24:                  24	30.62
2:24:                  55	30.61
2:25:                  25	30.61
2:25:                  55	30.63
2:26:                  25	30.62
2:26:                  55	30.64
2:27:                  25	30.64
2:27:                  55	30.63
2:28:                  25	30.62
2:28:                  55	30.63
2:29:                  25	30.65
2:29:                  55	30.66
2:30:                  25	30.66
2:30:                  55	30.65
2:31:                  25	30.64
2:31:                  55	30.64
2:32:                  25	30.64
2:32:                  55	30.63
2:33:                  25	30.62
2:33:                  55	30.64
2:34:                  25	30.65
2:34:                  55	30.63
2:35:                  25	30.62
2:35:                  55	30.63
2:36:                  25	30.65
2:36:                  55	30.65
2:37:                  25	30.66
2:37:                  55	30.65
2:38:                  25	30.62
2:38:                  55	30.62
2:39:                  25	30.65
2:39:                  55	30.65
2:40:                  25	30.67
2:40:                  55	30.69
2:41:                  26	30.68
2:41:                  56	30.66
2:42:                  26	30.65
2:42:                  56	30.67
2:43:                  26	30.67
2:43:                  56	30.66
2:44:                  26	30.67
2:44:                  56	30.67
2:45:                  26	30.69
2:45:                  56	30.68
2:46:                  26	30.67
2:46:                  56	30.67
2:47:                  26	30.67
2:47:                  56	30.67
2:48:                  26	30.67
2:48:                  56	30.69
2:49:                  26	30.68
2:49:                  56	30.67
2:50:                  26	30.68
2:50:                  56	30.67
2:51:                  26	30.66
2:51:                  56	30.65
2:52:                  26	30.65
2:52:                  56	30.66
2:53:                  26	30.65
2:53:                  56	30.65
2:54:                  26	30.66
2:54:                  56	30.66
2:55:                  26	30.65
2:55:                  56	30.66
2:56:                  26	30.66
2:56:                  56	30.68
2:57:                  26	30.69
2:57:                  56	30.69
2:58:                  26	30.68
2:58:                  56	30.66
2:59:                  26	30.66
2:59:                  56	30.66
3:00:                  26	30.66
3:00:                  56	30.65
3:01:                  26	30.63
3:01:                  56	30.64
3:02:                  26	30.68
3:02:                  56	30.71
3:03:                  26	30.70
3:03:                  56	30.70
3:04:                  27	30.68
3:04:                  57	30.68
3:05:                  27	30.67
3:05:                  57	30.67
3:06:                  27	30.67
3:06:                  57	30.69
3:07:                  27	30.69
3:07:                  57	30.71
3:08:                  27	30.71
3:08:                  57	30.71
3:09:                  27	30.75
3:09:                  57	30.73
3:10:                  27	30.71
3:10:                  57	30.70
3:11:                  27	30.69
3:11:                  57	30.68
3:12:                  27	30.70
3:12:                  57	30.67
3:13:                  27	30.68
3:13:                  57	30.69
3:14:                  27	30.70
3:14:                  57	30.69
3:15:                  27	30.68
3:15:                  57	30.67
3:16:                  27	30.66
3:16:                  57	30.67
3:17:                  27	30.66
3:17:                  57	30.66
3:18:                  27	30.65
3:18:                  57	30.67
3:19:                  27	30.66
3:19:                  57	30.67
3:20:                  27	30.67
3:20:                  57	30.66
3:21:                  27	30.65
3:21:                  57	30.66
3:22:                  27	30.67
3:22:                  57	30.66
3:23:                  27	30.66
3:23:                  58	30.66
3:24:                  28	30.69
3:24:                  58	30.68
3:25:                  28	30.69
3:25:                  58	30.67
3:26:                  28	30.69
3:26:                  58	30.70
3:27:                  28	30.70
3:27:                  58	30.71
3:28:                  28	30.71
3:28:                  58	30.70
3:29:                  28	30.69
3:29:                  58	30.71
3:30:                  28	30.71
3:30:                  58	30.74
3:31:                  28	30.74
3:31:                  58	30.73
3:32:                  28	30.75
3:32:                  58	30.75
3:33:                  28	30.73
3:33:                  58	30.73
3:34:                  28	30.73
3:34:                  58	30.71
3:35:                  28	30.68
3:35:                  58	30.70
3:36:                  28	30.69
3:36:                  58	30.69
3:37:                  28	30.71
3:37:                  58	30.72
3:38:                  28	30.71
3:38:                  58	30.69
3:39:                  28	30.71
3:39:                  58	30.69
3:40:                  28	30.70
3:40:                  58	30.70
3:41:                  28	30.73
3:41:                  58	30.71
3:42:                  28	30.73
3:42:                  58	30.73
3:43:                  28	30.73
3:43:                  58	30.74
3:44:                  28	30.75
3:44:                  58	30.75
3:45:                  28	30.72
3:45:                  59	30.71
3:46:                  29	30.74
3:46:                  59	30.75
3:47:                  29	30.72
3:47:                  59	30.71
3:48:                  29	30.73
3:48:                  59	30.72
3:49:                  29	30.71
3:49:                  59	30.71
3:50:                  29	30.70
3:50:                  59	30.73
3:51:                  29	30.72
3:51:                  59	30.73
3:52:                  29	30.75
3:52:                  59	30.73
3:53:                  29	30.73
3:53:                  59	30.73
3:54:                  29	30.72
3:54:                  59	30.73
3:55:                  29	30.72
3:55:                  59	30.70
3:56:                  29	30.72
3:56:                  59	30.72
3:57:                  29	30.71
3:57:                  59	30.73
3:58:                  29	30.74
3:58:                  59	30.73
3:59:                  29	30.70
3:59:                  59	30.71
4:00:                  29	30.72
4:00:                  59	30.72
4:01:                  29	30.70
4:01:                  59	30.69
4:02:                  29	30.71
4:02:                  59	30.72
4:03:                  29	30.70
4:03:                  59	30.69
4:04:                  29	30.68
4:04:                  59	30.68
4:05:                  29	30.68
4:05:                  59	30.68
4:06:                  29	30.67
4:07:                   0	30.70
4:07:                  30	30.70
4:08:                   0	30.69
4:08:                  30	30.71
4:09:                   0	30.70
4:09:                  30	30.71
4:10:                   0	30.67
4:10:                  30	30.67
4:11:                   0	30.69
4:11:                  30	30.69
4:12:                   0	30.68
4:12:                  30	30.66
4:13:                   0	30.66
4:13:                  30	30.67
4:14:                   0	30.67
4:14:                  30	30.67
4:15:                   0	30.67
4:15:                  30	30.66
4:16:                   0	30.67
4:16:                  30	30.67
4:17:                   0	30.69
4:17:                  30	30.69
4:18:                   0	30.69
4:18:                  30	30.68
4:19:                   0	30.66
4:19:                  30	30.67
4:20:                   0	30.66
4:20:                  30	30.66
4:21:                   0	30.67
4:21:                  30	30.69
4:22:                   0	30.69
4:22:                  30	30.68
4:23:                   0	30.68
4:23:                  30	30.70
4:24:                   0	30.69
4:24:                  30	30.69
4:25:                   0	30.67
4:25:                  30	30.69
4:26:                   0	30.70
4:26:                  31	30.70
4:27:                   1	30.71
4:27:                  31	30.72
4:28:                   1	30.71
4:28:                  31	30.70
4:29:                   1	30.73
4:29:                  31	30.73
4:30:                   1	30.72
4:30:                  31	30.71
4:31:                   1	30.70
4:31:                  31	30.72
4:32:                   1	30.71
4:32:                  31	30.71
4:33:                   1	30.70
4:33:                  31	30.69
4:34:                   1	30.68
4:34:                  31	30.70
4:35:                   1	30.71
4:35:                  31	30.70
4:36:                   1	30.69
4:36:                  31	30.71
4:37:                   1	30.72
4:37:                  31	30.72
4:38:                   1	30.70
4:38:                  31	30.69
4:39:                   1	30.70
4:39:                  31	30.71
4:40:                   1	30.70
4:40:                  31	30.72
4:41:                   1	30.72
4:41:                  31	30.73
4:42:                   1	30.72
4:42:                  31	30.70
4:43:                   1	30.73
4:43:                  31	30.71
4:44:                   1	30.69
4:44:                  31	30.71
4:45:                   1	30.70
4:45:                  32	30.70
4:46:                   2	30.71
4:46:                  32	30.69
4:47:                   2	30.72
4:47:                  32	30.72
4:48:                   2	30.71
4:48:                  32	30.72
4:49:                   2	30.70
4:49:                  32	30.69
4:50:                   2	30.71
4:50:                  32	30.73
4:51:                   2	30.71
4:51:                  32	30.72
4:52:                   2	30.73
4:52:                  32	30.74
4:53:                   2	30.74
4:53:                  32	30.73
4:54:                   2	30.73
4:54:                  32	30.71
4:55:                   2	30.69
4:55:                  32	30.74
4:56:                   2	30.71
4:56:                  32	30.72
4:57:                   2	30.73
4:57:                  32	30.75
4:58:                   2	30.73
4:58:                  32	30.72
4:59:                   2	30.72
4:59:                  32	30.75
5:00:                   2	30.75
5:00:                  32	30.75
5:01:                   2	30.77
5:01:                  32	30.76
5:02:                   2	30.75
5:02:                  32	30.74
5:03:                   2	30.73
5:03:                  32	30.74
5:04:                   2	30.73
5:04:                  32	30.75
5:05:                   2	30.73
5:05:                  32	30.73
5:06:                   2	30.73
5:06:                  32	30.75
5:07:                   2	30.75
5:07:                  32	30.78
5:08:                   2	30.77
5:08:                  33	30.74
5:09:                   3	30.74
5:09:                  33	30.76
5:10:                   3	30.74
5:10:                  33	30.73
5:11:                   3	30.74
5:11:                  33	30.74
5:12:                   3	30.72
5:12:                  33	30.70
5:13:                   3	30.69
5:13:                  33	30.69
5:14:                   3	30.71
5:14:                  33	30.70
5:15:                   3	30.73
5:15:                  33	30.71
5:16:                   3	30.71
5:16:                  33	30.72
5:17:                   3	30.69
5:17:                  33	30.70
5:18:                   3	30.71
5:18:                  33	30.71
5:19:                   3	30.72
5:19:                  33	30.71
5:20:                   3	30.71
5:20:                  33	30.70
5:21:                   3	30.73
5:21:                  33	30.74
5:22:                   3	30.73
5:22:                  33	30.74
5:23:                   3	30.73
5:23:                  33	30.73
5:24:                   3	30.72
5:24:                  34	30.73
5:25:                   4	30.72
5:25:                  34	30.71
5:26:                   4	30.70
5:26:                  34	30.68
5:27:                   4	30.70
5:27:                  34	30.70
5:28:                   4	30.69
5:28:                  34	30.72
5:29:                   4	30.71
5:29:                  34	30.71
5:30:                   4	30.71
5:30:                  34	30.68
5:31:                   4	30.68
5:31:                  34	30.66
5:32:                   4	30.67
5:32:                  34	30.68
5:33:                   4	30.70
5:33:                  34	30.69
5:34:                   4	30.68
5:34:                  34	30.70
5:35:                   4	30.70
5:35:                  34	30.69
5:36:                   4	30.66
5:36:                  34	30.69
5:37:                   4	30.68
5:37:                  34	30.68
5:38:                   4	30.68
5:38:                  34	30.68
5:39:                   4	30.68
5:39:                  34	30.67
5:40:                   4	30.68
5:40:                  34	30.67
5:41:                   4	30.65
5:41:                  34	30.64
5:42:                   4	30.65
5:42:                  34	30.64
5:43:                   4	30.65
5:43:                  34	30.64
5:44:                   4	30.62
5:44:                  34	30.63
5:45:                   4	30.62
5:45:                  34	30.63
5:46:                   4	30.65
5:46:                  34	30.64
5:47:                   5	30.64
5:47:                  35	30.61
5:48:                   5	30.62
5:48:                  35	30.64
5:49:                   5	30.65
5:49:                  35	30.64
5:50:                   5	30.63
5:50:                  35	30.64
5:51:                   5	30.63
5:51:                  35	30.63
5:52:                   5	30.65
5:52:                  35	30.65
5:53:                   5	30.62
5:53:                  35	30.61
5:54:                   5	30.59
5:54:                  35	30.58
5:55:                   5	30.59
5:55:                  35	30.61
5:56:                   5	30.60
5:56:                  35	30.61
5:57:                   5	30.61
5:57:                  35	30.61
5:58:                   5	30.60
5:58:                  35	30.63
5:59:                   5	30.61
5:59:                  35	30.60
6:00:                   5	30.59
6:00:                  35	30.59
6:01:                   5	30.59
6:01:                  35	30.59
6:02:                   5	30.59
6:02:                  35	30.58
6:03:                   5	30.58
6:03:                  36	30.57
6:04:                   6	30.58
6:04:                  36	30.58
6:05:                   6	30.57
6:05:                  36	30.56
6:06:                   6	30.58
6:06:                  36	30.58
6:07:                   6	30.59
6:07:                  36	30.58
6:08:                   6	30.58
6:08:                  36	30.58
6:09:                   6	30.61
6:09:                  36	30.61
6:10:                   6	30.57
6:10:                  36	30.59
6:11:                   6	30.58
6:11:                  36	30.60
6:12:                   6	30.61
6:12:                  36	30.62
6:13:                   6	30.61
6:13:                  36	30.59
6:14:                   6	30.59
6:14:                  36	30.59
6:15:                   6	30.61
6:15:                  36	30.62
6:16:                   6	30.62
6:16:                  36	30.64
6:17:                   6	30.64
6:17:                  36	30.62
6:18:                   6	30.61
6:18:                  36	30.62
6:19:                   6	30.62
6:19:                  36	30.62
6:20:                   6	30.62
6:20:                  36	30.63
6:21:                   6	30.63
6:21:                  36	30.63
6:22:                   6	30.63
6:22:                  36	30.62
6:23:                   6	30.61
6:23:                  36	30.63
6:24:                   6	30.61
6:24:                  36	30.60
6:25:                   6	30.62
6:25:                  36	30.62
6:26:                   6	30.62
6:26:                  36	30.62
6:27:                   6	30.65
6:27:                  36	30.65
6:28:                   6	30.65
6:28:                  36	30.62
6:29:                   7	30.61
6:29:                  37	30.63
6:30:                   7	30.62
6:30:                  37	30.63
6:31:                   7	30.64
6:31:                  37	30.61
6:32:                   7	30.62
6:32:                  37	30.61
6:33:                   7	30.59
6:33:                  37	30.59
6:34:                   7	30.59
6:34:                  37	30.60
6:35:                   7	30.60
6:35:                  37	30.60
6:36:                   7	30.59
6:36:                  37	30.57
6:37:                   7	30.57
6:37:                  37	30.57
6:38:                   7	30.59
6:38:                  37	30.57
6:39:                   7	30.59
6:39:                  37	30.60
6:40:                   7	30.61
6:40:                  37	30.59
6:41:                   7	30.59
6:41:                  37	30.58
6:42:                   7	30.60
6:42:                  37	30.61
6:43:                   7	30.62
6:43:                  37	30.63
6:44:                   7	30.62
6:44:                  37	30.61
6:45:                   7	30.62
6:45:                  37	30.63
6:46:                   7	30.63
6:46:                  37	30.64
6:47:                   7	30.66
6:47:                  37	30.66
6:48:                   7	30.66
6:48:                  37	30.65
6:49:                   7	30.65
6:49:                  38	30.63
6:50:                   8	30.63
6:50:                  38	30.64
6:51:                   8	30.64
6:51:                  38	30.65
6:52:                   8	30.64
6:52:                  38	30.65
6:53:                   8	30.69
6:53:                  38	30.69
6:54:                   8	30.67
6:54:                  38	30.65
6:55:                   8	30.68
6:55:                  38	30.67
6:56:                   8	30.66
6:56:                  38	30.69
6:57:                   8	30.68
6:57:                  38	30.68
6:58:                   8	30.69
6:58:                  38	30.70
6:59:                   8	30.68
6:59:                  38	30.67
7:00:                   8	30.68
7:00:                  38	30.71
7:01:                   8	30.72
7:01:                  38	30.72
7:02:                   8	30.72
7:02:                  38	30.71
7:03:                   8	30.69
7:03:                  38	30.67
7:04:                   8	30.66
7:04:                  38	30.66
7:05:                   8	30.67
7:05:                  38	30.70
7:06:                   8	30.68
7:06:                  38	30.66
7:07:                   8	30.65
7:07:                  38	30.63
7:08:                   8	30.66
7:08:                  38	30.65
7:09:                   8	30.64
7:09:                  38	30.67
7:10:                   8	30.67
7:10:                  38	30.67
7:11:                   8	30.66
7:11:                  38	30.64
7:12:                   9	30.64
7:12:                  39	30.64
7:13:                   9	30.66
7:13:                  39	30.70
7:14:                   9	30.68
7:14:                  39	30.65
7:15:                   9	30.62
7:15:                  39	30.66
7:16:                   9	30.70
7:16:                  39	30.69
7:17:                   9	30.68
7:17:                  39	30.67
7:18:                   9	30.64
7:18:                  39	30.63
7:19:                   9	30.62
7:19:                  39	30.63
7:20:                   9	30.61
7:20:                  39	30.61
7:21:                   9	30.61
7:21:                  39	30.61
7:22:                   9	30.60
7:22:                  39	30.61
7:23:                   9	30.61
7:23:                  39	30.62
7:24:                   9	30.62
7:24:                  39	30.61
7:25:                   9	30.60
7:25:                  39	30.61
7:26:                   9	30.60
7:26:                  39	30.60
7:27:                   9	30.60
7:27:                  39	30.60
7:28:                   9	30.60
7:28:                  39	30.59
7:29:                  10	30.58
7:29:                  40	30.60
7:30:                  10	30.60
7:30:                  40	30.60
7:31:                  10	30.61
7:31:                  40	30.62
7:32:                  10	30.60
7:32:                  40	30.59
7:33:                  10	30.57
7:33:                  40	30.58
7:34:                  10	30.57
7:34:                  40	30.57
7:35:                  10	30.57
7:35:                  40	30.55
7:36:                  10	30.54
7:36:                  40	30.54
7:37:                  10	30.54
7:37:                  40	30.53
7:38:                  10	30.52
7:38:                  40	30.53
7:39:                  10	30.54
7:39:                  40	30.56
7:40:                  10	30.57
7:40:                  40	30.57
7:41:                  10	30.56
7:41:                  40	30.55
7:42:                  10	30.54
7:42:                  40	30.54
7:43:                  10	30.55
7:43:                  40	30.57
7:44:                  10	30.57
7:44:                  40	30.57
7:45:                  10	30.58
7:45:                  40	30.56
7:46:                  10	30.56
7:46:                  40	30.57
7:47:                  10	30.59
7:47:                  40	30.59
7:48:                  10	30.56
7:48:                  40	30.56
7:49:                  11	30.54
7:49:                  41	30.53
7:50:                  11	30.53
7:50:                  41	30.55
7:51:                  11	30.56
7:51:                  41	30.56
7:52:                  11	30.56
7:52:                  41	30.57
7:53:                  11	30.57
7:53:                  41	30.57
7:54:                  11	30.54
7:54:                  41	30.54
7:55:                  11	30.53
7:55:                  41	30.53
7:56:                  11	30.50
7:56:                  41	30.49
7:57:                  11	30.49
7:57:                  41	30.47
7:58:                  11	30.46
7:58:                  41	30.46
7:59:                  11	30.47
7:59:                  41	30.47
8:00:                  11	30.48
8:00:                  41	30.48
8:01:                  11	30.47
8:01:                  41	30.47
8:02:                  11	30.47
8:02:                  41	30.47
8:03:                  11	30.45
8:03:                  41	30.46
8:04:                  11	30.45
8:04:                  41	30.48
8:05:                  11	30.48
8:05:                  41	30.50
8:06:                  11	30.49
8:06:                  41	30.50
8:07:                  11	30.49
8:07:                  41	30.49
8:08:                  12	30.49
8:08:                  42	30.47
8:09:                  12	30.45
8:09:                  42	30.45
8:10:                  12	30.45
8:10:                  42	30.45
8:11:                  12	30.43
8:11:                  42	30.46
8:12:                  12	30.46
8:12:                  42	30.45
8:13:                  12	30.43
8:13:                  42	30.44
8:14:                  12	30.44
8:14:                  42	30.43
8:15:                  12	30.43
8:15:                  42	30.43
8:16:                  12	30.44
8:16:                  42	30.44
8:17:                  12	30.44
8:17:                  42	30.54
8:18:                  12	30.53
8:18:                  42	30.53
8:19:                  12	30.53
8:19:                  42	30.50
8:20:                  12	30.47
8:20:                  42	30.47
8:21:                  12	30.45
8:21:                  42	30.46
8:22:                  12	30.45
8:22:                  42	30.46
8:23:                  12	30.46
8:23:                  42	30.47
8:24:                  13	30.46
8:24:                  43	30.44
8:25:                  13	30.44
8:25:                  43	30.43
8:26:                  13	30.42
8:26:                  43	30.44
8:27:                  13	30.44
8:27:                  43	30.43
8:28:                  13	30.43
8:28:                  43	30.43
8:29:                  13	30.41
8:29:                  43	30.41
8:30:                  13	30.41
8:30:                  43	30.40
8:31:                  13	30.41
8:31:                  43	30.40
8:32:                  13	30.41
8:32:                  43	30.40
8:33:                  13	30.40
8:33:                  43	30.42
8:34:                  13	30.41
8:34:                  43	30.41
8:35:                  13	30.41
8:35:                  43	30.42
8:36:                  13	30.41
8:36:                  43	30.41
8:37:                  13	30.41
8:37:                  43	30.42
8:38:                  13	30.40
8:38:                  43	30.42
8:39:                  13	30.42
8:39:                  43	30.41
8:40:                  13	30.42
8:40:                  43	30.41
8:41:                  13	30.39
8:41:                  44	30.39
8:42:                  14	30.40
8:42:                  44	30.42
8:43:                  14	30.48
8:43:                  44	30.46
8:44:                  14	30.45
8:44:                  44	30.43
8:45:                  14	30.41
8:45:                  44	30.41
8:46:                  14	30.39
8:46:                  44	30.39
8:47:                  14	30.38
8:47:                  44	30.38
8:48:                  14	30.38
8:48:                  44	30.38
8:49:                  14	30.37
8:49:                  44	30.37
8:50:                  14	30.38
8:50:                  44	30.37
8:51:                  14	30.37
8:51:                  44	30.37
8:52:                  14	30.37
8:52:                  44	30.36
8:53:                  14	30.37
8:53:                  44	30.38
8:54:                  14	30.39
8:54:                  44	30.39
8:55:                  14	30.39
8:55:                  44	30.38
8:56:                  14	30.38
8:56:                  44	30.38
8:57:                  14	30.38
8:57:                  44	30.37
8:58:                  14	30.37
8:58:                  44	30.37
8:59:                  14	30.37
8:59:                  44	30.38
9:00:                  14	30.37
9:00:                  45	30.37
9:01:                  15	30.36
9:01:                  45	30.36
9:02:                  15	30.37
9:02:                  45	30.37
9:03:                  15	30.37
9:03:                  45	30.36
9:04:                  15	30.37
9:04:                  45	30.36
9:05:                  15	30.35
9:05:                  45	30.35
9:06:                  15	30.35
9:06:                  45	30.35
9:07:                  15	30.35
9:07:                  45	30.36
9:08:                  15	30.36
9:08:                  45	30.38
9:09:                  15	30.38
9:09:                  45	30.37
9:10:                  15	30.37
9:10:                  45	30.37
9:11:                  15	30.38
9:11:                  45	30.38
9:12:                  15	30.39
9:12:                  45	30.40
9:13:                  15	30.40
9:13:                  45	30.41
9:14:                  15	30.44
9:14:                  45	30.41
9:15:                  15	30.39
9:15:                  45	30.41
9:16:                  15	30.43
9:16:                  45	30.43
9:17:                  16	30.43
9:17:                  46	30.43
9:18:                  16	30.42
9:18:                  46	30.40
9:19:                  16	30.40
9:19:                  46	30.41
9:20:                  16	30.42
9:20:                  46	30.40
9:21:                  16	30.39
9:21:                  46	30.41
9:22:                  16	30.41
9:22:                  46	30.42
9:23:                  16	30.42
9:23:                  46	30.41
9:24:                  16	30.39
9:24:                  46	30.40
9:25:                  16	30.41
9:25:                  46	30.41
9:26:                  16	30.40
9:26:                  46	30.40
9:27:                  16	30.41
9:27:                  46	30.40
9:28:                  16	30.38
9:28:                  46	30.36
9:29:                  16	30.37
9:29:                  46	30.37
9:30:                  16	30.38
9:30:                  46	30.41
9:31:                  16	30.41
9:31:                  46	30.41
9:32:                  16	30.40
9:32:                  46	30.39
9:33:                  16	30.41
9:33:                  47	30.42
9:34:                  17	30.40
9:34:                  47	30.40
9:35:                  17	30.41
9:35:                  47	30.41
9:36:                  17	30.41
9:36:                  47	30.41
9:37:                  17	30.39
9:37:                  47	30.39
9:38:                  17	30.40
9:38:                  47	30.42
9:39:                  17	30.42
9:39:                  47	30.41
9:40:                  17	30.40
9:40:                  47	30.41
9:41:                  17	30.40
9:41:                  47	30.41
9:42:                  17	30.42
9:42:                  47	30.42
9:43:                  17	30.42
9:43:                  47	30.40
9:44:                  17	30.40
9:44:                  47	30.41
9:45:                  17	30.39
9:45:                  47	30.40
9:46:                  17	30.45
9:46:                  47	30.45
9:47:                  17	30.48
9:47:                  47	30.45
9:48:                  17	30.44
9:48:                  47	30.43
9:49:                  17	30.41
9:49:                  47	30.42
9:50:                  17	30.41
9:50:                  47	30.39
9:51:                  17	30.41
9:51:                  47	30.44
9:52:                  17	30.47
9:52:                  47	30.48
9:53:                  18	30.46
9:53:                  48	30.44
9:54:                  18	30.44
9:54:                  48	30.46
9:55:                  18	30.45
9:55:                  48	30.44
9:56:                  18	30.42
9:56:                  48	30.41
9:57:                  18	30.40
9:57:                  48	30.40
9:58:                  18	30.40
9:58:                  48	30.44
9:59:                  18	30.48
9:59:                  48	30.50
10:00:                  18	30.51
10:00:                  48	30.48
10:01:                  18	30.46
10:01:                  48	30.45
10:02:                  18	30.45
10:02:                  48	30.47
10:03:                  18	30.44
10:03:                  48	30.43
10:04:                  18	30.42
10:04:                  48	30.42
10:05:                  18	30.43
10:05:                  48	30.44
10:06:                  18	30.43
10:06:                  48	30.44
10:07:                  18	30.45
10:07:                  48	30.45
10:08:                  18	30.43
10:08:                  48	30.42
10:09:                  18	30.43
10:09:                  48	30.45
10:10:                  18	30.46
10:10:                  48	30.45
10:11:                  18	30.46
10:11:                  48	30.44
10:12:                  18	30.44
10:12:                  49	30.43
10:13:                  19	30.43
10:13:                  49	30.44
10:14:                  19	30.45
10:14:                  49	30.41
10:15:                  19	30.40
10:15:                  49	30.40
10:16:                  19	30.40
10:16:                  49	30.41
10:17:                  19	30.42
10:17:                  49	30.43
10:18:                  19	30.43
10:18:                  49	30.44
10:19:                  19	30.43
10:19:                  49	30.42
10:20:                  19	30.43
10:20:                  49	30.44
10:21:                  19	30.42
10:21:                  49	30.41
10:22:                  19	30.40
10:22:                  49	30.41
10:23:                  19	30.41
10:23:                  49	30.43
10:24:                  19	30.41
10:24:                  49	30.40
10:25:                  19	30.40
10:25:                  49	30.40
10:26:                  19	30.39
10:26:                  49	30.39
10:27:                  19	30.39
10:27:                  49	30.38
10:28:                  19	30.38
10:28:                  49	30.39
10:29:                  19	30.41
10:29:                  50	30.41
10:30:                  20	30.39
10:30:                  50	30.40
10:31:                  20	30.39
10:31:                  50	30.39
10:32:                  20	30.39
10:32:                  50	30.41
10:33:                  20	30.43
10:33:                  50	30.44
10:34:                  20	30.43
10:34:                  50	30.43
10:35:                  20	30.43
10:35:                  50	30.43
10:36:                  20	30.41
10:36:                  50	30.40
10:37:                  20	30.41
10:37:                  50	30.38
10:38:                  20	30.38
10:38:                  50	30.38
10:39:                  20	30.39
10:39:                  50	30.39
10:40:                  20	30.39
10:40:                  50	30.41
10:41:                  20	30.44
10:41:                  50	30.44
10:42:                  20	30.45
10:42:                  50	30.48
10:43:                  20	30.47
10:43:                  50	30.47
10:44:                  20	30.50
10:44:                  50	30.51
10:45:                  20	30.49
10:45:                  50	30.46
10:46:                  21	30.45
10:46:                  51	30.48
10:47:                  21	30.48
10:47:                  51	30.49
10:48:                  21	30.50
10:48:                  51	30.49
10:49:                  21	30.46
10:49:                  51	30.43
10:50:                  21	30.43
10:50:                  51	30.43
10:51:                  21	30.43
10:51:                  51	30.44
10:52:                  21	30.45
10:52:                  51	30.47
10:53:                  21	30.46
10:53:                  51	30.45
10:54:                  21	30.46
10:54:                  51	30.44
10:55:                  21	30.42
10:55:                  51	30.40
10:56:                  21	30.42
10:56:                  51	30.43
10:57:                  21	30.46
10:57:                  51	30.46
10:58:                  21	30.44
10:58:                  51	30.45
10:59:                  21	30.46
10:59:                  51	30.44
11:00:                  21	30.42
11:00:                  51	30.41
11:01:                  21	30.40
11:01:                  51	30.40
11:02:                  21	30.40
11:02:                  51	30.40
11:03:                  21	30.40
11:03:                  51	30.39
11:04:                  21	30.41
11:04:                  51	30.41
11:05:                  21	30.42
11:05:                  52	30.41
11:06:                  22	30.42
11:06:                  52	30.42
11:07:                  22	30.43
11:07:                  52	30.43
11:08:                  22	30.40
11:08:                  52	30.41
11:09:                  22	30.40
11:09:                  52	30.40
11:10:                  22	30.43
11:10:                  52	30.43
11:11:                  22	30.41
11:11:                  52	30.43
11:12:                  22	30.45
11:12:                  52	30.45
11:13:                  22	30.45
11:13:                  52	30.43
11:14:                  22	30.42
11:14:                  52	30.41
11:15:                  22	30.40
11:15:                  52	30.39
11:16:                  22	30.39
11:16:                  52	30.42
11:17:                  22	30.42
11:17:                  52	30.41
11:18:                  22	30.40
11:18:                  52	30.42
11:19:                  22	30.43
11:19:                  52	30.42
11:20:                  22	30.42
11:20:                  52	30.43
11:21:                  22	30.43
11:21:                  52	30.45
11:22:                  22	30.43
11:22:                  52	30.41
11:23:                  22	30.42
11:23:                  52	30.44
11:24:                  22	30.44
11:24:                  52	30.44
11:25:                  22	30.43
11:25:                  53	30.40
11:26:                  23	30.39
11:26:                  53	30.37
11:27:                  23	30.40
11:27:                  53	30.40
11:28:                  23	30.40
11:28:                  53	30.40
11:29:                  23	30.40
11:29:                  53	30.39
11:30:                  23	30.39
11:30:                  53	30.39
11:31:                  23	30.40
11:31:                  53	30.39
11:32:                  23	30.39
11:32:                  53	30.41
11:33:                  23	30.40
11:33:                  53	30.40
11:34:                  23	30.44
11:34:                  53	30.43
11:35:                  23	30.44
11:35:                  53	30.44
11:36:                  23	30.43
11:36:                  53	30.42
11:37:                  23	30.42
11:37:                  53	30.41
11:38:                  23	30.40
11:38:                  53	30.42
11:39:                  23	30.44
11:39:                  53	30.44
11:40:                  23	30.44
11:40:                  53	30.45
11:41:                  23	30.44
11:41:                  53	30.45
11:42:                  23	30.46
11:42:                  53	30.48
11:43:                  23	30.48
11:43:                  53	30.49
11:44:                  23	30.47
11:44:                  53	30.49
11:45:                  24	30.47
11:45:                  54	30.47
11:46:                  24	30.47
11:46:                  54	30.45
11:47:                  24	30.46
11:47:                  54	30.48
11:48:                  24	30.48
11:48:                  54	30.44
11:49:                  24	30.45
11:49:                  54	30.45
11:50:                  24	30.43
11:50:                  54	30.42
11:51:                  24	30.42
11:51:                  54	30.47
11:52:                  24	30.49
11:52:                  54	30.48
11:53:                  24	30.49
11:53:                  54	30.48
11:54:                  24	30.48
11:54:                  54	30.49
11:55:                  24	30.49
11:55:                  54	30.50
11:56:                  24	30.50
11:56:                  54	30.49
11:57:                  24	30.50
11:57:                  54	30.49
11:58:                  24	30.50
11:58:                  54	30.49
11:59:                  24	30.49
11:59:                  54	30.50
12:00:                  24	30.50
12:00:                  54	30.49
12:01:                  24	30.49
12:01:                  54	30.49
12:02:                  25	30.49
12:02:                  55	30.48
12:03:                  25	30.46
12:03:                  55	30.47
12:04:                  25	30.47
12:04:                  55	30.48
12:05:                  25	30.48
12:05:                  55	30.48
12:06:                  25	30.48
12:06:                  55	30.48
12:07:                  25	30.50
12:07:                  55	30.50
12:08:                  25	30.49
12:08:                  55	30.49
12:09:                  25	30.50
12:09:                  55	30.50
12:10:                  25	30.50
12:10:                  55	30.50
12:11:                  25	30.50
12:11:                  55	30.49
12:12:                  25	30.50
12:12:                  55	30.50
12:13:                  25	30.49
12:13:                  55	30.47
12:14:                  25	30.47
12:14:                  55	30.46
12:15:                  25	30.46
12:15:                  55	30.45
12:16:                  25	30.46
12:16:                  55	30.46
12:17:                  25	30.47
12:17:                  55	30.48
12:18:                  25	30.48
12:18:                  56	30.48
12:19:                  26	30.48
12:19:                  56	30.49
12:20:                  26	30.48
12:20:                  56	30.48
12:21:                  26	30.50
12:21:                  56	30.49
12:22:                  26	30.48
12:22:                  56	30.46
12:23:                  26	30.45
12:23:                  56	30.44
12:24:                  26	30.44
12:24:                  56	30.44
12:25:                  26	30.45
12:25:                  56	30.47
12:26:                  26	30.47
12:26:                  56	30.45
12:27:                  26	30.48
12:27:                  56	30.47
12:28:                  26	30.47
12:28:                  56	30.47
12:29:                  26	30.46
12:29:                  56	30.47
12:30:                  26	30.48
12:30:                  56	30.49
12:31:                  26	30.49
12:31:                  56	30.48
12:32:                  26	30.47
12:32:                  56	30.46
12:33:                  26	30.46
12:33:                  56	30.46
12:34:                  26	30.45
12:34:                  56	30.44
12:35:                  27	30.45
12:35:                  57	30.46
12:36:                  27	30.46
12:36:                  57	30.46
12:37:                  27	30.46
12:37:                  57	30.45
12:38:                  27	30.45
12:38:                  57	30.46
12:39:                  27	30.47
12:39:                  57	30.48
12:40:                  27	30.47
12:40:                  57	30.47
12:41:                  27	30.47
12:41:                  57	30.47
12:42:                  27	30.47
12:42:                  57	30.46
12:43:                  27	30.48
12:43:                  57	30.49
12:44:                  27	30.48
12:44:                  57	30.48
12:45:                  27	30.50
12:45:                  57	30.48
12:46:                  27	30.48
12:46:                  57	30.48
12:47:                  27	30.47
12:47:                  57	30.48
12:48:                  27	30.48
12:48:                  57	30.48
12:49:                  27	30.47
12:49:                  57	30.48
12:50:                  27	30.48
12:50:                  57	30.48
12:51:                  27	30.49
12:51:                  57	30.47
12:52:                  27	30.48
12:52:                  57	30.50
12:53:                  27	30.49
12:53:                  57	30.49
12:54:                  27	30.50
12:54:                  57	30.49
12:55:                  27	30.49
12:55:                  58	30.50
12:56:                  28	30.49
12:56:                  58	30.50
12:57:                  28	30.48
12:57:                  58	30.50
12:58:                  28	30.49
12:58:                  58	30.49
12:59:                  28	30.48
12:59:                  58	30.48
13:00:                  28	30.48
13:00:                  58	30.47
13:01:                  28	30.48
13:01:                  58	30.48
13:02:                  28	30.49
13:02:                  58	30.49
13:03:                  28	30.50
13:03:                  58	30.50
13:04:                  28	30.49
13:04:                  58	30.49
13:05:                  28	30.48
13:05:                  58	30.49
13:06:                  28	30.49
13:06:                  58	30.48
13:07:                  28	30.48
13:07:                  58	30.49
13:08:                  28	30.50
13:08:                  58	30.50
13:09:                  28	30.50
13:09:                  58	30.50
13:10:                  28	30.51
13:10:                  58	30.50
13:11:                  28	30.51
13:11:                  58	30.52
13:12:                  29	30.52
13:12:                  59	30.52
13:13:                  29	30.52
13:13:                  59	30.51
13:14:                  29	30.50
13:14:                  59	30.51
13:15:                  29	30.50
13:15:                  59	30.51
13:16:                  29	30.51
13:16:                  59	30.50
13:17:                  29	30.49
13:17:                  59	30.50
13:18:                  29	30.51
13:18:                  59	30.52
13:19:                  29	30.50
13:19:                  59	30.52
13:20:                  29	30.51
13:20:                  59	30.51
13:21:                  29	30.51
13:21:                  59	30.50
13:22:                  29	30.51
13:22:                  59	30.52
13:23:                  29	30.53
13:23:                  59	30.53
13:24:                  29	30.53
13:24:                  59	30.51
13:25:                  29	30.52
13:25:                  59	30.52
13:26:                  29	30.53
13:26:                  59	30.51
13:27:                  29	30.52
13:27:                  59	30.52
13:28:                  29	30.52
13:29:                   0	30.51
13:29:                  30	30.52
13:30:                   0	30.53
13:30:                  30	30.53
13:31:                   0	30.52
13:31:                  30	30.52
13:32:                   0	30.53
13:32:                  30	30.52
13:33:                   0	30.53
13:33:                  30	30.53
13:34:                   0	30.52
13:34:                  30	30.51
13:35:                   0	30.52
13:35:                  30	30.52
13:36:                   0	30.52
13:36:                  30	30.51
13:37:                   0	30.52
13:37:                  30	30.53
13:38:                   0	30.52
13:38:                  30	30.51
13:39:                   0	30.52
13:39:                  30	30.52
13:40:                   0	30.52
13:40:                  30	30.51
13:41:                   0	30.50
13:41:                  30	30.51
13:42:                   0	30.52
13:42:                  30	30.52
13:43:                   0	30.53
13:43:                  30	30.53
13:44:                   0	30.53
13:44:                  30	30.53
13:45:                   0	30.52
13:45:                  30	30.52
13:46:                   1	30.51
13:46:                  31	30.51
13:47:                   1	30.53
13:47:                  31	30.51
13:48:                   1	30.53
13:48:                  31	30.52
13:49:                   1	30.52
13:49:                  31	30.52
13:50:                   1	30.52
13:50:                  31	30.53
13:51:                   1	30.52
13:51:                  31	30.52
13:52:                   1	30.54
13:52:                  31	30.52
13:53:                   1	30.54
13:53:                  31	30.52
13:54:                   1	30.54
13:54:                  31	30.54
13:55:                   1	30.53
13:55:                  31	30.52
13:56:                   1	30.52
13:56:                  31	30.54
13:57:                   1	30.54
13:57:                  31	30.56
13:58:                   1	30.56
13:58:                  31	30.54
13:59:                   1	30.54
13:59:                  31	30.56
14:00:                   1	30.56
14:00:                  31	30.55
14:01:                   1	30.56
14:01:                  31	30.55
14:02:                   1	30.55
14:02:                  31	30.56
14:03:                   1	30.54
14:03:                  31	30.56
14:04:                   1	30.56
14:04:                  32	30.55
14:05:                   2	30.55
14:05:                  32	30.56
14:06:                   2	30.55
14:06:                  32	30.56
14:07:                   2	30.56
14:07:                  32	30.54
14:08:                   2	30.54
14:08:                  32	30.57
14:09:                   2	30.56
14:09:                  32	30.57
14:10:                   2	30.56
14:10:                  32	30.56
14:11:                   2	30.55
14:11:                  32	30.56
14:12:                   2	30.56
14:12:                  32	30.56
14:13:                   2	30.54
14:13:                  32	30.56
14:14:                   2	30.58
14:14:                  32	30.57
14:15:                   2	30.57
14:15:                  32	30.57
14:16:                   2	30.57
14:16:                  32	30.57
14:17:                   2	30.59
14:17:                  32	30.59
14:18:                   2	30.59
14:18:                  32	30.58
14:19:                   2	30.59
14:19:                  32	30.60
14:20:                   2	30.61
14:20:                  32	30.59
14:21:                   2	30.59
14:21:                  32	30.59
14:22:                   2	30.60
14:22:                  32	30.60
14:23:                   2	30.62
14:23:                  32	30.61
14:24:                   3	30.60
14:24:                  33	30.59
14:25:                   3	30.59
14:25:                  33	30.59
14:26:                   3	30.59
14:26:                  33	30.60
14:27:                   3	30.60
14:27:                  33	30.62
14:28:                   3	30.62
14:28:                  33	30.60
14:29:                   3	30.60
14:29:                  33	30.62
14:30:                   3	30.61
14:30:                  33	30.60
14:31:                   3	30.61
14:31:                  33	30.61
14:32:                   3	30.62
14:32:                  33	30.61
14:33:                   3	30.61
14:33:                  33	30.62
14:34:                   3	30.61
14:34:                  33	30.61
14:35:                   3	30.61
14:35:                  33	30.61
14:36:                   3	30.61
14:36:                  33	30.61
14:37:                   3	30.63
14:37:                  33	30.62
14:38:                   3	30.61
14:38:                  33	30.61
14:39:                   3	30.62
14:39:                  33	30.62
14:40:                   3	30.62
14:40:                  33	30.62
14:41:                   3	30.61
14:41:                  33	30.63
14:42:                   3	30.61
14:42:                  33	30.61
14:43:                   3	30.62
14:43:                  34	30.63
14:44:                   4	30.62
14:44:                  34	30.63
14:45:                   4	30.63
14:45:                  34	30.62
14:46:                   4	30.62
14:46:                  34	30.63
14:47:                   4	30.66
14:47:                  34	30.64
14:48:                   4	30.64
14:48:                  34	30.65
14:49:                   4	30.64
14:49:                  34	30.64
14:50:                   4	30.65
14:50:                  34	30.63
14:51:                   4	30.63
14:51:                  34	30.63
14:52:                   4	30.64
14:52:                  34	30.63
14:53:                   4	30.65
14:53:                  34	30.64
14:54:                   4	30.65
14:54:                  34	30.63
14:55:                   4	30.65
14:55:                  34	30.65
14:56:                   4	30.66
14:56:                  34	30.65
14:57:                   4	30.64
14:57:                  34	30.64
14:58:                   4	30.64
14:58:                  34	30.66
14:59:                   4	30.65
14:59:                  34	30.66
15:00:                   4	30.65
15:00:                  34	30.66
15:01:                   4	30.66
15:01:                  34	30.66
15:02:                   5	30.64
15:02:                  35	30.65
15:03:                   5	30.67
15:03:                  35	30.69
15:04:                   5	30.69
15:04:                  35	30.68
15:05:                   5	30.67
15:05:                  35	30.67
15:06:                   5	30.66
15:06:                  35	30.66
15:07:                   5	30.66
15:07:                  35	30.66
15:08:                   5	30.66
15:08:                  35	30.66
15:09:                   5	30.64
15:09:                  35	30.65
15:10:                   5	30.65
15:10:                  35	30.67
15:11:                   5	30.67
15:11:                  35	30.67
15:12:                   5	30.67
15:12:                  35	30.67
15:13:                   5	30.68
15:13:                  35	30.68
15:14:                   5	30.68
15:14:                  35	30.67
15:15:                   5	30.67
15:15:                  35	30.67
15:16:                   5	30.69
15:16:                  35	30.70
15:17:                   5	30.71
15:17:                  35	30.72
15:18:                   5	30.75
15:18:                  35	30.77
15:19:                   5	30.78
15:19:                  35	30.73
15:20:                   5	30.72
15:20:                  36	30.72
15:21:                   6	30.71
15:21:                  36	30.71
15:22:                   6	30.70
15:22:                  36	30.70
15:23:                   6	30.69
15:23:                  36	30.70
15:24:                   6	30.69
15:24:                  36	30.69
15:25:                   6	30.70
15:25:                  36	30.69
15:26:                   6	30.69
15:26:                  36	30.69
15:27:                   6	30.69
15:27:                  36	30.70
15:28:                   6	30.69
15:28:                  36	30.68
15:29:                   6	30.68
15:29:                  36	30.68
15:30:                   6	30.68
15:30:                  36	30.68
15:31:                   6	30.67
15:31:                  36	30.68
15:32:                   6	30.68
15:32:                  36	30.69
15:33:                   6	30.69
15:33:                  36	30.68
15:34:                   6	30.70
15:34:                  36	30.69
15:35:                   6	30.67
15:35:                  36	30.68
15:36:                   6	30.68
15:36:                  36	30.68
15:37:                   6	30.67
15:37:                  37	30.67
15:38:                   7	30.69
15:38:                  37	30.68
15:39:                   7	30.67
15:39:                  37	30.68
15:40:                   7	30.69
15:40:                  37	30.68
15:41:                   7	30.68
15:41:                  37	30.68
15:42:                   7	30.69
15:42:                  37	30.68
15:43:                   7	30.68
15:43:                  37	30.68
15:44:                   7	30.68
15:44:                  37	30.67
15:45:                   7	30.68
15:45:                  37	30.66
15:46:                   7	30.66
15:46:                  37	30.66
15:47:                   7	30.67
15:47:                  37	30.69
15:48:                   7	30.68
15:48:                  37	30.68
15:49:                   7	30.68
15:49:                  37	30.68
15:50:                   7	30.69
15:50:                  37	30.69
15:51:                   7	30.69
15:51:                  37	30.71
15:52:                   7	30.69
15:52:                  37	30.69
15:53:                   7	30.69
15:53:                  37	30.69
15:54:                   7	30.69
15:54:                  37	30.68
15:55:                   7	30.68
15:55:                  37	30.70
15:56:                   7	30.72
15:56:                  37	30.73
15:57:                   7	30.70
15:57:                  37	30.70
15:58:                   7	30.70
15:58:                  37	30.69
15:59:                   7	30.69
15:59:                  37	30.69
16:00:                   7	30.68
16:00:                  37	30.68
16:01:                   7	30.68
16:01:                  37	30.67
16:02:                   7	30.67
16:02:                  38	30.68
16:03:                   8	30.69
16:03:                  38	30.68
16:04:                   8	30.68
16:04:                  38	30.68
16:05:                   8	30.70
16:05:                  38	30.68
16:06:                   8	30.69
16:06:                  38	30.67
16:07:                   8	30.68
16:07:                  38	30.69
16:08:                   8	30.69
16:08:                  38	30.68
16:09:                   8	30.69
16:09:                  38	30.68
16:10:                   8	30.69
16:10:                  38	30.70
16:11:                   8	30.70
16:11:                  38	30.72
16:12:                   8	30.72
16:12:                  38	30.71
16:13:                   8	30.72
16:13:                  38	30.72
16:14:                   8	30.73
16:14:                  38	30.71
16:15:                   8	30.71
16:15:                  38	30.71
16:16:                   8	30.71
16:16:                  38	30.70
16:17:                   8	30.71
16:17:                  38	30.70
16:18:                   9	30.70
16:18:                  39	30.69
16:19:                   9	30.71
16:19:                  39	30.72
16:20:                   9	30.70
16:20:                  39	30.69
16:21:                   9	30.69
16:21:                  39	30.70
16:22:                   9	30.69
16:22:                  39	30.69
16:23:                   9	30.70
16:23:                  39	30.70
16:24:                   9	30.69
16:24:                  39	30.72
16:25:                   9	30.72
16:25:                  39	30.71
16:26:                   9	30.71
16:26:                  39	30.71
16:27:                   9	30.73
16:27:                  39	30.72
16:28:                   9	30.72
16:28:                  39	30.71
16:29:                   9	30.71
16:29:                  39	30.72
16:30:                   9	30.72
16:30:                  39	30.72
16:31:                   9	30.72
16:31:                  39	30.74
16:32:                   9	30.74
16:32:                  39	30.74
16:33:                   9	30.73
16:33:                  39	30.72
16:34:                   9	30.73
16:34:                  39	30.73
16:35:                   9	30.71
16:35:                  39	30.72
16:36:                   9	30.74
16:36:                  39	30.76
16:37:                   9	30.77
16:37:                  40	30.76
16:38:                  10	30.76
16:38:                  40	30.76
16:39:                  10	30.76
16:39:                  40	30.76
16:40:                  10	30.76
16:40:                  40	30.76
16:41:                  10	30.77
16:41:                  40	30.76
16:42:                  10	30.75
16:42:                  40	30.76
16:43:                  10	30.75
16:43:                  40	30.75
16:44:                  10	30.75
16:44:                  40	30.74
16:45:                  10	30.73
16:45:                  40	30.75
16:46:                  10	30.74
16:46:                  40	30.73
16:47:                  10	30.74
16:47:                  40	30.74
16:48:                  10	30.74
16:48:                  40	30.74
16:49:                  10	30.75
16:49:                  40	30.75
16:50:                  10	30.76
16:50:                  40	30.75
16:51:                  10	30.75
16:51:                  40	30.75
16:52:                  10	30.76
16:52:                  40	30.74
16:53:                  10	30.74
16:53:                  41	30.75
16:54:                  11	30.77
16:54:                  41	30.76
16:55:                  11	30.77
16:55:                  41	30.77
16:56:                  11	30.79
16:56:                  41	30.82
16:57:                  11	30.79
16:57:                  41	30.78
16:58:                  11	30.79
16:58:                  41	30.77
16:59:                  11	30.77
16:59:                  41	30.76
17:00:                  11	30.75
17:00:                  41	30.77
17:01:                  11	30.76
17:01:                  41	30.78
17:02:                  11	30.77
17:02:                  41	30.76
17:03:                  11	30.77
17:03:                  41	30.78
17:04:                  11	30.77
17:04:                  41	30.76
17:05:                  11	30.76
17:05:                  41	30.77
17:06:                  11	30.78
17:06:                  41	30.80
17:07:                  11	30.80
17:07:                  41	30.80
17:08:                  11	30.80
17:08:                  41	30.80
17:09:                  11	30.80
17:09:                  41	30.80
17:10:                  12	30.80
17:10:                  42	30.79
17:11:                  12	30.79
17:11:                  42	30.80
17:12:                  12	30.79
17:12:                  42	30.79
17:13:                  12	30.80
17:13:                  42	30.81
17:14:                  12	30.82
17:14:                  42	30.82
17:15:                  12	30.81
17:15:                  42	30.81
17:16:                  12	30.79
17:16:                  42	30.79
17:17:                  12	30.80
17:17:                  42	30.79
17:18:                  12	30.81
17:18:                  42	30.80
17:19:                  12	30.79
17:19:                  42	30.78
17:20:                  12	30.78
17:20:                  42	30.78
17:21:                  12	30.79
17:21:                  42	30.78
17:22:                  12	30.78
17:22:                  42	30.76
17:23:                  12	30.77
17:23:                  42	30.78
17:24:                  12	30.78
17:24:                  42	30.78
17:25:                  12	30.78
17:25:                  42	30.78
17:26:                  12	30.78
17:26:                  42	30.80
17:27:                  12	30.79
17:27:                  42	30.78
17:28:                  12	30.78
17:28:                  42	30.78
17:29:                  12	30.78
17:29:                  43	30.78
17:30:                  13	30.77
17:30:                  43	30.77
17:31:                  13	30.77
17:31:                  43	30.77
17:32:                  13	30.78
17:32:                  43	30.79
17:33:                  13	30.78
17:33:                  43	30.78
17:34:                  13	30.80
17:34:                  43	30.82
17:35:                  13	30.82
17:35:                  43	30.81
17:36:                  13	30.80
17:36:                  43	30.80
17:37:                  13	30.80
17:37:                  43	30.80
17:38:                  13	30.81
17:38:                  43	30.80
17:39:                  13	30.80
17:39:                  43	30.81
17:40:                  13	30.80
17:40:                  43	30.81
17:41:                  13	30.82
17:41:                  43	30.81
17:42:                  13	30.81
17:42:                  43	30.80
17:43:                  13	30.80
17:43:                  43	30.80
17:44:                  13	30.81
17:44:                  43	30.81
17:45:                  13	30.82
17:45:                  43	30.84
17:46:                  13	30.82
17:46:                  43	30.82
17:47:                  13	30.81
17:47:                  43	30.81
17:48:                  13	30.80
17:48:                  43	30.81
17:49:                  13	30.81
17:49:                  43	30.81
17:50:                  13	30.81
17:50:                  43	30.81
17:51:                  13	30.83
17:51:                  43	30.83
17:52:                  13	30.81
17:52:                  43	30.81
17:53:                  13	30.82
17:53:                  43	30.83
17:54:                  13	30.83
17:54:                  43	30.83
17:55:                  14	30.83
17:55:                  44	30.82
17:56:                  14	30.81
17:56:                  44	30.80
17:57:                  14	30.79
17:57:                  44	30.79
17:58:                  14	30.81
17:58:                  44	30.80
17:59:                  14	30.81
17:59:                  44	30.83
18:00:                  14	30.82
18:00:                  44	30.81
18:01:                  14	30.82
18:01:                  44	30.81
18:02:                  14	30.81
18:02:                  44	30.79
18:03:                  14	30.81
18:03:                  44	30.79
18:04:                  14	30.79
18:04:                  44	30.80
18:05:                  14	30.81
18:05:                  44	30.80
18:06:                  14	30.81
18:06:                  44	30.80
18:07:                  14	30.81
18:07:                  44	30.82
18:08:                  14	30.82
18:08:                  44	30.83
18:09:                  14	30.82
18:09:                  44	30.82
18:10:                  14	30.82
18:10:                  44	30.82
18:11:                  14	30.82
18:11:                  44	30.83
18:12:                  14	30.82
18:12:                  44	30.82
18:13:                  14	30.82
18:13:                  44	30.81
18:14:                  14	30.81
18:14:                  45	30.81
18:15:                  15	30.82
18:15:                  45	30.82
18:16:                  15	30.82
18:16:                  45	30.83
18:17:                  15	30.82
18:17:                  45	30.82
18:18:                  15	30.83
18:18:                  45	30.82
18:19:                  15	30.82
18:19:                  45	30.82
18:20:                  15	30.82
18:20:                  45	30.83
18:21:                  15	30.83
18:21:                  45	30.81
18:22:                  15	30.82
18:22:                  45	30.82
18:23:                  15	30.84
18:23:                  45	30.83
18:24:                  15	30.83
18:24:                  45	30.82
18:25:                  15	30.83
18:25:                  45	30.83
18:26:                  15	30.82
18:26:                  45	30.83
18:27:                  15	30.82
18:27:                  45	30.83
18:28:                  15	30.82
18:28:                  45	30.83
18:29:                  15	30.85
18:29:                  45	30.85
18:30:                  15	30.85
18:30:                  45	30.85
18:31:                  15	30.84
18:31:                  46	30.84
18:32:                  16	30.85
18:32:                  46	30.84
18:33:                  16	30.84
18:33:                  46	30.82
18:34:                  16	30.84
18:34:                  46	30.84
18:35:                  16	30.83
18:35:                  46	30.83
18:36:                  16	30.84
18:36:                  46	30.83
18:37:                  16	30.84
18:37:                  46	30.84
18:38:                  16	30.85
18:38:                  46	30.85
18:39:                  16	30.85
18:39:                  46	30.86
18:40:                  16	30.84
18:40:                  46	30.84
18:41:                  16	30.85
18:41:                  46	30.85
18:42:                  16	30.85
18:42:                  46	30.84
18:43:                  16	30.85
18:43:                  46	30.85
18:44:                  16	30.85
18:44:                  46	30.84
18:45:                  16	30.84
18:45:                  46	30.85
18:46:                  16	30.84
18:46:                  46	30.84
18:47:                  16	30.84
18:47:                  46	30.85
18:48:                  16	30.85
18:48:                  46	30.85
18:49:                  16	30.85
18:49:                  46	30.85
18:50:                  16	30.85
18:50:                  47	30.86
18:51:                  17	30.86
18:51:                  47	30.87
18:52:                  17	30.86
18:52:                  47	30.86
18:53:                  17	30.85
18:53:                  47	30.85
18:54:                  17	30.85
18:54:                  47	30.85
18:55:                  17	30.85
18:55:                  47	30.85
18:56:                  17	30.85
18:56:                  47	30.86
18:57:                  17	30.84
18:57:                  47	30.84
18:58:                  17	30.85
18:58:                  47	30.86
18:59:                  17	30.85
18:59:                  47	30.85
19:00:                  17	30.85
19:00:                  47	30.85
19:01:                  17	30.85
19:01:                  47	30.84
19:02:                  17	30.84
19:02:                  47	30.83
19:03:                  17	30.84
19:03:                  47	30.84
19:04:                  17	30.85
19:04:                  47	30.84
19:05:                  17	30.84
19:05:                  47	30.85
19:06:                  17	30.86
19:06:                  47	30.85
19:07:                  17	30.85
19:07:                  47	30.84
19:08:                  17	30.84
19:08:                  47	30.85
19:09:                  17	30.85
19:09:                  47	30.85
19:10:                  17	30.85
19:10:                  47	30.84
19:11:                  17	30.85
19:11:                  47	30.85
19:12:                  17	30.85
19:12:                  47	30.86
19:13:                  17	30.86
19:13:                  48	30.86
19:14:                  18	30.85
19:14:                  48	30.85
19:15:                  18	30.85
19:15:                  48	30.85
19:16:                  18	30.85
19:16:                  48	30.86
19:17:                  18	30.84
19:17:                  48	30.85
19:18:                  18	30.85
19:18:                  48	30.85
19:19:                  18	30.84
19:19:                  48	30.85
19:20:                  18	30.85
19:20:                  48	30.84
19:21:                  18	30.85
19:21:                  48	30.84
19:22:                  18	30.84
19:22:                  48	30.85
19:23:                  18	30.85
19:23:                  48	30.85
19:24:                  18	30.85
19:24:                  48	30.85
19:25:                  18	30.86
19:25:                  48	30.86
19:26:                  18	30.86
19:26:                  48	30.85
19:27:                  18	30.85
19:27:                  48	30.86
19:28:                  18	30.85
19:28:                  48	30.86
19:29:                  18	30.87
19:29:                  48	30.86
19:30:                  19	30.86
19:30:                  49	30.86
19:31:                  19	30.86
19:31:                  49	30.86
19:32:                  19	30.84
19:32:                  49	30.84
19:33:                  19	30.85
19:33:                  49	30.84
19:34:                  19	30.86
19:34:                  49	30.86
19:35:                  19	30.85
19:35:                  49	30.87
19:36:                  19	30.86
19:36:                  49	30.86
19:37:                  19	30.86
19:37:                  49	30.86
19:38:                  19	30.85
19:38:                  49	30.85
19:39:                  19	30.84
19:39:                  49	30.84
19:40:                  19	30.85
19:40:                  49	30.85
19:41:                  19	30.86
19:41:                  49	30.85
19:42:                  19	30.85
19:42:                  49	30.85
19:43:                  19	30.84
19:43:                  49	30.85
19:44:                  19	30.85
19:44:                  49	30.86
19:45:                  19	30.86
19:45:                  49	30.86
19:46:                  19	30.84
19:46:                  49	30.85
19:47:                  19	30.85
19:47:                  49	30.85
19:48:                  19	30.84
19:48:                  49	30.85
19:49:                  19	30.85
19:49:                  50	30.85
19:50:                  20	30.86
19:50:                  50	30.85
19:51:                  20	30.85
19:51:                  50	30.85
19:52:                  20	30.85
19:52:                  50	30.85
19:53:                  20	30.85
19:53:                  50	30.86
19:54:                  20	30.86
19:54:                  50	30.85
19:55:                  20	30.86
19:55:                  50	30.86
19:56:                  20	30.87
19:56:                  50	30.86
19:57:                  20	30.88
19:57:                  50	30.86
19:58:                  20	30.86
19:58:                  50	30.86
19:59:                  20	30.86
19:59:                  50	30.85
20:00:                  20	30.86
20:00:                  50	30.84
20:01:                  20	30.85
20:01:                  50	30.85
20:02:                  20	30.85
20:02:                  50	30.85
20:03:                  20	30.85
20:03:                  50	30.85
20:04:                  20	30.84
20:04:                  50	30.84
20:05:                  20	30.84
20:05:                  50	30.84
20:06:                  21	30.85
20:06:                  51	30.84
20:07:                  21	30.85
20:07:                  51	30.84
20:08:                  21	30.84
20:08:                  51	30.85
20:09:                  21	30.84
20:09:                  51	30.86
20:10:                  21	30.85
20:10:                  51	30.85
20:11:                  21	30.87
20:11:                  51	30.86
20:12:                  21	30.86
20:12:                  51	30.87
20:13:                  21	30.86
20:13:                  51	30.85
20:14:                  21	30.85
20:14:                  51	30.85
20:15:                  21	30.85
20:15:                  51	30.85
20:16:                  21	30.85
20:16:                  51	30.86
20:17:                  21	30.87
20:17:                  51	30.85
20:18:                  21	30.86
20:18:                  51	30.89
20:19:                  21	30.91
20:19:                  51	30.90
20:20:                  21	30.90
20:20:                  51	30.89
20:21:                  21	30.89
20:21:                  51	30.88
20:22:                  21	30.86
20:22:                  51	30.86
20:23:                  21	30.86
20:23:                  51	30.88
20:24:                  21	30.86
20:24:                  51	30.88
20:25:                  21	30.87
20:25:                  51	30.88
20:26:                  22	30.91
20:26:                  52	30.91
20:27:                  22	30.90
20:27:                  52	30.89
20:28:                  22	30.89
20:28:                  52	30.89
20:29:                  22	30.90
20:29:                  52	30.90
20:30:                  22	30.90
20:30:                  52	30.90
20:31:                  22	30.89
20:31:                  52	30.89
20:32:                  22	30.88
20:32:                  52	30.90
20:33:                  22	30.89
20:33:                  52	30.92
20:34:                  22	30.93
20:34:                  52	30.93
20:35:                  22	30.92
20:35:                  52	30.93
20:36:                  22	30.91
20:36:                  52	30.91
20:37:                  22	30.90
20:37:                  52	30.91
20:38:                  22	30.92
20:38:                  52	30.92
20:39:                  22	30.92
20:39:                  52	30.91
20:40:                  22	30.92
20:40:                  52	30.93
20:41:                  22	30.92
20:41:                  52	30.93
20:42:                  22	30.94
20:42:                  52	30.92
20:43:                  22	30.92
20:43:                  52	30.91
20:44:                  22	30.92
20:44:                  52	30.90
20:45:                  22	30.90
20:45:                  52	30.90
20:46:                  22	30.90
20:46:                  52	30.92
20:47:                  22	30.94
20:47:                  52	30.95
20:48:                  23	30.93
20:48:                  53	30.93
20:49:                  23	30.94
20:49:                  53	30.94
20:50:                  23	30.95
20:50:                  53	30.96
20:51:                  23	30.93
20:51:                  53	30.92
20:52:                  23	30.93
20:52:                  53	30.93
20:53:                  23	30.94
20:53:                  53	30.95
20:54:                  23	30.97
20:54:                  53	30.98
20:55:                  23	30.98
20:55:                  53	30.97
20:56:                  23	30.96
20:56:                  53	30.95
20:57:                  23	30.96
20:57:                  53	30.94
20:58:                  23	30.97
20:58:                  53	30.99
20:59:                  23	31.00
20:59:                  53	31.00
21:00:                  23	30.99
21:00:                  53	31.00
21:01:                  23	30.99
21:01:                  53	30.98
21:02:                  23	30.96
21:02:                  53	30.97
21:03:                  23	30.98
21:03:                  53	31.00
21:04:                  23	30.99
21:04:                  53	30.97
21:05:                  23	30.97
21:05:                  53	30.97
21:06:                  23	30.98
21:06:                  53	30.98
21:07:                  23	30.97
21:07:                  53	30.96
21:08:                  24	30.97
21:08:                  54	30.97
21:09:                  24	30.96
21:09:                  54	30.97
21:10:                  24	30.97
21:10:                  54	30.97
21:11:                  24	30.97
21:11:                  54	30.98
21:12:                  24	30.98
21:12:                  54	30.96
21:13:                  24	30.96
21:13:                  54	30.96
21:14:                  24	30.96
21:14:                  54	30.95
21:15:                  24	30.98
21:15:                  54	30.98
21:16:                  24	30.97
21:16:                  54	30.99
21:17:                  24	30.99
21:17:                  54	31.00
21:18:                  24	30.98
21:18:                  54	31.00
21:19:                  24	31.00
21:19:                  54	30.99
21:20:                  24	30.99
21:20:                  54	30.97
21:21:                  24	30.98
21:21:                  54	30.98
21:22:                  24	30.96
21:22:                  54	30.94
21:23:                  24	30.96
21:23:                  54	30.96
21:24:                  24	30.95
21:24:                  54	30.96
21:25:                  25	30.94
21:25:                  55	30.94
21:26:                  25	30.98
21:26:                  55	30.99
21:27:                  25	30.99
21:27:                  55	30.99
21:28:                  25	30.99
21:28:                  55	30.99
21:29:                  25	31.00
21:29:                  55	30.98
21:30:                  25	30.98
21:30:                  55	30.99
21:31:                  25	31.00
21:31:                  55	31.01
21:32:                  25	31.01
21:32:                  55	31.00
21:33:                  25	31.00
21:33:                  55	30.99
21:34:                  25	31.00
21:34:                  55	31.01
21:35:                  25	30.99
21:35:                  55	31.00
21:36:                  25	31.00
21:36:                  55	30.99
21:37:                  25	30.97
21:37:                  55	30.97
21:38:                  25	30.98
21:38:                  55	30.97
21:39:                  25	30.98
21:39:                  55	30.97
21:40:                  25	30.99
21:40:                  55	30.98
21:41:                  25	30.99
21:41:                  55	31.01
21:42:                  25	31.00
21:42:                  55	30.98
21:43:                  25	30.98
21:43:                  56	30.99
21:44:                  26	31.00
21:44:                  56	30.99
21:45:                  26	31.02
21:45:                  56	31.03
21:46:                  26	31.03
21:46:                  56	31.03
21:47:                  26	31.02
21:47:                  56	31.01
21:48:                  26	31.02
21:48:                  56	31.03
21:49:                  26	31.03
21:49:                  56	31.03
21:50:                  26	31.01
21:50:                  56	31.01
21:51:                  26	31.01
21:51:                  56	31.01
21:52:                  26	31.01
21:52:                  56	31.01
21:53:                  26	31.02
21:53:                  56	31.01
21:54:                  26	31.01
21:54:                  56	31.02
21:55:                  26	31.04
21:55:                  56	31.04
21:56:                  26	31.02
21:56:                  56	31.01
21:57:                  26	31.02
21:57:                  56	31.02
21:58:                  26	31.01
21:58:                  56	31.01
21:59:                  26	31.00
21:59:                  56	31.00
22:00:                  27	30.99
22:00:                  57	31.01
22:01:                  27	31.01
22:01:                  57	31.00
22:02:                  27	31.01
22:02:                  57	31.02
22:03:                  27	31.02
22:03:                  57	31.00
22:04:                  27	30.99
22:04:                  57	30.98
22:05:                  27	31.01
22:05:                  57	31.01
22:06:                  27	31.02
22:06:                  57	31.02
22:07:                  27	31.01
22:07:                  57	30.99
22:08:                  27	30.99
22:08:                  57	31.02
22:09:                  27	31.02
22:09:                  57	31.01
22:10:                  27	31.04
22:10:                  57	31.02
22:11:                  27	31.01
22:11:                  57	31.02
22:12:                  27	31.01
22:12:                  57	31.00
22:13:                  27	31.01
22:13:                  57	31.03
22:14:                  27	31.01
22:14:                  57	31.02
22:15:                  27	31.01
22:15:                  57	31.01
22:16:                  27	31.01
22:16:                  58	31.02
22:17:                  28	31.05
22:17:                  58	31.03
22:18:                  28	31.02
22:18:                  58	31.01
22:19:                  28	31.01
22:19:                  58	31.01
22:20:                  28	31.04
22:20:                  58	31.03
22:21:                  28	31.05
22:21:                  58	31.05
22:22:                  28	31.03
22:22:                  58	31.06
22:23:                  28	31.03
22:23:                  58	31.01
22:24:                  28	31.04
22:24:                  58	31.04
22:25:                  28	31.06
22:25:                  58	31.07
22:26:                  28	31.05
22:26:                  58	31.05
22:27:                  28	31.07
22:27:                  58	31.04
22:28:                  28	31.03
22:28:                  58	31.05
22:29:                  28	31.04
22:29:                  58	31.05
22:30:                  28	31.05
22:30:                  58	31.04
22:31:                  28	31.02
22:31:                  58	31.01
22:32:                  28	31.02
22:32:                  58	31.02
22:33:                  28	31.04
22:33:                  59	31.06
22:34:                  29	31.07
22:34:                  59	31.05
22:35:                  29	31.03
22:35:                  59	31.02
22:36:                  29	31.00
22:36:                  59	31.00
22:37:                  29	31.00
22:37:                  59	31.00
22:38:                  29	31.01
22:38:                  59	31.01
22:39:                  29	31.03
22:39:                  59	31.01
22:40:                  29	31.00
22:40:                  59	30.98
22:41:                  29	30.97
22:41:                  59	31.00
22:42:                  29	31.01
22:42:                  59	31.01
22:43:                  29	31.03
22:43:                  59	31.03
22:44:                  29	31.02
22:44:                  59	31.03
22:45:                  29	31.04
22:45:                  59	31.01
22:46:                  29	31.02
22:46:                  59	31.00
22:47:                  29	31.01
22:47:                  59	31.01
22:48:                  29	30.99
22:48:                  59	30.98
22:49:                  29	30.98
22:49:                  59	30.97
22:50:                  30	30.98
22:51:                   0	31.01
22:51:                  30	31.00
22:52:                   0	31.01
22:52:                  30	31.01
22:53:                   0	31.02
22:53:                  30	31.04
22:54:                   0	31.03
22:54:                  30	31.02
22:55:                   0	31.02
22:55:                  30	31.05
22:56:                   0	31.05
22:56:                  30	31.04
22:57:                   0	31.03
22:57:                  30	31.04
22:58:                   0	31.06
22:58:                  30	31.05
22:59:                   0	31.04
22:59:                  30	31.03
23:00:                   0	31.03
23:00:                  30	31.03
23:01:                   0	31.01
23:01:                  30	31.01
23:02:                   0	31.02
23:02:                  30	31.02
23:03:                   0	31.03
23:03:                  30	31.01
23:04:                   0	31.00
23:04:                  30	31.02
23:05:                   0	31.01
23:05:                  30	31.02
23:06:                   0	31.01
23:06:                  30	31.01
23:07:                   1	31.02
23:07:                  31	31.06
23:08:                   1	31.02
23:08:                  31	31.01
23:09:                   1	31.01
23:09:                  31	31.00
23:10:                   1	31.00
23:10:                  31	31.01
23:11:                   1	31.03
23:11:                  31	31.01
23:12:                   1	31.01
23:12:                  31	31.01
23:13:                   1	31.01
23:13:                  31	31.02
23:14:                   1	31.02
23:14:                  31	31.01
23:15:                   1	31.01
23:15:                  31	31.02
23:16:                   1	31.02
23:16:                  31	31.01
23:17:                   1	30.98
23:17:                  31	30.99
23:18:                   1	31.03
23:18:                  31	31.03
23:19:                   1	31.02
23:19:                  31	31.02
23:20:                   1	31.01
23:20:                  31	31.03
23:21:                   1	31.01
23:21:                  31	31.01
23:22:                   1	31.02
23:22:                  31	31.04
23:23:                   2	31.01
23:23:                  32	31.00
23:24:                   2	31.01
23:24:                  32	31.01
23:25:                   2	30.99
23:25:                  32	31.01
23:26:                   2	31.01
23:26:                  32	31.01
23:27:                   2	31.00
23:27:                  32	31.01
23:28:                   2	31.01
23:28:                  32	31.03
23:29:                   2	31.02
23:29:                  32	31.02
23:30:                   2	31.03
23:30:                  32	31.06
23:31:                   2	31.05
23:31:                  32	31.07
23:32:                   2	31.06
23:32:                  32	31.04
23:33:                   2	31.04
23:33:                  32	31.05
23:34:                   2	31.03
23:34:                  32	31.03
23:35:                   2	31.04
23:35:                  32	31.03
23:36:                   2	31.03
23:36:                  32	31.01
23:37:                   2	31.02
23:37:                  32	31.06
23:38:                   2	31.07
23:38:                  32	31.05
23:39:                   2	31.04
23:39:                  33	31.05
23:40:                   3	31.02
23:40:                  33	31.03
23:41:                   3	31.02
23:41:                  33	31.05
23:42:                   3	31.02
23:42:                  33	31.00
23:43:                   3	31.00
23:43:                  33	31.01
23:44:                   3	31.01
23:44:                  33	31.02
23:45:                   3	31.03
23:45:                  33	31.05
23:46:                   3	31.05
23:46:                  33	31.04
23:47:                   3	31.03
23:47:                  33	31.02
23:48:                   3	31.02
23:48:                  33	31.05
23:49:                   3	31.04
23:49:                  33	31.03
23:50:                   3	31.03
23:50:                  33	31.05
23:51:                   3	31.02
23:51:                  33	31.01
23:52:                   3	31.01
23:52:                  33	31.04
23:53:                   3	31.03
23:53:                  33	31.01
23:54:                   3	31.04
23:54:                  33	31.04
23:55:                   3	31.05
23:55:                  33	31.05
23:56:                   3	31.08
23:56:                  33	31.07
23:57:                   3	31.06
23:57:                  33	31.03
23:58:                   3	31.05
23:58:                  33	31.07
23:59:                   4	31.09
23:59:                  34	31.08
