0:00:                  27	32.05
0:00:                  57	32.04
0:01:                  27	32.04
0:01:                  57	32.03
0:02:                  27	32.02
0:02:                  57	32.01
0:03:                  27	32.01
0:03:                  57	32.00
0:04:                  27	31.99
0:04:                  57	31.98
0:05:                  27	31.98
0:05:                  57	31.97
0:06:                  27	31.96
0:06:                  57	31.95
0:07:                  27	31.96
0:07:                  57	31.99
0:08:                  27	32.01
0:08:                  57	32.04
0:09:                  27	32.03
0:09:                  57	32.03
0:10:                  27	32.02
0:10:                  57	32.02
0:11:                  27	32.01
0:11:                  57	32.01
0:12:                  27	31.99
0:12:                  57	31.99
0:13:                  27	31.99
0:13:                  58	31.97
0:14:                  28	31.96
0:14:                  58	31.96
0:15:                  28	31.94
0:15:                  58	31.95
0:16:                  28	31.95
0:16:                  58	31.94
0:17:                  28	31.93
0:17:                  58	31.93
0:18:                  28	31.97
0:18:                  58	31.99
0:19:                  28	32.00
0:19:                  58	32.00
0:20:                  28	32.00
0:20:                  58	32.00
0:21:                  28	32.00
0:21:                  58	31.99
0:22:                  28	31.99
0:22:                  58	31.99
0:23:                  28	31.98
0:23:                  58	31.97
0:24:                  28	31.96
0:24:                  58	31.96
0:25:                  28	31.95
0:25:                  58	31.94
0:26:                  28	31.93
0:26:                  58	31.91
0:27:                  28	31.91
0:27:                  58	31.90
0:28:                  28	31.90
0:28:                  58	31.93
0:29:                  28	31.96
0:29:                  58	31.96
0:30:                  28	31.96
0:30:                  58	31.96
0:31:                  28	31.97
0:31:                  58	31.95
0:32:                  29	31.95
0:32:                  59	31.94
0:33:                  29	31.93
0:33:                  59	31.92
0:34:                  29	31.92
0:34:                  59	31.91
0:35:                  29	31.91
0:35:                  59	31.90
0:36:                  29	31.90
0:36:                  59	31.89
0:37:                  29	31.88
0:37:                  59	31.86
0:38:                  29	31.86
0:38:                  59	31.86
0:39:                  29	31.89
0:39:                  59	31.92
0:40:                  29	31.93
0:40:                  59	31.92
0:41:                  29	31.93
0:41:                  59	31.93
0:42:                  29	31.91
0:42:                  59	31.92
0:43:                  29	31.91
0:43:                  59	31.90
0:44:                  29	31.90
0:44:                  59	31.89
0:45:                  29	31.89
0:45:                  59	31.87
0:46:                  29	31.87
0:46:                  59	31.86
0:47:                  29	31.86
0:47:                  59	31.85
0:48:                  29	31.85
0:48:                  59	31.85
0:49:                  29	31.85
0:49:                  59	31.88
0:50:                  29	31.90
0:50:                  59	31.90
0:51:                  29	31.91
0:51:                  59	31.91
0:52:                  29	31.91
0:52:                  59	31.91
0:53:                  29	31.89
0:53:                  59	31.89
0:54:                  29	31.87
0:54:                  59	31.87
0:55:                  29	31.86
0:55:                  59	31.85
0:56:                  29	31.84
0:56:                  59	31.84
0:57:                  29	31.82
0:57:                  59	31.81
0:58:                  29	31.79
0:58:                  59	31.79
0:59:                  29	31.78
0:59:                  59	31.81
1:00:                  29	31.83
1:01:                   0	31.86
1:01:                  30	31.87
1:02:                   0	31.87
1:02:                  30	31.87
1:03:                   0	31.87
1:03:                  30	31.86
1:04:                   0	31.85
1:04:                  30	31.84
1:05:                   0	31.83
1:05:                  30	31.83
1:06:                   0	31.83
1:06:                  30	31.82
1:07:                   0	31.82
1:07:                  30	31.81
1:08:                   0	31.81
1:08:                  30	31.78
1:09:                   0	31.78
1:09:                  30	31.78
1:10:                   0	31.78
1:10:                  30	31.79
1:11:                   0	31.82
1:11:                  30	31.84
1:12:                   0	31.84
1:12:                  30	31.83
1:13:                   0	31.83
1:13:                  30	31.83
1:14:                   0	31.82
1:14:                  30	31.81
1:15:                   0	31.81
1:15:                  30	31.80
1:16:                   0	31.79
1:16:                  30	31.78
1:17:                   0	31.76
1:17:                  30	31.77
1:18:                   0	31.76
1:18:                  30	31.74
1:19:                   0	31.74
1:19:                  30	31.73
1:20:                   0	31.73
1:20:                  30	31.73
1:21:                   0	31.75
1:21:                  30	31.78
1:22:                   0	31.79
1:22:                  30	31.80
1:23:                   0	31.79
1:23:                  30	31.79
1:24:                   0	31.79
1:24:                  30	31.78
1:25:                   0	31.77
1:25:                  30	31.76
1:26:                   0	31.76
1:26:                  30	31.74
1:27:                   0	31.73
1:27:                  30	31.73
1:28:                   0	31.72
1:28:                  31	31.72
1:29:                   1	31.71
1:29:                  31	31.71
1:30:                   1	31.70
1:30:                  31	31.69
1:31:                   1	31.69
1:31:                  31	31.72
1:32:                   1	31.75
1:32:                  31	31.76
1:33:                   1	31.77
1:33:                  31	31.76
1:34:                   1	31.76
1:34:                  31	31.75
1:35:                   1	31.75
1:35:                  31	31.74
1:36:                   1	31.73
1:36:                  31	31.71
1:37:                   1	31.72
1:37:                  31	31.72
1:38:                   1	31.70
1:38:                  31	31.70
1:39:                   1	31.68
1:39:                  31	31.69
1:40:                   1	31.68
1:40:                  31	31.67
1:41:                   1	31.67
1:41:                  31	31.67
1:42:                   1	31.70
1:42:                  31	31.72
1:43:                   1	31.73
1:43:                  31	31.74
1:44:                   1	31.74
1:44:                  31	31.74
1:45:                   1	31.73
1:45:                  31	31.72
1:46:                   1	31.72
1:46:                  32	31.71
1:47:                   2	31.71
1:47:                  32	31.68
1:48:                   2	31.69
1:48:                  32	31.68
1:49:                   2	31.67
1:49:                  32	31.67
1:50:                   2	31.66
1:50:                  32	31.65
1:51:                   2	31.65
1:51:                  32	31.64
1:52:                   2	31.65
1:52:                  32	31.68
1:53:                   2	31.69
1:53:                  32	31.71
1:54:                   2	31.71
1:54:                  32	31.71
1:55:                   2	31.71
1:55:                  32	31.71
1:56:                   2	31.70
1:56:                  32	31.70
1:57:                   2	31.68
1:57:                  32	31.67
1:58:                   2	31.67
1:58:                  32	31.67
1:59:                   2	31.65
1:59:                  32	31.65
2:00:                   2	31.64
2:00:                  32	31.63
2:01:                   2	31.62
2:01:                  32	31.61
2:02:                   2	31.60
2:02:                  32	31.61
2:03:                   2	31.65
2:03:                  32	31.66
2:04:                   2	31.68
2:04:                  32	31.69
2:05:                   2	31.68
2:05:                  32	31.69
2:06:                   2	31.67
2:06:                  32	31.68
2:07:                   2	31.66
2:07:                  32	31.66
2:08:                   2	31.65
2:08:                  32	31.65
2:09:                   2	31.64
2:09:                  32	31.64
2:10:                   2	31.63
2:10:                  32	31.62
2:11:                   2	31.61
2:11:                  32	31.61
2:12:                   2	31.61
2:12:                  32	31.60
2:13:                   2	31.61
2:13:                  32	31.64
2:14:                   2	31.66
2:14:                  32	31.66
2:15:                   2	31.67
2:15:                  32	31.66
2:16:                   2	31.66
2:16:                  32	31.65
2:17:                   2	31.65
2:17:                  32	31.64
2:18:                   2	31.64
2:18:                  32	31.63
2:19:                   2	31.63
2:19:                  32	31.61
2:20:                   2	31.60
2:20:                  32	31.60
2:21:                   2	31.59
2:21:                  32	31.59
2:22:                   2	31.59
2:22:                  32	31.57
2:23:                   2	31.56
2:23:                  32	31.58
2:24:                   2	31.61
2:24:                  33	31.63
2:25:                   3	31.65
2:25:                  33	31.64
2:26:                   3	31.64
2:26:                  33	31.63
2:27:                   3	31.64
2:27:                  33	31.63
2:28:                   3	31.62
2:28:                  33	31.61
2:29:                   3	31.61
2:29:                  33	31.60
2:30:                   3	31.60
2:30:                  33	31.59
2:31:                   3	31.59
2:31:                  33	31.58
2:32:                   3	31.58
2:32:                  33	31.57
2:33:                   3	31.54
2:33:                  33	31.54
2:34:                   3	31.57
2:34:                  33	31.60
2:35:                   3	31.61
2:35:                  33	31.62
2:36:                   3	31.63
2:36:                  33	31.62
2:37:                   3	31.62
2:37:                  33	31.62
2:38:                   3	31.61
2:38:                  33	31.60
2:39:                   3	31.60
2:39:                  33	31.59
2:40:                   3	31.60
2:40:                  33	31.59
2:41:                   3	31.57
2:41:                  33	31.57
2:42:                   3	31.56
2:42:                  33	31.56
2:43:                   3	31.55
2:43:                  33	31.55
2:44:                   3	31.55
2:44:                  33	31.57
2:45:                   3	31.58
2:45:                  33	31.61
2:46:                   3	31.61
2:46:                  33	31.61
2:47:                   3	31.60
2:47:                  33	31.60
2:48:                   3	31.60
2:48:                  33	31.60
2:49:                   3	31.59
2:49:                  33	31.59
2:50:                   4	31.58
2:50:                  34	31.57
2:51:                   4	31.56
2:51:                  34	31.56
2:52:                   4	31.54
2:52:                  34	31.54
2:53:                   4	31.54
2:53:                  34	31.53
2:54:                   4	31.52
2:54:                  34	31.52
2:55:                   4	31.54
2:55:                  34	31.57
2:56:                   4	31.58
2:56:                  34	31.59
2:57:                   4	31.59
2:57:                  34	31.59
2:58:                   4	31.59
2:58:                  34	31.57
2:59:                   4	31.57
2:59:                  34	31.57
3:00:                   4	31.56
3:00:                  34	31.56
3:01:                   4	31.54
3:01:                  34	31.54
3:02:                   4	31.54
3:02:                  34	31.53
3:03:                   4	31.52
3:03:                  34	31.52
3:04:                   4	31.50
3:04:                  34	31.49
3:05:                   4	31.49
3:05:                  34	31.53
3:06:                   4	31.55
3:06:                  34	31.56
3:07:                   4	31.57
3:07:                  34	31.57
3:08:                   4	31.56
3:08:                  34	31.56
3:09:                   4	31.55
3:09:                  34	31.55
3:10:                   4	31.55
3:10:                  34	31.54
3:11:                   4	31.53
3:11:                  34	31.53
3:12:                   4	31.53
3:12:                  34	31.52
3:13:                   4	31.49
3:13:                  34	31.51
3:14:                   4	31.50
3:14:                  34	31.48
3:15:                   4	31.48
3:15:                  34	31.48
3:16:                   4	31.52
3:16:                  34	31.54
3:17:                   4	31.56
3:17:                  34	31.55
3:18:                   4	31.54
3:18:                  34	31.55
3:19:                   4	31.54
3:19:                  34	31.55
3:20:                   4	31.53
3:20:                  34	31.53
3:21:                   4	31.52
3:21:                  34	31.52
3:22:                   4	31.50
3:22:                  34	31.50
3:23:                   4	31.49
3:23:                  34	31.48
3:24:                   4	31.47
3:24:                  34	31.47
3:25:                   4	31.47
3:25:                  34	31.45
3:26:                   4	31.46
3:26:                  34	31.50
3:27:                   4	31.52
3:27:                  34	31.54
3:28:                   4	31.53
3:28:                  34	31.54
3:29:                   4	31.54
3:29:                  34	31.53
3:30:                   4	31.53
3:30:                  34	31.52
3:31:                   4	31.49
3:31:                  34	31.51
3:32:                   4	31.48
3:32:                  34	31.49
3:33:                   4	31.48
3:33:                  34	31.47
3:34:                   4	31.46
3:34:                  34	31.46
3:35:                   4	31.44
3:35:                  34	31.43
3:36:                   4	31.44
3:36:                  34	31.45
3:37:                   4	31.47
3:37:                  35	31.49
3:38:                   5	31.50
3:38:                  35	31.52
3:39:                   5	31.51
3:39:                  35	31.51
3:40:                   5	31.50
3:40:                  35	31.49
3:41:                   5	31.50
3:41:                  35	31.51
3:42:                   5	31.48
3:42:                  35	31.47
3:43:                   5	31.47
3:43:                  35	31.46
3:44:                   5	31.46
3:44:                  35	31.45
3:45:                   5	31.44
3:45:                  35	31.44
3:46:                   5	31.42
3:46:                  35	31.42
3:47:                   5	31.44
3:47:                  35	31.46
3:48:                   5	31.48
3:48:                  35	31.49
3:49:                   5	31.49
3:49:                  35	31.49
3:50:                   5	31.48
3:50:                  35	31.49
3:51:                   5	31.48
3:51:                  35	31.46
3:52:                   5	31.47
3:52:                  35	31.46
3:53:                   5	31.45
3:53:                  35	31.44
3:54:                   5	31.44
3:54:                  35	31.42
3:55:                   5	31.42
3:55:                  35	31.43
3:56:                   5	31.41
3:56:                  35	31.40
3:57:                   5	31.39
3:57:                  35	31.41
3:58:                   5	31.44
3:58:                  35	31.46
3:59:                   5	31.47
3:59:                  35	31.46
4:00:                   5	31.47
4:00:                  35	31.47
4:01:                   5	31.46
4:01:                  35	31.45
4:02:                   5	31.45
4:02:                  35	31.44
4:03:                   5	31.43
4:03:                  35	31.42
4:04:                   5	31.42
4:04:                  35	31.41
4:05:                   5	31.41
4:05:                  35	31.39
4:06:                   5	31.40
4:06:                  35	31.38
4:07:                   5	31.38
4:07:                  35	31.37
4:08:                   5	31.40
4:08:                  35	31.43
4:09:                   5	31.45
4:09:                  35	31.45
4:10:                   5	31.45
4:10:                  35	31.44
4:11:                   5	31.44
4:11:                  35	31.44
4:12:                   5	31.43
4:12:                  35	31.43
4:13:                   5	31.42
4:13:                  35	31.41
4:14:                   5	31.41
4:14:                  35	31.41
4:15:                   5	31.39
4:15:                  35	31.39
4:16:                   5	31.38
4:16:                  35	31.37
4:17:                   5	31.35
4:17:                  35	31.36
4:18:                   5	31.35
4:18:                  35	31.38
4:19:                   5	31.41
4:19:                  35	31.41
4:20:                   5	31.42
4:20:                  35	31.43
4:21:                   5	31.42
4:21:                  35	31.42
4:22:                   5	31.41
4:22:                  35	31.41
4:23:                   5	31.40
4:23:                  35	31.40
4:24:                   5	31.38
4:24:                  35	31.38
4:25:                   5	31.37
4:25:                  35	31.36
4:26:                   5	31.36
4:26:                  35	31.36
4:27:                   5	31.34
4:27:                  35	31.33
4:28:                   5	31.32
4:28:                  35	31.33
4:29:                   5	31.36
4:29:                  36	31.38
4:30:                   6	31.39
4:30:                  36	31.40
4:31:                   6	31.41
4:31:                  36	31.40
4:32:                   6	31.40
4:32:                  36	31.40
4:33:                   6	31.39
4:33:                  36	31.38
4:34:                   6	31.37
4:34:                  36	31.36
4:35:                   6	31.35
4:35:                  36	31.35
4:36:                   6	31.34
4:36:                  36	31.34
4:37:                   6	31.32
4:37:                  36	31.32
4:38:                   6	31.31
4:38:                  36	31.31
4:39:                   6	31.31
4:39:                  36	31.34
4:40:                   6	31.37
4:40:                  36	31.38
4:41:                   6	31.39
4:41:                  36	31.38
4:42:                   6	31.39
4:42:                  36	31.39
4:43:                   6	31.37
4:43:                  36	31.36
4:44:                   6	31.35
4:44:                  36	31.34
4:45:                   6	31.33
4:45:                  36	31.33
4:46:                   6	31.32
4:46:                  36	31.31
4:47:                   6	31.29
4:47:                  36	31.29
4:48:                   6	31.28
4:48:                  36	31.27
4:49:                   6	31.27
4:49:                  36	31.27
4:50:                   6	31.30
4:50:                  36	31.32
4:51:                   6	31.34
4:51:                  36	31.34
4:52:                   6	31.34
4:52:                  36	31.35
4:53:                   6	31.34
4:53:                  36	31.33
4:54:                   6	31.33
4:54:                  36	31.32
4:55:                   6	31.32
4:55:                  36	31.32
4:56:                   6	31.30
4:56:                  36	31.29
4:57:                   6	31.30
4:57:                  36	31.29
4:58:                   6	31.27
4:58:                  36	31.27
4:59:                   6	31.27
4:59:                  36	31.27
5:00:                   6	31.27
5:00:                  36	31.30
5:01:                   6	31.32
5:01:                  36	31.35
5:02:                   6	31.34
5:02:                  36	31.35
5:03:                   6	31.34
5:03:                  36	31.34
5:04:                   6	31.33
5:04:                  36	31.32
5:05:                   6	31.31
5:05:                  36	31.31
5:06:                   6	31.30
5:06:                  36	31.29
5:07:                   6	31.28
5:07:                  36	31.28
5:08:                   6	31.27
5:08:                  36	31.27
5:09:                   6	31.25
5:09:                  36	31.26
5:10:                   6	31.25
5:10:                  36	31.27
5:11:                   6	31.29
5:11:                  36	31.32
5:12:                   6	31.33
5:12:                  36	31.33
5:13:                   6	31.32
5:13:                  36	31.33
5:14:                   7	31.33
5:14:                  37	31.32
5:15:                   7	31.32
5:15:                  37	31.31
5:16:                   7	31.30
5:16:                  37	31.28
5:17:                   7	31.29
5:17:                  37	31.29
5:18:                   7	31.28
5:18:                  37	31.27
5:19:                   7	31.27
5:19:                  37	31.26
5:20:                   7	31.25
5:20:                  37	31.26
5:21:                   7	31.26
5:21:                  37	31.29
5:22:                   7	31.32
5:22:                  37	31.32
5:23:                   7	31.32
5:23:                  37	31.32
5:24:                   7	31.32
5:24:                  37	31.31
5:25:                   7	31.31
5:25:                  37	31.30
5:26:                   7	31.29
5:26:                  37	31.29
5:27:                   7	31.29
5:27:                  37	31.28
5:28:                   7	31.27
5:28:                  37	31.27
5:29:                   7	31.27
5:29:                  37	31.25
5:30:                   7	31.25
5:30:                  37	31.24
5:31:                   7	31.23
5:31:                  37	31.26
5:32:                   7	31.28
5:32:                  37	31.29
5:33:                   7	31.31
5:33:                  37	31.30
5:34:                   7	31.30
5:34:                  37	31.29
5:35:                   7	31.29
5:35:                  37	31.29
5:36:                   7	31.28
5:36:                  37	31.28
5:37:                   7	31.27
5:37:                  37	31.27
5:38:                   7	31.26
5:38:                  37	31.26
5:39:                   7	31.25
5:39:                  37	31.24
5:40:                   7	31.24
5:40:                  37	31.23
5:41:                   7	31.22
5:41:                  38	31.22
5:42:                   8	31.24
5:42:                  38	31.27
5:43:                   8	31.27
5:43:                  38	31.28
5:44:                   8	31.29
5:44:                  38	31.28
5:45:                   8	31.28
5:45:                  38	31.27
5:46:                   8	31.27
5:46:                  38	31.27
5:47:                   8	31.26
5:47:                  38	31.25
5:48:                   8	31.25
5:48:                  38	31.24
5:49:                   8	31.23
5:49:                  38	31.23
5:50:                   8	31.22
5:50:                  38	31.22
5:51:                   8	31.21
5:51:                  38	31.19
5:52:                   8	31.20
5:52:                  38	31.23
5:53:                   8	31.26
5:53:                  38	31.26
5:54:                   8	31.27
5:54:                  38	31.27
5:55:                   8	31.27
5:55:                  38	31.26
5:56:                   8	31.27
5:56:                  38	31.26
5:57:                   8	31.25
5:57:                  38	31.25
5:58:                   8	31.25
5:58:                  38	31.24
5:59:                   8	31.23
5:59:                  38	31.22
6:00:                   8	31.21
6:00:                  38	31.21
6:01:                   8	31.20
6:01:                  38	31.20
6:02:                   8	31.19
6:02:                  38	31.18
6:03:                   8	31.23
6:03:                  38	31.25
6:04:                   8	31.25
6:04:                  38	31.27
6:05:                   8	31.26
6:05:                  38	31.26
6:06:                   8	31.27
6:06:                  38	31.25
6:07:                   8	31.25
6:07:                  38	31.25
6:08:                   8	31.23
6:08:                  38	31.22
6:09:                   8	31.22
6:09:                  38	31.21
6:10:                   8	31.21
6:10:                  38	31.20
6:11:                   9	31.20
6:11:                  39	31.19
6:12:                   9	31.17
6:12:                  39	31.17
6:13:                   9	31.17
6:13:                  39	31.20
6:14:                   9	31.23
6:14:                  39	31.24
6:15:                   9	31.25
6:15:                  39	31.25
6:16:                   9	31.25
6:16:                  39	31.24
6:17:                   9	31.23
6:17:                  39	31.23
6:18:                   9	31.22
6:18:                  39	31.22
6:19:                   9	31.21
6:19:                  39	31.20
6:20:                   9	31.19
6:20:                  39	31.19
6:21:                   9	31.17
6:21:                  39	31.19
6:22:                   9	31.21
6:22:                  39	31.21
6:23:                   9	31.23
6:23:                  39	31.25
6:24:                   9	31.28
6:24:                  39	31.30
6:25:                   9	31.30
6:25:                  39	31.31
6:26:                   9	31.32
6:26:                  39	31.30
6:27:                   9	31.30
6:27:                  39	31.29
6:28:                   9	31.29
6:28:                  39	31.28
6:29:                   9	31.27
6:29:                  39	31.26
6:30:                   9	31.25
6:30:                  39	31.24
6:31:                   9	31.22
6:31:                  39	31.22
6:32:                   9	31.20
6:32:                  39	31.20
6:33:                   9	31.19
6:33:                  39	31.17
6:34:                   9	31.17
6:34:                  39	31.22
6:35:                   9	31.23
6:35:                  39	31.24
6:36:                   9	31.24
6:36:                  39	31.23
6:37:                   9	31.23
6:37:                  39	31.23
6:38:                   9	31.22
6:38:                  39	31.22
6:39:                   9	31.21
6:39:                  39	31.19
6:40:                   9	31.17
6:40:                  39	31.19
6:41:                   9	31.16
6:41:                  39	31.16
6:42:                   9	31.15
6:42:                  39	31.14
6:43:                   9	31.13
6:43:                  39	31.12
6:44:                   9	31.13
6:44:                  39	31.13
6:45:                  10	31.16
6:45:                  40	31.19
6:46:                  10	31.19
6:46:                  40	31.19
6:47:                  10	31.18
6:47:                  40	31.18
6:48:                  10	31.18
6:48:                  40	31.17
6:49:                  10	31.15
6:49:                  40	31.16
6:50:                  10	31.15
6:50:                  40	31.13
6:51:                  10	31.13
6:51:                  40	31.12
6:52:                  10	31.11
6:52:                  40	31.09
6:53:                  10	31.08
6:53:                  40	31.08
6:54:                  10	31.07
6:54:                  40	31.07
6:55:                  10	31.08
6:55:                  40	31.10
6:56:                  10	31.12
6:56:                  40	31.13
6:57:                  10	31.14
6:57:                  40	31.14
6:58:                  10	31.13
6:58:                  40	31.13
6:59:                  10	31.12
6:59:                  40	31.11
7:00:                  10	31.10
7:00:                  40	31.10
7:01:                  10	31.09
7:01:                  40	31.08
7:02:                  10	31.07
7:02:                  40	31.05
7:03:                  10	31.04
7:03:                  40	31.04
7:04:                  10	31.04
7:04:                  40	31.03
7:05:                  10	31.03
7:05:                  40	31.04
7:06:                  11	31.08
7:06:                  41	31.09
7:07:                  11	31.09
7:07:                  41	31.10
7:08:                  11	31.10
7:08:                  41	31.10
7:09:                  11	31.09
7:09:                  41	31.07
7:10:                  11	31.07
7:10:                  41	31.07
7:11:                  11	31.05
7:11:                  41	31.05
7:12:                  11	31.04
7:12:                  41	31.04
7:13:                  11	31.04
7:13:                  41	31.03
7:14:                  11	31.02
7:14:                  41	31.00
7:15:                  11	31.01
7:15:                  41	31.01
7:16:                  11	31.02
7:16:                  41	31.04
7:17:                  11	31.06
7:17:                  41	31.07
7:18:                  11	31.07
7:18:                  41	31.07
7:19:                  11	31.07
7:19:                  41	31.06
7:20:                  11	31.06
7:20:                  41	31.05
7:21:                  11	31.04
7:21:                  41	31.05
7:22:                  11	31.02
7:22:                  41	31.02
7:23:                  11	31.01
7:23:                  41	31.01
7:24:                  12	30.99
7:24:                  42	31.00
7:25:                  12	30.99
7:25:                  42	30.98
7:26:                  12	30.98
7:26:                  42	31.01
7:27:                  12	31.01
7:27:                  42	31.03
7:28:                  12	31.04
7:28:                  42	31.04
7:29:                  12	31.04
7:29:                  42	31.03
7:30:                  12	31.03
7:30:                  42	31.03
7:31:                  12	31.02
7:31:                  42	31.01
7:32:                  12	31.01
7:32:                  42	31.00
7:33:                  12	30.99
7:33:                  42	30.99
7:34:                  12	30.98
7:34:                  42	30.97
7:35:                  12	30.96
7:35:                  42	30.95
7:36:                  12	30.96
7:36:                  42	30.96
7:37:                  12	30.99
7:37:                  42	31.02
7:38:                  12	31.02
7:38:                  42	31.03
7:39:                  12	31.03
7:39:                  42	31.02
7:40:                  12	31.02
7:40:                  42	31.02
7:41:                  12	31.01
7:41:                  42	31.01
7:42:                  12	31.00
7:42:                  42	30.99
7:43:                  12	31.00
7:43:                  42	30.98
7:44:                  12	30.98
7:44:                  42	30.98
7:45:                  12	30.96
7:45:                  42	30.96
7:46:                  12	30.95
7:46:                  42	30.96
7:47:                  12	30.95
7:47:                  42	30.98
7:48:                  12	31.00
7:48:                  42	31.01
7:49:                  13	31.02
7:49:                  43	31.01
7:50:                  13	31.01
7:50:                  43	31.02
7:51:                  13	31.01
7:51:                  43	31.00
7:52:                  13	30.99
7:52:                  43	30.98
7:53:                  13	30.98
7:53:                  43	30.97
7:54:                  13	30.97
7:54:                  43	30.97
7:55:                  13	30.96
7:55:                  43	30.95
7:56:                  13	30.93
7:56:                  43	30.94
7:57:                  13	30.92
7:57:                  43	30.94
7:58:                  13	30.97
7:58:                  43	31.00
7:59:                  13	31.00
7:59:                  43	31.01
8:00:                  13	31.01
8:00:                  43	31.00
8:01:                  13	31.00
8:01:                  43	31.00
8:02:                  13	30.99
8:02:                  43	30.97
8:03:                  13	30.97
8:03:                  43	30.96
8:04:                  13	30.95
8:04:                  43	30.94
8:05:                  13	30.93
8:05:                  43	30.92
8:06:                  13	30.92
8:06:                  43	30.90
8:07:                  13	30.90
8:07:                  43	30.90
8:08:                  13	30.92
8:08:                  43	30.93
8:09:                  13	30.96
8:09:                  43	30.98
8:10:                  13	30.98
8:10:                  43	30.98
8:11:                  13	30.98
8:11:                  43	30.97
8:12:                  13	30.96
8:12:                  43	30.96
8:13:                  13	30.95
8:13:                  43	30.95
8:14:                  13	30.94
8:14:                  43	30.87
8:15:                  13	30.85
8:15:                  43	30.85
8:16:                  13	30.85
8:16:                  43	30.86
8:17:                  13	30.86
8:17:                  43	30.85
8:18:                  13	30.85
8:18:                  43	30.88
8:19:                  13	30.93
8:19:                  43	30.95
8:20:                  13	30.96
8:20:                  44	30.97
8:21:                  14	30.98
8:21:                  44	30.97
8:22:                  14	30.98
8:22:                  44	30.98
8:23:                  14	30.97
8:23:                  44	30.96
8:24:                  14	30.97
8:24:                  44	30.96
8:25:                  14	30.95
8:25:                  44	30.95
8:26:                  14	30.95
8:26:                  44	30.94
8:27:                  14	30.93
8:27:                  44	30.93
8:28:                  14	30.92
8:28:                  44	30.92
8:29:                  14	30.95
8:29:                  44	31.00
8:30:                  14	31.02
8:30:                  44	31.03
8:31:                  14	31.04
8:31:                  44	31.04
8:32:                  14	31.01
8:32:                  44	31.01
8:33:                  14	31.00
8:33:                  44	31.01
8:34:                  14	31.01
8:34:                  44	31.00
8:35:                  14	31.01
8:35:                  44	31.01
8:36:                  14	30.99
8:36:                  44	30.99
8:37:                  14	31.00
8:37:                  44	31.01
8:38:                  14	31.01
8:38:                  44	31.00
8:39:                  14	31.00
8:39:                  44	31.02
8:40:                  14	31.04
8:40:                  44	31.06
8:41:                  14	31.09
8:41:                  45	31.10
8:42:                  15	31.11
8:42:                  45	31.11
8:43:                  15	31.10
8:43:                  45	31.10
8:44:                  15	31.10
8:44:                  45	31.10
8:45:                  15	31.10
8:45:                  45	31.10
8:46:                  15	31.10
8:46:                  45	31.10
8:47:                  15	31.09
8:47:                  45	31.09
8:48:                  15	31.09
8:48:                  45	31.08
8:49:                  15	31.10
8:49:                  45	31.10
8:50:                  15	31.13
8:50:                  45	31.17
8:51:                  15	31.20
8:51:                  45	31.21
8:52:                  15	31.21
8:52:                  45	31.22
8:53:                  15	31.22
8:53:                  45	31.22
8:54:                  15	31.22
8:54:                  45	31.23
8:55:                  15	31.23
8:55:                  45	31.23
8:56:                  15	31.22
8:56:                  45	31.23
8:57:                  15	31.23
8:57:                  45	31.24
8:58:                  15	31.23
8:58:                  45	31.23
8:59:                  15	31.23
8:59:                  45	31.24
9:00:                  15	31.24
9:00:                  45	31.27
9:01:                  16	31.30
9:01:                  46	31.32
9:02:                  16	31.33
9:02:                  46	31.33
9:03:                  16	31.34
9:03:                  46	31.35
9:04:                  16	31.35
9:04:                  46	31.35
9:05:                  16	31.36
9:05:                  46	31.34
9:06:                  16	31.34
9:06:                  46	31.34
9:07:                  16	31.34
9:07:                  46	31.35
9:08:                  16	31.34
9:08:                  46	31.34
9:09:                  16	31.34
9:09:                  46	31.35
9:10:                  16	31.34
9:10:                  46	31.35
9:11:                  16	31.38
9:11:                  46	31.42
9:12:                  16	31.43
9:12:                  46	31.45
9:13:                  16	31.45
9:13:                  46	31.44
9:14:                  16	31.46
9:14:                  46	31.46
9:15:                  16	31.46
9:15:                  46	31.47
9:16:                  16	31.47
9:16:                  46	31.46
9:17:                  16	31.46
9:17:                  46	31.47
9:18:                  16	31.46
9:18:                  46	31.47
9:19:                  16	31.47
9:19:                  46	31.47
9:20:                  16	31.47
9:20:                  46	31.47
9:21:                  16	31.51
9:21:                  46	31.54
9:22:                  16	31.58
9:22:                  46	31.62
9:23:                  16	31.63
9:23:                  46	31.65
9:24:                  17	31.67
9:24:                  47	31.68
9:25:                  17	31.69
9:25:                  47	31.70
9:26:                  17	31.73
9:26:                  47	31.74
9:27:                  17	31.75
9:27:                  47	31.77
9:28:                  17	31.78
9:28:                  47	31.79
9:29:                  17	31.81
9:29:                  47	31.84
9:30:                  17	31.86
9:30:                  47	31.87
9:31:                  17	31.91
9:31:                  47	31.95
9:32:                  17	32.01
9:32:                  47	32.07
9:33:                  17	32.11
9:33:                  47	32.15
9:34:                  17	32.19
9:34:                  47	32.22
9:35:                  17	32.23
9:35:                  47	32.27
9:36:                  17	32.30
9:36:                  47	32.29
9:37:                  17	32.34
9:37:                  47	32.33
9:38:                  17	32.35
9:38:                  47	32.39
9:39:                  17	32.42
9:39:                  47	32.44
9:40:                  17	32.50
9:40:                  47	32.52
9:41:                  17	32.55
9:41:                  47	32.60
9:42:                  17	32.63
9:42:                  47	32.68
9:43:                  17	32.74
9:43:                  47	32.74
9:44:                  17	32.83
9:44:                  47	32.87
9:45:                  17	32.90
9:45:                  47	32.93
9:46:                  17	32.96
9:46:                  47	32.98
9:47:                  17	32.99
9:47:                  47	33.00
9:48:                  17	33.02
9:48:                  47	33.03
9:49:                  17	33.05
9:49:                  48	33.09
9:50:                  18	33.14
9:50:                  48	33.16
9:51:                  18	33.16
9:51:                  48	33.21
9:52:                  18	33.24
9:52:                  48	33.29
9:53:                  18	33.35
9:53:                  48	33.41
9:54:                  18	33.44
9:54:                  48	33.48
9:55:                  18	33.52
9:55:                  48	33.54
9:56:                  18	33.55
9:56:                  48	33.56
9:57:                  18	33.58
9:57:                  48	33.61
9:58:                  18	33.64
9:58:                  48	33.65
9:59:                  18	33.68
9:59:                  48	33.68
10:00:                  18	33.69
10:00:                  48	33.67
10:01:                  18	33.70
10:01:                  48	33.70
10:02:                  18	33.77
10:02:                  48	33.81
10:03:                  18	33.90
10:03:                  48	34.00
10:04:                  18	34.03
10:04:                  48	34.10
10:05:                  18	34.12
10:05:                  48	34.18
10:06:                  18	34.18
10:06:                  48	34.22
10:07:                  18	34.26
10:07:                  49	34.31
10:08:                  19	34.28
10:08:                  49	34.33
10:09:                  19	34.37
10:09:                  49	34.40
10:10:                  19	34.41
10:10:                  49	34.44
10:11:                  19	34.41
10:11:                  49	34.50
10:12:                  19	34.50
10:12:                  49	34.57
10:13:                  19	34.53
10:13:                  49	34.62
10:14:                  19	34.69
10:14:                  49	34.72
10:15:                  19	34.73
10:15:                  49	34.77
10:16:                  19	34.75
10:16:                  49	34.80
10:17:                  19	34.81
10:17:                  49	34.89
10:18:                  19	34.89
10:18:                  49	34.87
10:19:                  19	34.91
10:19:                  49	34.93
10:20:                  19	34.97
10:20:                  49	34.98
10:21:                  19	35.03
10:21:                  49	35.04
10:22:                  19	35.04
10:22:                  49	35.10
10:23:                  19	35.08
10:23:                  49	35.13
10:24:                  19	35.15
10:24:                  49	35.22
10:25:                  19	35.29
10:25:                  49	35.25
10:26:                  19	35.26
10:26:                  49	35.22
10:27:                  19	35.27
10:27:                  49	35.26
10:28:                  20	35.29
10:28:                  50	35.29
10:29:                  20	35.23
10:29:                  50	35.25
10:30:                  20	35.23
10:30:                  50	35.25
10:31:                  20	35.26
10:31:                  50	35.27
10:32:                  20	35.25
10:32:                  50	35.24
10:33:                  20	35.25
10:33:                  50	35.24
10:34:                  20	35.29
10:34:                  50	35.31
10:35:                  20	35.34
10:35:                  50	35.36
10:36:                  20	35.41
10:36:                  50	35.42
10:37:                  20	35.45
10:37:                  50	35.45
10:38:                  20	35.46
10:38:                  50	35.45
10:39:                  20	35.39
10:39:                  50	35.45
10:40:                  20	35.47
10:40:                  50	35.54
10:41:                  20	35.57
10:41:                  50	35.58
10:42:                  20	35.58
10:42:                  50	35.60
10:43:                  20	35.60
10:43:                  50	35.64
10:44:                  20	35.67
10:44:                  50	35.63
10:45:                  20	35.66
10:45:                  50	35.69
10:46:                  20	35.72
10:46:                  50	35.80
10:47:                  20	35.84
10:47:                  50	35.79
10:48:                  20	35.81
10:48:                  50	35.86
10:49:                  20	35.88
10:49:                  51	35.93
10:50:                  21	35.93
10:50:                  51	35.95
10:51:                  21	35.94
10:51:                  51	35.95
10:52:                  21	35.96
10:52:                  51	35.95
10:53:                  21	35.98
10:53:                  51	36.05
10:54:                  21	36.02
10:54:                  51	36.03
10:55:                  21	35.99
10:55:                  51	35.99
10:56:                  21	36.01
10:56:                  51	35.99
10:57:                  21	36.01
10:57:                  51	35.90
10:58:                  21	35.81
10:58:                  51	35.72
10:59:                  21	35.68
10:59:                  51	35.63
11:00:                  21	35.57
11:00:                  51	35.63
11:01:                  21	35.68
11:01:                  51	35.70
11:02:                  21	35.70
11:02:                  51	35.71
11:03:                  21	35.69
11:03:                  51	35.73
11:04:                  21	35.76
11:04:                  51	35.81
11:05:                  21	35.81
11:05:                  51	35.88
11:06:                  21	35.96
11:06:                  51	36.05
11:07:                  21	36.08
11:07:                  51	36.10
11:08:                  21	36.14
11:08:                  51	36.15
11:09:                  21	36.16
11:09:                  51	36.24
11:10:                  21	36.25
11:10:                  51	36.24
11:11:                  21	36.25
11:11:                  51	36.27
11:12:                  21	36.30
11:12:                  51	36.31
11:13:                  21	36.33
11:13:                  51	36.33
11:14:                  21	36.36
11:14:                  51	36.32
11:15:                  21	36.33
11:15:                  51	36.33
11:16:                  21	36.41
11:16:                  51	36.46
11:17:                  21	36.47
11:17:                  52	36.48
11:18:                  22	36.56
11:18:                  52	36.55
11:19:                  22	36.58
11:19:                  52	36.57
11:20:                  22	36.57
11:20:                  52	36.60
11:21:                  22	36.60
11:21:                  52	36.51
11:22:                  22	36.52
11:22:                  52	36.57
11:23:                  22	36.56
11:23:                  52	36.55
11:24:                  22	36.58
11:24:                  52	36.46
11:25:                  22	36.47
11:25:                  52	36.60
11:26:                  22	36.62
11:26:                  52	36.64
11:27:                  22	36.70
11:27:                  52	36.74
11:28:                  22	36.73
11:28:                  52	36.79
11:29:                  22	36.81
11:29:                  52	36.80
11:30:                  22	36.79
11:30:                  52	36.76
11:31:                  22	36.82
11:31:                  52	36.83
11:32:                  22	36.81
11:32:                  52	36.85
11:33:                  22	36.87
11:33:                  52	36.80
11:34:                  22	36.82
11:34:                  52	36.84
11:35:                  22	36.83
11:35:                  52	36.88
11:36:                  22	36.89
11:36:                  52	36.86
11:37:                  22	36.89
11:37:                  52	36.88
11:38:                  22	36.93
11:38:                  52	36.89
11:39:                  22	36.93
11:39:                  52	37.00
11:40:                  22	36.99
11:40:                  52	37.01
11:41:                  22	37.01
11:41:                  52	37.03
11:42:                  22	36.96
11:42:                  52	36.95
11:43:                  22	37.02
11:43:                  52	36.97
11:44:                  22	36.91
11:44:                  52	36.89
11:45:                  22	36.92
11:45:                  52	36.95
11:46:                  23	36.86
11:46:                  53	36.88
11:47:                  23	36.85
11:47:                  53	36.90
11:48:                  23	36.96
11:48:                  53	36.94
11:49:                  23	36.86
11:49:                  53	36.90
11:50:                  23	36.95
11:50:                  53	36.97
11:51:                  23	37.01
11:51:                  53	37.02
11:52:                  23	37.00
11:52:                  53	37.00
11:53:                  23	37.03
11:53:                  53	36.96
11:54:                  23	37.00
11:54:                  53	37.04
11:55:                  23	37.01
11:55:                  53	37.01
11:56:                  23	37.04
11:56:                  53	36.99
11:57:                  23	36.99
11:57:                  53	37.03
11:58:                  23	37.04
11:58:                  53	37.04
11:59:                  23	37.06
11:59:                  53	37.09
12:00:                  23	37.09
12:00:                  53	37.12
12:01:                  23	37.12
12:01:                  53	37.13
12:02:                  23	37.15
12:02:                  53	37.19
12:03:                  23	37.15
12:03:                  53	37.15
12:04:                  23	37.11
12:04:                  53	37.10
12:05:                  23	37.15
12:05:                  53	37.11
12:06:                  23	37.14
12:06:                  53	37.09
12:07:                  23	37.05
12:07:                  53	37.14
12:08:                  23	37.09
12:08:                  53	37.15
12:09:                  23	37.20
12:09:                  53	37.21
12:10:                  23	37.19
12:10:                  53	37.16
12:11:                  23	37.19
12:11:                  53	37.24
12:12:                  23	37.25
12:12:                  53	37.24
12:13:                  23	37.17
12:13:                  53	37.23
12:14:                  23	37.18
12:14:                  53	37.24
12:15:                  23	37.26
12:15:                  53	37.23
12:16:                  23	37.11
12:16:                  53	37.19
12:17:                  23	37.24
12:17:                  53	37.25
12:18:                  23	37.16
12:18:                  53	37.24
12:19:                  23	37.31
12:19:                  53	37.32
12:20:                  23	37.33
12:20:                  53	37.30
12:21:                  23	37.18
12:21:                  53	37.23
12:22:                  23	37.28
12:22:                  53	37.25
12:23:                  23	37.27
12:23:                  53	37.32
12:24:                  23	37.34
12:24:                  53	37.32
12:25:                  23	37.26
12:25:                  53	37.34
12:26:                  23	37.33
12:26:                  53	37.30
12:27:                  23	37.24
12:27:                  53	37.22
12:28:                  23	37.26
12:28:                  53	37.29
12:29:                  24	37.32
12:29:                  54	37.41
12:30:                  24	37.47
12:30:                  54	37.49
12:31:                  24	37.51
12:31:                  54	37.53
12:32:                  24	37.54
12:32:                  54	37.56
12:33:                  24	37.56
12:33:                  54	37.57
12:34:                  24	37.59
12:34:                  54	37.55
12:35:                  24	37.58
12:35:                  54	37.62
12:36:                  24	37.63
12:36:                  54	37.67
12:37:                  24	37.65
12:37:                  54	37.65
12:38:                  24	37.71
12:38:                  54	37.73
12:39:                  24	37.75
12:39:                  54	37.73
12:40:                  24	37.80
12:40:                  54	37.85
12:41:                  24	37.87
12:41:                  54	37.92
12:42:                  24	37.94
12:42:                  54	37.93
12:43:                  24	37.96
12:43:                  54	37.95
12:44:                  24	37.98
12:44:                  54	37.97
12:45:                  24	37.98
12:45:                  54	37.94
12:46:                  24	37.97
12:46:                  54	37.96
12:47:                  24	37.94
12:47:                  54	37.99
12:48:                  24	37.99
12:48:                  54	38.03
12:49:                  24	38.02
12:49:                  54	38.01
12:50:                  24	38.06
12:50:                  54	38.13
12:51:                  24	38.13
12:51:                  54	38.14
12:52:                  24	38.18
12:52:                  54	38.18
12:53:                  24	38.15
12:53:                  54	38.16
12:54:                  24	38.19
12:54:                  54	38.17
12:55:                  24	38.15
12:55:                  54	38.16
12:56:                  24	38.18
12:56:                  54	38.16
12:57:                  24	38.09
12:57:                  54	38.15
12:58:                  24	38.10
12:58:                  54	38.03
12:59:                  24	38.05
12:59:                  54	38.02
13:00:                  25	38.03
13:00:                  55	38.09
13:01:                  25	38.11
13:01:                  55	38.07
13:02:                  25	38.06
13:02:                  55	38.07
13:03:                  25	38.04
13:03:                  55	38.04
13:04:                  25	37.98
13:04:                  55	37.95
13:05:                  25	37.94
13:05:                  55	37.83
13:06:                  25	37.84
13:06:                  55	37.82
13:07:                  25	37.83
13:07:                  55	37.76
13:08:                  25	37.70
13:08:                  55	37.62
13:09:                  25	37.67
13:09:                  55	37.64
13:10:                  25	37.64
13:10:                  55	37.66
13:11:                  25	37.65
13:11:                  55	37.70
13:12:                  25	37.63
13:12:                  55	37.66
13:13:                  25	37.67
13:13:                  55	37.68
13:14:                  25	37.62
13:14:                  55	37.68
13:15:                  25	37.63
13:15:                  55	37.62
13:16:                  25	37.62
13:16:                  55	37.61
13:17:                  25	37.64
13:17:                  55	37.69
13:18:                  25	37.69
13:18:                  55	37.71
13:19:                  25	37.73
13:19:                  55	37.71
13:20:                  25	37.74
13:20:                  55	37.72
13:21:                  25	37.74
13:21:                  55	37.77
13:22:                  26	37.83
13:22:                  56	37.86
13:23:                  26	37.87
13:23:                  56	37.89
13:24:                  26	37.89
13:24:                  56	37.93
13:25:                  26	37.95
13:25:                  56	37.95
13:26:                  26	37.95
13:26:                  56	37.98
13:27:                  26	37.98
13:27:                  56	37.99
13:28:                  26	38.03
13:28:                  56	38.03
13:29:                  26	38.03
13:29:                  56	38.04
13:30:                  26	38.05
13:30:                  56	38.06
13:31:                  26	38.04
13:31:                  56	38.06
13:32:                  26	38.12
13:32:                  56	38.16
13:33:                  26	38.19
13:33:                  56	38.18
13:34:                  26	38.19
13:34:                  56	38.19
13:35:                  26	38.19
13:35:                  56	38.20
13:36:                  26	38.19
13:36:                  56	38.19
13:37:                  26	38.16
13:37:                  56	38.14
13:38:                  26	38.15
13:38:                  56	38.11
13:39:                  26	38.10
13:39:                  56	38.06
13:40:                  26	38.04
13:40:                  56	38.04
13:41:                  26	38.02
13:41:                  56	38.00
13:42:                  26	37.98
13:42:                  56	38.02
13:43:                  26	38.01
13:43:                  56	38.02
13:44:                  26	38.02
13:44:                  56	37.98
13:45:                  26	37.96
13:45:                  56	37.95
13:46:                  26	37.93
13:46:                  56	37.92
13:47:                  26	37.90
13:47:                  56	37.90
13:48:                  26	37.86
13:48:                  56	37.85
13:49:                  26	37.84
13:49:                  56	37.81
13:50:                  26	37.76
13:50:                  56	37.73
13:51:                  26	37.71
13:51:                  56	37.71
13:52:                  26	37.69
13:52:                  56	37.68
13:53:                  26	37.70
13:53:                  56	37.68
13:54:                  26	37.65
13:54:                  56	37.63
13:55:                  26	37.62
13:55:                  56	37.60
13:56:                  26	37.59
13:56:                  56	37.56
13:57:                  26	37.53
13:57:                  56	37.50
13:58:                  26	37.48
13:58:                  56	37.43
13:59:                  26	37.40
13:59:                  56	37.37
14:00:                  26	37.36
14:00:                  56	37.34
14:01:                  26	37.32
14:01:                  56	37.28
14:02:                  26	37.26
14:02:                  56	37.23
14:03:                  26	37.23
14:03:                  56	37.24
14:04:                  26	37.22
14:04:                  56	37.23
14:05:                  26	37.22
14:05:                  56	37.19
14:06:                  26	37.14
14:06:                  56	37.09
14:07:                  26	37.09
14:07:                  56	37.05
14:08:                  26	37.02
14:08:                  56	37.00
14:09:                  26	36.98
14:09:                  56	36.96
14:10:                  26	36.95
14:10:                  56	36.94
14:11:                  26	36.94
14:11:                  56	36.89
14:12:                  26	36.86
14:12:                  56	36.84
14:13:                  26	36.81
14:13:                  56	36.81
14:14:                  27	36.81
14:14:                  57	36.79
14:15:                  27	36.79
14:15:                  57	36.78
14:16:                  27	36.76
14:16:                  57	36.73
14:17:                  27	36.71
14:17:                  57	36.69
14:18:                  27	36.66
14:18:                  57	36.64
14:19:                  27	36.63
14:19:                  57	36.61
14:20:                  27	36.57
14:20:                  57	36.58
14:21:                  27	36.56
14:21:                  57	36.52
14:22:                  27	36.53
14:22:                  57	36.48
14:23:                  27	36.51
14:23:                  57	36.50
14:24:                  27	36.54
14:24:                  57	36.53
14:25:                  27	36.52
14:25:                  57	36.48
14:26:                  27	36.45
14:26:                  57	36.42
14:27:                  27	36.39
14:27:                  57	36.36
14:28:                  27	36.35
14:28:                  57	36.32
14:29:                  27	36.27
14:29:                  57	36.27
14:30:                  27	36.23
14:30:                  57	36.18
14:31:                  27	36.14
14:31:                  57	36.09
14:32:                  27	36.05
14:32:                  57	36.01
14:33:                  27	35.96
14:33:                  57	35.94
14:34:                  27	35.89
14:34:                  57	35.88
14:35:                  27	35.87
14:35:                  57	35.88
14:36:                  27	35.86
14:36:                  57	35.81
14:37:                  27	35.78
14:37:                  57	35.74
14:38:                  27	35.74
14:38:                  57	35.71
14:39:                  27	35.69
14:39:                  57	35.66
14:40:                  27	35.67
14:40:                  57	35.65
14:41:                  27	35.64
14:41:                  57	35.63
14:42:                  27	35.61
14:42:                  57	35.56
14:43:                  27	35.52
14:43:                  57	35.52
14:44:                  27	35.50
14:44:                  57	35.46
14:45:                  27	35.48
14:45:                  57	35.51
14:46:                  27	35.51
14:46:                  57	35.48
14:47:                  27	35.46
14:47:                  57	35.45
14:48:                  27	35.43
14:48:                  57	35.41
14:49:                  27	35.39
14:49:                  58	35.38
14:50:                  28	35.35
14:50:                  58	35.35
14:51:                  28	35.32
14:51:                  58	35.32
14:52:                  28	35.31
14:52:                  58	35.32
14:53:                  28	35.30
14:53:                  58	35.27
14:54:                  28	35.24
14:54:                  58	35.25
14:55:                  28	35.25
14:55:                  58	35.24
14:56:                  28	35.27
14:56:                  58	35.28
14:57:                  28	35.25
14:57:                  58	35.23
14:58:                  28	35.23
14:58:                  58	35.23
14:59:                  28	35.20
14:59:                  58	35.18
15:00:                  28	35.16
15:00:                  58	35.16
15:01:                  28	35.13
15:01:                  58	35.11
15:02:                  28	35.09
15:02:                  58	35.09
15:03:                  28	35.08
15:03:                  58	35.07
15:04:                  28	35.06
15:04:                  58	35.01
15:05:                  28	34.99
15:05:                  58	35.00
15:06:                  28	35.03
15:06:                  58	35.01
15:07:                  28	35.01
15:07:                  58	35.01
15:08:                  28	35.01
15:08:                  58	34.99
15:09:                  28	35.00
15:09:                  58	34.97
15:10:                  28	34.97
15:10:                  58	34.94
15:11:                  28	34.92
15:11:                  58	34.89
15:12:                  28	34.89
15:12:                  58	34.87
15:13:                  28	34.83
15:13:                  58	34.83
15:14:                  28	34.81
15:14:                  58	34.80
15:15:                  28	34.78
15:15:                  58	34.78
15:16:                  28	34.77
15:16:                  58	34.79
15:17:                  28	34.80
15:17:                  58	34.77
15:18:                  28	34.79
15:18:                  58	34.76
15:19:                  28	34.76
15:19:                  58	34.73
15:20:                  28	34.72
15:20:                  58	34.69
15:21:                  28	34.69
15:21:                  58	34.66
15:22:                  28	34.63
15:22:                  58	34.62
15:23:                  28	34.58
15:23:                  58	34.58
15:24:                  28	34.53
15:24:                  58	34.52
15:25:                  29	34.48
15:25:                  59	34.47
15:26:                  29	34.45
15:26:                  59	34.43
15:27:                  29	34.47
15:27:                  59	34.45
15:28:                  29	34.45
15:28:                  59	34.45
15:29:                  29	34.44
15:29:                  59	34.41
15:30:                  29	34.37
15:30:                  59	34.35
15:31:                  29	34.33
15:31:                  59	34.30
15:32:                  29	34.29
15:32:                  59	34.27
15:33:                  29	34.25
15:33:                  59	34.24
15:34:                  29	34.24
15:34:                  59	34.19
15:35:                  29	34.18
15:35:                  59	34.17
15:36:                  29	34.13
15:36:                  59	34.12
15:37:                  29	34.10
15:37:                  59	34.14
15:38:                  29	34.12
15:38:                  59	34.12
15:39:                  29	34.08
15:39:                  59	34.06
15:40:                  29	34.02
15:40:                  59	34.00
15:41:                  29	33.96
15:41:                  59	33.97
15:42:                  29	33.98
15:42:                  59	33.93
15:43:                  29	33.93
15:43:                  59	33.89
15:44:                  29	33.86
15:44:                  59	33.85
15:45:                  29	33.84
15:45:                  59	33.84
15:46:                  29	33.83
15:46:                  59	33.76
15:47:                  29	33.71
15:47:                  59	33.74
15:48:                  29	33.74
15:48:                  59	33.73
15:49:                  29	33.72
15:49:                  59	33.71
15:50:                  29	33.71
15:50:                  59	33.70
15:51:                  29	33.71
15:51:                  59	33.70
15:52:                  29	33.74
15:52:                  59	33.72
15:53:                  29	33.72
15:53:                  59	33.68
15:54:                  29	33.69
15:54:                  59	33.68
15:55:                  29	33.70
15:55:                  59	33.72
15:56:                  29	33.71
15:56:                  59	33.71
15:57:                  29	33.74
15:57:                  59	33.75
15:58:                  30	33.80
15:59:                   0	33.83
15:59:                  30	33.88
16:00:                   0	33.87
16:00:                  30	33.90
16:01:                   0	33.91
16:01:                  30	33.91
16:02:                   0	33.92
16:02:                  30	33.93
16:03:                   0	33.92
16:03:                  30	33.92
16:04:                   0	33.93
16:04:                  30	33.90
16:05:                   0	33.90
16:05:                  30	33.86
16:06:                   0	33.86
16:06:                  30	33.85
16:07:                   0	33.83
16:07:                  30	33.84
16:08:                   0	33.85
16:08:                  30	33.83
16:09:                   0	33.83
16:09:                  30	33.86
16:10:                   0	33.90
16:10:                  30	33.90
16:11:                   0	33.91
16:11:                  30	33.90
16:12:                   0	33.88
16:12:                  30	33.87
16:13:                   0	33.87
16:13:                  30	33.86
16:14:                   0	33.83
16:14:                  30	33.81
16:15:                   0	33.77
16:15:                  30	33.77
16:16:                   0	33.76
16:16:                  30	33.76
16:17:                   0	33.77
16:17:                  30	33.77
16:18:                   0	33.75
16:18:                  30	33.74
16:19:                   0	33.75
16:19:                  30	33.79
16:20:                   0	33.81
16:20:                  30	33.83
16:21:                   0	33.84
16:21:                  30	33.84
16:22:                   0	33.85
16:22:                  30	33.83
16:23:                   0	33.83
16:23:                  30	33.82
16:24:                   0	33.79
16:24:                  30	33.80
16:25:                   0	33.80
16:25:                  30	33.79
16:26:                   0	33.77
16:26:                  30	33.76
16:27:                   0	33.74
16:27:                  30	33.72
16:28:                   0	33.71
16:28:                  30	33.71
16:29:                   0	33.70
16:29:                  30	33.70
16:30:                   0	33.74
16:30:                  30	33.76
16:31:                   0	33.78
16:31:                  30	33.78
16:32:                   0	33.78
16:32:                  30	33.78
16:33:                   0	33.78
16:33:                  30	33.77
16:34:                   0	33.76
16:34:                  30	33.73
16:35:                   0	33.74
16:35:                  30	33.71
16:36:                   0	33.68
16:36:                  30	33.66
16:37:                   0	33.68
16:37:                  30	33.65
16:38:                   0	33.65
16:38:                  30	33.64
16:39:                   0	33.63
16:39:                  30	33.62
16:40:                   0	33.61
16:40:                  31	33.65
16:41:                   1	33.67
16:41:                  31	33.68
16:42:                   1	33.68
16:42:                  31	33.66
16:43:                   1	33.63
16:43:                  31	33.62
16:44:                   1	33.62
16:44:                  31	33.61
16:45:                   1	33.61
16:45:                  31	33.58
16:46:                   1	33.58
16:46:                  31	33.56
16:47:                   1	33.55
16:47:                  31	33.54
16:48:                   1	33.52
16:48:                  31	33.49
16:49:                   1	33.48
16:49:                  31	33.47
16:50:                   1	33.46
16:50:                  31	33.49
16:51:                   1	33.54
16:51:                  31	33.54
16:52:                   1	33.52
16:52:                  31	33.53
16:53:                   1	33.50
16:53:                  31	33.49
16:54:                   1	33.47
16:54:                  31	33.47
16:55:                   1	33.46
16:55:                  31	33.42
16:56:                   1	33.41
16:56:                  31	33.41
16:57:                   1	33.40
16:57:                  31	33.38
16:58:                   1	33.37
16:58:                  31	33.35
16:59:                   1	33.30
16:59:                  31	33.28
17:00:                   1	33.26
17:00:                  31	33.24
17:01:                   1	33.24
17:01:                  31	33.27
17:02:                   1	33.29
17:02:                  31	33.25
17:03:                   1	33.24
17:03:                  31	33.24
17:04:                   1	33.21
17:04:                  31	33.18
17:05:                   1	33.21
17:05:                  31	33.22
17:06:                   1	33.23
17:06:                  32	33.22
17:07:                   2	33.24
17:07:                  32	33.23
17:08:                   2	33.23
17:08:                  32	33.22
17:09:                   2	33.22
17:09:                  32	33.19
17:10:                   2	33.19
17:10:                  32	33.19
17:11:                   2	33.18
17:11:                  32	33.20
17:12:                   2	33.24
17:12:                  32	33.26
17:13:                   2	33.26
17:13:                  32	33.26
17:14:                   2	33.25
17:14:                  32	33.25
17:15:                   2	33.22
17:15:                  32	33.21
17:16:                   2	33.19
17:16:                  32	33.16
17:17:                   2	33.15
17:17:                  32	33.13
17:18:                   2	33.10
17:18:                  32	33.08
17:19:                   2	33.05
17:19:                  32	33.05
17:20:                   2	33.05
17:20:                  32	33.04
17:21:                   2	33.01
17:21:                  32	33.01
17:22:                   2	33.04
17:22:                  32	33.05
17:23:                   2	33.03
17:23:                  32	33.02
17:24:                   2	33.02
17:24:                  32	33.03
17:25:                   2	33.02
17:25:                  32	33.04
17:26:                   2	33.05
17:26:                  32	33.05
17:27:                   2	33.04
17:27:                  32	33.05
17:28:                   2	33.04
17:28:                  32	33.03
17:29:                   3	33.03
17:29:                  33	33.01
17:30:                   3	33.01
17:30:                  33	33.01
17:31:                   3	33.01
17:31:                  33	32.99
17:32:                   3	32.97
17:32:                  33	33.00
17:33:                   3	33.04
17:33:                  33	33.05
17:34:                   3	33.06
17:34:                  33	33.05
17:35:                   3	33.04
17:35:                  33	33.04
17:36:                   3	33.04
17:36:                  33	33.02
17:37:                   3	33.00
17:37:                  33	33.01
17:38:                   3	32.99
17:38:                  33	32.99
17:39:                   3	32.98
17:39:                  33	32.98
17:40:                   3	32.98
17:40:                  33	32.97
17:41:                   3	32.98
17:41:                  33	32.99
17:42:                   3	32.99
17:42:                  33	32.98
17:43:                   3	33.02
17:43:                  33	33.06
17:44:                   3	33.08
17:44:                  33	33.09
17:45:                   3	33.09
17:45:                  33	33.09
17:46:                   3	33.08
17:46:                  33	33.08
17:47:                   3	33.08
17:47:                  33	33.08
17:48:                   3	33.08
17:48:                  33	33.07
17:49:                   3	33.07
17:49:                  33	33.05
17:50:                   3	33.04
17:50:                  33	33.02
17:51:                   3	33.01
17:51:                  33	33.02
17:52:                   3	32.99
17:52:                  33	32.98
17:53:                   3	32.98
17:53:                  33	33.01
17:54:                   3	33.03
17:54:                  33	33.04
17:55:                   3	33.04
17:55:                  33	33.03
17:56:                   3	33.02
17:56:                  33	33.02
17:57:                   3	33.01
17:57:                  33	32.99
17:58:                   3	33.00
17:58:                  33	32.98
17:59:                   3	32.97
17:59:                  33	32.95
18:00:                   3	32.94
18:00:                  33	32.91
18:01:                   3	32.92
18:01:                  33	32.91
18:02:                   3	32.90
18:02:                  33	32.90
18:03:                   3	32.88
18:03:                  34	32.89
18:04:                   4	32.92
18:04:                  34	32.94
18:05:                   4	32.94
18:05:                  34	32.95
18:06:                   4	32.94
18:06:                  34	32.94
18:07:                   4	32.92
18:07:                  34	32.91
18:08:                   4	32.89
18:08:                  34	32.88
18:09:                   4	32.86
18:09:                  34	32.87
18:10:                   4	32.84
18:10:                  34	32.85
18:11:                   4	32.84
18:11:                  34	32.81
18:12:                   4	32.80
18:12:                  34	32.81
18:13:                   4	32.79
18:13:                  34	32.78
18:14:                   4	32.78
18:14:                  34	32.82
18:15:                   4	32.83
18:15:                  34	32.83
18:16:                   4	32.82
18:16:                  34	32.80
18:17:                   4	32.79
18:17:                  34	32.79
18:18:                   4	32.78
18:18:                  34	32.76
18:19:                   4	32.75
18:19:                  34	32.74
18:20:                   4	32.71
18:20:                  34	32.69
18:21:                   4	32.68
18:21:                  34	32.68
18:22:                   4	32.66
18:22:                  34	32.63
18:23:                   4	32.63
18:23:                  34	32.62
18:24:                   4	32.61
18:24:                  34	32.64
18:25:                   4	32.66
18:25:                  34	32.69
18:26:                   4	32.69
18:26:                  34	32.69
18:27:                   4	32.68
18:27:                  34	32.67
18:28:                   4	32.67
18:28:                  34	32.66
18:29:                   4	32.65
18:29:                  34	32.65
18:30:                   4	32.64
18:30:                  34	32.63
18:31:                   4	32.62
18:31:                  34	32.62
18:32:                   4	32.60
18:32:                  34	32.59
18:33:                   4	32.58
18:33:                  34	32.57
18:34:                   4	32.57
18:34:                  34	32.56
18:35:                   4	32.58
18:35:                  34	32.61
18:36:                   4	32.62
18:36:                  34	32.65
18:37:                   4	32.64
18:37:                  34	32.61
18:38:                   4	32.61
18:38:                  34	32.61
18:39:                   4	32.60
18:39:                  34	32.59
18:40:                   4	32.58
18:40:                  34	32.58
18:41:                   4	32.57
18:41:                  34	32.57
18:42:                   4	32.57
18:42:                  34	32.54
18:43:                   4	32.53
18:43:                  34	32.52
18:44:                   4	32.51
18:44:                  34	32.50
18:45:                   5	32.47
18:45:                  35	32.51
18:46:                   5	32.54
18:46:                  35	32.55
18:47:                   5	32.56
18:47:                  35	32.55
18:48:                   5	32.54
18:48:                  35	32.53
18:49:                   5	32.53
18:49:                  35	32.50
18:50:                   5	32.49
18:50:                  35	32.47
18:51:                   5	32.47
18:51:                  35	32.46
18:52:                   5	32.44
18:52:                  35	32.43
18:53:                   5	32.41
18:53:                  35	32.38
18:54:                   5	32.38
18:54:                  35	32.36
18:55:                   5	32.37
18:55:                  35	32.35
18:56:                   5	32.39
18:56:                  35	32.42
18:57:                   5	32.44
18:57:                  35	32.36
18:58:                   5	32.36
18:58:                  35	32.27
18:59:                   5	32.27
18:59:                  35	32.31
19:00:                   5	32.32
19:00:                  35	32.33
19:01:                   5	32.33
19:01:                  35	32.34
19:02:                   5	32.35
19:02:                  35	32.34
19:03:                   5	32.35
19:03:                  35	32.35
19:04:                   5	32.37
19:04:                  35	32.36
19:05:                   5	32.35
19:05:                  35	32.34
19:06:                   5	32.35
19:06:                  35	32.38
19:07:                   5	32.40
19:07:                  35	32.42
19:08:                   5	32.44
19:08:                  35	32.46
19:09:                   5	32.47
19:09:                  35	32.46
19:10:                   5	32.45
19:10:                  35	32.45
19:11:                   5	32.46
19:11:                  35	32.45
19:12:                   5	32.44
19:12:                  35	32.44
19:13:                   5	32.44
19:13:                  35	32.43
19:14:                   5	32.41
19:14:                  35	32.41
19:15:                   5	32.40
19:15:                  35	32.39
19:16:                   5	32.38
19:16:                  35	32.39
19:17:                   5	32.40
19:17:                  35	32.44
19:18:                   5	32.44
19:18:                  35	32.46
19:19:                   5	32.47
19:19:                  35	32.47
19:20:                   5	32.46
19:20:                  35	32.44
19:21:                   5	32.45
19:21:                  35	32.44
19:22:                   5	32.44
19:22:                  35	32.45
19:23:                   5	32.44
19:23:                  35	32.43
19:24:                   5	32.41
19:24:                  35	32.41
19:25:                   5	32.42
19:25:                  35	32.40
19:26:                   5	32.40
19:26:                  35	32.41
19:27:                   5	32.40
19:27:                  35	32.42
19:28:                   5	32.46
19:28:                  35	32.48
19:29:                   5	32.50
19:29:                  36	32.48
19:30:                   6	32.49
19:30:                  36	32.48
19:31:                   6	32.48
19:31:                  36	32.47
19:32:                   6	32.47
19:32:                  36	32.45
19:33:                   6	32.46
19:33:                  36	32.44
19:34:                   6	32.42
19:34:                  36	32.42
19:35:                   6	32.42
19:35:                  36	32.41
19:36:                   6	32.41
19:36:                  36	32.39
19:37:                   6	32.37
19:37:                  36	32.40
19:38:                   6	32.42
19:38:                  36	32.45
19:39:                   6	32.47
19:39:                  36	32.47
19:40:                   6	32.48
19:40:                  36	32.47
19:41:                   6	32.47
19:41:                  36	32.47
19:42:                   6	32.45
19:42:                  36	32.46
19:43:                   6	32.44
19:43:                  36	32.42
19:44:                   6	32.42
19:44:                  36	32.41
19:45:                   6	32.40
19:45:                  36	32.40
19:46:                   7	32.38
19:46:                  37	32.37
19:47:                   7	32.36
19:47:                  37	32.35
19:48:                   7	32.36
19:48:                  37	32.39
19:49:                   7	32.40
19:49:                  37	32.42
19:50:                   7	32.42
19:50:                  37	32.42
19:51:                   7	32.42
19:51:                  37	32.41
19:52:                   7	32.42
19:52:                  37	32.40
19:53:                   7	32.40
19:53:                  37	32.39
19:54:                   7	32.39
19:54:                  37	32.38
19:55:                   7	32.38
19:55:                  37	32.37
19:56:                   7	32.36
19:56:                  37	32.36
19:57:                   7	32.35
19:57:                  37	32.36
19:58:                   7	32.34
19:58:                  37	32.36
19:59:                   7	32.38
19:59:                  37	32.41
20:00:                   7	32.41
20:00:                  37	32.42
20:01:                   7	32.41
20:01:                  37	32.41
20:02:                   7	32.41
20:02:                  37	32.40
20:03:                   8	32.39
20:03:                  38	32.39
20:04:                   8	32.38
20:04:                  38	32.39
20:05:                   8	32.37
20:05:                  38	32.35
20:06:                   8	32.35
20:06:                  38	32.33
20:07:                   8	32.33
20:07:                  38	32.31
20:08:                   8	32.31
20:08:                  38	32.30
20:09:                   8	32.29
20:09:                  38	32.34
20:10:                   8	32.35
20:10:                  38	32.35
20:11:                   8	32.35
20:11:                  38	32.33
20:12:                   8	32.33
20:12:                  38	32.32
20:13:                   8	32.31
20:13:                  38	32.30
20:14:                   8	32.29
20:14:                  38	32.28
20:15:                   8	32.27
20:15:                  38	32.27
20:16:                   8	32.25
20:16:                  38	32.25
20:17:                   8	32.24
20:17:                  38	32.24
20:18:                   8	32.23
20:18:                  38	32.22
20:19:                   8	32.22
20:19:                  38	32.24
20:20:                   8	32.15
20:20:                  39	32.17
20:21:                   9	32.19
20:21:                  39	32.17
20:22:                   9	32.17
20:22:                  39	32.19
20:23:                   9	32.20
20:23:                  39	32.18
20:24:                   9	32.19
20:24:                  39	32.19
20:25:                   9	32.20
20:25:                  39	32.18
20:26:                   9	32.17
20:26:                  39	32.17
20:27:                   9	32.17
20:27:                  39	32.15
20:28:                   9	32.16
20:28:                  39	32.17
20:29:                   9	32.15
20:29:                  39	32.16
20:30:                   9	32.17
20:30:                  39	32.23
20:31:                   9	32.27
20:31:                  39	32.28
20:32:                   9	32.31
20:32:                  39	32.29
20:33:                   9	32.31
20:33:                  39	32.30
20:34:                   9	32.31
20:34:                  39	32.33
20:35:                   9	32.32
20:35:                  39	32.29
20:36:                   9	32.26
20:36:                  40	32.28
20:37:                  10	32.27
20:37:                  40	32.29
20:38:                  10	32.27
20:38:                  40	32.25
20:39:                  10	32.25
20:39:                  40	32.27
20:40:                  10	32.27
20:40:                  40	32.31
20:41:                  10	32.35
20:41:                  40	32.35
20:42:                  10	32.36
20:42:                  40	32.36
20:43:                  10	32.37
20:43:                  40	32.37
20:44:                  10	32.34
20:44:                  40	32.39
20:45:                  10	32.35
20:45:                  40	32.36
20:46:                  10	32.38
20:46:                  40	32.39
20:47:                  10	32.39
20:47:                  40	32.38
20:48:                  10	32.37
20:48:                  40	32.35
20:49:                  10	32.36
20:49:                  40	32.37
20:50:                  10	32.37
20:50:                  40	32.37
20:51:                  10	32.42
20:51:                  40	32.42
20:52:                  10	32.47
20:52:                  40	32.50
20:53:                  10	32.52
20:53:                  40	32.54
20:54:                  10	32.50
20:54:                  40	32.41
20:55:                  10	32.46
20:55:                  40	32.49
20:56:                  10	32.49
20:56:                  40	32.51
20:57:                  10	32.51
20:57:                  40	32.54
20:58:                  10	32.52
20:58:                  40	32.53
20:59:                  10	32.53
20:59:                  41	32.54
21:00:                  11	32.53
21:00:                  41	32.52
21:01:                  11	32.53
21:01:                  41	32.57
21:02:                  11	32.59
21:02:                  41	32.59
21:03:                  11	32.60
21:03:                  41	32.59
21:04:                  11	32.58
21:04:                  41	32.57
21:05:                  11	32.59
21:05:                  41	32.58
21:06:                  11	32.55
21:06:                  41	32.56
21:07:                  11	32.54
21:07:                  41	32.52
21:08:                  11	32.51
21:08:                  41	32.49
21:09:                  11	32.48
21:09:                  41	32.46
21:10:                  11	32.43
21:10:                  41	32.40
21:11:                  11	32.36
21:11:                  41	32.38
21:12:                  11	32.41
21:12:                  41	32.44
21:13:                  11	32.45
21:13:                  41	32.42
21:14:                  11	32.42
21:14:                  41	32.44
21:15:                  11	32.44
21:15:                  41	32.41
21:16:                  11	32.38
21:16:                  41	32.39
21:17:                  11	32.38
21:17:                  41	32.38
21:18:                  11	32.37
21:18:                  41	32.33
21:19:                  11	32.30
21:19:                  41	32.31
21:20:                  11	32.32
21:20:                  41	32.34
21:21:                  11	32.32
21:21:                  41	32.32
21:22:                  11	32.36
21:22:                  41	32.38
21:23:                  11	32.34
21:23:                  41	32.40
21:24:                  11	32.40
21:24:                  41	32.37
21:25:                  11	32.39
21:25:                  41	32.41
21:26:                  11	32.41
21:26:                  41	32.35
21:27:                  11	32.30
21:27:                  41	32.34
21:28:                  11	32.35
21:28:                  41	32.34
21:29:                  11	32.34
21:29:                  41	32.34
21:30:                  11	32.34
21:30:                  41	32.35
21:31:                  11	32.34
21:31:                  41	32.36
21:32:                  11	32.35
21:32:                  41	32.37
21:33:                  11	32.41
21:33:                  41	32.43
21:34:                  11	32.42
21:34:                  41	32.45
21:35:                  11	32.47
21:35:                  41	32.49
21:36:                  12	32.44
21:36:                  42	32.42
21:37:                  12	32.42
21:37:                  42	32.47
21:38:                  12	32.49
21:38:                  42	32.51
21:39:                  12	32.53
21:39:                  42	32.54
21:40:                  12	32.54
21:40:                  42	32.56
21:41:                  12	32.56
21:41:                  42	32.57
21:42:                  12	32.57
21:42:                  42	32.61
21:43:                  12	32.67
21:43:                  42	32.71
21:44:                  12	32.73
21:44:                  42	32.74
21:45:                  12	32.78
21:45:                  42	32.80
21:46:                  12	32.82
21:46:                  42	32.83
21:47:                  12	32.87
21:47:                  42	32.85
21:48:                  12	32.86
21:48:                  42	32.88
21:49:                  12	32.89
21:49:                  42	32.88
21:50:                  12	32.88
21:50:                  42	32.85
21:51:                  12	32.83
21:51:                  42	32.85
21:52:                  12	32.88
21:52:                  42	32.89
21:53:                  12	32.92
21:53:                  42	32.97
21:54:                  12	33.01
21:54:                  42	33.02
21:55:                  12	33.05
21:55:                  42	33.05
21:56:                  12	33.07
21:56:                  42	33.08
21:57:                  12	33.08
21:57:                  42	33.08
21:58:                  12	33.09
21:58:                  42	33.10
21:59:                  12	33.08
21:59:                  42	33.09
22:00:                  12	33.09
22:00:                  42	33.11
22:01:                  12	33.12
22:01:                  42	33.11
22:02:                  12	33.10
22:02:                  42	33.09
22:03:                  12	33.10
22:03:                  42	33.11
22:04:                  12	33.13
22:04:                  42	33.13
22:05:                  12	33.18
22:05:                  42	33.18
22:06:                  12	33.18
22:06:                  42	33.18
22:07:                  12	33.19
22:07:                  42	33.21
22:08:                  13	33.21
22:08:                  43	33.20
22:09:                  13	33.20
22:09:                  43	33.20
22:10:                  13	33.21
22:10:                  43	33.21
22:11:                  13	33.20
22:11:                  43	33.21
22:12:                  13	33.19
22:12:                  43	33.21
22:13:                  13	33.21
22:13:                  43	33.21
22:14:                  13	33.21
22:14:                  43	33.22
22:15:                  13	33.26
22:15:                  43	33.29
22:16:                  13	33.32
22:16:                  43	33.35
22:17:                  13	33.36
22:17:                  43	33.31
22:18:                  13	33.36
22:18:                  43	33.37
22:19:                  13	33.38
22:19:                  43	33.41
22:20:                  13	33.42
22:20:                  43	33.36
22:21:                  13	33.37
22:21:                  43	33.40
22:22:                  13	33.40
22:22:                  43	33.38
22:23:                  13	33.41
22:23:                  43	33.39
22:24:                  13	33.42
22:24:                  43	33.44
22:25:                  13	33.50
22:25:                  43	33.53
22:26:                  13	33.58
22:26:                  43	33.61
22:27:                  13	33.64
22:27:                  43	33.66
22:28:                  13	33.67
22:28:                  43	33.68
22:29:                  13	33.71
22:29:                  43	33.72
22:30:                  13	33.73
22:30:                  43	33.73
22:31:                  13	33.75
22:31:                  43	33.74
22:32:                  13	33.75
22:32:                  43	33.74
22:33:                  13	33.74
22:33:                  43	33.75
22:34:                  13	33.75
22:34:                  43	33.74
22:35:                  13	33.75
22:35:                  43	33.79
22:36:                  13	33.81
22:36:                  43	33.82
22:37:                  13	33.83
22:37:                  43	33.83
22:38:                  13	33.83
22:38:                  43	33.82
22:39:                  13	33.80
22:39:                  43	33.80
22:40:                  13	33.78
22:40:                  43	33.76
22:41:                  14	33.76
22:41:                  44	33.72
22:42:                  14	33.72
22:42:                  44	33.71
22:43:                  14	33.68
22:43:                  44	33.66
22:44:                  14	33.64
22:44:                  44	33.61
22:45:                  14	33.59
22:45:                  44	33.60
22:46:                  14	33.62
22:46:                  44	33.63
22:47:                  14	33.62
22:47:                  44	33.62
22:48:                  14	33.61
22:48:                  44	33.61
22:49:                  14	33.58
22:49:                  44	33.56
22:50:                  14	33.54
22:50:                  44	33.53
22:51:                  14	33.51
22:51:                  44	33.50
22:52:                  14	33.49
22:52:                  44	33.47
22:53:                  14	33.44
22:53:                  44	33.44
22:54:                  14	33.41
22:54:                  44	33.39
22:55:                  14	33.38
22:55:                  44	33.37
22:56:                  14	33.39
22:56:                  44	33.41
22:57:                  14	33.42
22:57:                  44	33.42
22:58:                  15	33.42
22:58:                  45	33.43
22:59:                  15	33.40
22:59:                  45	33.42
23:00:                  15	33.40
23:00:                  45	33.39
23:01:                  15	33.38
23:01:                  45	33.38
23:02:                  15	33.37
23:02:                  45	33.37
23:03:                  15	33.35
23:03:                  45	33.35
23:04:                  15	33.34
23:04:                  45	33.33
23:05:                  15	33.32
23:05:                  45	33.30
23:06:                  15	33.28
23:06:                  45	33.31
23:07:                  15	33.33
23:07:                  45	33.34
23:08:                  15	33.35
23:08:                  45	33.35
23:09:                  15	33.34
23:09:                  45	33.33
23:10:                  15	33.32
23:10:                  45	33.31
23:11:                  15	33.29
23:11:                  45	33.27
23:12:                  15	33.27
23:12:                  45	33.25
23:13:                  15	33.23
23:13:                  45	33.21
23:14:                  15	33.21
23:14:                  45	33.19
23:15:                  15	33.18
23:15:                  45	33.16
23:16:                  15	33.14
23:16:                  45	33.13
23:17:                  15	33.15
23:17:                  45	33.17
23:18:                  15	33.17
23:18:                  45	33.18
23:19:                  15	33.16
23:19:                  45	33.16
23:20:                  15	33.15
23:20:                  46	33.13
23:21:                  16	33.11
23:21:                  46	33.09
23:22:                  16	33.09
23:22:                  46	33.07
23:23:                  16	33.05
23:23:                  46	33.02
23:24:                  16	33.01
23:24:                  46	33.00
23:25:                  16	32.98
23:25:                  46	32.97
23:26:                  16	32.96
23:26:                  46	32.93
23:27:                  16	32.93
23:27:                  46	32.95
23:28:                  16	32.97
23:28:                  46	32.98
23:29:                  16	32.98
23:29:                  46	32.97
23:30:                  16	32.96
23:30:                  46	32.95
23:31:                  16	32.94
23:31:                  46	32.93
23:32:                  16	32.92
23:32:                  46	32.90
23:33:                  16	32.87
23:33:                  46	32.88
23:34:                  16	32.85
23:34:                  46	32.85
23:35:                  16	32.83
23:35:                  46	32.82
23:36:                  16	32.82
23:36:                  46	32.80
23:37:                  16	32.79
23:37:                  46	32.77
23:38:                  16	32.80
23:38:                  46	32.81
23:39:                  16	32.83
23:39:                  46	32.82
23:40:                  16	32.83
23:40:                  46	32.83
23:41:                  16	32.81
23:41:                  46	32.80
23:42:                  16	32.79
23:42:                  46	32.78
23:43:                  16	32.78
23:43:                  46	32.77
23:44:                  16	32.73
23:44:                  46	32.73
23:45:                  16	32.72
23:45:                  46	32.71
23:46:                  16	32.68
23:46:                  46	32.68
23:47:                  16	32.67
23:47:                  46	32.66
23:48:                  16	32.65
23:48:                  46	32.69
23:49:                  16	32.71
23:49:                  46	32.71
23:50:                  16	32.73
23:50:                  46	32.73
23:51:                  16	32.71
23:51:                  46	32.70
23:52:                  16	32.69
23:52:                  46	32.67
23:53:                  16	32.66
23:53:                  46	32.65
23:54:                  16	32.65
23:54:                  46	32.64
23:55:                  16	32.62
23:55:                  46	32.61
23:56:                  17	32.58
23:56:                  47	32.58
23:57:                  17	32.57
23:57:                  47	32.57
23:58:                  17	32.56
23:58:                  47	32.57
23:59:                  17	32.60
23:59:                  47	32.60
