# Alias OBJ Model File
# Exported from SketchUp, (c) 2000-2012 Trimble Navigation Limited
# File units = millimeters

mtllib back.mtl

g Mesh1 Model

usemtl FrontColor
v 147.682 5 -45.6816
vt -1.02419 0.19685
vn -1 0 1.80428e-14
v 147.597 5 -46.3286
vt -1.04988 0.19685
vn -0.965926 0 0.258819
v 147.597 0 -46.3286
vt -1.04988 0
v 147.682 0 -45.6816
vt -1.02419 0
f 1/1/1 2/2/2 3/3/2 4/4/1 

v 147.682 5 -110.682
vt 5.81427 4.35754
vn -4.71029e-17 1 -4.65398e-17
vt 5.81091 1.82396
vt 5.81427 1.79849
f 5/5/3 2/6/3 1/7/3

v 147.597 5 -110.035
vt 5.81091 4.33207
f 6/8/3 2/6/3 5/5/3

v 147.347 5 -46.9316
vt 5.80108 1.8477
f 6/8/3 7/9/3 2/6/3

v 147.347 5 -109.432
vt 5.80108 4.30833
f 8/10/3 7/9/3 6/8/3

v 146.95 5 -47.4493
vt 5.78544 1.86808
f 8/10/3 9/11/3 7/9/3

v 146.95 5 -108.914
vt 5.78544 4.28794
f 10/12/3 9/11/3 8/10/3

v 146.432 5 -47.8466
vt 5.76505 1.88373
f 10/12/3 11/13/3 9/11/3

v 146.432 5 -108.517
vt 5.76505 4.2723
f 12/14/3 11/13/3 10/12/3

v 145.829 5 -48.0964
vt 5.74132 1.89356
f 12/14/3 13/15/3 11/13/3

v 145.829 5 -108.267
vt 5.74132 4.26247
f 14/16/3 13/15/3 12/14/3

v 145.182 5 -48.1816
vt 5.71584 1.89691
f 14/16/3 15/17/3 13/15/3

v 145.182 5 -108.182
vt 5.71584 4.25912
f 16/18/3 15/17/3 14/16/3

v 144.535 5 -48.0964
vt 5.69037 1.89356
f 16/18/3 17/19/3 15/17/3

v 144.535 5 -108.267
vt 5.69037 4.26247
f 18/20/3 17/19/3 16/18/3

v 143.932 5 -47.8466
vt 5.66663 1.88373
f 18/20/3 19/21/3 17/19/3

v 143.932 5 -108.517
vt 5.66663 4.2723
f 20/22/3 19/21/3 18/20/3

v 143.415 5 -47.4493
vt 5.64624 1.86808
f 20/22/3 21/23/3 19/21/3

v 143.415 5 -108.914
vt 5.64624 4.28794
f 22/24/3 21/23/3 20/22/3

v 143.017 5 -46.9316
vt 5.6306 1.8477
f 22/24/3 23/25/3 21/23/3

v 143.017 5 -109.432
vt 5.6306 4.30833
f 24/26/3 23/25/3 22/24/3

v 142.768 5 -46.3286
vt 5.62077 1.82396
f 24/26/3 25/27/3 23/25/3

v 142.768 5 -110.035
vt 5.62077 4.33207
f 26/28/3 25/27/3 24/26/3

v 142.682 5 -55.6816
vt 5.61742 2.19219
f 27/29/3 25/27/3 26/28/3

v 142.682 5 -45.6816
vt 5.61742 1.79849
f 27/29/3 28/30/3 25/27/3

v 142.544 5 -54.6374
vt 5.61196 2.15108
f 29/31/3 28/30/3 27/29/3

v 142.682 5 -38.1816
vt 5.61742 1.50321
f 29/31/3 30/32/3 28/30/3

v 142.27 5 -53.6202
vt 5.60118 2.11103
f 31/33/3 30/32/3 29/31/3

v 141.866 5 -52.6474
vt 5.58527 2.07273
f 32/34/3 30/32/3 31/33/3

v 141.338 5 -51.7357
vt 5.5645 2.03684
f 33/35/3 30/32/3 32/34/3

v 140.696 5 -50.9007
vt 5.53922 2.00396
f 34/36/3 30/32/3 33/35/3

v 139.951 5 -50.1566
vt 5.50986 1.97467
f 35/37/3 30/32/3 34/36/3

v 139.114 5 -49.5162
vt 5.47694 1.94946
f 36/38/3 30/32/3 35/37/3

v 138.201 5 -48.9905
vt 5.441 1.92876
f 37/39/3 30/32/3 36/38/3

v 137.228 5 -48.5884
vt 5.40267 1.91293
f 38/40/3 30/32/3 37/39/3

v 136.21 5 -48.3169
vt 5.3626 1.90224
f 39/41/3 30/32/3 38/40/3

v 135.166 5 -48.1805
vt 5.32148 1.89687
f 40/42/3 30/32/3 39/41/3

v 134.112 5 -48.1816
vt 5.28001 1.89691
f 41/43/3 30/32/3 40/42/3

v 89.1122 5 -48.1816
vt 3.50835 1.89691
f 42/44/3 30/32/3 41/43/3

v 88.2076 5 -48.311
vt 3.47274 1.90201
f 43/45/3 30/32/3 42/44/3

v 82.6824 5 -45.6816
vt 3.25521 1.79849
f 44/46/3 30/32/3 43/45/3

v 82.6824 5 -38.1816
vt 3.25521 1.50321
f 44/46/3 45/47/3 30/32/3

v 82.5972 5 -45.0345
vt 3.25186 1.77301
f 46/48/3 45/47/3 44/46/3

v 82.3474 5 -44.4316
vt 3.24202 1.74927
f 47/49/3 45/47/3 46/48/3

v 81.9501 5 -43.9138
vt 3.22638 1.72889
f 48/50/3 45/47/3 47/49/3

v 81.4324 5 -43.5165
vt 3.206 1.71325
f 49/51/3 45/47/3 48/50/3

v 81.3771 5 -38.2671
vt 3.20382 1.50658
f 49/51/3 50/52/3 45/47/3

v 80.8294 5 -43.2668
vt 3.18226 1.70342
f 51/53/3 50/52/3 49/51/3

v 80.1824 5 -43.1816
vt 3.15679 1.70006
f 52/54/3 50/52/3 51/53/3

v 80.0942 5 -38.5223
vt 3.15331 1.51663
f 52/54/3 53/55/3 50/52/3

v 79.5353 5 -43.2668
vt 3.13131 1.70342
f 54/56/3 53/55/3 52/54/3

v 78.9324 5 -43.5165
vt 3.10757 1.71325
f 55/57/3 53/55/3 54/56/3

v 78.8555 5 -38.9428
vt 3.10455 1.53318
f 55/57/3 56/58/3 53/55/3

v 78.4146 5 -43.9138
vt 3.08719 1.72889
f 57/59/3 56/58/3 55/57/3

v 78.0173 5 -44.4316
vt 3.07155 1.74927
f 58/60/3 56/58/3 57/59/3

v 77.7675 5 -45.0345
vt 3.06171 1.77301
f 59/61/3 56/58/3 58/60/3

v 77.6824 5 -39.5213
vt 3.05836 1.55596
f 59/61/3 60/62/3 56/58/3

v 77.6824 5 -45.6816
vt 3.05836 1.79849
f 61/63/3 60/62/3 59/61/3

v 76.5947 5 -116.115
vt 3.01554 4.57146
f 62/64/3 60/62/3 61/63/3

v 76.5947 5 -40.248
vt 3.01554 1.58457
f 62/64/3 63/65/3 60/62/3

v 75.6113 5 -115.253
vt 2.97682 4.53751
f 64/66/3 63/65/3 62/64/3

v 75.6113 5 -41.1105
vt 2.97682 1.61852
f 64/66/3 65/67/3 63/65/3

v 74.7488 5 -114.269
vt 2.94287 4.49879
f 66/68/3 65/67/3 64/66/3

v 74.7488 5 -42.094
vt 2.94287 1.65724
f 66/68/3 67/69/3 65/67/3

v 74.0221 5 -113.182
vt 2.91426 4.45597
f 68/70/3 67/69/3 66/68/3

v 74.0221 5 -43.1816
vt 2.91426 1.70006
f 68/70/3 69/71/3 67/69/3

v 73.4436 5 -112.008
vt 2.89148 4.40978
f 70/72/3 69/71/3 68/70/3

v 73.4436 5 -44.3547
vt 2.89148 1.74625
f 70/72/3 71/73/3 69/71/3

v 73.0231 5 -110.77
vt 2.87493 4.36101
f 72/74/3 71/73/3 70/72/3

v 73.0231 5 -45.5934
vt 2.87493 1.79501
f 72/74/3 73/75/3 71/73/3

v 72.7679 5 -109.487
vt 2.86488 4.31051
f 74/76/3 73/75/3 72/74/3

v 72.7679 5 -46.8763
vt 2.86488 1.84552
f 74/76/3 75/77/3 73/75/3

v 72.6824 5 -108.182
vt 2.86151 4.25912
f 76/78/3 75/77/3 74/76/3

v 72.6824 5 -48.1816
vt 2.86151 1.89691
f 75/77/3 76/78/3 77/79/3

v 72.6824 4.62531e-22 -108.182
vt -4.25912 1.82099e-23
vn -1 0 -0
v 72.6824 4.62531e-22 -48.1816
vt -1.89691 1.82099e-23
vt -1.89691 0.19685
vt -4.25912 0.19685
f 78/80/4 79/81/4 77/82/4 76/83/4 

v 72.7679 4.62531e-22 -109.487
vt -2.86488 4.31051
vn 0 -1 -0
vt -2.86151 1.89691
vt -2.86151 4.25912
f 80/84/5 79/85/5 78/86/5

v 72.7679 4.62531e-22 -46.8763
vt -2.86488 1.84552
f 79/85/5 80/84/5 81/87/5

v 73.0231 4.62531e-22 -110.77
vt -2.87493 4.36101
f 81/87/5 80/84/5 82/88/5

vt -4.83809 1.82099e-23
vn -0.965926 0 -0.258819
vt -4.78659 1.82099e-23
vn -0.991445 0 -0.130526
vt -4.78659 0.19685
vt -4.83809 0.19685
f 82/89/6 80/90/7 74/91/7 72/92/6 

vt -4.48865 1.82099e-23
vt -4.43715 1.82099e-23
vn -0.997859 0 -0.0654031
vt -4.43715 0.19685
vt -4.48865 0.19685
f 80/93/7 78/94/8 76/95/8 74/96/7 

v 73.4436 4.62531e-22 -112.008
vt -5.10519 1.82099e-23
vn -0.92388 0 -0.382683
vt -5.05369 1.82099e-23
vt -5.05369 0.19685
vt -5.10519 0.19685
f 83/97/9 82/98/6 72/99/6 70/100/9 

v 73.0231 4.62531e-22 -45.5934
vt -2.87493 1.79501
vt -2.89148 4.40978
f 84/101/5 82/88/5 83/102/5

f 81/87/5 82/88/5 84/101/5

vt -1.25115 1.82099e-23
vn -0.991445 0 0.130526
vt -1.19965 1.82099e-23
vt -1.19965 0.19685
vt -1.25115 0.19685
f 81/103/10 84/104/2 73/105/2 75/106/10 

vt -0.775639 1.82099e-23
v 73.4436 4.62531e-22 -44.3547
vt -0.724141 1.82099e-23
vn -0.92388 0 0.382683
vt -0.724141 0.19685
vt -0.775639 0.19685
f 84/107/2 85/108/11 71/109/11 73/110/2 

vt -2.89148 1.74625
f 84/101/5 83/102/5 85/111/5

v 74.0221 4.62531e-22 -113.182
vt -2.91426 4.45597
f 85/111/5 83/102/5 86/112/5

vt -5.28538 1.82099e-23
vn -0.866025 0 -0.5
vt -5.23388 1.82099e-23
vt -5.23388 0.19685
vt -5.28538 0.19685
f 86/113/12 83/114/9 70/115/9 68/116/12 

v 74.7488 4.62531e-22 -114.269
vt -5.37557 1.82099e-23
vn -0.793353 0 -0.608761
vt -5.32408 1.82099e-23
vt -5.32408 0.19685
vt -5.37557 0.19685
f 87/117/13 86/118/12 68/119/12 66/120/13 

v 74.0221 4.62531e-22 -43.1816
vt -2.91426 1.70006
vt -2.94287 4.49879
f 88/121/5 86/112/5 87/122/5

f 85/111/5 86/112/5 88/121/5

vt -0.287295 1.82099e-23
vt -0.235796 1.82099e-23
vn -0.866025 0 0.5
vt -0.235796 0.19685
vt -0.287295 0.19685
f 85/123/11 88/124/14 69/125/14 71/126/11 

vt 0.205524 1.82099e-23
v 74.7488 4.62531e-22 -42.094
vt 0.257023 1.82099e-23
vn -0.793353 0 0.608761
vt 0.257023 0.19685
vt 0.205524 0.19685
f 88/127/14 89/128/15 67/129/15 69/130/14 

vt -2.94287 1.65724
f 88/121/5 87/122/5 89/131/5

v 75.6113 4.62531e-22 -115.253
vt -2.97682 4.53751
f 89/131/5 87/122/5 90/132/5

vt -5.37423 1.82099e-23
vn -0.707107 0 -0.707107
vt -5.32273 1.82099e-23
vt -5.32273 0.19685
vt -5.37423 0.19685
f 90/133/16 87/134/13 66/135/13 64/136/16 

v 76.5947 4.62531e-22 -116.115
vt -5.28138 1.82099e-23
vn -0.608761 0 -0.793353
vt -5.22988 1.82099e-23
vt -5.22988 0.19685
vt -5.28138 0.19685
f 91/137/17 90/138/16 64/139/16 62/140/17 

v 75.6113 4.62531e-22 -41.1105
vt -2.97682 1.61852
vt -3.01554 4.57146
f 92/141/5 90/132/5 91/142/5

f 89/131/5 90/132/5 92/141/5

vt 0.694386 1.82099e-23
vt 0.745885 1.82099e-23
vn -0.707107 0 0.707107
vt 0.745885 0.19685
vt 0.694386 0.19685
f 89/143/15 92/144/18 65/145/18 67/146/15 

vt 1.17093 1.82099e-23
v 76.5947 4.62531e-22 -40.248
vt 1.22243 1.82099e-23
vn -0.608761 0 0.793353
vt 1.22243 0.19685
vt 1.17093 0.19685
f 92/147/18 93/148/19 63/149/19 65/150/18 

vt -3.01554 1.58457
f 92/141/5 91/142/5 93/151/5

v 77.6824 4.62531e-22 -116.842
vt -3.05836 4.60007
f 93/151/5 91/142/5 94/152/5

vt -5.0986 1.82099e-23
vn -0.5 0 -0.866025
vt -5.0471 1.82099e-23
vt -5.0471 0.19685
v 77.6824 5 -116.842
vt -5.0986 0.19685
f 94/153/20 91/154/17 62/155/17 95/156/20 

v 77.6824 5 -110.682
vt 3.05836 4.35754
vt 3.05836 4.60007
f 62/64/3 96/157/3 95/158/3

f 96/157/3 62/64/3 61/63/3

v 77.7675 5 -46.3286
vt 3.06171 1.82396
f 97/159/3 96/157/3 61/63/3

v 77.7675 5 -110.035
vt 3.06171 4.33207
f 96/157/3 97/159/3 98/160/3

v 78.0173 5 -46.9316
vt 3.07155 1.8477
f 98/160/3 97/159/3 99/161/3

vt 2.88248 0.19685
vn 0.866025 0 0.5
vt 2.85679 0.19685
vn 0.965926 0 0.258819
v 77.7675 0 -46.3286
vt 2.85679 0
v 78.0173 0 -46.9316
vt 2.88248 0
f 99/162/21 97/163/22 100/164/22 101/165/21 

vt 2.20799 0.19685
vt 2.1823 0.19685
vn 1 0 2.2536e-15
v 77.6824 0 -45.6816
vt 2.1823 0
vt 2.20799 0
f 97/166/22 61/167/23 102/168/23 100/169/22 

vt 1.3839 0.19685
vt 1.35821 0.19685
vn 0.965926 0 -0.258819
v 77.7675 0 -45.0345
vt 1.35821 0
vt 1.3839 0
f 61/170/23 59/171/24 103/172/24 102/173/23 

vt 0.466383 0.19685
vt 0.440689 0.19685
vn 0.866025 0 -0.5
v 78.0173 0 -44.4316
vt 0.440689 0
vt 0.466383 0
f 59/174/24 58/175/25 104/176/25 103/177/24 

vt -0.482047 0.19685
vt -0.507741 0.19685
vn 0.707107 0 -0.707107
v 78.4146 0 -43.9138
vt -0.507741 0
vt -0.482047 0
f 58/178/25 57/179/26 105/180/26 104/181/25 

vt -1.39675 0.19685
vt -1.42244 0.19685
vn 0.5 0 -0.866025
v 78.9324 0 -43.5165
vt -1.42244 0
vt -1.39675 0
f 57/182/26 55/183/27 106/184/27 105/185/26 

vt -2.21539 0.19685
vt -2.24109 0.19685
vn 0.258819 0 -0.965926
v 79.5353 0 -43.2668
vt -2.24109 0
vt -2.21539 0
f 55/186/27 54/187/28 107/188/28 106/189/27 

vt -2.88218 0.19685
vt -2.90788 0.19685
vn 2.2536e-15 0 -1
v 80.1824 0 -43.1816
vt -2.90788 0
vt -2.88218 0
f 54/190/28 52/191/29 108/192/29 107/193/28 

vt -3.35168 0.19685
vt -3.37738 0.19685
vn -0.258819 0 -0.965926
v 80.8294 0 -43.2668
vt -3.37738 0
vt -3.35168 0
f 52/194/29 51/195/30 109/196/30 108/197/29 

vt -3.59189 0.19685
vt -3.61759 0.19685
v 81.4324 0 -43.5165
vt -3.61759 0
vt -3.59189 0
f 51/198/30 49/199/20 110/200/20 109/201/30 

vt -3.58645 0.19685
vt -3.61214 0.19685
v 81.9501 0 -43.9138
vt -3.61214 0
vt -3.58645 0
f 49/202/20 48/203/16 111/204/16 110/205/20 

vt -3.33572 0.19685
vt -3.36141 0.19685
v 82.3474 0 -44.4316
vt -3.36141 0
vt -3.33572 0
f 48/206/16 47/207/12 112/208/12 111/209/16 

vt -2.85679 0.19685
vt -2.88248 0.19685
v 82.5972 0 -45.0345
vt -2.88248 0
vt -2.85679 0
f 47/210/12 46/211/6 113/212/6 112/213/12 

vt -2.1823 0.19685
vt -2.20799 0.19685
vn -1 0 2.23961e-15
v 82.6824 0 -45.6816
vt -2.20799 0
vt -2.1823 0
f 46/214/6 44/215/31 114/216/31 113/217/6 

vt -1.35821 0.19685
v 82.5972 5 -46.3286
vt -1.3839 0.19685
v 82.5972 0 -46.3286
vt -1.3839 0
vt -1.35821 0
f 44/218/31 115/219/2 116/220/2 114/221/31 

v 82.6721 5 -54.7679
vt 3.25481 2.15622
vt 3.25186 1.82396
f 44/46/3 117/222/3 115/223/3

v 82.7812 5 -53.8607
vt 3.2591 2.1205
f 117/222/3 44/46/3 118/224/3

v 83.0078 5 -52.9755
vt 3.26802 2.08565
f 44/46/3 119/225/3 118/224/3

v 83.3479 5 -52.1274
vt 3.28141 2.05226
f 44/46/3 120/226/3 119/225/3

v 83.7959 5 -51.331
vt 3.29905 2.02091
f 44/46/3 121/227/3 120/226/3

v 84.344 5 -50.5999
vt 3.32063 1.99212
f 44/46/3 122/228/3 121/227/3

v 84.9828 5 -49.9466
vt 3.34578 1.9664
f 44/46/3 123/229/3 122/228/3

v 85.7014 5 -49.3822
vt 3.37407 1.94418
f 44/46/3 124/230/3 123/229/3

v 86.4875 5 -48.9165
vt 3.40502 1.92585
f 44/46/3 125/231/3 124/230/3

v 87.3277 5 -48.5574
vt 3.4381 1.91171
f 44/46/3 126/232/3 125/231/3

f 44/46/3 43/45/3 126/232/3

vt -2.83124 0.19685
vn 0.20609 1.59277e-17 -0.978533
vt -2.79526 0.19685
vn 0.332051 3.18898e-17 -0.943262
v 87.3277 10 -48.5574
vt -2.79526 0.393701
v 88.2076 10 -48.311
vt -2.83124 0.393701
f 43/233/32 126/234/33 127/235/33 128/236/32 

vt -2.41006 0.19685
vt -2.37408 0.19685
vn 0.45233 3.16857e-17 -0.89185
v 86.4875 10 -48.9165
vt -2.37408 0.393701
vt -2.41006 0.393701
f 126/237/33 125/238/34 129/239/34 127/240/33 

vt -1.94795 0.19685
vt -1.91197 0.19685
vn 0.56487 3.09394e-17 -0.82518
v 85.7014 10 -49.3822
vt -1.91197 0.393701
vt -1.94795 0.393701
f 125/241/34 124/242/35 130/243/35 129/244/34 

vt -1.45281 0.19685
vt -1.41684 0.19685
vn 0.667745 2.96638e-17 -0.74439
v 84.9828 10 -49.9466
vt -1.41684 0.393701
vt -1.45281 0.393701
f 124/245/35 123/246/36 131/247/36 130/248/35 

vt -0.933132 0.19685
vt -0.897158 0.19685
vn 0.759195 2.78806e-17 -0.650863
v 84.344 10 -50.5999
vt -0.897158 0.393701
vt -0.933132 0.393701
f 123/249/36 122/250/37 132/251/37 131/252/36 

vt -0.397792 0.19685
vt -0.361818 0.19685
vn 0.837655 2.56203e-17 -0.5462
v 83.7959 10 -51.331
vt -0.361818 0.393701
vt -0.397792 0.393701
f 122/253/37 121/254/38 133/255/38 132/256/37 

vt 0.144047 0.19685
vt 0.180021 0.19685
vn 0.901782 2.29217e-17 -0.432191
v 83.3479 10 -52.1274
vt 0.180021 0.393701
vt 0.144047 0.393701
f 121/257/38 120/258/39 134/259/39 133/260/38 

vt 0.683113 0.19685
vt 0.719087 0.19685
vn 0.950479 1.98309e-17 -0.310788
v 83.0078 10 -52.9755
vt 0.719087 0.393701
vt 0.683113 0.393701
f 120/261/39 119/262/40 135/263/40 134/264/39 

vt 1.21018 0.19685
vt 1.24616 0.19685
vn 0.982914 1.64007e-17 -0.184066
v 82.7812 10 -53.8607
vt 1.24616 0.393701
vt 1.21018 0.393701
f 119/265/40 118/266/41 136/267/41 135/268/40 

vt 1.71624 0.19685
vt 1.75221 0.19685
vn 0.99853 7.30392e-18 -0.0541956
v 82.6721 10 -54.7679
vt 1.75221 0.393701
vt 1.71624 0.393701
f 118/269/41 117/270/42 137/271/42 136/272/41 

vt 2.19262 0.19685
v 82.6824 5 -55.6816
vt 2.2286 0.19685
vn 0.999937 -7.14261e-33 0.0112274
v 82.6824 10 -55.6816
vt 2.2286 0.393701
vt 2.19262 0.393701
f 117/273/42 138/274/43 139/275/43 137/276/42 

vt 3.25521 2.19219
v 82.6824 5 -100.682
vt 3.25521 3.96384
f 138/277/3 140/278/3 117/222/3

vt 2.19219 0.19685
vn 1 1.20167e-30 -5.01327e-15
vt 3.96384 0.19685
v 82.6824 10 -100.682
vt 3.96384 0.393701
vt 2.19219 0.393701
f 138/279/44 140/280/44 141/281/44 139/282/44 

vt 4.3336 0.19685
vn 0.992431 0 0.122806
v 82.8104 5 -101.717
vt 4.37466 0.19685
vn 0.982274 1.61079e-18 0.187451
v 82.8104 10 -101.717
vt 4.37466 0.393701
vt 4.3336 0.393701
f 140/283/45 142/284/46 143/285/46 141/286/45 

v 82.6824 5 -110.682
vt 3.25521 4.35754
vt 3.26025 4.00459
f 144/287/3 140/278/3 142/288/3

f 144/287/3 117/222/3 140/278/3

f 144/287/3 115/223/3 117/222/3

v 82.5972 5 -110.035
vt 3.25186 4.33207
f 145/289/3 115/223/3 144/287/3

v 82.3474 5 -46.9316
vt 3.24202 1.8477
f 145/289/3 146/290/3 115/223/3

v 82.3474 5 -109.432
vt 3.24202 4.30833
f 147/291/3 146/290/3 145/289/3

v 81.9501 5 -47.4493
vt 3.22638 1.86808
f 147/291/3 148/292/3 146/290/3

v 81.9501 5 -108.914
vt 3.22638 4.28794
f 149/293/3 148/292/3 147/291/3

v 81.4324 5 -108.517
vt 3.206 4.2723
f 150/294/3 148/292/3 149/293/3

v 81.4324 5 -47.8466
vt 3.206 1.88373
f 150/294/3 151/295/3 148/292/3

v 80.8294 5 -108.267
vt 3.18226 4.26247
f 152/296/3 151/295/3 150/294/3

v 80.8294 5 -48.0964
vt 3.18226 1.89356
f 152/296/3 153/297/3 151/295/3

v 80.1824 5 -48.1816
vt 3.15679 1.89691
f 152/296/3 154/298/3 153/297/3

v 80.1824 5 -108.182
vt 3.15679 4.25912
f 155/299/3 154/298/3 152/296/3

v 79.5353 5 -108.267
vt 3.13131 4.26247
f 156/300/3 154/298/3 155/299/3

v 79.5353 5 -48.0964
vt 3.13131 1.89356
f 156/300/3 157/301/3 154/298/3

v 78.9324 5 -108.517
vt 3.10757 4.2723
f 158/302/3 157/301/3 156/300/3

v 78.9324 5 -47.8466
vt 3.10757 1.88373
f 158/302/3 159/303/3 157/301/3

v 78.4146 5 -108.914
vt 3.08719 4.28794
f 160/304/3 159/303/3 158/302/3

v 78.4146 5 -47.4493
vt 3.08719 1.86808
f 160/304/3 161/305/3 159/303/3

v 78.0173 5 -109.432
vt 3.07155 4.30833
f 162/306/3 161/305/3 160/304/3

f 162/306/3 99/161/3 161/305/3

f 98/160/3 99/161/3 162/306/3

vt 2.83064 0.19685
vt 2.80495 0.19685
v 78.0173 0 -109.432
vt 2.80495 0
v 77.7675 0 -110.035
vt 2.83064 0
f 98/307/24 162/308/25 163/309/25 164/310/24 

vt 1.54819 0.19685
vt 1.52249 0.19685
v 78.4146 0 -108.914
vt 1.52249 0
vt 1.54819 0
f 162/311/25 160/312/26 165/313/26 163/314/25 

vt 0.161104 0.19685
vt 0.13541 0.19685
v 78.9324 0 -108.517
vt 0.13541 0
vt 0.161104 0
f 160/315/26 158/316/27 166/317/27 165/318/26 

vt -1.23608 0.19685
vt -1.26178 0.19685
v 79.5353 0 -108.267
vt -1.26178 0
vt -1.23608 0
f 158/319/27 156/320/28 167/321/28 166/322/27 

vt -2.54816 0.19685
vt -2.57385 0.19685
vn 1.80568e-14 0 -1
v 80.1824 0 -108.182
vt -2.57385 0
vt -2.54816 0
f 156/323/28 155/324/47 168/325/47 167/326/28 

vt -3.68571 0.19685
vt -3.7114 0.19685
v 80.8294 0 -108.267
vt -3.7114 0
vt -3.68571 0
f 155/327/47 152/328/30 169/329/30 168/330/47 

vt -4.5712 0.19685
vt -4.5969 0.19685
v 81.4324 0 -108.517
vt -4.5969 0
vt -4.5712 0
f 152/331/30 150/332/20 170/333/20 169/334/30 

vt -5.1443 0.19685
vt -5.17 0.19685
v 81.9501 0 -108.914
vt -5.17 0
vt -5.1443 0
f 150/335/20 149/336/16 171/337/16 170/338/20 

vt -5.36595 0.19685
vt -5.39165 0.19685
v 82.3474 0 -109.432
vt -5.39165 0
vt -5.36595 0
f 149/339/16 147/340/12 172/341/12 171/342/16 

vt -5.22105 0.19685
vt -5.24674 0.19685
v 82.5972 0 -110.035
vt -5.24674 0
vt -5.22105 0
f 147/343/12 145/344/6 173/345/6 172/346/12 

vt -4.71946 0.19685
vt -4.74515 0.19685
vn -1 0 -1.35496e-14
v 82.6824 0 -110.682
vt -4.74515 0
vt -4.71946 0
f 145/347/6 144/348/48 174/349/48 173/350/6 

vt -3.89537 0.19685
v 82.5972 5 -111.329
vt -3.92107 0.19685
v 82.5972 0 -111.329
vt -3.92107 0
vt -3.89537 0
f 144/351/48 175/352/2 176/353/2 174/354/48 

v 82.6824 5 -118.182
vt 3.25521 4.65282
vt 3.25186 4.38302
f 177/355/3 175/356/3 144/287/3

v 82.3474 5 -111.932
vt 3.24202 4.40675
f 177/355/3 178/357/3 175/356/3

v 81.9501 5 -112.449
vt 3.22638 4.42714
f 177/355/3 179/358/3 178/357/3

v 81.4324 5 -112.847
vt 3.206 4.44278
f 177/355/3 180/359/3 179/358/3

v 81.3771 5 -118.096
vt 3.20382 4.64945
f 181/360/3 180/359/3 177/355/3

v 80.8294 5 -113.096
vt 3.18226 4.45261
f 181/360/3 182/361/3 180/359/3

v 80.1824 5 -113.182
vt 3.15679 4.45597
f 181/360/3 183/362/3 182/361/3

v 80.0942 5 -117.841
vt 3.15331 4.6394
f 184/363/3 183/362/3 181/360/3

v 79.5353 5 -113.096
vt 3.13131 4.45261
f 184/363/3 185/364/3 183/362/3

v 78.9324 5 -112.847
vt 3.10757 4.44278
f 184/363/3 186/365/3 185/364/3

v 78.8555 5 -117.42
vt 3.10455 4.62285
f 187/366/3 186/365/3 184/363/3

v 78.4146 5 -112.449
vt 3.08719 4.42714
f 187/366/3 188/367/3 186/365/3

v 78.0173 5 -111.932
vt 3.07155 4.40675
f 187/366/3 189/368/3 188/367/3

v 77.7675 5 -111.329
vt 3.06171 4.38302
f 187/366/3 190/369/3 189/368/3

f 95/158/3 190/369/3 187/366/3

f 95/158/3 96/157/3 190/369/3

vt 4.74515 0.19685
vt 4.71946 0.19685
vn 1 0 -1.35496e-14
v 77.6824 0 -110.682
vt 4.71946 0
v 77.7675 0 -111.329
vt 4.74515 0
f 190/370/22 96/371/49 191/372/49 192/373/22 

vt 3.92107 0.19685
vt 3.89537 0.19685
vt 3.89537 0
vt 3.92107 0
f 96/374/49 98/375/24 164/376/24 191/377/49 

vt -3.06171 4.33207
vt -3.05836 1.79849
vt -3.05836 4.35754
f 164/378/5 102/379/5 191/380/5

vt -3.06171 1.82396
f 102/379/5 164/378/5 100/381/5

vt -3.07155 1.8477
f 100/381/5 164/378/5 101/382/5

vt -3.07155 4.30833
f 101/382/5 164/378/5 163/383/5

vt -3.08719 4.28794
f 101/382/5 163/383/5 165/384/5

v 78.4146 0 -47.4493
vt -3.08719 1.86808
f 101/382/5 165/384/5 193/385/5

v 78.9324 0 -47.8466
vt -3.10757 1.88373
f 193/385/5 165/384/5 194/386/5

vt -3.10757 4.2723
f 194/386/5 165/384/5 166/387/5

vt -3.13131 4.26247
f 194/386/5 166/387/5 167/388/5

v 79.5353 0 -48.0964
vt -3.13131 1.89356
f 194/386/5 167/388/5 195/389/5

vt -3.15679 4.25912
f 195/389/5 167/388/5 168/390/5

v 80.1824 0 -48.1816
vt -3.15679 1.89691
f 195/389/5 168/390/5 196/391/5

vt -3.18226 4.26247
f 196/391/5 168/390/5 169/392/5

v 80.8294 0 -48.0964
vt -3.18226 1.89356
f 196/391/5 169/392/5 197/393/5

v 81.4324 0 -47.8466
vt -3.206 1.88373
f 197/393/5 169/392/5 198/394/5

vt -3.206 4.2723
f 198/394/5 169/392/5 170/395/5

vt -3.22638 4.28794
f 198/394/5 170/395/5 171/396/5

v 81.9501 0 -47.4493
vt -3.22638 1.86808
f 198/394/5 171/396/5 199/397/5

vt -3.24202 4.30833
f 199/397/5 171/396/5 172/398/5

v 82.3474 0 -46.9316
vt -3.24202 1.8477
f 199/397/5 172/398/5 200/399/5

vt -3.25186 4.33207
f 200/399/5 172/398/5 173/400/5

vt -3.25186 1.82396
f 200/399/5 173/400/5 116/401/5

vt -3.25521 4.35754
f 116/401/5 173/400/5 174/402/5

vt -3.25521 1.79849
f 116/401/5 174/402/5 114/403/5

v 82.6824 4.62531e-22 -118.182
vt -3.25521 4.65282
f 114/403/5 174/402/5 201/404/5

vt -3.25186 4.38302
f 176/405/5 201/404/5 174/402/5

v 82.3474 0 -111.932
vt -3.24202 4.40675
f 202/406/5 201/404/5 176/405/5

v 81.9501 0 -112.449
vt -3.22638 4.42714
f 203/407/5 201/404/5 202/406/5

v 81.4324 0 -112.847
vt -3.206 4.44278
f 204/408/5 201/404/5 203/407/5

v 81.3771 4.62531e-22 -118.096
vt -3.20382 4.64945
f 204/408/5 205/409/5 201/404/5

v 80.8294 0 -113.096
vt -3.18226 4.45261
f 206/410/5 205/409/5 204/408/5

v 80.1824 0 -113.182
vt -3.15679 4.45597
f 207/411/5 205/409/5 206/410/5

v 80.0942 4.62531e-22 -117.841
vt -3.15331 4.6394
f 207/411/5 208/412/5 205/409/5

v 79.5353 0 -113.096
vt -3.13131 4.45261
f 209/413/5 208/412/5 207/411/5

v 78.9324 0 -112.847
vt -3.10757 4.44278
f 210/414/5 208/412/5 209/413/5

v 78.8555 4.62531e-22 -117.42
vt -3.10455 4.62285
f 210/414/5 211/415/5 208/412/5

v 78.4146 0 -112.449
vt -3.08719 4.42714
f 212/416/5 211/415/5 210/414/5

v 78.0173 0 -111.932
vt -3.07155 4.40675
f 213/417/5 211/415/5 212/416/5

vt -3.06171 4.38302
f 192/418/5 211/415/5 213/417/5

f 192/418/5 94/152/5 211/415/5

f 191/380/5 94/152/5 192/418/5

f 93/151/5 94/152/5 191/380/5

f 102/379/5 93/151/5 191/380/5

v 77.6824 4.62531e-22 -39.5213
vt -3.05836 1.55596
f 93/151/5 102/379/5 214/419/5

vt -3.06171 1.77301
f 214/419/5 102/379/5 103/420/5

v 78.8555 4.62531e-22 -38.9428
vt -3.10455 1.53318
f 214/419/5 103/420/5 215/421/5

vt -3.07155 1.74927
f 215/421/5 103/420/5 104/422/5

vt -3.08719 1.72889
f 215/421/5 104/422/5 105/423/5

vt -3.10757 1.71325
f 215/421/5 105/423/5 106/424/5

v 80.0942 4.62531e-22 -38.5223
vt -3.15331 1.51663
f 215/421/5 106/424/5 216/425/5

vt -3.13131 1.70342
f 216/425/5 106/424/5 107/426/5

vt -3.15679 1.70006
f 216/425/5 107/426/5 108/427/5

v 81.3771 4.62531e-22 -38.2671
vt -3.20382 1.50658
f 216/425/5 108/427/5 217/428/5

vt -3.18226 1.70342
f 217/428/5 108/427/5 109/429/5

vt -3.206 1.71325
f 217/428/5 109/429/5 110/430/5

v 82.6824 4.62531e-22 -38.1816
vt -3.25521 1.50321
f 217/428/5 110/430/5 218/431/5

vt -3.22638 1.72889
f 218/431/5 110/430/5 111/432/5

vt -3.24202 1.74927
f 218/431/5 111/432/5 112/433/5

vt -3.25186 1.77301
f 218/431/5 112/433/5 113/434/5

f 218/431/5 113/434/5 114/403/5

v 142.682 4.62531e-22 -38.1816
vt -5.61742 1.50321
f 218/431/5 114/403/5 219/435/5

v 142.682 1.40998e-15 -110.682
vt -5.61742 4.35754
f 219/435/5 114/403/5 220/436/5

v 142.682 4.62531e-22 -118.182
vt -5.61742 4.65282
f 114/403/5 221/437/5 220/436/5

f 114/403/5 201/404/5 221/437/5

vt -5.61742 1.82099e-23
vn 0 0 -1
vt -3.25521 1.82099e-23
vt -3.25521 0.19685
v 142.682 5 -118.182
vt -5.61742 0.19685
f 221/438/50 201/439/50 177/440/50 222/441/50 

vt -3.55255 1.82099e-23
vn -0.0654031 0 -0.997859
vt -3.50105 1.82099e-23
vn -0.130526 0 -0.991445
vt -3.50105 0.19685
vt -3.55255 0.19685
f 201/442/51 205/443/52 181/444/52 177/445/51 

vt -4.04932 1.82099e-23
vt -3.99783 1.82099e-23
vt -3.99783 0.19685
vt -4.04932 0.19685
f 205/446/52 208/447/30 184/448/30 181/449/52 

vt -4.47725 1.82099e-23
vt -4.42576 1.82099e-23
vn -0.382683 0 -0.92388
vt -4.42576 0.19685
vt -4.47725 0.19685
f 208/450/30 211/451/53 187/452/53 184/453/30 

vt -4.82902 1.82099e-23
vt -4.77752 1.82099e-23
vt -4.77752 0.19685
vt -4.82902 0.19685
f 211/454/53 94/455/20 95/456/20 187/457/53 

v 89.0256 5 -108.029
vt 3.50495 4.25312
vt 5.61742 4.65282
f 177/355/3 223/458/3 222/459/3

v 88.0204 5 -107.752
vt 3.46537 4.24219
f 177/355/3 224/460/3 223/458/3

v 87.0601 5 -107.345
vt 3.42756 4.22618
f 177/355/3 225/461/3 224/460/3

v 86.161 5 -106.816
vt 3.39216 4.20537
f 177/355/3 226/462/3 225/461/3

v 85.3386 5 -106.175
vt 3.35979 4.18013
f 177/355/3 227/463/3 226/462/3

v 84.6069 5 -105.432
vt 3.33098 4.15087
f 177/355/3 228/464/3 227/463/3

v 83.9785 5 -104.6
vt 3.30624 4.1181
f 177/355/3 229/465/3 228/464/3

v 83.4641 5 -103.693
vt 3.28599 4.08238
f 177/355/3 230/466/3 229/465/3

v 83.0725 5 -102.726
vt 3.27057 4.04433
f 177/355/3 231/467/3 230/466/3

f 177/355/3 142/288/3 231/467/3

f 144/287/3 142/288/3 177/355/3

vt 4.69537 0.19685
vt 4.73642 0.19685
vn 0.949403 1.13245e-18 0.31406
v 83.0725 10 -102.726
vt 4.73642 0.393701
vt 4.69537 0.393701
f 142/468/46 231/469/54 232/470/54 143/471/46 

vt 4.97644 0.19685
vt 5.0175 0.19685
vn 0.900288 -3.03764e-18 0.435295
v 83.4641 10 -103.693
vt 5.0175 0.393701
vt 4.97644 0.393701
f 231/472/54 230/473/55 233/474/55 232/475/54 

vt 5.17202 0.19685
vt 5.21308 0.19685
vn 0.835768 -7.15576e-18 0.549082
v 83.9785 10 -104.6
vt 5.21308 0.393701
vt 5.17202 0.393701
f 230/476/55 229/477/56 234/478/56 233/479/55 

vt 5.27876 0.19685
vt 5.31982 0.19685
vn 0.756949 -1.11514e-17 0.653474
v 84.6069 10 -105.432
vt 5.31982 0.393701
vt 5.27876 0.393701
f 229/480/56 228/481/57 235/482/57 234/483/56 

vt 5.29482 0.19685
vt 5.33588 0.19685
vn 0.665177 -1.49563e-17 0.746685
v 85.3386 10 -106.175
vt 5.33588 0.393701
vt 5.29482 0.393701
f 228/484/57 227/485/58 236/486/58 235/487/57 

vt 5.21993 0.19685
vt 5.26099 0.19685
vn 0.562025 -1.85053e-17 0.82712
v 86.161 10 -106.816
vt 5.26099 0.393701
vt 5.21993 0.393701
f 227/488/58 226/489/59 237/490/59 236/491/58 

vt 5.05538 0.19685
vt 5.09644 0.19685
vn 0.449256 -2.17376e-17 0.893403
v 87.0601 10 -107.345
vt 5.09644 0.393701
vt 5.05538 0.393701
f 226/492/59 225/493/60 238/494/60 237/495/59 

vt 4.80398 0.19685
vt 4.84504 0.19685
vn 0.3288 -2.4598e-17 0.9444
v 88.0204 10 -107.752
vt 4.84504 0.393701
vt 4.80398 0.393701
f 225/496/60 224/497/61 239/498/61 238/499/60 

vt 4.47003 0.19685
vt 4.51109 0.19685
vn 0.202718 -2.70375e-17 0.979237
v 89.0256 10 -108.029
vt 4.51109 0.393701
vt 4.47003 0.393701
f 224/500/61 223/501/62 240/502/62 239/503/61 

vt 4.05924 0.19685
v 90.0585 5 -108.173
vt 4.1003 0.19685
vn 0.0731674 -1.40732e-17 0.99732
v 90.0585 10 -108.173
vt 4.1003 0.393701
vt 4.05924 0.393701
f 223/504/62 241/505/63 242/506/63 240/507/62 

vt 3.54561 4.2588
f 222/459/3 223/458/3 241/508/3

v 91.1014 5 -108.182
vt 3.58667 4.25912
f 222/459/3 241/508/3 243/509/3

vt 3.57865 0.19685
vt 3.61971 0.19685
vn 0.00778291 0 0.99997
v 91.1014 10 -108.182
vt 3.61971 0.393701
vt 3.57865 0.393701
f 241/510/63 243/511/64 244/512/64 242/513/63 

vt 3.58667 0.19685
vn 4.01062e-15 -8.59546e-31 1
v 136.101 5 -108.182
vt 5.35832 0.19685
v 136.101 10 -108.182
vt 5.35832 0.393701
vt 3.58667 0.393701
f 243/514/65 245/515/65 246/516/65 244/517/65 

vt 5.35832 4.25912
f 222/459/3 243/509/3 245/518/3

v 137.016 5 -108.061
vt 5.39435 4.25438
f 222/459/3 245/518/3 247/519/3

vt 4.75791 0.19685
vn -0.130253 0 0.991481
vt 4.79425 0.19685
vn -0.19482 -1.59116e-17 0.980839
v 137.016 10 -108.061
vt 4.79425 0.393701
vt 4.75791 0.393701
f 245/520/66 247/521/67 248/522/67 246/523/66 

vt 4.11094 0.19685
v 137.908 5 -107.823
vt 4.14728 0.19685
vn -0.321178 -3.18817e-17 0.947019
v 137.908 10 -107.823
vt 4.14728 0.393701
vt 4.11094 0.393701
f 247/524/67 249/525/68 250/526/68 248/527/67 

vt 5.42945 4.24499
f 222/459/3 247/519/3 249/528/3

v 138.761 5 -107.47
vt 5.46302 4.23109
f 222/459/3 249/528/3 251/529/3

vt 3.39332 0.19685
vt 3.42966 0.19685
vn -0.442041 -3.17255e-17 0.896995
v 138.761 10 -107.47
vt 3.42966 0.393701
vt 3.39332 0.393701
f 249/530/68 251/531/69 252/532/69 250/533/68 

vt 2.61733 0.19685
v 139.56 5 -107.009
vt 2.65366 0.19685
vn -0.555341 -3.10265e-17 0.831623
v 139.56 10 -107.009
vt 2.65366 0.393701
vt 2.61733 0.393701
f 251/534/69 253/535/70 254/536/70 252/537/69 

vt 5.49449 4.21294
f 222/459/3 251/529/3 253/538/3

v 140.292 5 -106.447
vt 5.52332 4.19082
f 222/459/3 253/538/3 255/539/3

vt 1.79624 0.19685
vt 1.83258 0.19685
vn -0.659139 -2.97966e-17 0.752022
v 140.292 10 -106.447
vt 1.83258 0.393701
vt 1.79624 0.393701
f 253/540/70 255/541/71 256/542/71 254/543/70 

vt 0.944112 0.19685
v 140.945 5 -105.795
vt 0.980446 0.19685
vn -0.751658 -2.80569e-17 0.659553
v 140.945 10 -105.795
vt 0.980446 0.393701
vt 0.944112 0.393701
f 255/544/71 257/545/72 258/546/72 256/547/71 

vt 5.54902 4.16514
f 222/459/3 255/539/3 257/548/3

v 141.507 5 -105.063
vt 5.57115 4.13632
f 222/459/3 257/548/3 259/549/3

vt 0.0755159 0.19685
vt 0.111851 0.19685
vn -0.831316 -2.58371e-17 0.555799
v 141.507 10 -105.063
vt 0.111851 0.393701
vt 0.0755159 0.393701
f 257/550/72 259/551/73 260/552/73 258/553/72 

vt -0.794683 0.19685
v 141.969 5 -104.263
vt -0.758348 0.19685
vn -0.896751 -2.31753e-17 0.442536
v 141.969 10 -104.263
vt -0.758348 0.393701
vt -0.794683 0.393701
f 259/554/73 261/555/74 262/556/74 260/557/73 

vt 5.58933 4.10486
f 222/459/3 259/549/3 261/558/3

v 142.322 5 -103.411
vt 5.60324 4.07129
f 222/459/3 261/558/3 263/559/3

vt -1.6516 0.19685
vt -1.61526 0.19685
vn -0.946842 -2.01169e-17 0.3217
v 142.322 10 -103.411
vt -1.61526 0.393701
vt -1.6516 0.393701
f 261/560/74 263/561/75 264/562/75 262/563/74 

vt -2.48056 0.19685
v 142.561 5 -102.519
vt -2.44422 0.19685
vn -0.980731 -1.67143e-17 0.195361
v 142.561 10 -102.519
vt -2.44422 0.393701
vt -2.48056 0.393701
f 263/564/75 265/565/76 266/566/76 264/567/75 

vt 5.61265 4.0362
f 222/459/3 263/559/3 265/568/3

v 142.682 5 -101.604
vt 5.61741 4.00018
f 222/459/3 265/568/3 267/569/3

vt -3.26739 0.19685
vt -3.23106 0.19685
vn -0.997841 -7.46695e-18 0.0656781
v 142.682 10 -101.604
vt -3.23106 0.393701
vt -3.26739 0.393701
f 265/570/76 267/571/77 268/572/77 266/573/76 

vt -3.99863 0.19685
v 142.682 5 -100.682
vt -3.96229 0.19685
vn -1 3.81706e-30 0.000275608
v 142.682 10 -100.682
vt -3.96229 0.393701
vt -3.99863 0.393701
f 267/574/77 269/575/78 270/576/78 268/577/77 

vt 5.61742 3.96384
v 142.682 5 -110.682
vt 5.61742 4.35754
f 269/578/3 271/579/3 267/569/3

f 271/579/3 269/578/3 26/28/3

f 26/28/3 269/578/3 27/29/3

vt -3.96384 0.19685
vn -1 -6.55969e-31 2.00531e-15
vt -2.19219 0.19685
v 142.682 10 -55.6816
vt -2.19219 0.393701
vt -3.96384 0.393701
f 269/580/79 27/581/79 272/582/79 270/583/79 

vt -2.91218 0.19685
vn -0.991308 -3.42512e-19 -0.131564
vt -2.87071 0.19685
vn -0.98058 -1.64195e-18 -0.196117
v 142.544 10 -54.6374
vt -2.87071 0.393701
vt -2.91218 0.393701
f 27/584/80 29/585/81 273/586/81 272/587/80 

vt -3.53535 0.19685
vt -3.49388 0.19685
vn -0.946593 -8.5095e-19 -0.322431
v 142.27 10 -53.6202
vt -3.49388 0.393701
vt -3.53535 0.393701
f 29/588/81 31/589/82 274/590/82 273/591/81 

vt -4.09839 0.19685
vt -4.05692 0.19685
vn -0.896409 3.31787e-18 -0.443228
v 141.866 10 -52.6474
vt -4.05692 0.393701
vt -4.09839 0.393701
f 31/592/82 32/593/83 275/594/83 274/595/82 

vt -4.59165 0.19685
vt -4.55018 0.19685
vn -0.830887 7.42993e-18 -0.556441
v 141.338 10 -51.7357
vt -4.55018 0.393701
vt -4.59165 0.393701
f 32/596/83 33/597/84 276/598/84 275/599/83 

vt -5.00671 0.19685
vt -4.96524 0.19685
vn -0.751149 1.14149e-17 -0.660133
v 140.696 10 -50.9007
vt -4.96524 0.393701
vt -5.00671 0.393701
f 33/600/84 34/601/85 277/602/85 276/603/84 

vt -5.33645 0.19685
vt -5.29498 0.19685
vn -0.658558 1.52045e-17 -0.75253
v 139.951 10 -50.1566
vt -5.29498 0.393701
vt -5.33645 0.393701
f 34/604/85 35/605/86 278/606/86 277/607/85 

vt -5.57524 0.19685
vt -5.53377 0.19685
vn -0.554699 1.87339e-17 -0.832051
v 139.114 10 -49.5162
vt -5.53377 0.393701
vt -5.57524 0.393701
f 35/608/86 36/609/87 279/610/87 278/611/86 

vt -5.71899 0.19685
vt -5.67752 0.19685
vn -0.441349 2.19429e-17 -0.897335
v 138.201 10 -48.9905
vt -5.67752 0.393701
vt -5.71899 0.393701
f 36/612/87 37/613/88 280/614/88 279/615/87 

vt -5.76524 0.19685
vt -5.72377 0.19685
vn -0.320448 2.47763e-17 -0.947266
v 137.228 10 -48.5884
vt -5.72377 0.393701
vt -5.76524 0.393701
f 37/616/88 38/617/89 281/618/89 280/619/88 

vt -5.71321 0.19685
vt -5.67174 0.19685
vn -0.194063 2.71859e-17 -0.980989
v 136.21 10 -48.3169
vt -5.67174 0.393701
vt -5.71321 0.393701
f 38/620/89 39/621/90 282/622/90 281/623/89 

vt -5.56377 0.19685
vt -5.5223 0.19685
vn -0.064358 1.41395e-17 -0.997927
v 135.166 10 -48.1805
vt -5.5223 0.393701
vt -5.56377 0.393701
f 39/624/90 40/625/91 283/626/91 282/627/90 

vt -5.31949 0.19685
vt -5.27802 0.19685
vn 0.00104729 -2.66504e-33 -0.999999
v 134.112 10 -48.1816
vt -5.27802 0.393701
vt -5.31949 0.393701
f 40/628/91 41/629/92 284/630/92 283/631/91 

vt -5.28001 0.19685
vn -3.00796e-15 1.10271e-31 -1
vt -3.50835 0.19685
v 89.1122 10 -48.1816
vt -3.50835 0.393701
vt -5.28001 0.393701
f 41/632/93 42/633/93 285/634/93 284/635/93 

vt -3.20428 0.19685
vn 0.141649 -6.29762e-31 -0.989917
vt -3.16831 0.19685
vt -3.16831 0.393701
vt -3.20428 0.393701
f 42/636/94 43/637/32 128/638/32 285/639/94 

vt -3.58667 4.25912
vn 1.10855e-17 -1 -2.99057e-17
vt -5.35832 4.25912
vt -5.39435 4.25438
vt -5.42945 4.24499
vt -5.46302 4.23109
vt -5.49449 4.21294
vt -5.52332 4.19082
vt -5.54902 4.16514
vt -5.57115 4.13632
vt -5.58933 4.10486
vt -5.60324 4.07129
vt -5.61265 4.0362
vt -5.61741 4.00018
vt -5.61742 3.96384
vt -5.61742 2.19219
vt -5.61196 2.15108
vt -5.60118 2.11103
vt -5.58527 2.07273
vt -5.5645 2.03684
vt -5.53922 2.00396
vt -5.50986 1.97467
vt -5.47694 1.94946
vt -5.441 1.92876
vt -5.40267 1.91293
vt -5.3626 1.90224
vt -5.32148 1.89687
vt -5.28001 1.89691
vt -3.50835 1.89691
vt -3.47274 1.90201
vt -3.4381 1.91171
vt -3.40502 1.92585
vt -3.37407 1.94418
vt -3.34578 1.9664
vt -3.32063 1.99212
vt -3.29905 2.02091
vt -3.28141 2.05226
vt -3.26802 2.08565
vt -3.2591 2.1205
vt -3.25481 2.15622
vt -3.25521 2.19219
vt -3.25521 3.96384
vt -3.26025 4.00459
vt -3.27057 4.04433
vt -3.28599 4.08238
vt -3.30624 4.1181
vt -3.33098 4.15087
vt -3.35979 4.18013
vt -3.39216 4.20537
vt -3.42756 4.22618
vt -3.46537 4.24219
vt -3.50495 4.25312
vt -3.54561 4.2588
f 244/640/95 246/641/95 248/642/95 250/643/95 252/644/95 254/645/95 256/646/95 258/647/95 260/648/95 262/649/95 264/650/95 266/651/95 268/652/95 270/653/95 272/654/95 273/655/95 274/656/95 275/657/95 276/658/95 277/659/95 278/660/95 279/661/95 280/662/95 281/663/95 282/664/95 283/665/95 284/666/95 285/667/95 128/668/95 127/669/95 129/670/95 130/671/95 131/672/95 132/673/95 133/674/95 134/675/95 135/676/95 136/677/95 137/678/95 139/679/95 141/680/95 143/681/95 232/682/95 233/683/95 234/684/95 235/685/95 236/686/95 237/687/95 238/688/95 239/689/95 240/690/95 242/691/95 

vt 3.58704 0.19685
vn 1 0 -4.50721e-15
vt 3.56135 0.19685
v 142.768 1.40998e-15 -110.035
vt 3.56135 5.55112e-17
vt 3.58704 5.55112e-17
f 271/692/96 26/693/24 286/694/24 220/695/96 

vt 1.85133 0.19685
vt 1.82564 0.19685
v 143.017 1.40998e-15 -109.432
vt 1.82564 5.55112e-17
vt 1.85133 5.55112e-17
f 26/696/24 24/697/25 287/698/25 286/699/24 

vt -0.00966589 0.19685
vt -0.03536 0.19685
v 143.415 1.40998e-15 -108.914
vt -0.03536 5.55112e-17
vt -0.00966589 5.55112e-17
f 24/700/25 22/701/26 288/702/26 287/703/25 

vt -1.86913 0.19685
vt -1.89483 0.19685
v 143.932 1.40998e-15 -108.517
vt -1.89483 5.55112e-17
vt -1.86913 5.55112e-17
f 22/704/26 20/705/27 289/706/27 288/707/26 

vt -3.60034 0.19685
vt -3.62604 0.19685
v 144.535 1.40998e-15 -108.267
vt -3.62604 5.55112e-17
vt -3.60034 5.55112e-17
f 20/708/27 18/709/28 290/710/28 289/711/27 

vt -5.08532 0.19685
vt -5.11101 0.19685
vn 1.35356e-14 0 -1
v 145.182 1.40998e-15 -108.182
vt -5.11101 5.55112e-17
vt -5.08532 5.55112e-17
f 18/712/28 16/713/97 291/714/97 290/715/28 

vt -6.22287 0.19685
vt -6.24856 0.19685
v 145.829 1.40998e-15 -108.267
vt -6.24856 5.55112e-17
vt -6.22287 5.55112e-17
f 16/716/97 14/717/30 292/718/30 291/719/97 

vt -6.93546 0.19685
vt -6.96115 0.19685
v 146.432 1.40998e-15 -108.517
vt -6.96115 5.55112e-17
vt -6.93546 5.55112e-17
f 14/720/30 12/721/20 293/722/20 292/723/30 

vt -7.17454 0.19685
vt -7.20023 0.19685
v 146.95 1.40998e-15 -108.914
vt -7.20023 5.55112e-17
vt -7.17454 5.55112e-17
f 12/724/20 10/725/16 294/726/16 293/727/20 

vt -6.92381 0.19685
vt -6.9495 0.19685
v 147.347 1.40998e-15 -109.432
vt -6.9495 5.55112e-17
vt -6.92381 5.55112e-17
f 10/728/16 8/729/12 295/730/12 294/731/16 

vt -6.20035 0.19685
vt -6.22605 0.19685
v 147.597 1.40998e-15 -110.035
vt -6.22605 5.55112e-17
vt -6.20035 5.55112e-17
f 8/732/12 6/733/6 296/734/6 295/735/12 

vt -5.05348 0.19685
vt -5.07918 0.19685
vn -1 0 -4.5212e-15
v 147.682 1.40998e-15 -110.682
vt -5.07918 5.55112e-17
vt -5.05348 5.55112e-17
f 6/736/6 5/737/98 297/738/98 296/739/6 

vt -3.56135 0.19685
v 147.597 5 -111.329
vt -3.58704 0.19685
v 147.597 1.40998e-15 -111.329
vt -3.58704 5.55112e-17
vt -3.56135 5.55112e-17
f 5/740/98 298/741/2 299/742/2 297/743/98 

v 147.682 5 -116.842
vt 5.81427 4.60007
vt 5.81091 4.38302
f 300/744/3 298/745/3 5/5/3

v 147.347 5 -111.932
vt 5.80108 4.40675
f 300/744/3 301/746/3 298/745/3

v 146.95 5 -112.449
vt 5.78544 4.42714
f 300/744/3 302/747/3 301/746/3

v 146.509 5 -117.42
vt 5.76808 4.62285
f 303/748/3 302/747/3 300/744/3

v 146.432 5 -112.847
vt 5.76505 4.44278
f 303/748/3 304/749/3 302/747/3

v 145.829 5 -113.096
vt 5.74132 4.45261
f 303/748/3 305/750/3 304/749/3

v 145.271 5 -117.841
vt 5.71931 4.6394
f 306/751/3 305/750/3 303/748/3

v 145.182 5 -113.182
vt 5.71584 4.45597
f 306/751/3 307/752/3 305/750/3

v 144.535 5 -113.096
vt 5.69037 4.45261
f 306/751/3 308/753/3 307/752/3

v 143.988 5 -118.096
vt 5.6688 4.64945
f 309/754/3 308/753/3 306/751/3

v 143.932 5 -112.847
vt 5.66663 4.44278
f 309/754/3 310/755/3 308/753/3

v 143.415 5 -112.449
vt 5.64624 4.42714
f 309/754/3 311/756/3 310/755/3

v 143.017 5 -111.932
vt 5.6306 4.40675
f 309/754/3 312/757/3 311/756/3

v 142.768 5 -111.329
vt 5.62077 4.38302
f 309/754/3 313/758/3 312/757/3

f 222/459/3 313/758/3 309/754/3

f 222/459/3 271/579/3 313/758/3

f 222/459/3 267/569/3 271/579/3

vt 5.07918 0.19685
vt 5.05348 0.19685
vt 5.05348 5.55112e-17
v 142.768 1.40998e-15 -111.329
vt 5.07918 5.55112e-17
f 313/759/22 271/760/96 220/761/96 314/762/22 

vt -5.62077 4.38302
f 220/436/5 221/437/5 314/763/5

v 143.988 4.62531e-22 -118.096
vt -5.6688 4.64945
f 314/763/5 221/437/5 315/764/5

vt -5.35258 1.82099e-23
vn 0.130526 0 -0.991445
vt -5.30108 1.82099e-23
vn 0.0654031 0 -0.997859
vt -5.30108 0.19685
vt -5.35258 0.19685
f 315/765/99 221/766/100 222/767/100 309/768/99 

v 145.271 4.62531e-22 -117.841
vt -4.70432 1.82099e-23
vt -4.65282 1.82099e-23
vt -4.65282 0.19685
vt -4.70432 0.19685
f 316/769/28 315/770/99 309/771/99 306/772/28 

v 144.535 1.40998e-15 -113.096
vt -5.69037 4.45261
vt -5.71931 4.6394
f 317/773/5 315/764/5 316/774/5

v 143.932 1.40998e-15 -112.847
vt -5.66663 4.44278
f 318/775/5 315/764/5 317/773/5

v 143.415 1.40998e-15 -112.449
vt -5.64624 4.42714
f 319/776/5 315/764/5 318/775/5

v 143.017 1.40998e-15 -111.932
vt -5.6306 4.40675
f 320/777/5 315/764/5 319/776/5

f 314/763/5 315/764/5 320/777/5

vt 6.22605 0.19685
vt 6.20035 0.19685
vt 6.20035 5.55112e-17
vt 6.22605 5.55112e-17
f 312/778/21 313/779/22 314/780/22 320/781/21 

vt 6.9495 0.19685
vn 0.707107 0 0.707107
vt 6.92381 0.19685
vt 6.92381 5.55112e-17
vt 6.9495 5.55112e-17
f 311/782/101 312/783/21 320/784/21 319/785/101 

vt 7.20023 0.19685
vn 0.5 0 0.866025
vt 7.17454 0.19685
vt 7.17454 5.55112e-17
vt 7.20023 5.55112e-17
f 310/786/102 311/787/101 319/788/101 318/789/102 

vt 6.96115 0.19685
vn 0.258819 0 0.965926
vt 6.93546 0.19685
vt 6.93546 5.55112e-17
vt 6.96115 5.55112e-17
f 308/790/103 310/791/102 318/792/102 317/793/103 

vt 6.24856 0.19685
vn 1.35356e-14 0 1
vt 6.22287 0.19685
vt 6.22287 5.55112e-17
v 145.182 1.40998e-15 -113.182
vt 6.24856 5.55112e-17
f 307/794/104 308/795/103 317/796/103 321/797/104 

vt -5.71584 4.45597
f 317/773/5 316/774/5 321/798/5

v 145.829 1.40998e-15 -113.096
vt -5.74132 4.45261
f 321/798/5 316/774/5 322/799/5

v 146.509 4.62531e-22 -117.42
vt -5.76808 4.62285
f 322/799/5 316/774/5 323/800/5

vt -3.976 1.82099e-23
vn 0.382683 0 -0.92388
vt -3.9245 1.82099e-23
vt -3.9245 0.19685
vt -3.976 0.19685
f 323/801/105 316/802/28 306/803/28 303/804/105 

v 147.682 4.62531e-22 -116.842
vt -3.1801 1.82099e-23
vt -3.1286 1.82099e-23
vt -3.1286 0.19685
vt -3.1801 0.19685
f 324/805/27 323/806/105 303/807/105 300/808/27 

v 146.95 1.40998e-15 -112.449
vt -5.78544 4.42714
vt -5.81427 4.60007
f 325/809/5 323/800/5 324/810/5

v 146.432 1.40998e-15 -112.847
vt -5.76505 4.44278
f 326/811/5 323/800/5 325/809/5

f 322/799/5 323/800/5 326/811/5

vt 3.62604 0.19685
vn -0.5 0 0.866025
vt 3.60034 0.19685
vn -0.258819 0 0.965926
vt 3.60034 5.55112e-17
vt 3.62604 5.55112e-17
f 304/812/106 305/813/107 322/814/107 326/815/106 

vt 5.11101 0.19685
vt 5.08532 0.19685
vt 5.08532 5.55112e-17
vt 5.11101 5.55112e-17
f 305/816/107 307/817/104 321/818/104 322/819/107 

vt 1.89483 0.19685
vt 1.86913 0.19685
vt 1.86913 5.55112e-17
vt 1.89483 5.55112e-17
f 302/820/18 304/821/106 326/822/106 325/823/18 

vt 0.03536 0.19685
vt 0.00966589 0.19685
vt 0.00966589 5.55112e-17
v 147.347 1.40998e-15 -111.932
vt 0.03536 5.55112e-17
f 301/824/14 302/825/18 325/826/18 327/827/14 

vt -5.80108 4.40675
f 325/809/5 324/810/5 327/828/5

vt -5.81091 4.38302
f 327/828/5 324/810/5 299/829/5

vt -5.81427 4.35754
f 299/829/5 324/810/5 297/830/5

vt -5.81427 1.79849
f 4/831/5 297/830/5 324/810/5

vt -5.81091 1.82396
f 3/832/5 297/830/5 4/831/5

vt -5.81091 4.33207
f 3/832/5 296/833/5 297/830/5

v 147.347 0 -46.9316
vt -5.80108 1.8477
f 328/834/5 296/833/5 3/832/5

vt -5.80108 4.30833
f 328/834/5 295/835/5 296/833/5

v 146.95 0 -47.4493
vt -5.78544 1.86808
f 329/836/5 295/835/5 328/834/5

vt -5.78544 4.28794
f 329/836/5 294/837/5 295/835/5

v 146.432 0 -47.8466
vt -5.76505 1.88373
f 330/838/5 294/837/5 329/836/5

vt -5.76505 4.2723
f 330/838/5 293/839/5 294/837/5

v 145.829 0 -48.0964
vt -5.74132 1.89356
f 331/840/5 293/839/5 330/838/5

vt -5.74132 4.26247
f 331/840/5 292/841/5 293/839/5

v 145.182 0 -48.1816
vt -5.71584 1.89691
f 332/842/5 292/841/5 331/840/5

vt -5.71584 4.25912
f 332/842/5 291/843/5 292/841/5

v 144.535 0 -48.0964
vt -5.69037 1.89356
f 333/844/5 291/843/5 332/842/5

vt -5.69037 4.26247
f 333/844/5 290/845/5 291/843/5

v 143.932 0 -47.8466
vt -5.66663 1.88373
f 334/846/5 290/845/5 333/844/5

vt -5.66663 4.2723
f 334/846/5 289/847/5 290/845/5

v 143.415 0 -47.4493
vt -5.64624 1.86808
f 335/848/5 289/847/5 334/846/5

vt -5.64624 4.28794
f 335/848/5 288/849/5 289/847/5

v 143.017 0 -46.9316
vt -5.6306 1.8477
f 336/850/5 288/849/5 335/848/5

vt -5.6306 4.30833
f 336/850/5 287/851/5 288/849/5

v 142.768 0 -46.3286
vt -5.62077 1.82396
f 337/852/5 287/851/5 336/850/5

vt -5.62077 4.33207
f 337/852/5 286/853/5 287/851/5

v 142.682 0 -45.6816
vt -5.61742 1.79849
f 338/854/5 286/853/5 337/852/5

f 286/853/5 338/854/5 220/436/5

f 219/435/5 220/436/5 338/854/5

v 142.768 0 -45.0345
vt -5.62077 1.77301
f 219/435/5 338/854/5 339/855/5

vt 1.04988 0.19685
vn 1 0 1.80428e-14
v 142.768 5 -45.0345
vt 1.02419 0.19685
vt 1.02419 0
vt 1.04988 0
f 28/856/108 340/857/24 339/858/24 338/859/108 

vt 5.62077 1.77301
f 30/32/3 340/860/3 28/30/3

v 143.988 5 -38.2671
vt 5.6688 1.50658
f 340/860/3 30/32/3 341/861/3

vt 5.7037 1.82099e-23
vn 0.0654031 0 0.997859
v 143.988 4.62531e-22 -38.2671
vt 5.7552 1.82099e-23
vn 0.130526 0 0.991445
vt 5.7552 0.19685
vt 5.7037 0.19685
f 219/862/109 342/863/110 341/864/110 30/865/109 

vt -5.6688 1.50658
f 219/435/5 339/855/5 342/866/5

v 143.017 0 -44.4316
vt -5.6306 1.74927
f 342/866/5 339/855/5 343/867/5

vt -0.512925 0.19685
v 143.017 5 -44.4316
vt -0.538619 0.19685
vt -0.538619 0
vt -0.512925 0
f 340/868/24 344/869/25 343/870/25 339/871/24 

vt 5.6306 1.74927
f 340/860/3 341/861/3 344/872/3

v 143.415 5 -43.9138
vt 5.64624 1.72889
f 344/872/3 341/861/3 345/873/3

v 143.932 5 -43.5165
vt 5.66663 1.71325
f 345/873/3 341/861/3 346/874/3

v 144.535 5 -43.2668
vt 5.69037 1.70342
f 346/874/3 341/861/3 347/875/3

v 145.271 5 -38.5223
vt 5.71931 1.51663
f 347/875/3 341/861/3 348/876/3

vt 5.8538 1.82099e-23
v 145.271 4.62531e-22 -38.5223
vt 5.9053 1.82099e-23
vt 5.9053 0.19685
vt 5.8538 0.19685
f 342/877/110 349/878/103 348/879/103 341/880/110 

v 144.535 0 -43.2668
vt -5.69037 1.70342
vt -5.71931 1.51663
f 342/866/5 350/881/5 349/882/5

v 143.932 0 -43.5165
vt -5.66663 1.71325
f 342/866/5 351/883/5 350/881/5

v 143.415 0 -43.9138
vt -5.64624 1.72889
f 342/866/5 352/884/5 351/883/5

f 342/866/5 343/867/5 352/884/5

vt -2.0399 0.19685
vt -2.06559 0.19685
vt -2.06559 0
vt -2.0399 0
f 344/885/25 345/886/26 352/887/26 343/888/25 

vt -3.42698 0.19685
vt -3.45268 0.19685
vt -3.45268 0
vt -3.42698 0
f 345/889/26 346/890/27 351/891/27 352/892/26 

vt -4.57965 0.19685
vt -4.60534 0.19685
vt -4.60534 0
vt -4.57965 0
f 346/893/27 347/894/28 350/895/28 351/896/27 

vt -5.41934 0.19685
v 145.182 5 -43.1816
vt -5.44504 0.19685
vn -4.50721e-15 0 -1
v 145.182 0 -43.1816
vt -5.44504 0
vt -5.41934 0
f 347/897/28 353/898/111 354/899/111 350/900/28 

vt 5.71584 1.70006
f 347/875/3 348/876/3 353/901/3

v 145.829 5 -43.2668
vt 5.74132 1.70342
f 353/901/3 348/876/3 355/902/3

v 146.509 5 -38.9428
vt 5.76808 1.53318
f 355/902/3 348/876/3 356/903/3

vt 5.90329 1.82099e-23
v 146.509 4.62531e-22 -38.9428
vt 5.95479 1.82099e-23
vn 0.382683 0 0.92388
vt 5.95479 0.19685
vt 5.90329 0.19685
f 349/904/103 357/905/112 356/906/112 348/907/103 

v 145.829 0 -43.2668
vt -5.74132 1.70342
vt -5.76808 1.53318
f 349/882/5 358/908/5 357/909/5

vt -5.71584 1.70006
f 349/882/5 354/910/5 358/908/5

f 349/882/5 350/881/5 354/910/5

vt -5.88884 0.19685
vt -5.91454 0.19685
vt -5.91454 0
vt -5.88884 0
f 353/911/111 355/912/30 358/913/30 354/914/111 

vt -5.95615 0.19685
v 146.432 5 -43.5165
vt -5.98185 0.19685
v 146.432 0 -43.5165
vt -5.98185 0
vt -5.95615 0
f 355/915/30 359/916/20 360/917/20 358/918/30 

vt 5.76505 1.71325
f 355/902/3 356/903/3 359/919/3

v 146.95 5 -43.9138
vt 5.78544 1.72889
f 359/919/3 356/903/3 361/920/3

v 147.682 5 -39.5213
vt 5.81427 1.55596
f 361/920/3 356/903/3 362/921/3

vt 5.85134 1.82099e-23
v 147.682 4.62531e-22 -39.5213
vt 5.90284 1.82099e-23
vt 5.90284 0.19685
vt 5.85134 0.19685
f 357/922/112 363/923/102 362/924/102 356/925/112 

v 146.95 0 -43.9138
vt -5.78544 1.72889
vt -5.81427 1.55596
f 357/909/5 364/926/5 363/927/5

vt -5.76505 1.71325
f 357/909/5 360/928/5 364/926/5

f 357/909/5 358/908/5 360/928/5

vt -5.61668 0.19685
vt -5.64238 0.19685
vt -5.64238 0
vt -5.61668 0
f 359/929/20 361/930/16 364/931/16 360/932/20 

vt -4.89357 0.19685
v 147.347 5 -44.4316
vt -4.91927 0.19685
v 147.347 0 -44.4316
vt -4.91927 0
vt -4.89357 0
f 361/933/16 365/934/12 366/935/12 364/936/16 

vt 5.80108 1.74927
f 361/920/3 362/921/3 365/937/3

v 147.597 5 -45.0345
vt 5.81091 1.77301
f 365/937/3 362/921/3 367/938/3

f 367/938/3 362/921/3 1/7/3

v 148.77 5 -40.248
vt 5.85709 1.58457
f 1/7/3 362/921/3 368/939/3

vt 5.69883 1.82099e-23
v 148.77 4.62531e-22 -40.248
vt 5.75033 1.82099e-23
vn 0.608761 0 0.793353
vt 5.75033 0.19685
vt 5.69883 0.19685
f 363/940/102 369/941/113 368/942/113 362/943/102 

vt -5.85709 1.58457
f 363/927/5 4/831/5 369/944/5

v 147.597 0 -45.0345
vt -5.81091 1.77301
f 363/927/5 370/945/5 4/831/5

vt -5.80108 1.74927
f 363/927/5 366/946/5 370/945/5

f 363/927/5 364/926/5 366/946/5

vt -3.8361 0.19685
vt -3.86179 0.19685
vt -3.86179 0
vt -3.8361 0
f 365/947/12 367/948/6 370/949/6 366/950/12 

vt -2.51632 0.19685
vt -2.54201 0.19685
vt -2.54201 0
vt -2.51632 0
f 367/951/6 1/952/1 4/953/1 370/954/6 

v 148.77 4.62531e-22 -116.115
vt -5.85709 4.57146
f 369/944/5 4/831/5 371/955/5

f 4/831/5 324/810/5 371/955/5

vt -2.33022 1.82099e-23
vn 0.608761 0 -0.793353
vt -2.27872 1.82099e-23
vt -2.27872 0.19685
v 148.77 5 -116.115
vt -2.33022 0.19685
f 371/956/114 324/957/27 300/958/27 372/959/114 

vt 5.85709 4.57146
f 300/744/3 1/7/3 372/960/3

f 5/5/3 1/7/3 300/744/3

f 372/960/3 1/7/3 368/939/3

v 149.753 5 -41.1105
vt 5.8958 1.61852
f 372/960/3 368/939/3 373/961/3

vt 5.44837 1.82099e-23
v 149.753 4.62531e-22 -41.1105
vt 5.49987 1.82099e-23
vt 5.49987 0.19685
vt 5.44837 0.19685
f 369/962/113 374/963/101 373/964/101 368/965/113 

v 149.753 4.62531e-22 -115.253
vt -5.8958 4.53751
vt -5.8958 1.61852
f 369/944/5 375/966/5 374/967/5

f 369/944/5 371/955/5 375/966/5

vt -1.44092 1.82099e-23
vt -1.38942 1.82099e-23
vt -1.38942 0.19685
v 149.753 5 -115.253
vt -1.44092 0.19685
f 375/968/26 371/969/114 372/970/114 376/971/26 

vt 5.8958 4.53751
f 372/960/3 373/961/3 376/972/3

v 150.616 5 -114.269
vt 5.92976 4.49879
f 376/972/3 373/961/3 377/973/3

v 150.616 5 -42.094
vt 5.92976 1.65724
f 377/973/3 373/961/3 378/974/3

vt 5.10424 1.82099e-23
v 150.616 4.62531e-22 -42.094
vt 5.15574 1.82099e-23
vn 0.793353 0 0.608761
vt 5.15574 0.19685
vt 5.10424 0.19685
f 374/975/101 379/976/115 378/977/115 373/978/101 

v 150.616 4.62531e-22 -114.269
vt -5.92976 4.49879
vt -5.92976 1.65724
f 374/967/5 380/979/5 379/980/5

f 374/967/5 375/966/5 380/979/5

vt -0.527395 1.82099e-23
vn 0.793353 0 -0.608761
vt -0.475897 1.82099e-23
vt -0.475897 0.19685
vt -0.527395 0.19685
f 380/981/116 375/982/26 376/983/26 377/984/116 

v 151.343 4.62531e-22 -113.182
vt 0.394708 1.82099e-23
vt 0.446207 1.82099e-23
vt 0.446207 0.19685
v 151.343 5 -113.182
vt 0.394708 0.19685
f 381/985/25 380/986/116 377/987/116 382/988/25 

vt -5.95837 4.45597
f 379/980/5 380/979/5 381/989/5

v 151.343 4.62531e-22 -43.1816
vt -5.95837 1.70006
f 379/980/5 381/989/5 383/990/5

v 151.921 4.62531e-22 -112.008
vt -5.98115 4.40978
f 383/990/5 381/989/5 384/991/5

vt 1.30962 1.82099e-23
vn 0.92388 0 -0.382683
vt 1.36112 1.82099e-23
vt 1.36112 0.19685
v 151.921 5 -112.008
vt 1.30962 0.19685
f 384/992/117 381/993/25 382/994/25 385/995/117 

vt 5.95837 4.45597
v 151.921 5 -44.3547
vt 5.98115 1.74625
vt 5.98115 4.40978
f 382/996/3 386/997/3 385/998/3

v 151.343 5 -43.1816
vt 5.95837 1.70006
f 382/996/3 387/999/3 386/997/3

f 377/973/3 387/999/3 382/996/3

f 377/973/3 378/974/3 387/999/3

vt 4.67234 1.82099e-23
vt 4.72384 1.82099e-23
vt 4.72384 0.19685
vt 4.67234 0.19685
f 379/1000/115 383/1001/21 387/1002/21 378/1003/115 

vt 4.16006 1.82099e-23
v 151.921 4.62531e-22 -44.3547
vt 4.21156 1.82099e-23
vn 0.92388 0 0.382683
vt 4.21156 0.19685
vt 4.16006 0.19685
f 383/1004/21 388/1005/118 386/1006/118 387/1007/21 

vt -5.98115 1.74625
f 383/990/5 384/991/5 388/1008/5

v 152.342 4.62531e-22 -110.77
vt -5.9977 4.36101
f 388/1008/5 384/991/5 389/1009/5

vt 2.20168 1.82099e-23
vt 2.25318 1.82099e-23
vt 2.25318 0.19685
v 152.342 5 -110.77
vt 2.20168 0.19685
f 389/1010/24 384/1011/117 385/1012/117 390/1013/24 

v 152.342 5 -45.5934
vt 5.9977 1.79501
vt 5.9977 4.36101
f 385/998/3 391/1014/3 390/1015/3

f 385/998/3 386/997/3 391/1014/3

vt 3.57615 1.82099e-23
v 152.342 4.62531e-22 -45.5934
vt 3.62765 1.82099e-23
vt 3.62765 0.19685
vt 3.57615 0.19685
f 388/1016/118 392/1017/22 391/1018/22 386/1019/118 

vt -5.9977 1.79501
f 388/1008/5 389/1009/5 392/1020/5

v 152.597 4.62531e-22 -109.487
vt -6.00775 4.31051
f 392/1020/5 389/1009/5 393/1021/5

vt 3.05563 1.82099e-23
vn 0.991445 0 -0.130526
vt 3.10712 1.82099e-23
vt 3.10712 0.19685
v 152.597 5 -109.487
vt 3.05563 0.19685
f 393/1022/119 389/1023/24 390/1024/24 394/1025/119 

v 152.597 5 -46.8763
vt 6.00775 1.84552
vt 6.00775 4.31051
f 390/1015/3 395/1026/3 394/1027/3

f 390/1015/3 391/1014/3 395/1026/3

vt 2.93062 1.82099e-23
v 152.597 4.62531e-22 -46.8763
vt 2.98212 1.82099e-23
vn 0.991445 0 0.130526
vt 2.98212 0.19685
vt 2.93062 0.19685
f 392/1028/22 396/1029/120 395/1030/120 391/1031/22 

vt -6.00775 1.84552
f 392/1020/5 393/1021/5 396/1032/5

v 152.682 4.62531e-22 -108.182
vt -6.01112 4.25912
f 396/1032/5 393/1021/5 397/1033/5

vt 3.85685 1.82099e-23
vn 0.997859 0 -0.0654031
vt 3.90835 1.82099e-23
vt 3.90835 0.19685
v 152.682 5 -108.182
vt 3.85685 0.19685
f 397/1034/121 393/1035/119 394/1036/119 398/1037/121 

v 152.682 5 -48.1816
vt 6.01112 1.89691
vt 6.01112 4.25912
f 394/1027/3 399/1038/3 398/1039/3

f 394/1027/3 395/1026/3 399/1038/3

vt 2.2345 1.82099e-23
v 152.682 4.62531e-22 -48.1816
vt 2.286 1.82099e-23
vn 0.997859 0 0.0654031
vt 2.286 0.19685
vt 2.2345 0.19685
f 396/1040/120 400/1041/122 399/1042/122 395/1043/120 

vt -6.01112 1.89691
f 396/1032/5 397/1033/5 400/1044/5

vt 1.89691 1.82099e-23
vn 1 0 -0
vt 4.25912 1.82099e-23
vt 4.25912 0.19685
vt 1.89691 0.19685
f 400/1045/123 397/1046/123 398/1047/123 399/1048/123 

vt 3.25521 1.82099e-23
vn 0 0 1
vt 5.61742 1.82099e-23
vt 5.61742 0.19685
vt 3.25521 0.19685
f 218/1049/124 219/1050/124 30/1051/124 45/1052/124 

vt 3.09843 1.82099e-23
vn -0.130526 0 0.991445
vt 3.14993 1.82099e-23
vn -0.0654031 0 0.997859
vt 3.14993 0.19685
vt 3.09843 0.19685
f 217/1053/125 218/1054/126 45/1055/126 50/1056/125 

vt 2.79684 1.82099e-23
vt 2.84834 1.82099e-23
vt 2.84834 0.19685
vt 2.79684 0.19685
f 216/1057/107 217/1058/125 50/1059/125 53/1060/107 

vt 2.44697 1.82099e-23
vn -0.382683 0 0.92388
vt 2.49846 1.82099e-23
vt 2.49846 0.19685
vt 2.44697 0.19685
f 215/1061/127 216/1062/107 53/1063/107 56/1064/127 

vt 2.05478 1.82099e-23
vt 2.10628 1.82099e-23
vt 2.10628 0.19685
vt 2.05478 0.19685
f 214/1065/106 215/1066/127 56/1067/127 60/1068/106 

vt 1.62699 1.82099e-23
vt 1.67849 1.82099e-23
vt 1.67849 0.19685
vt 1.62699 0.19685
f 93/1069/19 214/1070/106 60/1071/106 63/1072/19 

vt 2.54201 0.19685
vt 2.51632 0.19685
vt 2.51632 0
vt 2.54201 0
f 25/1073/22 28/1074/108 338/1075/108 337/1076/22 

vt 3.86179 0.19685
vt 3.8361 0.19685
vt 3.8361 0
vt 3.86179 0
f 23/1077/21 25/1078/22 337/1079/22 336/1080/21 

vt 4.91927 0.19685
vt 4.89357 0.19685
vt 4.89357 0
vt 4.91927 0
f 21/1081/101 23/1082/21 336/1083/21 335/1084/101 

vt 5.64238 0.19685
vt 5.61668 0.19685
vt 5.61668 0
vt 5.64238 0
f 19/1085/102 21/1086/101 335/1087/101 334/1088/102 

vt 5.98185 0.19685
vt 5.95615 0.19685
vt 5.95615 0
vt 5.98185 0
f 17/1089/103 19/1090/102 334/1091/102 333/1092/103 

vt 5.91454 0.19685
vn -4.50721e-15 0 1
vt 5.88884 0.19685
vt 5.88884 0
vt 5.91454 0
f 15/1093/128 17/1094/103 333/1095/103 332/1096/128 

vt 5.44504 0.19685
vt 5.41934 0.19685
vt 5.41934 0
vt 5.44504 0
f 13/1097/107 15/1098/128 332/1099/128 331/1100/107 

vt 4.60534 0.19685
vt 4.57965 0.19685
vt 4.57965 0
vt 4.60534 0
f 11/1101/106 13/1102/107 331/1103/107 330/1104/106 

vt 3.45268 0.19685
vt 3.42698 0.19685
vt 3.42698 0
vt 3.45268 0
f 9/1105/18 11/1106/106 330/1107/106 329/1108/18 

vt 2.06559 0.19685
vt 2.0399 0.19685
vt 2.0399 0
vt 2.06559 0
f 7/1109/14 9/1110/18 329/1111/18 328/1112/14 

vt 0.538619 0.19685
vt 0.512925 0.19685
vt 0.512925 0
vt 0.538619 0
f 2/1113/2 7/1114/14 328/1115/14 3/1116/2 

vt -1.82564 0.19685
vt -1.85133 0.19685
vt -1.85133 5.55112e-17
vt -1.82564 5.55112e-17
f 298/1117/2 301/1118/14 327/1119/14 299/1120/2 

vt 5.24674 0.19685
vt 5.22105 0.19685
vt 5.22105 0
vt 5.24674 0
f 189/1121/21 190/1122/22 192/1123/22 213/1124/21 

vt 5.39165 0.19685
vt 5.36595 0.19685
vt 5.36595 0
vt 5.39165 0
f 188/1125/101 189/1126/21 213/1127/21 212/1128/101 

vt 5.17 0.19685
vt 5.1443 0.19685
vt 5.1443 0
vt 5.17 0
f 186/1129/102 188/1130/101 212/1131/101 210/1132/102 

vt 4.5969 0.19685
vt 4.5712 0.19685
vt 4.5712 0
vt 4.5969 0
f 185/1133/103 186/1134/102 210/1135/102 209/1136/103 

vt 3.7114 0.19685
vn 1.80568e-14 0 1
vt 3.68571 0.19685
vt 3.68571 0
vt 3.7114 0
f 183/1137/129 185/1138/103 209/1139/103 207/1140/129 

vt 2.57385 0.19685
vt 2.54816 0.19685
vt 2.54816 0
vt 2.57385 0
f 182/1141/107 183/1142/129 207/1143/129 206/1144/107 

vt 1.26178 0.19685
vt 1.23608 0.19685
vt 1.23608 0
vt 1.26178 0
f 180/1145/106 182/1146/107 206/1147/107 204/1148/106 

vt -0.13541 0.19685
vt -0.161104 0.19685
vt -0.161104 0
vt -0.13541 0
f 179/1149/18 180/1150/106 204/1151/106 203/1152/18 

vt -1.52249 0.19685
vt -1.54819 0.19685
vt -1.54819 0
vt -1.52249 0
f 178/1153/14 179/1154/18 203/1155/18 202/1156/14 

vt -2.80495 0.19685
vt -2.83064 0.19685
vt -2.83064 0
vt -2.80495 0
f 175/1157/2 178/1158/14 202/1159/14 176/1160/2 

vt -0.440689 0.19685
vt -0.466383 0.19685
vt -0.466383 0
vt -0.440689 0
f 115/1161/2 146/1162/14 200/1163/14 116/1164/2 

vt 0.507741 0.19685
vt 0.482047 0.19685
vt 0.482047 0
vt 0.507741 0
f 146/1165/14 148/1166/18 199/1167/18 200/1168/14 

vt 1.42244 0.19685
vt 1.39675 0.19685
vt 1.39675 0
vt 1.42244 0
f 148/1169/18 151/1170/106 198/1171/106 199/1172/18 

vt 2.24109 0.19685
vt 2.21539 0.19685
vt 2.21539 0
vt 2.24109 0
f 151/1173/106 153/1174/107 197/1175/107 198/1176/106 

vt 2.90788 0.19685
vt 2.88218 0.19685
vn 2.23961e-15 0 1
vt 2.88218 0
vt 2.90788 0
f 153/1177/107 154/1178/130 196/1179/130 197/1180/107 

vt 3.37738 0.19685
vt 3.35168 0.19685
vt 3.35168 0
vt 3.37738 0
f 154/1181/130 157/1182/103 195/1183/103 196/1184/130 

vt 3.61759 0.19685
vt 3.59189 0.19685
vt 3.59189 0
vt 3.61759 0
f 157/1185/103 159/1186/102 194/1187/102 195/1188/103 

vt 3.61214 0.19685
vt 3.58645 0.19685
vt 3.58645 0
vt 3.61214 0
f 159/1189/102 161/1190/101 193/1191/101 194/1192/102 

vt 3.36141 0.19685
vt 3.33572 0.19685
vt 3.33572 0
vt 3.36141 0
f 161/1193/101 99/1194/21 101/1195/21 193/1196/101 

vt -1.7057 1.82099e-23
vn -0.997859 0 0.0654031
vt -1.6542 1.82099e-23
vt -1.6542 0.19685
vt -1.7057 0.19685
f 79/1197/131 81/1198/10 75/1199/10 77/1200/131 

